Unnamed: 0,   ,ACCT_NO,SOL_ID,TRAN_CRNCY_CODE,TRAN_DATE,TRAN_ID,TRAN_PARTICULAR,TRAN_AMT,PART_TRAN_TYPE,DEL_FLG,TRAN_AMT_1,ref_no,LINK_ID,PROPER1 Match
120,121,10200001182550,2550,INR,2019-06-14,    DG104,NEFT/190614I219197907/GYANGURU ENTERPRISES,1200000.0,D,N,-1200000.0,190614I219197907,,UNMATCHED
130,131,10200001182550,2550,INR,2019-06-14,    DG101,NEFT/190614I219193837/CHANDRA ENTERPRISES,3600000.0,D,N,-3600000.0,190614I219193837,,UNMATCHED
