ATM_ID,Sol,Location,Zone,Circle,State,ON/OFF
B0008101,0008,Amalapur,KAKINADA,VISAKHAPATNAM,ANDHRA PRADESH,ON
B0033101,0033,BALAJI NAGAR TIRUPATI,TIRUPATHI,BANGALORE,ANDHRA PRADESH,ON
B0053101,0053,BUDHAWARPET,KURNOOL,HYDERABAD,ANDHRA PRADESH,ON
B0081101,0081,Chittoor,TIRUPATHI,BANGALORE,ANDHRA PRADESH,ON
B0095101,0095,Sector-17,CHANDIGARH,NEWDELHI,CHANDIGARH,ON
B0134101,0134,RING ROAD,VIJAYAWADA,VIJAYAWADA,ANDHRA PRADESH,ON
B0156101,0156,Gadwal,MAHABOOBNAGAR,TELANGANA,TELANGANA,ON
B0188101,0188,BARAMUNDA,BHUBANESWAR,BHUBANESWAR,ODISHA,ON
B0189101,0189,"Balajinagar, Nellore",ONGOLE,VIJAYAWADA,ANDHRA PRADESH,ON
B0201101,0201,Himayatnagar,HYDERABAD-I,HYDERABAD,TELANGANA,ON
B0206101,0206,HANUMAKONDA,WARANGAL,TELANGANA,TELANGANA,ON
B0215101,0215,kamareddy,NIZAMABAD,TELANGANA,TELANGANA,ON
B0217101,0217,RAMNAGAR,KURNOOL,HYDERABAD,ANDHRA PRADESH,ON
B0256101,0256,Jaganaickpur,KAKINADA,VISAKHAPATNAM,ANDHRA PRADESH,ON
B0259101,0259,JANGAREDDYGUDEM,ELURU,VIJAYAWADA,ANDHRA PRADESH,ON
B0268101,0268,Janak puri,NEWDELHI,NEWDELHI,DELHI,ON
B0311101,0311,Khammam,WARANGAL,TELANGANA,TELANGANA,ON
B0384101,0384,Nellore,ONGOLE,VIJAYAWADA,ANDHRA PRADESH,ON
B0418101,0418,PATNA,PATNA,BHUBANESWAR,BIHAR,ON
B0435101,0435,prakasam nagar,SECUNDERABAD,HYDERABAD,TELANGANA,ON
B0455101,0455,RAMACHANDRAPURAM,NIZAMABAD,TELANGANA,TELANGANA,ON
B0468101,0468,R R Peta,ELURU,VIJAYAWADA,ANDHRA PRADESH,ON
B0481101,0481,R K Puram,NEWDELHI,NEWDELHI,DELHI,ON
B0522101,0522,SANJEEVAREDDY NAGAR,HYDERABAD-I,HYDERABAD,TELANGANA,ON
B0524101,0524,Siddipet,KARIMNAGAR,TELANGANA,TELANGANA,ON
B0525102,0525,SRIKAKULAM,VIJAYAWADA,VIJAYAWADA,ANDHRA PRADESH,ON
B0533101,0533,Saifabad,HYDERABAD-I,HYDERABAD,TELANGANA,ON
B0540101,0540,SEETHAMMADHARA,VISAKHAPATNAM,VISAKHAPATNAM,ANDHRA PRADESH,ON
B0593101,0593,JVPD,MUMBAI,MUMBAI,MAHARASHTRA,ON
B0596101,0596,HYDERABAD ROAD BRANCH,NIZAMABAD,TELANGANA,TELANGANA,ON
B0604101,0604,VIDYANAGAR,HYDERABAD-I,HYDERABAD,TELANGANA,ON
B0622101,0622,VALASARAVAKKAM,CHENNAI,BANGALORE,TAMIL NADU,ON
B0639101,0639,bhanur,NIZAMABAD,TELANGANA,TELANGANA,ON
B0711101,0711,RCB SRIKAKULAM,SRIKAKULAM,VISAKHAPATNAM,ANDHRA PRADESH,ON
B0736101,0736,BUS STATION COMPLEX,KARIMNAGAR,TELANGANA,TELANGANA,ON
B0740101,0740,BHILAI,BHOPAL,MUMBAI,CHHATISGARH,ON
B0747101,0747,Borivali,MUMBAI,MUMBAI,MAHARASHTRA,ON
B1029101,1029,sangareddy,NIZAMABAD,TELANGANA,TELANGANA,ON
B1042101,1042,RAJDHANI ENCLAVE,NEWDELHI,NEWDELHI,DELHI,ON
B1056101,1056,A u Campus,VISAKHAPATNAM,VISAKHAPATNAM,ANDHRA PRADESH,ON
B1105101,1105,banjara hills,HYDERABAD-I,HYDERABAD,TELANGANA,ON
B1135101,1135,KARNAL,CHANDIGARH,NEWDELHI,HARYANA,ON
B1177101,1177,SONIPAT,CHANDIGARH,NEWDELHI,HARYANA,ON
B1198101,1198,MEDAVAKKAM,CHENNAI,BANGALORE,TAMIL NADU,ON
B1208101,1208,J P NAGAR,BANGALORE,BANGALORE,KARNATAKA,ON
B1325101,1325,Gachibowli,HYDERABAD-II,HYDERABAD,TELANGANA,ON
B1356101,1356,Kavuri Hills,HYDERABAD-II,HYDERABAD,TELANGANA,ON
B1452101,1452,YELAHANKA,BANGALORE,BANGALORE,KARNATAKA,ON
B1468101,1468,L B Nagar,HYDERABAD-II,HYDERABAD,TELANGANA,ON
B1569101,1569,AT AGRAHARAM,GUNTUR,VIJAYAWADA,ANDHRA PRADESH,ON
B1627101,1627,Ramamurthy nagar,BANGALORE,BANGALORE,KARNATAKA,ON
B1886101,1886,gomati nagar,LUCKNOW,NEWDELHI,UTTAR PRADESH,ON
B2317101,2317,SITARAMPUR,KARIMNAGAR,TELANGANA,TELANGANA,ON
B2442101,2442,HYDERNAGAR,SECUNDERABAD,HYDERABAD,TELANGANA,ON
B2861101,2861,SOMIREDDYPALLI,TIRUPATHI,BANGALORE,ANDHRA PRADESH,ON
H0002101,0002,ADONI,KURNOOL,HYDERABAD,ANDHRA PRADESH,ON
H0003101,0003,AGIRIPALLI,VIJAYAWADA,VIJAYAWADA,ANDHRA PRADESH,ON
H0004101,0004,OPP. GUJARAT GAS COMPANY,AHMEDABAD,MUMBAI,GUJARAT,ON
H0005101,0005,AKIVEEDU,ELURU,VIJAYAWADA,ANDHRA PRADESH,ON
H0006101,0006,ALAMURU,KAKINADA,VISAKHAPATNAM,ANDHRA PRADESH,ON
H0007101,0007,AMADALAVALASA,SRIKAKULAM,VISAKHAPATNAM,ANDHRA PRADESH,ON
H0009101,0009,AMARAVATHI,GUNTUR,VIJAYAWADA,ANDHRA PRADESH,ON
H0011101,0011,AMBAJIPETA,KAKINADA,VISAKHAPATNAM,ANDHRA PRADESH,ON
H0012101,0012,ANAKAPALLI,VISAKHAPATNAM,VISAKHAPATNAM,ANDHRA PRADESH,ON
H0013101,0013,ANANTAPUR,KURNOOL,HYDERABAD,ANDHRA PRADESH,ON
H0014101,0014,ANAPARTHI,KAKINADA,VISAKHAPATNAM,ANDHRA PRADESH,ON
H0015101,0015,ARUNDELPET,GUNTUR,VIJAYAWADA,ANDHRA PRADESH,ON
H0016101,0016,ASWARAOPETA,WARANGAL,TELANGANA,TELANGANA,ON
H0017101,0017,ATTILI,ELURU,VIJAYAWADA,ANDHRA PRADESH,ON
H0019101,0019,ASHOK NAGAR,CHENNAI,BANGALORE,TAMIL NADU,ON
H0020101,0020,ALLAGADDA,KURNOOL,HYDERABAD,ANDHRA PRADESH,ON
H0022101,0022,ADILABAD,KARIMNAGAR,TELANGANA,TELANGANA,ON
H0022102,0022,ADILABAD OFFSITE,KARIMNAGAR,TELANGANA,TELANGANA,OFF
H0024101,0024,GANDHINAGAR,BANGALORE,BANGALORE,KARNATAKA,ON
H0026101,0026,ATMAKUR,KURNOOL,HYDERABAD,ANDHRA PRADESH,ON
H0027101,0027,ADDANKI,ONGOLE,VIJAYAWADA,ANDHRA PRADESH,ON
H0028101,0028,ANDHERI,MUMBAI,MUMBAI,MAHARASHTRA,ON
H0029101,0029,ANNAVARAM,KAKINADA,VISAKHAPATNAM,ANDHRA PRADESH,ON
H0030101,0030,INDALWAI,NIZAMABAD,TELANGANA,TELANGANA,ON
H0031101,0031,PADMARAONAGAR,SECUNDERABAD,HYDERABAD,TELANGANA,ON
H0033102,0033,BALAJI COLONY,TIRUPATHI,BANGALORE,ANDHRA PRADESH,OFF
H0036101,0036,BANTUMILLI,VIJAYAWADA,VIJAYAWADA,ANDHRA PRADESH,ON
H0037101,0037,BAPATLA MAIN BRANCH,GUNTUR,VIJAYAWADA,ANDHRA PRADESH,ON
H0038101,0038,HOSPITAL ROAD,SAMBALPUR,BHUBANESWAR,ODISHA,ON
H0039101,0039,BAZAR BRANCH,VIJAYAWADA,VIJAYAWADA,ANDHRA PRADESH,ON
H0040101,0040,BELAGAM,SRIKAKULAM,VISAKHAPATNAM,ANDHRA PRADESH,ON
H0041101,0041,BELLARY,HUBLI,BANGALORE,KARNATAKA,ON
H0042101,0042,BERHAMPUR MAIN,BERHAMPUR,BHUBANESWAR,ODISHA,ON
H0043101,0043,BHADRACHALAM,WARANGAL,TELANGANA,TELANGANA,ON
H0045101,0045,BHIMADOLE,ELURU,VIJAYAWADA,ANDHRA PRADESH,ON
H0046101,0046,BHIMAVARAM,ELURU,VIJAYAWADA,ANDHRA PRADESH,ON
H0048101,0048,BHUBNAESWAR,BHUBANESWAR,BHUBANESWAR,ODISHA,ON
H0050101,0050,BOBBILI,SRIKAKULAM,VISAKHAPATNAM,ANDHRA PRADESH,ON
H0052102,0052,BRODIPET,GUNTUR,VIJAYAWADA,ANDHRA PRADESH,ON
H0054101,0054,BUTCHIREDDYPALEM,ONGOLE,VIJAYAWADA,ANDHRA PRADESH,ON
H0057101,0057,BALANAGAR,SECUNDERABAD,HYDERABAD,TELANGANA,ON
H0059101,0059,BANAGANAPALLI,KURNOOL,HYDERABAD,ANDHRA PRADESH,ON
H0061101,0061,BHONGIR,MAHABOOBNAGAR,TELANGANA,TELANGANA,ON
H0063101,0063,BARRACKS,BERHAMPUR,BHUBANESWAR,ODISHA,ON
H0065101,0065,BHANJANAGAR,BERHAMPUR,BHUBANESWAR,ODISHA,ON
H0066101,0066,BHUSHANAGULLA,VIJAYAWADA,VIJAYAWADA,ANDHRA PRADESH,ON
H0067101,0067,BHAINSA,NIZAMABAD,TELANGANA,TELANGANA,ON
H0068101,0068,BELLAMPALLI,KARIMNAGAR,TELANGANA,TELANGANA,ON
H0070101,0070,KOLKATA MAIN,KOLKATA,BHUBANESWAR,WEST BENGAL,OFF
H0073101,0073,CHAGALLU,ELURU,VIJAYAWADA,ANDHRA PRADESH,ON
H0075101,0075,CHERLA,WARANGAL,TELANGANA,TELANGANA,ON
H0076101,0076,CHIIKKADAPALLY,HYDERABAD-I,HYDERABAD,TELANGANA,ON
H0077101,0077,CHILAKALURIPET,GUNTUR,VIJAYAWADA,ANDHRA PRADESH,ON
H0078101,0078,CHIMAKURTHY,ONGOLE,VIJAYAWADA,ANDHRA PRADESH,ON
H0079101,0079,CHINTHALAPUDI,ELURU,VIJAYAWADA,ANDHRA PRADESH,ON
H0080101,0080,CHIRALA,ONGOLE,VIJAYAWADA,ANDHRA PRADESH,ON
H0082101,0082,CHODAVARAM,VISAKHAPATNAM,VISAKHAPATNAM,ANDHRA PRADESH,ON
H0084101,0084,CONNUGHT CIRCUS,NEWDELHI,NEWDELHI,DELHI,ON
H0085101,0085,COURTPETA,BERHAMPUR,BHUBANESWAR,ODISHA,ON
H0086101,0086,KADAPA,TIRUPATHI,BANGALORE,ANDHRA PRADESH,ON
H0087101,0087,CUTTACK,BHUBANESWAR,BHUBANESWAR,ODISHA,ON
H0089101,0089,COURT STREET,ONGOLE,VIJAYAWADA,ANDHRA PRADESH,ON
H0091101,0091,COOKE TOWN,BANGALORE,BANGALORE,KARNATAKA,ON
H0092101,0092,CHEMBUR,MUMBAI,MUMBAI,MAHARASHTRA,ON
H0094101,0094,FATIMANAGAR,WARANGAL,TELANGANA,TELANGANA,ON
H0096101,0096,CHITYAL,WARANGAL,TELANGANA,TELANGANA,ON
H0098101,0098,CHENNUR,KARIMNAGAR,TELANGANA,TELANGANA,ON
H0100101,0100,DANAVAIPETA,KAKINADA,VISAKHAPATNAM,ANDHRA PRADESH,ON
H0101101,0101,DHARMAVARAM,KURNOOL,HYDERABAD,ANDHRA PRADESH,ON
H0102101,0102,DNR COLLEGE,ELURU,VIJAYAWADA,ANDHRA PRADESH,ON
H0102102,0102,DNR COLLEGE,ELURU,VIJAYAWADA,ANDHRA PRADESH,ON
H0103101,0103,DORNAKAL,WARANGAL,TELANGANA,TELANGANA,ON
H0104101,0104,DOWLESWARAM,KAKINADA,VISAKHAPATNAM,ANDHRA PRADESH,ON
H0105101,0105,DUGGIRALA,GUNTUR,VIJAYAWADA,ANDHRA PRADESH,ON
H0106101,0106,DWARAKANAGAR,VISAKHAPATNAM,VISAKHAPATNAM,ANDHRA PRADESH,ON
H0107101,0107,DWARAKA TIRUMALA,ELURU,VIJAYAWADA,ANDHRA PRADESH,ON
H0108101,0108,DWARAPUDI,KAKINADA,VISAKHAPATNAM,ANDHRA PRADESH,ON
H0111101,0111,DHONE,KURNOOL,HYDERABAD,ANDHRA PRADESH,ON
H0113101,0113,DEVARAKONDA,MAHABOOBNAGAR,TELANGANA,TELANGANA,ON
H0115101,0115,DHARMARAM,KARIMNAGAR,TELANGANA,TELANGANA,ON
H0120101,0120,DEVARUPPULA,WARANGAL,TELANGANA,TELANGANA,ON
H0121101,0121,DANTALAPALLI,WARANGAL,TELANGANA,TELANGANA,ON
H0122101,0122,DILSUKHNAGAR BRANCH (METRO),HYDERABAD-I,HYDERABAD,TELANGANA,ON
H0123101,0123,ELURU MAIN,ELURU,VIJAYAWADA,ANDHRA PRADESH,ON
H0127101,0127,ERODE,COIMBATORE,BANGALORE,TAMIL NADU,ON
H0128101,0128,ETCHERLA,SRIKAKULAM,VISAKHAPATNAM,ANDHRA PRADESH,ON
H0132101,0132,BAGH AMBERPET,HYDERABAD-I,HYDERABAD,TELANGANA,ON
H0134102,0134,RING ROAD,VIJAYAWADA,VIJAYAWADA,ANDHRA PRADESH,ON
H0136101,0136,DARGAMITTA,ONGOLE,VIJAYAWADA,ANDHRA PRADESH,ON
H0137101,0137,DUVVA,ELURU,VIJAYAWADA,ANDHRA PRADESH,ON
H0138101,0138,DHARMAVARAM,ELURU,VIJAYAWADA,ANDHRA PRADESH,ON
H0139101,0139,GAGAN MAHAL,HYDERABAD-I,HYDERABAD,TELANGANA,ON
H0141101,0141,GANDHINAGAR,KAKINADA,VISAKHAPATNAM,ANDHRA PRADESH,ON
H0142101,0142,GANDHINAGAR,VIJAYAWADA,VIJAYAWADA,ANDHRA PRADESH,OFF
H0144101,0144,GOLLAPROLU,KAKINADA,VISAKHAPATNAM,ANDHRA PRADESH,ON
H0145101,0145,GOVERNORPET,VIJAYAWADA,VIJAYAWADA,ANDHRA PRADESH,ON
H0146102,0146,GUDIVADA,VIJAYAWADA,VIJAYAWADA,ANDHRA PRADESH,ON
H0147101,0147,GUDUR,ONGOLE,VIJAYAWADA,ANDHRA PRADESH,ON
H0148101,0148,GUNDUGOLANU,ELURU,VIJAYAWADA,ANDHRA PRADESH,ON
H0149101,0149,GUNTAKAL,KURNOOL,HYDERABAD,ANDHRA PRADESH,ON
H0150101,0150,GUNTUR MAIN BRANCH,GUNTUR,VIJAYAWADA,ANDHRA PRADESH,ON
H0152101,0152,GAVARAPALEM,VISAKHAPATNAM,VISAKHAPATNAM,ANDHRA PRADESH,ON
H0153101,0153,GULLAPALLI,GUNTUR,VIJAYAWADA,ANDHRA PRADESH,ON
H0154102,0154,GANNAVARAM,VIJAYAWADA,VIJAYAWADA,ANDHRA PRADESH,ON
H0156102,0156,GADWAL,MAHABOOBNAGAR,TELANGANA,TELANGANA,OFF
H0157101,0157,GODAVARIKHANI,KARIMNAGAR,TELANGANA,TELANGANA,ON
H0158101,0158,GUNADALA,VIJAYAWADA,VIJAYAWADA,ANDHRA PRADESH,ON
H0160101,0160,GHAZIABAD,NEWDELHI,NEWDELHI,UTTAR PRADESH,ON
H0161101,0161,GURAZALA,GUNTUR,VIJAYAWADA,ANDHRA PRADESH,ON
H0163101,0163,GUDUR,WARANGAL,TELANGANA,TELANGANA,ON
H0164101,0164,GULBARGA,HUBLI,BANGALORE,KARNATAKA,ON
H0165101,0165,GAVINIVARIPALEM,ONGOLE,VIJAYAWADA,ANDHRA PRADESH,ON
H0166101,0166,G SIGADAM,SRIKAKULAM,VISAKHAPATNAM,ANDHRA PRADESH,ON
H0168101,0168,KAMPOO ROAD GWALIOR,BHOPAL,MUMBAI,MADHYA PRADESH,ON
H0169101,0169,KHILLA GHANPUR,MAHABOOBNAGAR,TELANGANA,TELANGANA,ON
H0170101,0170,GOOTY,KURNOOL,HYDERABAD,ANDHRA PRADESH,ON
H0171101,0171,GOLLAPALLI,KARIMNAGAR,TELANGANA,TELANGANA,ON
H0172101,0172,GOSANINUAGAON,BERHAMPUR,BHUBANESWAR,ODISHA,ON
H0173101,0173,GUNDI GOPALRAOPET,KARIMNAGAR,TELANGANA,TELANGANA,ON
H0175101,0175,GAJUWAKA,VISAKHAPATNAM,VISAKHAPATNAM,ANDHRA PRADESH,ON
H0182101,0182,RAMIREDDYPET,GUNTUR,VIJAYAWADA,ANDHRA PRADESH,ON
H0183101,0183,CINEMA ROAD,KAKINADA,VISAKHAPATNAM,ANDHRA PRADESH,ON
H0185101,0185,AKKAYYAPALEM,VISAKHAPATNAM,VISAKHAPATNAM,ANDHRA PRADESH,ON
H0186101,0186,WOMENÃ¢â‚¬â„¢S BRANCH,SRIKAKULAM,VISAKHAPATNAM,ANDHRA PRADESH,ON
H0188102,0188,BARAMUNDA,BHUBANESWAR,BHUBANESWAR,ODISHA,ON
H0188103,0188,BARAMUNDA,BHUBANESWAR,BHUBANESWAR,ODISHA,OFF
H0191101,0191,ELURUPADU,ELURU,VIJAYAWADA,ANDHRA PRADESH,ON
H0192101,0192,KOTHAPET,HYDERABAD-II,HYDERABAD,TELANGANA,ON
H0194101,0194,PALAKKAD,KOCHI,BANGALORE,KERALA,ON
H0195101,0195,PET BASHIRABAD,SECUNDERABAD,HYDERABAD,TELANGANA,ON
H0197101,0197,BANSWADA,NIZAMABAD,TELANGANA,TELANGANA,ON
H0200101,0200,HANUMAN JUNCTION,VIJAYAWADA,VIJAYAWADA,ANDHRA PRADESH,ON
H0202101,0202,HINDUPUR,KURNOOL,HYDERABAD,ANDHRA PRADESH,ON
H0203101,0203,HINDU COLLEGE CAMPUS,GUNTUR,VIJAYAWADA,ANDHRA PRADESH,ON
H0204101,0204,HOSPET,HUBLI,BANGALORE,KARNATAKA,ON
H0205101,0205,SULTAN BAZAR,HYDERABAD-I,HYDERABAD,TELANGANA,ON
H0206102,0206,HANAMKONDA,WARANGAL,TELANGANA,TELANGANA,ON
H0207101,0207,HYDERBASTHI,SECUNDERABAD,HYDERABAD,TELANGANA,ON
H0209101,0209,HUZURNAGAR,MAHABOOBNAGAR,TELANGANA,TELANGANA,ON
H0211101,0211,HOWRAH,KOLKATA,BHUBANESWAR,WEST BENGAL,ON
H0213101,0213,HUZURABAD,KARIMNAGAR,TELANGANA,TELANGANA,ON
H0218101,0218,JUBILEE HILLS,HYDERABAD-I,HYDERABAD,TELANGANA,ON
H0222101,0222,AMEERPET,HYDERABAD-I,HYDERABAD,TELANGANA,ON
H0223101,0223,AJITHSINGH NAGAR,VIJAYAWADA,VIJAYAWADA,ANDHRA PRADESH,ON
H0224101,0224,SHRI HARIPURAM,VIJAYAWADA,VIJAYAWADA,ANDHRA PRADESH,ON
H0227101,0227,ANNA NAGAR,CHENNAI,BANGALORE,TAMIL NADU,ON
H0230101,0230,ICHAPURAM,SRIKAKULAM,VISAKHAPATNAM,ANDHRA PRADESH,ON
H0231101,0231,INNISPETA,KAKINADA,VISAKHAPATNAM,ANDHRA PRADESH,ON
H0232101,0232,INKOLLU,ONGOLE,VIJAYAWADA,ANDHRA PRADESH,ON
H0236101,0236,INJARAM,KAKINADA,VISAKHAPATNAM,ANDHRA PRADESH,ON
H0238101,0238,"GHATKOPAR WEST, MUMBAI",MUMBAI,MUMBAI,MAHARASHTRA,ON
H0242101,0242,KANNAVARITHOTA,GUNTUR,VIJAYAWADA,ANDHRA PRADESH,ON
H0245101,0245,PITHAPURAM COLONY,VISAKHAPATNAM,VISAKHAPATNAM,ANDHRA PRADESH,ON
H0248101,0248,BEGUMPET,KARIMNAGAR,TELANGANA,TELANGANA,ON
H0257101,0257,JAGGAIAHPET,VIJAYAWADA,VIJAYAWADA,ANDHRA PRADESH,ON
H0258102,0258,JAGTIAL,KARIMNAGAR,TELANGANA,TELANGANA,ON
H0260101,0260,JEYPORE,BERHAMPUR,BHUBANESWAR,ODISHA,ON
H0261101,0261,JANGAON,WARANGAL,TELANGANA,TELANGANA,ON
H0262101,0262,JADCHERLA,MAHABOOBNAGAR,TELANGANA,TELANGANA,ON
H0263101,0263,JAMMIKUNTA,KARIMNAGAR,TELANGANA,TELANGANA,ON
H0268102,0268,JANAKPURI,NEWDELHI,NEWDELHI,DELHI,ON
H0272101,0272,JAVVARPETA,VIJAYAWADA,VIJAYAWADA,ANDHRA PRADESH,ON
H0273101,0273,JAYA NAGAR,BANGALORE,BANGALORE,KARNATAKA,ON
H0275101,0275,JAJPUR ROAD,BHUBANESWAR,BHUBANESWAR,ODISHA,ON
H0278101,0278,MUKKAMALA,ELURU,VIJAYAWADA,ANDHRA PRADESH,ON
H0286101,0286,THUMMADAM,MAHABOOBNAGAR,TELANGANA,TELANGANA,ON
H0287101,0287,KARAYA ROAD,KOLKATA,BHUBANESWAR,WEST BENGAL,OFF
H0288101,0288,MUNSHI BAZAR,KOLKATA,BHUBANESWAR,WEST BENGAL,ON
H0289101,0289,INDIRA NAGAR,BANGALORE,BANGALORE,KARNATAKA,ON
H0290101,0290,VADLAGUDEM,WARANGAL,TELANGANA,TELANGANA,ON
H0292101,0292,CMR PALLE,TIRUPATHI,BANGALORE,ANDHRA PRADESH,ON
H0293101,0293,ASHOK NAGAR,KURNOOL,HYDERABAD,ANDHRA PRADESH,ON
H0295101,0295,KARUPATTI,COIMBATORE,BANGALORE,TAMIL NADU,ON
H0296101,0296,KANURU,ELURU,VIJAYAWADA,ANDHRA PRADESH,ON
H0299101,0299,KAZIPET,WARANGAL,TELANGANA,TELANGANA,ON
H0300101,0300,KADIAM,KAKINADA,VISAKHAPATNAM,ANDHRA PRADESH,ON
H0301101,0301,KADIRI,KURNOOL,HYDERABAD,ANDHRA PRADESH,ON
H0302101,0302,KMC CAMPUS,WARANGAL,TELANGANA,TELANGANA,ON
H0303101,0303,KAKINADA,KAKINADA,VISAKHAPATNAM,ANDHRA PRADESH,ON
H0304101,0304,KANDUKURU,ONGOLE,VIJAYAWADA,ANDHRA PRADESH,ON
H0305101,0305,KAPILESWARAPURAM,KAKINADA,VISAKHAPATNAM,ANDHRA PRADESH,ON
H0306101,0306,KARIMNAGAR,KARIMNAGAR,TELANGANA,TELANGANA,ON
H0307101,0307,AJMAL KHAN ROAD KAROL BAGH,NEWDELHI,NEWDELHI,DELHI,ON
H0308101,0308,KASIBUGGA,SRIKAKULAM,VISAKHAPATNAM,ANDHRA PRADESH,ON
H0309101,0309,KAVALI,ONGOLE,VIJAYAWADA,ANDHRA PRADESH,ON
H0314101,0314,KORETIPADU,GUNTUR,VIJAYAWADA,ANDHRA PRADESH,ON
H0315101,0315,KOTHAGUDEM,WARANGAL,TELANGANA,TELANGANA,ON
H0316101,0316,KOTHAPET,KAKINADA,VISAKHAPATNAM,ANDHRA PRADESH,ON
H0317101,0317,KOVVALI,ELURU,VIJAYAWADA,ANDHRA PRADESH,ON
H0318101,0318,KOVVUR,ELURU,VIJAYAWADA,ANDHRA PRADESH,ON
H0320101,0320,KURNOOL MAIN BRANCH,KURNOOL,HYDERABAD,ANDHRA PRADESH,ON
H0322101,0322,KRISHNALANKA,VIJAYAWADA,VIJAYAWADA,ANDHRA PRADESH,ON
H0325101,0325,KOLLURU,GUNTUR,VIJAYAWADA,ANDHRA PRADESH,ON
H0327102,0327,KAPRA SAINIKPURI,SECUNDERABAD,HYDERABAD,TELANGANA,ON
H0328101,0328,KAMAVARAPUKOTA,ELURU,VIJAYAWADA,ANDHRA PRADESH,ON
H0329101,0329,KODAD,MAHABOOBNAGAR,TELANGANA,TELANGANA,ON
H0330101,0330,KORATLA,KARIMNAGAR,TELANGANA,TELANGANA,ON
H0331101,0331,KAIKALURU,VIJAYAWADA,VIJAYAWADA,ANDHRA PRADESH,ON
H0333101,0333,KOVVURU,ONGOLE,VIJAYAWADA,ANDHRA PRADESH,ON
H0334101,0334,KOTHAKOTA,MAHABOOBNAGAR,TELANGANA,TELANGANA,ON
H0336101,0336,KANIGIRI,ONGOLE,VIJAYAWADA,ANDHRA PRADESH,ON
H0337101,0337,KALYANDURGAM,KURNOOL,HYDERABAD,ANDHRA PRADESH,ON
H0339101,0339,KOTHACHERUVU,KURNOOL,HYDERABAD,ANDHRA PRADESH,ON
H0340101,0340,LUDHIANA,LUDHIANA,NEWDELHI,PUNJAB,ON
H0342101,0342,LIC BUILDING,VIJAYAWADA,VIJAYAWADA,ANDHRA PRADESH,ON
H0343101,0343,LABBIPET,VIJAYAWADA,VIJAYAWADA,ANDHRA PRADESH,ON
H0344101,0344,LUCKNOW,LUCKNOW,NEWDELHI,UTTAR PRADESH,ON
H0345101,0345,MACHERLA,GUNTUR,VIJAYAWADA,ANDHRA PRADESH,ON
H0346101,0346,FOUNDERS BRANCH,VIJAYAWADA,VIJAYAWADA,ANDHRA PRADESH,ON
H0347101,0347,MADHAVNAGAR,KAKINADA,VISAKHAPATNAM,ANDHRA PRADESH,ON
H0348101,0348,CHENNAI MAIN,CHENNAI,BANGALORE,TAMIL NADU,ON
H0350102,0350,MAHABOOB NAGAR MAIN,MAHABOOBNAGAR,TELANGANA,TELANGANA,ON
H0350103,0350,MAHBUBNAGAR OFFSITE,MAHABOOBNAGAR,TELANGANA,TELANGANA,OFF
H0351101,0351,MAHARANIPET,VISAKHAPATNAM,VISAKHAPATNAM,ANDHRA PRADESH,ON
H0352101,0352,MALAKPET,HYDERABAD-I,HYDERABAD,TELANGANA,ON
H0353101,0353,MALKAPURAM,VISAKHAPATNAM,VISAKHAPATNAM,ANDHRA PRADESH,ON
H0354101,0354,VENKATARAYAPURAM,ELURU,VIJAYAWADA,ANDHRA PRADESH,ON
H0355101,0355,MANDAPETA,KAKINADA,VISAKHAPATNAM,ANDHRA PRADESH,ON
H0356101,0356,MARREDPALLY,SECUNDERABAD,HYDERABAD,TELANGANA,ON
H0357101,0357,MIRYALAGUDA,MAHABOOBNAGAR,TELANGANA,TELANGANA,ON
H0358101,0358,MORRISPET,GUNTUR,VIJAYAWADA,ANDHRA PRADESH,ON
H0360101,0360,MYLAPORE,CHENNAI,BANGALORE,TAMIL NADU,ON
H0361101,0361,MALKIPURAM,KAKINADA,VISAKHAPATNAM,ANDHRA PRADESH,ON
H0363101,0363,MANCHERIAL,KARIMNAGAR,TELANGANA,TELANGANA,ON
H0364101,0364,MATUNGA,MUMBAI,MUMBAI,MAHARASHTRA,ON
H0365101,0365,MOBERLIPET,KAKINADA,VISAKHAPATNAM,ANDHRA PRADESH,ON
H0366101,0366,MANGALAGIRI,GUNTUR,VIJAYAWADA,ANDHRA PRADESH,ON
H0367101,0367,MAHABUBABAD,WARANGAL,TELANGANA,TELANGANA,ON
H0368101,0368,METPALLI,KARIMNAGAR,TELANGANA,TELANGANA,OFF
H0369101,0369,MOGALTUR,ELURU,VIJAYAWADA,ANDHRA PRADESH,ON
H0370101,0370,MADANAPALLY,TIRUPATHI,BANGALORE,ANDHRA PRADESH,ON
H0371101,0371,MACHAVARAM,VIJAYAWADA,VIJAYAWADA,ANDHRA PRADESH,ON
H0372101,0372,MALL BRANCH,HYDERABAD-II,HYDERABAD,TELANGANA,ON
H0376101,0376,NAGAYALANKA,VIJAYAWADA,VIJAYAWADA,ANDHRA PRADESH,OFF
H0378101,0378,NAMPALLY,HYDERABAD-I,HYDERABAD,TELANGANA,ON
H0379101,0379,NANDYAL MAIN,KURNOOL,HYDERABAD,ANDHRA PRADESH,ON
H0380101,0380,NARASANNAPETA,SRIKAKULAM,VISAKHAPATNAM,ANDHRA PRADESH,ON
H0381101,0381,NARASARAOPET,GUNTUR,VIJAYAWADA,ANDHRA PRADESH,ON
H0382101,0382,NARSAPUR,ELURU,VIJAYAWADA,ANDHRA PRADESH,ON
H0383101,0383,NARSIPATNAM,VISAKHAPATNAM,VISAKHAPATNAM,ANDHRA PRADESH,ON
H0385101,0385,NEW TOWN ANANTAPUR,KURNOOL,HYDERABAD,ANDHRA PRADESH,ON
H0386101,0386,NIDADAVOLE,ELURU,VIJAYAWADA,ANDHRA PRADESH,ON
H0387101,0387,NIZAMABAD,NIZAMABAD,TELANGANA,TELANGANA,ON
H0388101,0388,NUZVID,VIJAYAWADA,VIJAYAWADA,ANDHRA PRADESH,ON
H0389101,0389,NALGONDA TOWN,MAHABOOBNAGAR,TELANGANA,TELANGANA,ON
H0390101,0390,NANDIKOTKURU,KURNOOL,HYDERABAD,ANDHRA PRADESH,ON
H0391101,0391,NIRMAL,NIZAMABAD,TELANGANA,TELANGANA,ON
H0392101,0392,N R ROAD,BANGALORE,BANGALORE,KARNATAKA,ON
H0394101,0394,NANDIGAMA,VIJAYAWADA,VIJAYAWADA,ANDHRA PRADESH,ON
H0395101,0395,NARSAMPET,WARANGAL,TELANGANA,TELANGANA,ON
H0396101,0396,NAVUDURU,ELURU,VIJAYAWADA,ANDHRA PRADESH,ON
H0397101,0397,NARAYANAGUDA,HYDERABAD-I,HYDERABAD,TELANGANA,ON
H0398101,0398,NEW ALIPORE,KOLKATA,BHUBANESWAR,WEST BENGAL,ON
H0399101,0399,NAGARJUNA SAGAR,MAHABOOBNAGAR,TELANGANA,TELANGANA,ON
H0400101,0400,ONGOLE MAIN BRANCH,ONGOLE,VIJAYAWADA,ANDHRA PRADESH,ON
H0402101,0402,OPERA HOUSE,MUMBAI,MUMBAI,MAHARASHTRA,ON
H0403101,0403,OLD GUNTUR,GUNTUR,VIJAYAWADA,ANDHRA PRADESH,ON
H0409101,0409,SIRIGINDALAPADU,KAKINADA,VISAKHAPATNAM,ANDHRA PRADESH,ON
H0412101,0412,PEDDAVADUGURU,KURNOOL,HYDERABAD,ANDHRA PRADESH,ON
H0413101,0413,PRAGADAVARAM,ELURU,VIJAYAWADA,ANDHRA PRADESH,ON
H0414101,0414,PONKAL JANNARAM,KARIMNAGAR,TELANGANA,TELANGANA,ON
H0415101,0415,PARBHANI,PUNE,MUMBAI,MAHARASHTRA,ON
H0416101,0416,PERAVALI,GUNTUR,VIJAYAWADA,ANDHRA PRADESH,ON
H0417101,0417,PENTLAVALLI,MAHABOOBNAGAR,TELANGANA,TELANGANA,ON
H0420101,0420,PALAKOL,ELURU,VIJAYAWADA,ANDHRA PRADESH,ON
H0421101,0421,PAMARRU,VIJAYAWADA,VIJAYAWADA,ANDHRA PRADESH,ON
H0422101,0422,PAMIDI,KURNOOL,HYDERABAD,ANDHRA PRADESH,ON
H0423101,0423,PARVATHIPURAM,SRIKAKULAM,VISAKHAPATNAM,ANDHRA PRADESH,ON
H0424101,0424,PATAMATA,VIJAYAWADA,VIJAYAWADA,ANDHRA PRADESH,ON
H0425102,0425,PATTABHIPURAM,GUNTUR,VIJAYAWADA,ANDHRA PRADESH,ON
H0427101,0427,PEDANA,VIJAYAWADA,VIJAYAWADA,ANDHRA PRADESH,ON
H0428101,0428,PEDDAPURAM,KAKINADA,VISAKHAPATNAM,ANDHRA PRADESH,ON
H0431101,0431,PHIRANIGPURAM,GUNTUR,VIJAYAWADA,ANDHRA PRADESH,ON
H0432101,0432,PITHAPURAM,KAKINADA,VISAKHAPATNAM,ANDHRA PRADESH,ON
H0433101,0433,PONNURU,GUNTUR,VIJAYAWADA,ANDHRA PRADESH,ON
H0436101,0436,PRATHIPADU,GUNTUR,VIJAYAWADA,ANDHRA PRADESH,ON
H0437101,0437,PRODDATUR(NAV SHAKTI),TIRUPATHI,BANGALORE,ANDHRA PRADESH,ON
H0438101,0438,PARLAKHEMUNDI,BERHAMPUR,BHUBANESWAR,ODISHA,ON
H0439101,0439,PALAKONDA,SRIKAKULAM,VISAKHAPATNAM,ANDHRA PRADESH,ON
H0440101,0440,PAMARRU,KAKINADA,VISAKHAPATNAM,ANDHRA PRADESH,ON
H0441101,0441,PILER,TIRUPATHI,BANGALORE,ANDHRA PRADESH,ON
H0443101,0443,PAMUR,ONGOLE,VIJAYAWADA,ANDHRA PRADESH,ON
H0444101,0444,PENAMALURU,VIJAYAWADA,VIJAYAWADA,ANDHRA PRADESH,ON
H0445101,0445,PERALA,ONGOLE,VIJAYAWADA,ANDHRA PRADESH,ON
H0447101,0447,PIDUGURALLA,GUNTUR,VIJAYAWADA,ANDHRA PRADESH,ON
H0448101,0448,PEDDAPALLY,KARIMNAGAR,TELANGANA,TELANGANA,ON
H0449101,0449,PITLAM,NIZAMABAD,TELANGANA,TELANGANA,ON
H0451101,0451,PUNUR,ONGOLE,VIJAYAWADA,ANDHRA PRADESH,ON
H0452101,0452,PULIVENDULA,TIRUPATHI,BANGALORE,ANDHRA PRADESH,ON
H0453101,0453,POLASARA,BERHAMPUR,BHUBANESWAR,ODISHA,ON
H0455102,0455,R.C.PURAM,NIZAMABAD,TELANGANA,TELANGANA,ON
H0456101,0456,PALVANCHA,WARANGAL,TELANGANA,TELANGANA,ON
H0457101,0457,POTHAKAPALLI,KARIMNAGAR,TELANGANA,TELANGANA,ON
H0459101,0459,PODILI,ONGOLE,VIJAYAWADA,ANDHRA PRADESH,ON
H0465101,0465,RAJAHMUNDRY,KAKINADA,VISAKHAPATNAM,ANDHRA PRADESH,ON
H0466101,0466,RAJAM,SRIKAKULAM,VISAKHAPATNAM,ANDHRA PRADESH,ON
H0467101,0467,RAMACHANDRAPURAM,KAKINADA,VISAKHAPATNAM,ANDHRA PRADESH,ON
H0468102,0468,RAMACHANDRARAO PETA,ELURU,VIJAYAWADA,ANDHRA PRADESH,ON
H0468103,0468,RAMACHANDRARAO PETA,ELURU,VIJAYAWADA,ANDHRA PRADESH,OFF
H0469101,0469,RAMARAOPET,KAKINADA,VISAKHAPATNAM,ANDHRA PRADESH,ON
H0469102,0469,RAMARAO PET,KAKINADA,VISAKHAPATNAM,ANDHRA PRADESH,OFF
H0470101,0470,RAVULAPALEM,KAKINADA,VISAKHAPATNAM,ANDHRA PRADESH,ON
H0471101,0471,RAYAGADA,BERHAMPUR,BHUBANESWAR,ODISHA,OFF
H0472101,0472,RAYAVARAM,KAKINADA,VISAKHAPATNAM,ANDHRA PRADESH,ON
H0475101,0475,RELANGI,ELURU,VIJAYAWADA,ANDHRA PRADESH,ON
H0476101,0476,RENTACHINTALA,GUNTUR,VIJAYAWADA,ANDHRA PRADESH,ON
H0477101,0477,REPALLE,GUNTUR,VIJAYAWADA,ANDHRA PRADESH,OFF
H0478101,0478,RANCHI,PATNA,BHUBANESWAR,JHARKHAND,ON
H0479101,0479,RAMBHA,BERHAMPUR,BHUBANESWAR,ODISHA,ON
H0480101,0480,RAJAMPET,TIRUPATHI,BANGALORE,ANDHRA PRADESH,ON
H0483101,0483,RUDRAMPUR,WARANGAL,TELANGANA,TELANGANA,ON
H0484101,0484,RYALI,KAKINADA,VISAKHAPATNAM,ANDHRA PRADESH,ON
H0485101,0485,RAMANTHAPUR,SECUNDERABAD,HYDERABAD,TELANGANA,ON
H0486101,0486,RAMNAGAR,COIMBATORE,BANGALORE,TAMIL NADU,ON
H0487101,0487,RAYADURGAM,KURNOOL,HYDERABAD,ANDHRA PRADESH,ON
H0488101,0488,RAMAKRISHNAPURAM,KARIMNAGAR,TELANGANA,TELANGANA,ON
H0490101,0490,RAJ BHAVAN ROAD,HYDERABAD-I,HYDERABAD,TELANGANA,ON
H0491101,0491,RAICHUR,HUBLI,BANGALORE,KARNATAKA,ON
H0493101,0493,RAIPUR,BHOPAL,MUMBAI,CHHATISGARH,ON
H0494101,0494,RAJAJI NAGAR,BANGALORE,BANGALORE,KARNATAKA,ON
H0495101,0495,RANASTHALAM,SRIKAKULAM,VISAKHAPATNAM,ANDHRA PRADESH,ON
H0496101,0496,RANGAMPETA,KAKINADA,VISAKHAPATNAM,ANDHRA PRADESH,ON
H0498101,0498,RAJUPALEM,GUNTUR,VIJAYAWADA,ANDHRA PRADESH,ON
H0499101,0499,RAJAVOMMANGI,KAKINADA,VISAKHAPATNAM,ANDHRA PRADESH,ON
H0501101,0501,SALUR,SRIKAKULAM,VISAKHAPATNAM,ANDHRA PRADESH,ON
H0502101,0502,SAMALKOTA,KAKINADA,VISAKHAPATNAM,ANDHRA PRADESH,ON
H0503101,0503,SATTENAPALLI,GUNTUR,VIJAYAWADA,ANDHRA PRADESH,ON
H0504101,0504,SATYANARAYANAPURAM,VIJAYAWADA,VIJAYAWADA,ANDHRA PRADESH,ON
H0505101,0505,R P ROAD BRANCH,SECUNDERABAD,HYDERABAD,TELANGANA,ON
H0508101,0508,SIMHACHALAM,VISAKHAPATNAM,VISAKHAPATNAM,ANDHRA PRADESH,ON
H0510101,0510,SEETHARAMPURAM,VIJAYAWADA,VIJAYAWADA,ANDHRA PRADESH,OFF
H0511101,0511,SOMPETA,SRIKAKULAM,VISAKHAPATNAM,ANDHRA PRADESH,ON
H0512101,0512,SOWCARPET,CHENNAI,BANGALORE,TAMIL NADU,ON
H0513101,0513,SRIKAKULAM,SRIKAKULAM,VISAKHAPATNAM,ANDHRA PRADESH,ON
H0514101,0514,SRIKALAHASTI,TIRUPATHI,BANGALORE,ANDHRA PRADESH,ON
H0515101,0515,SRISAILAM,KURNOOL,HYDERABAD,ANDHRA PRADESH,ON
H0516101,0516,SRUNGAVRUKSHAM,ELURU,VIJAYAWADA,ANDHRA PRADESH,ON
H0517101,0517,STONEHOUSEPET,ONGOLE,VIJAYAWADA,ANDHRA PRADESH,ON
H0518101,0518,SURYAPET,MAHABOOBNAGAR,TELANGANA,TELANGANA,ON
H0519101,0519,SURYARAOPETA,KAKINADA,VISAKHAPATNAM,ANDHRA PRADESH,ON
H0521101,0521,SAIDABAD,HYDERABAD-I,HYDERABAD,TELANGANA,ON
H0523101,0523,SURYARAO PET,VIJAYAWADA,VIJAYAWADA,ANDHRA PRADESH,OFF
H0524102,0524,E-BANKING ZONE SIDDIPET,KARIMNAGAR,TELANGANA,TELANGANA,OFF
H0524103,0524,SIDDIPET,KARIMNAGAR,TELANGANA,TELANGANA,ON
H0528101,0528,SIRICILLA,KARIMNAGAR,TELANGANA,TELANGANA,ON
H0529101,0529,SEBASTIAN ROAD,SECUNDERABAD,HYDERABAD,TELANGANA,ON
H0531101,0531,SRI NAGAR COLONY,KAKINADA,VISAKHAPATNAM,ANDHRA PRADESH,ON
H0535101,0535,VIDHYADHARAPURAM,VIJAYAWADA,VIJAYAWADA,ANDHRA PRADESH,ON
H0536101,0536,SIRPUR KHAGAJ NAGAR,KARIMNAGAR,TELANGANA,TELANGANA,OFF
H0537101,0537,G.M. COLLEGE ROAD,SAMBALPUR,BHUBANESWAR,ODISHA,OFF
H0538101,0538,SURAT MAIN BRANCH,AHMEDABAD,MUMBAI,GUJARAT,ON
H0541101,0541,SADASHIVNAGAR,NIZAMABAD,TELANGANA,TELANGANA,ON
H0543101,0543,SRINAGAR COLONY,HYDERABAD-I,HYDERABAD,TELANGANA,ON
H0545101,0545,SEETHAPHALMANDI,SECUNDERABAD,HYDERABAD,TELANGANA,ON
H0547101,0547,SOLAPUR,PUNE,MUMBAI,MAHARASHTRA,ON
H0548101,0548,SANTOSH NAGAR,HYDERABAD-I,HYDERABAD,TELANGANA,ON
H0549101,0549,SANGAM,WARANGAL,TELANGANA,TELANGANA,ON
H0550102,0550,TADEPALLIGUDEM,ELURU,VIJAYAWADA,ANDHRA PRADESH,ON
H0551101,0551,TADIKONDA,GUNTUR,VIJAYAWADA,ANDHRA PRADESH,ON
H0552101,0552,TADIPATRI,KURNOOL,HYDERABAD,ANDHRA PRADESH,ON
H0553101,0553,TALLAPUDI,ELURU,VIJAYAWADA,ANDHRA PRADESH,ON
H0554101,0554,TANUKU,ELURU,VIJAYAWADA,ANDHRA PRADESH,ON
H0557101,0557,T.NAGAR,CHENNAI,BANGALORE,TAMIL NADU,ON
H0560101,0560,TIRUPUR,COIMBATORE,BANGALORE,TAMIL NADU,ON
H0561101,0561,TUNI,KAKINADA,VISAKHAPATNAM,ANDHRA PRADESH,ON
H0562101,0562,SRIKAKULAM,SRIKAKULAM,VISAKHAPATNAM,ANDHRA PRADESH,ON
H0563101,0563,TIRUVURU,VIJAYAWADA,VIJAYAWADA,ANDHRA PRADESH,ON
H0565101,0565,TANDUR,HYDERABAD-II,HYDERABAD,TELANGANA,ON
H0566101,0566,THURPU VIPPARRU,ELURU,VIJAYAWADA,ANDHRA PRADESH,ON
H0568101,0568,TUTICORIN,COIMBATORE,BANGALORE,TAMIL NADU,ON
H0569101,0569,TATANAGAR,PATNA,BHUBANESWAR,JHARKHAND,ON
H0572101,0572,TATIPAKA,KAKINADA,VISAKHAPATNAM,ANDHRA PRADESH,ON
H0578101,0578,TARNAKA,SECUNDERABAD,HYDERABAD,TELANGANA,ON
H0579101,0579,TANDUR,KARIMNAGAR,TELANGANA,TELANGANA,ON
H0581101,0581,UPPUGUNDUR,ONGOLE,VIJAYAWADA,ANDHRA PRADESH,ON
H0586101,0586,LAJPAT NAGAR,NEWDELHI,NEWDELHI,DELHI,ON
H0587101,0587,LAWRENCE ROAD,NEWDELHI,NEWDELHI,DELHI,ON
H0594101,0594,JODHPUR,JAIPUR,NEWDELHI,RAJASTHAN,ON
H0596102,0596,HYDERABAD ROAD,NIZAMABAD,TELANGANA,TELANGANA,ON
H0598101,0598,KUPPAM,TIRUPATHI,BANGALORE,ANDHRA PRADESH,ON
H0600101,0600,VEERANKILOCK,VIJAYAWADA,VIJAYAWADA,ANDHRA PRADESH,ON
H0601101,0601,VELANGI,KAKINADA,VISAKHAPATNAM,ANDHRA PRADESH,ON
H0603101,0603,VETAPALEM,ONGOLE,VIJAYAWADA,ANDHRA PRADESH,ON
H0605101,0605,VIJAYANAGAR COLONY,HYDERABAD-I,HYDERABAD,TELANGANA,ON
H0606101,0606,VIJAYAWADA,VIJAYAWADA,VIJAYAWADA,ANDHRA PRADESH,ON
H0607101,0607,VINUKONDA,GUNTUR,VIJAYAWADA,ANDHRA PRADESH,ON
H0608101,0608,VISAKHAPATNAM MAIN,VISAKHAPATNAM,VISAKHAPATNAM,ANDHRA PRADESH,ON
H0609101,0609,VIZIANAGARAM,SRIKAKULAM,VISAKHAPATNAM,ANDHRA PRADESH,ON
H0610101,0610,VUNDRAJAVARAM,ELURU,VIJAYAWADA,ANDHRA PRADESH,ON
H0611101,0611,VUYYUR,VIJAYAWADA,VIJAYAWADA,ANDHRA PRADESH,ON
H0612101,0612,PERUR,TIRUPATHI,BANGALORE,ANDHRA PRADESH,ON
H0613101,0613,VIKARABAD,HYDERABAD-II,HYDERABAD,TELANGANA,ON
H0616101,0616,VELLORE,CHENNAI,BANGALORE,TAMIL NADU,ON
H0620101,0620,VARANASI,LUCKNOW,NEWDELHI,UTTAR PRADESH,OFF
H0621101,0621,VEMPA,ELURU,VIJAYAWADA,ANDHRA PRADESH,ON
H0623101,0623,VEMULAWADA,KARIMNAGAR,TELANGANA,TELANGANA,ON
H0624101,0624,VEENAVANKA,KARIMNAGAR,TELANGANA,TELANGANA,ON
H0626101,0626,VEERABHADRAPURAM,KAKINADA,VISAKHAPATNAM,ANDHRA PRADESH,ON
H0627101,0627,VASHI,MUMBAI,MUMBAI,MAHARASHTRA,ON
H0628101,0628,VISHWAS NAGAR,NEWDELHI,NEWDELHI,DELHI,ON
H0630101,0630,WARANGAL MAIN,WARANGAL,TELANGANA,TELANGANA,ON
H0631101,0631,WOODPET,VISAKHAPATNAM,VISAKHAPATNAM,ANDHRA PRADESH,ON
H0632101,0632,WANAPARTHY,MAHABOOBNAGAR,TELANGANA,TELANGANA,ON
H0633101,0633,WALTAIR,VISAKHAPATNAM,VISAKHAPATNAM,ANDHRA PRADESH,ON
H0634101,0634,WARDHA,PUNE,MUMBAI,MAHARASHTRA,ON
H0636101,0636,WYRA,WARANGAL,TELANGANA,TELANGANA,ON
H0637101,0637,WASHERMANPET,CHENNAI,BANGALORE,TAMIL NADU,ON
H0640101,0640,PANAJI,HUBLI,BANGALORE,GOA,ON
H0642101,0642,KESAMUDRAM,WARANGAL,TELANGANA,TELANGANA,ON
H0643101,0643,"CBIT CAMPUS,KOKAPET",HYDERABAD-II,HYDERABAD,TELANGANA,ON
H0644101,0644,KODALI,VIJAYAWADA,VIJAYAWADA,ANDHRA PRADESH,ON
H0650101,0650,YELAMANCHILI,VISAKHAPATNAM,VISAKHAPATNAM,ANDHRA PRADESH,ON
H0651101,0651,YELESWARAM,KAKINADA,VISAKHAPATNAM,ANDHRA PRADESH,ON
H0652101,0652,YEMMIGANUR,KURNOOL,HYDERABAD,ANDHRA PRADESH,ON
H0656101,0656,YERPEDU,TIRUPATHI,BANGALORE,ANDHRA PRADESH,ON
H0659101,0659,YENDAGANDI,ELURU,VIJAYAWADA,ANDHRA PRADESH,ON
H0661101,0661,DUDDEDA,KARIMNAGAR,TELANGANA,TELANGANA,ON
H0669101,0669,Z.RAGAMPET,KAKINADA,VISAKHAPATNAM,ANDHRA PRADESH,ON
H0696102,0696,GORATNLA,GUNTUR,VIJAYAWADA,ANDHRA PRADESH,ON
H0702101,0702,ANANTHAPALLI,ELURU,VIJAYAWADA,ANDHRA PRADESH,ON
H0703101,0703,ADYAR,CHENNAI,BANGALORE,TAMIL NADU,ON
H0706101,0706,ASHOK NAGAR,HYDERABAD-I,HYDERABAD,TELANGANA,ON
H0707101,0707,AGRA,MEERUT,NEWDELHI,UTTAR PRADESH,OFF
H0712101,0712,AMARCHINTHA,MAHABOOBNAGAR,TELANGANA,TELANGANA,ON
H0714101,0714,AUTO NAGAR,VIJAYAWADA,VIJAYAWADA,ANDHRA PRADESH,ON
H0716101,0716,ANKSAPUR,NIZAMABAD,TELANGANA,TELANGANA,ON
H0719101,0719,ASHOKNAGAR,ELURU,VIJAYAWADA,ANDHRA PRADESH,ON
H0720101,0720,ALAMPURAM,ELURU,VIJAYAWADA,ANDHRA PRADESH,ON
H0727101,0727,SANCHAM,SRIKAKULAM,VISAKHAPATNAM,ANDHRA PRADESH,ON
H0730101,0730,BANDARULANKA,KAKINADA,VISAKHAPATNAM,ANDHRA PRADESH,ON
H0731101,0731,BURRABAZAR,KOLKATA,BHUBANESWAR,WEST BENGAL,ON
H0732101,0732,BADVEL,TIRUPATHI,BANGALORE,ANDHRA PRADESH,ON
H0733101,0733,BODHAN ROAD,NIZAMABAD,TELANGANA,TELANGANA,ON
H0735101,0735,BEJJANKI,KARIMNAGAR,TELANGANA,TELANGANA,OFF
H0737101,0737,BALKONDA,NIZAMABAD,TELANGANA,TELANGANA,ON
H0738101,0738,BHIRKHUR,NIZAMABAD,TELANGANA,TELANGANA,ON
H0742101,0742,BALUGAON,BHUBANESWAR,BHUBANESWAR,ODISHA,ON
H0743101,0743,BIBIPET,NIZAMABAD,TELANGANA,TELANGANA,ON
H0745101,0745,BUDHESWARI COLONY,BHUBANESWAR,BHUBANESWAR,ODISHA,ON
H0745102,0745,SUNSHINE HOSPITAL,BHUBANESWAR,BHUBANESWAR,ODISHA,OFF
H0748101,0748,BOINPALLI,KARIMNAGAR,TELANGANA,TELANGANA,ON
H0749101,0749,BADA BAZAR,NIZAMABAD,TELANGANA,TELANGANA,ON
H0750101,0750,BUS STATION COMPLEX,WARANGAL,TELANGANA,TELANGANA,ON
H0760101,0760,L B NAGAR,WARANGAL,TELANGANA,TELANGANA,ON
H0771101,0771,CHILUVURU,GUNTUR,VIJAYAWADA,ANDHRA PRADESH,ON
H0772101,0772,CHINNABAZAR,ONGOLE,VIJAYAWADA,ANDHRA PRADESH,ON
H0773101,0773,CHANDNI CHOWK,NEWDELHI,NEWDELHI,DELHI,ON
H0775101,0775,CHINNAGOTTIGALLU,TIRUPATHI,BANGALORE,ANDHRA PRADESH,ON
H0776101,0776,CHIGURUMAMIDI,KARIMNAGAR,TELANGANA,TELANGANA,ON
H0784101,0784,CHETPET,CHENNAI,BANGALORE,TAMIL NADU,ON
H0785101,0785,CHALLUR,KARIMNAGAR,TELANGANA,TELANGANA,ON
H0789101,0789,DONDAPUDI,ELURU,VIJAYAWADA,ANDHRA PRADESH,ON
H0791101,0791,DOMBIVLI,MUMBAI,MUMBAI,MAHARASHTRA,ON
H0800101,0800,KALLUR,WARANGAL,TELANGANA,TELANGANA,ON
H0801101,0801,JATNI,BHUBANESWAR,BHUBANESWAR,ODISHA,ON
H0803101,0803,KALYANAKANI,KARIMNAGAR,TELANGANA,TELANGANA,ON
H0804101,0804,KODIMIAL,KARIMNAGAR,TELANGANA,TELANGANA,OFF
H0805101,0805,KOILAKUNTLA,KURNOOL,HYDERABAD,ANDHRA PRADESH,ON
H0806101,0806,KONKAPALLI,KAKINADA,VISAKHAPATNAM,ANDHRA PRADESH,ON
H0809101,0809,KOMAROLE,ONGOLE,VIJAYAWADA,ANDHRA PRADESH,ON
H0810101,0810,KOTHAPALLI HAVELI,KARIMNAGAR,TELANGANA,TELANGANA,ON
H0811101,0811,KESAVAPATNAM,KARIMNAGAR,TELANGANA,TELANGANA,OFF
H0812102,0812,K K NAGAR,CHENNAI,BANGALORE,TAMIL NADU,ON
H0813101,0813,KANPUR,LUCKNOW,NEWDELHI,UTTAR PRADESH,ON
H0814101,0814,KOTHAPET,GUNTUR,VIJAYAWADA,ANDHRA PRADESH,ON
H0817101,0817,KALAKADA,TIRUPATHI,BANGALORE,ANDHRA PRADESH,ON
H0822101,0822,KONDURG,HYDERABAD-II,HYDERABAD,TELANGANA,ON
H0823101,0823,KAMARPALLY,NIZAMABAD,TELANGANA,TELANGANA,ON
H0824101,0824,KOYYALAGUDEM,ELURU,VIJAYAWADA,ANDHRA PRADESH,ON
H0826101,0826,KOSINI CHINTHAGUDA,KARIMNAGAR,TELANGANA,TELANGANA,ON
H0829101,0829,KANAGALA,GUNTUR,VIJAYAWADA,ANDHRA PRADESH,ON
H0832101,0832,KEERIPATTI,COIMBATORE,BANGALORE,TAMIL NADU,ON
H0835101,0835,KARWAN,HYDERABAD-I,HYDERABAD,TELANGANA,ON
H0836101,0836,KUCHIPUDI,GUNTUR,VIJAYAWADA,ANDHRA PRADESH,ON
H0837101,0837,LAKKAVARAM,ELURU,VIJAYAWADA,ANDHRA PRADESH,ON
H0838101,0838,LEWIS ROAD,BHUBANESWAR,BHUBANESWAR,ODISHA,ON
H0841101,0841,MANGALBAGH,BHUBANESWAR,BHUBANESWAR,ODISHA,OFF
H0843101,0843,MANTHANI,KARIMNAGAR,TELANGANA,TELANGANA,ON
H0844101,0844,MUSTABAD,KARIMNAGAR,TELANGANA,TELANGANA,OFF
H0845101,0845,MULUND,MUMBAI,MUMBAI,MAHARASHTRA,ON
H0846101,0846,MATTAMPALLI,MAHABOOBNAGAR,TELANGANA,TELANGANA,ON
H0849101,0849,MULUG GHANPUR,WARANGAL,TELANGANA,TELANGANA,ON
H0850101,0850,MAIDPALLI,KARIMNAGAR,TELANGANA,TELANGANA,OFF
H0851101,0851,"STATION ROAD, BUDH BAZAR",MEERUT,NEWDELHI,UTTAR PRADESH,ON
H0853101,0853,MANUGURU,WARANGAL,TELANGANA,TELANGANA,ON
H0854101,0854,MEHDIPATNAM,HYDERABAD-I,HYDERABAD,TELANGANA,ON
H0856101,0856,MAHIM,MUMBAI,MUMBAI,MAHARASHTRA,ON
H0858102,0858,MUKKARAMJAHI ROAD,HYDERABAD-I,HYDERABAD,TELANGANA,ON
H0866101,0866,MANGAPET,WARANGAL,TELANGANA,TELANGANA,ON
H0870101,0870,NARAYANPET,MAHABOOBNAGAR,TELANGANA,TELANGANA,OFF
H0874101,0874,NANGNOOR,KARIMNAGAR,TELANGANA,TELANGANA,ON
H0876101,0876,NAGIREDDYPET,NIZAMABAD,TELANGANA,TELANGANA,ON
H0877101,0877,NIDAMANURU,VIJAYAWADA,VIJAYAWADA,ANDHRA PRADESH,OFF
H0878101,0878,NASPUR,KARIMNAGAR,TELANGANA,TELANGANA,ON
H0881101,0881,NAKKALAGUTTA,WARANGAL,TELANGANA,TELANGANA,ON
H0884101,0884,NARASINGARAOPET,KURNOOL,HYDERABAD,ANDHRA PRADESH,ON
H0890101,0890,M L PURAM,KARIMNAGAR,TELANGANA,TELANGANA,OFF
H0895101,0895,MADHUSUDHAN NAGAR,BHUBANESWAR,BHUBANESWAR,ODISHA,ON
H0898101,0898,MULAPET,ONGOLE,VIJAYAWADA,ANDHRA PRADESH,ON
H0900101,0900,PITCHATUR,TIRUPATHI,BANGALORE,ANDHRA PRADESH,ON
H0901101,0901,PERKET,NIZAMABAD,TELANGANA,TELANGANA,ON
H0902101,0902,PENUKONDA,KURNOOL,HYDERABAD,ANDHRA PRADESH,ON
H0904101,0904,PUNADIPADU,VIJAYAWADA,VIJAYAWADA,ANDHRA PRADESH,ON
H0911101,0911,PEDDMANGALARAM,HYDERABAD-II,HYDERABAD,TELANGANA,ON
H0924101,0924,MADAKALAVARI PALLI,TIRUPATHI,BANGALORE,ANDHRA PRADESH,ON
H0927101,0927,JANDRAPET,ONGOLE,VIJAYAWADA,ANDHRA PRADESH,ON
H0934101,0934,RAMALINGESWARARAOPET,GUNTUR,VIJAYAWADA,ANDHRA PRADESH,ON
H0941101,0941,RAMAVARAM,KAKINADA,VISAKHAPATNAM,ANDHRA PRADESH,ON
H0953101,0953,SADAR BAZAAR,NEWDELHI,NEWDELHI,DELHI,ON
H0955101,0955,STEELPLANT TOWNSHIP,VISAKHAPATNAM,VISAKHAPATNAM,ANDHRA PRADESH,ON
H0962101,0962,KANDUKUR,WARANGAL,TELANGANA,TELANGANA,ON
H0963101,0963,RANGAPURAM,WARANGAL,TELANGANA,TELANGANA,ON
H0964101,0964,MOTHUGUDEM,KAKINADA,VISAKHAPATNAM,ANDHRA PRADESH,ON
H0967101,0967,KATHIPUDI,KAKINADA,VISAKHAPATNAM,ANDHRA PRADESH,ON
H0976101,0976,MUNIPAMPULA,MAHABOOBNAGAR,TELANGANA,TELANGANA,ON
H0977101,0977,HALIA,MAHABOOBNAGAR,TELANGANA,TELANGANA,ON
H0983101,0983,TANGUTUR,ONGOLE,VIJAYAWADA,ANDHRA PRADESH,ON
H0985101,0985,TADWAI,NIZAMABAD,TELANGANA,TELANGANA,ON
H0991101,0991,RAMANUJA CIRCLE,TIRUPATHI,BANGALORE,ANDHRA PRADESH,ON
H1005101,1005,LALACHERUVU,KAKINADA,VISAKHAPATNAM,ANDHRA PRADESH,ON
H1009101,1009,SEC 44 D CHANDIGARH,CHANDIGARH,NEWDELHI,CHANDIGARH,ON
H1013101,1013,CUDDALORE,CHENNAI,BANGALORE,TAMIL NADU,ON
H1014101,1014,AVADI,CHENNAI,BANGALORE,TAMIL NADU,ON
H1015101,1015,FARIDABAD,NEWDELHI,NEWDELHI,HARYANA,ON
H1016101,1016,INDUSTRIAL ESTATE BRANCH,ELURU,VIJAYAWADA,ANDHRA PRADESH,ON
H1019101,1019,BETAMCHERLA,KURNOOL,HYDERABAD,ANDHRA PRADESH,ON
H1020101,1020,PAKALA,TIRUPATHI,BANGALORE,ANDHRA PRADESH,OFF
H1022101,1022,BALASORE,BHUBANESWAR,BHUBANESWAR,ODISHA,ON
H1023101,1023,SALT LAKE CITY,KOLKATA,BHUBANESWAR,WEST BENGAL,ON
H1025101,1025,NAIDUPET,ONGOLE,VIJAYAWADA,ANDHRA PRADESH,ON
H1026101,1026,CHANDRAGIRI,TIRUPATHI,BANGALORE,ANDHRA PRADESH,ON
H1027101,1027,IBRAHIMPATNAM,VIJAYAWADA,VIJAYAWADA,ANDHRA PRADESH,ON
H1032101,1032,SVU CAMPUS,TIRUPATHI,BANGALORE,ANDHRA PRADESH,ON
H1033101,1033,SVOC (E-LOBBY),TIRUPATHI,BANGALORE,ANDHRA PRADESH,ON
H1034101,1034,JNTU CAMPUS,SECUNDERABAD,HYDERABAD,TELANGANA,ON
H1039101,1039,JAMMALAMADUGU,TIRUPATHI,BANGALORE,ANDHRA PRADESH,ON
H1040101,1040,MYDUKUR,TIRUPATHI,BANGALORE,ANDHRA PRADESH,ON
H1041101,1041,NAGARI,TIRUPATHI,BANGALORE,ANDHRA PRADESH,ON
H1042102,1042,RAJDHANI ENCLAVE,NEWDELHI,NEWDELHI,DELHI,ON
H1044101,1044,VIKAS NAGAR,HYDERABAD-II,HYDERABAD,TELANGANA,ON
H1045101,1045,BDL CAMPUS,HYDERABAD-I,HYDERABAD,TELANGANA,ON
H1046101,1046,M.V.P. COLONY,VISAKHAPATNAM,VISAKHAPATNAM,ANDHRA PRADESH,ON
H1046102,1046,M.V.P. OFFSITE,VISAKHAPATNAM,VISAKHAPATNAM,ANDHRA PRADESH,OFF
H1048101,1048,ST JOHN EMHS BRANCH,KARIMNAGAR,TELANGANA,TELANGANA,ON
H1053101,1053,ZAHEERABAD,NIZAMABAD,TELANGANA,TELANGANA,ON
H1054101,1054,MOHALI,LUDHIANA,NEWDELHI,PUNJAB,ON
H1055101,1055,MADHIRA,WARANGAL,TELANGANA,TELANGANA,ON
H1057101,1057,SPL AGL FINANCE GOLLAPUDI,VIJAYAWADA,VIJAYAWADA,ANDHRA PRADESH,ON
H1059101,1059,OMC CAMPUS,BHUBANESWAR,BHUBANESWAR,ODISHA,ON
H1061101,1061,BHAWANIPATNA,BERHAMPUR,BHUBANESWAR,ODISHA,OFF
H1063101,1063,BARBIL,SAMBALPUR,BHUBANESWAR,ODISHA,ON
H1067101,1067,MARKAPUR,ONGOLE,VIJAYAWADA,ANDHRA PRADESH,ON
H1068101,1068,V R COLLEGE,ONGOLE,VIJAYAWADA,ANDHRA PRADESH,ON
H1071101,1071,CRR COLLEGE BRANCH,ELURU,VIJAYAWADA,ANDHRA PRADESH,ON
H1072101,1072,SULLURPET,ONGOLE,VIJAYAWADA,ANDHRA PRADESH,ON
H1073101,1073,ANYTIME E-BANKING CENTRE,VISAKHAPATNAM,VISAKHAPATNAM,ANDHRA PRADESH,OFF
H1074101,1074,MURALINAGAR,VISAKHAPATNAM,VISAKHAPATNAM,ANDHRA PRADESH,ON
H1076101,1076,ANUPPARPALAYAM,COIMBATORE,BANGALORE,TAMIL NADU,ON
H1077101,1077,SALIGRAMAM,CHENNAI,BANGALORE,TAMIL NADU,ON
H1078101,1078,VASANT KUNJ,NEWDELHI,NEWDELHI,DELHI,ON
H1079101,1079,NIMS BRANCH,HYDERABAD-I,HYDERABAD,TELANGANA,ON
H1082102,1082,MR PALLI,TIRUPATHI,BANGALORE,ANDHRA PRADESH,OFF
H1082103,1082,AIRBYPASS ROAD ( E-LOBBY),TIRUPATHI,BANGALORE,ANDHRA PRADESH,ON
H1084101,1084,HORLICKS FACTORY,KAKINADA,VISAKHAPATNAM,ANDHRA PRADESH,ON
H1087101,1087,MARGAO,HUBLI,BANGALORE,GOA,ON
H1089101,1089,A P BHAWAN,NEWDELHI,NEWDELHI,DELHI,ON
H1090101,1090,SEVOKE ROAD,KOLKATA,BHUBANESWAR,WEST BENGAL,ON
H1096101,1096,NOONEPALLI,KURNOOL,HYDERABAD,ANDHRA PRADESH,ON
H1097101,1097,SHADNAGAR,HYDERABAD-II,HYDERABAD,TELANGANA,OFF
H1098101,1098,TALLADA,WARANGAL,TELANGANA,TELANGANA,ON
H1099101,1099,RAILWAY KODUR,TIRUPATHI,BANGALORE,ANDHRA PRADESH,ON
H1103101,1103,SECRETARIAT,HYDERABAD-I,HYDERABAD,TELANGANA,ON
H1106101,1106,NOIDA,NEWDELHI,NEWDELHI,UTTAR PRADESH,ON
H1107101,1107,NEW RTC BUSTAND BRANCH,KURNOOL,HYDERABAD,ANDHRA PRADESH,ON
H1108101,1108,"J K C COLLEGE,RING ROAD",GUNTUR,VIJAYAWADA,ANDHRA PRADESH,ON
H1109101,1109,SIRIS,VIJAYAWADA,VIJAYAWADA,ANDHRA PRADESH,ON
H1110101,1110,SRINIVASAPURAM,SECUNDERABAD,HYDERABAD,TELANGANA,ON
H1113101,1113,HUSNABAD,KARIMNAGAR,TELANGANA,TELANGANA,ON
H1115102,1115,GURGAON,NEWDELHI,NEWDELHI,HARYANA,ON
H1117102,1117,PIMPRI,PUNE,MUMBAI,MAHARASHTRA,ON
H1117103,1117,PIMPRI CHINCHWAD,PUNE,MUMBAI,MAHARASHTRA,OFF
H1119101,1119,KUKATPALLY,SECUNDERABAD,HYDERABAD,TELANGANA,ON
H1120101,1120,MALKAJGIRI,SECUNDERABAD,HYDERABAD,TELANGANA,ON
H1121101,1121,B N REDDY NAGAR,HYDERABAD-II,HYDERABAD,TELANGANA,ON
H1122101,1122,FILM NAGAR,HYDERABAD-I,HYDERABAD,TELANGANA,ON
H1123101,1123,KAMAN,KARIMNAGAR,TELANGANA,TELANGANA,OFF
H1124101,1124,S V L N S V P JR.COLLEGE,VISAKHAPATNAM,VISAKHAPATNAM,ANDHRA PRADESH,ON
H1125101,1125,VIGNAN MANDIR VIDYALAYA,KURNOOL,HYDERABAD,ANDHRA PRADESH,ON
H1129101,1129,SATYA MURTHY NAGAR,CHENNAI,BANGALORE,TAMIL NADU,ON
H1131101,1131,PALM VIHAR,NEWDELHI,NEWDELHI,HARYANA,ON
H1132102,1132,DWARKA SEC 10,NEWDELHI,NEWDELHI,DELHI,ON
H1134101,1134,ROHTAK,CHANDIGARH,NEWDELHI,HARYANA,ON
H1140101,1140,H S R LAYOUT,BANGALORE,BANGALORE,KARNATAKA,ON
H1145101,1145,NAGOLE,SECUNDERABAD,HYDERABAD,TELANGANA,ON
H1148101,1148,SYAMALANAGAR,GUNTUR,VIJAYAWADA,ANDHRA PRADESH,ON
H1154101,1154,SAROOR NAGAR,HYDERABAD-II,HYDERABAD,TELANGANA,ON
H1155101,1155,"ZILLA PARISHAD, MACHILIPATNAM",VIJAYAWADA,VIJAYAWADA,ANDHRA PRADESH,ON
H1159101,1159,KONGAREDDY PALLI,TIRUPATHI,BANGALORE,ANDHRA PRADESH,ON
H1167101,1167,8TH INCLINE COLONY,KARIMNAGAR,TELANGANA,TELANGANA,ON
H1170101,1170,VIDYAPEETH,BANGALORE,BANGALORE,KARNATAKA,ON
H1173101,1173,ROHINI,NEWDELHI,NEWDELHI,DELHI,ON
H1174101,1174,VELACHERY,CHENNAI,BANGALORE,TAMIL NADU,ON
H1175101,1175,THRISSUR,KOCHI,BANGALORE,KERALA,ON
H1176101,1176,PEELAMEDU,COIMBATORE,BANGALORE,TAMIL NADU,ON
H1178101,1178,MARKANDEYA COLONY,KARIMNAGAR,TELANGANA,TELANGANA,ON
H1179101,1179,PATTABHI BHAVAN,HYDERABAD-I,HYDERABAD,TELANGANA,ON
H1180101,1180,PEERZADIGUDA,SECUNDERABAD,HYDERABAD,TELANGANA,ON
H1182101,1182,NKRM JR COLLEGE,ONGOLE,VIJAYAWADA,ANDHRA PRADESH,ON
H1183101,1183,OOTY,COIMBATORE,BANGALORE,TAMIL NADU,ON
H1184101,1184,HAZARIBAGH,PATNA,BHUBANESWAR,JHARKHAND,ON
H1185101,1185,AGRL COLLEGE BRANCH,GUNTUR,VIJAYAWADA,ANDHRA PRADESH,ON
H1191101,1191,VANINAGAR,KARIMNAGAR,TELANGANA,TELANGANA,ON
H1192101,1192,RAMAVARAPPADU CIRCLE,VIJAYAWADA,VIJAYAWADA,ANDHRA PRADESH,ON
H1193101,1193,TADIGADAPA,VIJAYAWADA,VIJAYAWADA,ANDHRA PRADESH,ON
H1194101,1194,KAVADIGUDA,HYDERABAD-I,HYDERABAD,TELANGANA,ON
H1195101,1195,PANKHA ROAD,NEWDELHI,NEWDELHI,DELHI,ON
H1196101,1196,BANNERGATTA ROAD,BANGALORE,BANGALORE,KARNATAKA,ON
H1205101,1205,DIAMOND POINT,SECUNDERABAD,HYDERABAD,TELANGANA,ON
H1209101,1209,DEHRADUN,MEERUT,NEWDELHI,UTTARAKHAND,ON
H1211101,1211,AJMER,JAIPUR,NEWDELHI,RAJASTHAN,ON
H1212101,1212,BOKARO,PATNA,BHUBANESWAR,JHARKHAND,ON
H1216101,1216,METTUGADDA,MAHABOOBNAGAR,TELANGANA,TELANGANA,ON
H1222101,1222,GOVT COOKOON MARKET,KURNOOL,HYDERABAD,ANDHRA PRADESH,ON
H1224101,1224,NAYEEMNAGAR,WARANGAL,TELANGANA,TELANGANA,ON
H1227101,1227,SULTANABAD,KARIMNAGAR,TELANGANA,TELANGANA,ON
H1229101,1229,RAMESHNAGAR,KARIMNAGAR,TELANGANA,TELANGANA,ON
H1233101,1233,PORUR,CHENNAI,BANGALORE,TAMIL NADU,ON
H1237101,1237,GHODBUNDER ROAD,MUMBAI,MUMBAI,MAHARASHTRA,ON
H1239101,1239,MARTHOMA CENTRE,SECUNDERABAD,HYDERABAD,TELANGANA,ON
H1240101,1240,BHAVANIPURAM,VIJAYAWADA,VIJAYAWADA,ANDHRA PRADESH,ON
H1241101,1241,YESWANTHAPUR,BANGALORE,BANGALORE,KARNATAKA,ON
H1242101,1242,MAIN BAZAR BRANCH,ELURU,VIJAYAWADA,ANDHRA PRADESH,ON
H1245101,1245,HAYATNAGAR,HYDERABAD-II,HYDERABAD,TELANGANA,ON
H1246101,1246,TURKAMJYAL,HYDERABAD-II,HYDERABAD,TELANGANA,ON
H1247101,1247,RAYACHOTI,TIRUPATHI,BANGALORE,ANDHRA PRADESH,ON
H1249101,1249,CHERALAPALLY,SECUNDERABAD,HYDERABAD,TELANGANA,ON
H1255101,1255,RAJENDRA NAGAR,HYDERABAD-II,HYDERABAD,TELANGANA,ON
H1260101,1260,GAJULARAMARAM,SECUNDERABAD,HYDERABAD,TELANGANA,OFF
H1261101,1261,DHANBAD,PATNA,BHUBANESWAR,JHARKHAND,ON
H1265101,1265,CHOUTUPPAL,MAHABOOBNAGAR,TELANGANA,TELANGANA,ON
H1266101,1266,NAKIREKAL,MAHABOOBNAGAR,TELANGANA,TELANGANA,ON
H1267101,1267,VIKASPURI,NEWDELHI,NEWDELHI,DELHI,ON
H1269101,1269,KARAIKAL,CHENNAI,BANGALORE,PONDICHERRY,ON
H1276101,1276,KEELKATTALAI,CHENNAI,BANGALORE,TAMIL NADU,ON
H1279101,1279,PAMMAL,CHENNAI,BANGALORE,TAMIL NADU,ON
H1285101,1285,GEORGEPET,KURNOOL,HYDERABAD,ANDHRA PRADESH,ON
H1288101,1288,"MAHAVIR BAZAR,DHENKANAL",SAMBALPUR,BHUBANESWAR,ODISHA,ON
H1290101,1290,BHUPALAPALLY,WARANGAL,TELANGANA,TELANGANA,ON
H1292101,1292,K AUTO NAGAR,WARANGAL,TELANGANA,TELANGANA,ON
H1293101,1293,HABSIGUDA,SECUNDERABAD,HYDERABAD,TELANGANA,ON
H1294101,1294,VANASTHALIPURAM,HYDERABAD-II,HYDERABAD,TELANGANA,ON
H1295101,1295,ATTAPUR,HYDERABAD-II,HYDERABAD,TELANGANA,ON
H1296101,1296,PRABODHA BOOK CENTRE,VIJAYAWADA,VIJAYAWADA,ANDHRA PRADESH,ON
H1299101,1299,KEONJHAR,SAMBALPUR,BHUBANESWAR,ODISHA,ON
H1305101,1305,SSN DEGREE COLLEGE BRANCH,ONGOLE,VIJAYAWADA,ANDHRA PRADESH,ON
H1306101,1306,TOLI CHOWKI,HYDERABAD-I,HYDERABAD,TELANGANA,ON
H1307101,1307,DEFENCE COLONY BRANCH,SECUNDERABAD,HYDERABAD,TELANGANA,ON
H1308101,1308,GRIET MEGA HILLS COMPLEX,HYDERABAD-II,HYDERABAD,TELANGANA,ON
H1309101,1309,YAPRAL,SECUNDERABAD,HYDERABAD,TELANGANA,ON
H1310101,1310,CHINTAL,SECUNDERABAD,HYDERABAD,TELANGANA,ON
H1312101,1312,SRIRAMAKRISHNAPURAM,HYDERABAD-II,HYDERABAD,TELANGANA,ON
H1313101,1313,ANAND BAGH,SECUNDERABAD,HYDERABAD,TELANGANA,ON
H1314101,1314,VENKATAPURAM,SECUNDERABAD,HYDERABAD,TELANGANA,ON
H1317101,1317,LAXMI NAGAR,VIJAYAWADA,VIJAYAWADA,ANDHRA PRADESH,ON
H1318101,1318,COLLECTORATE WARANGAL,WARANGAL,TELANGANA,TELANGANA,ON
H1321101,1321,MOGAPPAIR,CHENNAI,BANGALORE,TAMIL NADU,ON
H1322101,1322,CHITYALA,MAHABOOBNAGAR,TELANGANA,TELANGANA,ON
H1323101,1323,VILIVAKKAM,CHENNAI,BANGALORE,TAMIL NADU,ON
H1324101,1324,KORAPUT,BERHAMPUR,BHUBANESWAR,ODISHA,ON
H1331101,1331,KALYAN NAGAR,BANGALORE,BANGALORE,KARNATAKA,ON
H1332101,1332,EAST POINT COLONY,VISAKHAPATNAM,VISAKHAPATNAM,ANDHRA PRADESH,ON
H1334101,1334,CONTONMENT,SRIKAKULAM,VISAKHAPATNAM,ANDHRA PRADESH,ON
H1335101,1335,MADURAVOYAL,CHENNAI,BANGALORE,TAMIL NADU,ON
H1336101,1336,COLLECTORATE ROAD BRANCH,KARIMNAGAR,TELANGANA,TELANGANA,ON
H1339101,1339,RAMNAGAR,HYDERABAD-I,HYDERABAD,TELANGANA,ON
H1341101,1341,MEERPET,HYDERABAD-II,HYDERABAD,TELANGANA,ON
H1345101,1345,DARSI,ONGOLE,VIJAYAWADA,ANDHRA PRADESH,ON
H1348101,1348,NAYAGARH,BHUBANESWAR,BHUBANESWAR,ODISHA,ON
H1350101,1350,VYTILLA,KOCHI,BANGALORE,KERALA,ON
H1351101,1351,MANAVALANAGAR,CHENNAI,BANGALORE,TAMIL NADU,ON
H1352101,1352,NAGARBHAVI,BANGALORE,BANGALORE,KARNATAKA,ON
H1353101,1353,KARAIKUDI,COIMBATORE,BANGALORE,TAMIL NADU,ON
H1354101,1354,DHARMAPURI,KARIMNAGAR,TELANGANA,TELANGANA,ON
H1355101,1355,RAJEEV NAGAR,HYDERABAD-I,HYDERABAD,TELANGANA,ON
H1358101,1358,DAV NOIDA,NEWDELHI,NEWDELHI,UTTAR PRADESH,ON
H1359101,1359,BRINDAVAN GARDENS,GUNTUR,VIJAYAWADA,ANDHRA PRADESH,ON
H1361101,1361,KANIPAKAM,TIRUPATHI,BANGALORE,ANDHRA PRADESH,ON
H1363101,1363,GEETA VATIKA,LUCKNOW,NEWDELHI,UTTAR PRADESH,ON
H1365101,1365,INFANTRY ROAD,HUBLI,BANGALORE,KARNATAKA,ON
H1366101,1366,HAL IIND STAGE,BANGALORE,BANGALORE,KARNATAKA,ON
H1372101,1372,VAPI,AHMEDABAD,MUMBAI,GUJARAT,ON
H1374101,1374,JAGATSINGHPUR,BHUBANESWAR,BHUBANESWAR,ODISHA,ON
H1378101,1378,BOWENPALLY,SECUNDERABAD,HYDERABAD,TELANGANA,ON
H1380101,1380,VISSANNAPET,VIJAYAWADA,VIJAYAWADA,ANDHRA PRADESH,ON
H1381101,1381,BURHANPURAM,WARANGAL,TELANGANA,TELANGANA,ON
H1382101,1382,SAMBHUNIPET,WARANGAL,TELANGANA,TELANGANA,ON
H1383101,1383,MEERBAGH COLONY,MAHABOOBNAGAR,TELANGANA,TELANGANA,ON
H1385101,1385,PARAKALA,WARANGAL,TELANGANA,TELANGANA,ON
H1386101,1386,BHEEMGAL,NIZAMABAD,TELANGANA,TELANGANA,ON
H1387101,1387,MARTUR,ONGOLE,VIJAYAWADA,ANDHRA PRADESH,ON
H1388101,1388,SOZHINGANALLUR,CHENNAI,BANGALORE,TAMIL NADU,ON
H1389101,1389,IBRAHIMPATNAM,HYDERABAD-II,HYDERABAD,TELANGANA,ON
H1390101,1390,BIBI NAGAR,MAHABOOBNAGAR,TELANGANA,TELANGANA,ON
H1392101,1392,VASUNDHRA,NEWDELHI,NEWDELHI,UTTAR PRADESH,ON
H1393101,1393,SHANKARPALLY,HYDERABAD-II,HYDERABAD,TELANGANA,ON
H1396101,1396,ADARSHA NAGAR,VISAKHAPATNAM,VISAKHAPATNAM,ANDHRA PRADESH,ON
H1398101,1398,ELECTRONIC CITY BRANCH,BANGALORE,BANGALORE,KARNATAKA,ON
H1399101,1399,"OPP E-SEVA, ALWAL",SECUNDERABAD,HYDERABAD,TELANGANA,ON
H1403101,1403,KRISHNA NAGAR,HYDERABAD-I,HYDERABAD,TELANGANA,ON
H1405101,1405,MEDAK,NIZAMABAD,TELANGANA,TELANGANA,ON
H1406101,1406,KARAKAMBADI ROAD (E-LOBBY),TIRUPATHI,BANGALORE,ANDHRA PRADESH,ON
H1407101,1407,KENDRAPADA,BHUBANESWAR,BHUBANESWAR,ODISHA,ON
H1409101,1409,VEMPALLI,TIRUPATHI,BANGALORE,ANDHRA PRADESH,ON
H1410101,1410,SHAMSHABAD,HYDERABAD-II,HYDERABAD,TELANGANA,ON
H1410102,1410,RAJIV GANDHI INTERNATIONAL AIRPORT,HYDERABAD-II,HYDERABAD,TELANGANA,OFF
H1413101,1413,MOULA ALI,SECUNDERABAD,HYDERABAD,TELANGANA,ON
H1414101,1414,SERILINGAMPALLY,HYDERABAD-II,HYDERABAD,TELANGANA,ON
H1415101,1415,CHEVELLA,HYDERABAD-II,HYDERABAD,TELANGANA,ON
H1416101,1416,LANGER HOUSE,HYDERABAD-I,HYDERABAD,TELANGANA,ON
H1417101,1417,"COLLECTORATE COMPLEX, KHAMMAM",WARANGAL,TELANGANA,TELANGANA,ON
H1418101,1418,CHANDRAPURI COLONY,HYDERABAD-II,HYDERABAD,TELANGANA,ON
H1419101,1419,NAGARJUNA NAGAR COLONY,SECUNDERABAD,HYDERABAD,TELANGANA,ON
H1420101,1420,CHANDANAGAR,HYDERABAD-II,HYDERABAD,TELANGANA,OFF
H1423101,1423,AMBERPET,HYDERABAD-I,HYDERABAD,TELANGANA,ON
H1425101,1425,WEST MARREDPALLI,SECUNDERABAD,HYDERABAD,TELANGANA,ON
H1431101,1431,RAJENDRA NAGAR,MAHABOOBNAGAR,TELANGANA,TELANGANA,ON
H1432101,1432,BANASWADI,BANGALORE,BANGALORE,KARNATAKA,ON
H1434101,1434,SSI AREA,BANGALORE,BANGALORE,KARNATAKA,ON
H1442101,1442,PANDARIPURAM,GUNTUR,VIJAYAWADA,ANDHRA PRADESH,ON
H1443101,1443,SRIKSHETRA,BHUBANESWAR,BHUBANESWAR,ODISHA,ON
H1444101,1444,NUNNA,VIJAYAWADA,VIJAYAWADA,ANDHRA PRADESH,ON
H1446101,1446,MARKAT NAGAR,BHUBANESWAR,BHUBANESWAR,ODISHA,ON
H1448101,1448,UTTARAHALLI,BANGALORE,BANGALORE,KARNATAKA,ON
H1457101,1457,KOTHAVALASA,SRIKAKULAM,VISAKHAPATNAM,ANDHRA PRADESH,ON
H1458101,1458,HAROHALLI,BANGALORE,BANGALORE,KARNATAKA,ON
H1461101,1461,TAGARAPUVALSA,VISAKHAPATNAM,VISAKHAPATNAM,ANDHRA PRADESH,ON
H1462101,1462,KANURU,VIJAYAWADA,VIJAYAWADA,ANDHRA PRADESH,ON
H1463101,1463,WHITEFIELD,BANGALORE,BANGALORE,KARNATAKA,ON
H1466101,1466,SANSKRIT VIDYAPEET,TIRUPATHI,BANGALORE,ANDHRA PRADESH,ON
H1468102,1468,L B NAGAR,HYDERABAD-II,HYDERABAD,TELANGANA,ON
H1469101,1469,ILAYANGUDI,COIMBATORE,BANGALORE,TAMIL NADU,ON
H1471102,1471,TAMBARAM,CHENNAI,BANGALORE,TAMIL NADU,ON
H1472101,1472,PANGODE,KOCHI,BANGALORE,KERALA,ON
H1473101,1473,Anayara,KOCHI,BANGALORE,KERALA,ON
H1474101,1474,GARH ROAD,MEERUT,NEWDELHI,UTTAR PRADESH,ON
H1477101,1477,ASHOK NAGAR,KURNOOL,HYDERABAD,ANDHRA PRADESH,ON
H1478101,1478,MANKAMMATHOTA,KARIMNAGAR,TELANGANA,TELANGANA,ON
H1479101,1479,GHOSHALA ROAD,NIZAMABAD,TELANGANA,TELANGANA,ON
H1480101,1480,KHANDAGIRI,BHUBANESWAR,BHUBANESWAR,ODISHA,ON
H1481101,1481,RAMAYAMPET,NIZAMABAD,TELANGANA,TELANGANA,ON
H1482101,1482,TOOPRAN,NIZAMABAD,TELANGANA,TELANGANA,ON
H1485101,1485,BASARA,NIZAMABAD,TELANGANA,TELANGANA,OFF
H1486101,1486,JANMABHOOMI NAGAR,KARIMNAGAR,TELANGANA,TELANGANA,ON
H1490101,1490,RAGHUVANAHALLI,BANGALORE,BANGALORE,KARNATAKA,ON
H1491101,1491,K R PURAM,BANGALORE,BANGALORE,KARNATAKA,ON
H1496101,1496,IRC VILLAGE,BHUBANESWAR,BHUBANESWAR,ODISHA,ON
H1497101,1497,MADHYA KAILASH,CHENNAI,BANGALORE,TAMIL NADU,ON
H1500101,1500,SULUR,COIMBATORE,BANGALORE,TAMIL NADU,ON
H1501101,1501,JAFFERKHANPET,CHENNAI,BANGALORE,TAMIL NADU,ON
H1510101,1510,KARMANGHAT,HYDERABAD-II,HYDERABAD,TELANGANA,ON
H1512101,1512,NIZAMPET,SECUNDERABAD,HYDERABAD,TELANGANA,ON
H1514101,1514,BANJARA HILLS ROAD NO.14,HYDERABAD-I,HYDERABAD,TELANGANA,ON
H1521101,1521,GPREC,KURNOOL,HYDERABAD,ANDHRA PRADESH,ON
H1527101,1527,ASHOKA GARDEN,BHOPAL,MUMBAI,MADHYA PRADESH,ON
H1528101,1528,MPHB AYODHYA NAGAR,BHOPAL,MUMBAI,MADHYA PRADESH,ON
H1540101,1540,SREE VIDYANIKETHAN,TIRUPATHI,BANGALORE,ANDHRA PRADESH,ON
H1546101,1546,VISALAKSHI NAGAR,VISAKHAPATNAM,VISAKHAPATNAM,ANDHRA PRADESH,ON
H1550101,1550,MGH KHAMMAM,WARANGAL,TELANGANA,TELANGANA,ON
H1551101,1551,THORRUR,WARANGAL,TELANGANA,TELANGANA,ON
H1555101,1555,BAHADURPURA,HYDERABAD-I,HYDERABAD,TELANGANA,ON
H1556101,1556,BOUDUPPAL,SECUNDERABAD,HYDERABAD,TELANGANA,ON
H1557101,1557,YANAM,KAKINADA,VISAKHAPATNAM,PONDICHERRY,ON
H1559101,1559,CUMBUM,ONGOLE,VIJAYAWADA,ANDHRA PRADESH,ON
H1560101,1560,TNGOS COLONY,WARANGAL,TELANGANA,TELANGANA,ON
H1561101,1561,TUMKUR,BANGALORE,BANGALORE,KARNATAKA,ON
H1563101,1563,YERRAMUKKAPALLI,TIRUPATHI,BANGALORE,ANDHRA PRADESH,ON
H1566101,1566,SADASHIVPET,NIZAMABAD,TELANGANA,TELANGANA,ON
H1567101,1567,MANIKONDA,HYDERABAD-II,HYDERABAD,TELANGANA,ON
H1570101,1570,MEDARMETLA,ONGOLE,VIJAYAWADA,ANDHRA PRADESH,ON
H1571101,1571,ARMOOR,NIZAMABAD,TELANGANA,TELANGANA,OFF
H1572101,1572,DAMMAIGUDA,SECUNDERABAD,HYDERABAD,TELANGANA,ON
H1573101,1573,BANJARA HILLS ROAD NO.12,HYDERABAD-I,HYDERABAD,TELANGANA,ON
H1574101,1574,GAJWEL,KARIMNAGAR,TELANGANA,TELANGANA,ON
H1575101,1575,C V RAMAN NAGAR,BANGALORE,BANGALORE,KARNATAKA,ON
H1577101,1577,SANTHINAGAR (KAKINADA),KAKINADA,VISAKHAPATNAM,ANDHRA PRADESH,ON
H1578101,1578,SRINIVASANAGAR,KURNOOL,HYDERABAD,ANDHRA PRADESH,ON
H1579101,1579,VIMAN NAGAR,PUNE,MUMBAI,MAHARASHTRA,ON
H1583101,1583,VAVILALAPALLY,KARIMNAGAR,TELANGANA,TELANGANA,ON
H1586101,1586,PERUNGUDI,CHENNAI,BANGALORE,TAMIL NADU,ON
H1587101,1587,SHALIMAR GARDEN,NEWDELHI,NEWDELHI,UTTAR PRADESH,ON
H1590101,1590,MADAMBAKKAM,CHENNAI,BANGALORE,TAMIL NADU,ON
H1591101,1591,BHAGATNAGAR,KARIMNAGAR,TELANGANA,TELANGANA,ON
H1592101,1592,DMRL X ROADS,HYDERABAD-II,HYDERABAD,TELANGANA,ON
H1593101,1593,MOOSARAMBAGH,HYDERABAD-I,HYDERABAD,TELANGANA,ON
H1595101,1595,EDDUMAILARAM,NIZAMABAD,TELANGANA,TELANGANA,ON
H1609101,1609,SPECIALIZED RETAIL CREDIT,VIJAYAWADA,VIJAYAWADA,ANDHRA PRADESH,ON
H1612101,1612,"MLA COLONY,BANJARA HILLS 12",HYDERABAD-I,HYDERABAD,TELANGANA,ON
H1616101,1616,KILAPUK,CHENNAI,BANGALORE,TAMIL NADU,ON
H1618101,1618,BHIWANDI,MUMBAI,MUMBAI,MAHARASHTRA,ON
H1620101,1620,BACHUPALLY,SECUNDERABAD,HYDERABAD,TELANGANA,ON
H1621101,1621,BANDLAGUDEM,HYDERABAD-II,HYDERABAD,TELANGANA,ON
H1623101,1623,ULLHASNAGAR,MUMBAI,MUMBAI,MAHARASHTRA,ON
H1630101,1630,BORING ROAD,PATNA,BHUBANESWAR,BIHAR,ON
H1634101,1634,SAKCHI,PATNA,BHUBANESWAR,JHARKHAND,ON
H1648101,1648,SANPADA,MUMBAI,MUMBAI,MAHARASHTRA,ON
H1649101,1649,GHANSOLI,MUMBAI,MUMBAI,MAHARASHTRA,ON
H1650101,1650,KAMOTHE,MUMBAI,MUMBAI,MAHARASHTRA,ON
H1657101,1657,ALAMBAGH,LUCKNOW,NEWDELHI,UTTAR PRADESH,ON
H1659101,1659,PUTTENAHALLI,BANGALORE,BANGALORE,KARNATAKA,ON
H1660101,1660,DASARAHALLI,BANGALORE,BANGALORE,KARNATAKA,ON
H1669101,1669,BHIWANI,CHANDIGARH,NEWDELHI,HARYANA,ON
H1672101,1672,JHARIA,PATNA,BHUBANESWAR,JHARKHAND,ON
H1673101,1673,KASBA,KOLKATA,BHUBANESWAR,WEST BENGAL,ON
H1677101,1677,SIWAN,PATNA,BHUBANESWAR,BIHAR,ON
H1682101,1682,ALIGARH,MEERUT,NEWDELHI,UTTAR PRADESH,ON
H1683101,1683,"235, CIVIL LINES",MEERUT,NEWDELHI,UTTAR PRADESH,ON
H1685101,1685,KHANNA,LUDHIANA,NEWDELHI,PUNJAB,ON
H1686101,1686,BALLABHGARH,NEWDELHI,NEWDELHI,HARYANA,ON
H1688101,1688,HALDWANI,MEERUT,NEWDELHI,UTTARAKHAND,ON
H1690101,1690,Roorkee,MEERUT,NEWDELHI,UTTARAKHAND,ON
H1691101,1691,RUDRAPUR,MEERUT,NEWDELHI,UTTARAKHAND,ON
H1695101,1695,GREATER NOIDA,NEWDELHI,NEWDELHI,UTTAR PRADESH,ON
H1698101,1698,MUZAFFARNAGAR,MEERUT,NEWDELHI,UTTAR PRADESH,ON
H1703101,1703,VIDYANAGAR,BANGALORE,BANGALORE,KARNATAKA,ON
H1704101,1704,CHEGUNTA,NIZAMABAD,TELANGANA,TELANGANA,ON
H1707101,1707,DADRA,AHMEDABAD,MUMBAI,DADRA - NAGAR HAVELI,ON
H1709101,1709,DAHISAR,MUMBAI,MUMBAI,MAHARASHTRA,ON
H1712101,1712,MADHURA NAGAR,HYDERABAD-I,HYDERABAD,TELANGANA,ON
H1713101,1713,GANDHINAGAR,AHMEDABAD,MUMBAI,GUJARAT,ON
H1714101,1714,PRAGATHI NAGAR,SECUNDERABAD,HYDERABAD,TELANGANA,ON
H1721101,1721,GHATKESAR,SECUNDERABAD,HYDERABAD,TELANGANA,ON
H1722101,1722,BALAPUR,HYDERABAD-II,HYDERABAD,TELANGANA,ON
H1724101,1724,NAGARAM,SECUNDERABAD,HYDERABAD,TELANGANA,ON
H1726101,1726,ISNAPUR,NIZAMABAD,TELANGANA,TELANGANA,ON
H1727101,1727,MADINAGUDA,HYDERABAD-II,HYDERABAD,TELANGANA,ON
H1732101,1732,VARNI,NIZAMABAD,TELANGANA,TELANGANA,ON
H1733101,1733,NARSAPUR,NIZAMABAD,TELANGANA,TELANGANA,ON
H1734101,1734,MAMBAKKAM,CHENNAI,BANGALORE,TAMIL NADU,ON
H1735101,1735,PARIGI,HYDERABAD-II,HYDERABAD,TELANGANA,ON
H1738101,1738,VADDADI MADUGULA,VISAKHAPATNAM,VISAKHAPATNAM,ANDHRA PRADESH,ON
H1740101,1740,AGANAMPUDI,VISAKHAPATNAM,VISAKHAPATNAM,ANDHRA PRADESH,ON
H1741101,1741,DARGA JUNCTION,TIRUPATHI,BANGALORE,ANDHRA PRADESH,ON
H1743101,1743,BALAGA,SRIKAKULAM,VISAKHAPATNAM,ANDHRA PRADESH,ON
H1745101,1745,GANDHIDHAM,AHMEDABAD,MUMBAI,GUJARAT,ON
H1747101,1747,KOTHURU,SRIKAKULAM,VISAKHAPATNAM,ANDHRA PRADESH,ON
H1749101,1749,PADMAVATHI NAGAR,TIRUPATHI,BANGALORE,ANDHRA PRADESH,ON
H1750101,1750,NANDIPET,NIZAMABAD,TELANGANA,TELANGANA,ON
H1751101,1751,POKHARIPUT,BHUBANESWAR,BHUBANESWAR,ODISHA,ON
H1752101,1752,ITI CIRCLE,TIRUPATHI,BANGALORE,ANDHRA PRADESH,ON
H1753101,1753,MUNDY BAZAR,TIRUPATHI,BANGALORE,ANDHRA PRADESH,ON
H1755101,1755,YMR COLONY,TIRUPATHI,BANGALORE,ANDHRA PRADESH,ON
H1763101,1763,NEW BOYANAPALLI,TIRUPATHI,BANGALORE,ANDHRA PRADESH,ON
H1764101,1764,UPPAL,SECUNDERABAD,HYDERABAD,TELANGANA,ON
H1772101,1772,MASURABAD,HYDERABAD-II,HYDERABAD,TELANGANA,ON
H1773101,1773,SIRSI ROAD,JAIPUR,NEWDELHI,RAJASTHAN,ON
H1774101,1774,BHAGYANAGAR COLONY,SECUNDERABAD,HYDERABAD,TELANGANA,ON
H1775101,1775,"CANTONMENT,TRICHY",COIMBATORE,BANGALORE,TAMIL NADU,ON
H1779101,1779,MISHRIKH,LUCKNOW,NEWDELHI,UTTAR PRADESH,ON
H1781101,1781,YAMUNA NAGAR,CHANDIGARH,NEWDELHI,HARYANA,ON
H1782101,1782,JIND,CHANDIGARH,NEWDELHI,HARYANA,ON
H1783101,1783,SBMC BRANCH,ONGOLE,VIJAYAWADA,ANDHRA PRADESH,ON
H1786101,1786,MADHAVADHARA,VISAKHAPATNAM,VISAKHAPATNAM,ANDHRA PRADESH,ON
H1787101,1787,ASHOKNAGAR,MAHABOOBNAGAR,TELANGANA,TELANGANA,OFF
H1788101,1788,ACHAMPETA,MAHABOOBNAGAR,TELANGANA,TELANGANA,OFF
H1792101,1792,KANTESHWAR,NIZAMABAD,TELANGANA,TELANGANA,ON
H1793101,1793,ARYANAGAR,NIZAMABAD,TELANGANA,TELANGANA,ON
H1794101,1794,PATANCHERU,NIZAMABAD,TELANGANA,TELANGANA,ON
H1796101,1796,KANCHARAPALEM,VISAKHAPATNAM,VISAKHAPATNAM,ANDHRA PRADESH,ON
H1812101,1812,BHADRAK,BHUBANESWAR,BHUBANESWAR,ODISHA,ON
H1813101,1813,M G ROAD SURYAPET,MAHABOOBNAGAR,TELANGANA,TELANGANA,ON
H1818101,1818,PALAMANERU,TIRUPATHI,BANGALORE,ANDHRA PRADESH,ON
H1819101,1819,PUNGANUR,TIRUPATHI,BANGALORE,ANDHRA PRADESH,ON
H1824101,1824,CHHAPRA,PATNA,BHUBANESWAR,BIHAR,ON
H1827101,1827,MARAIMALAI NAGAR,CHENNAI,BANGALORE,TAMIL NADU,ON
H1830101,1830,AMBATTUR MSME,CHENNAI,BANGALORE,TAMIL NADU,ON
H1834101,1834,DHANALAKSHMIPURAM,ONGOLE,VIJAYAWADA,ANDHRA PRADESH,ON
H1836101,1836,"GMR NAGAR,RAJAM",SRIKAKULAM,VISAKHAPATNAM,ANDHRA PRADESH,ON
H1837101,1837,KHALILABAD,LUCKNOW,NEWDELHI,UTTAR PRADESH,ON
H1839101,1839,NANAKRAMGUDA,HYDERABAD-II,HYDERABAD,TELANGANA,ON
H1840101,1840,PADDAPAI,CHENNAI,BANGALORE,TAMIL NADU,ON
H1854101,1854,MUDIGUBBA,KURNOOL,HYDERABAD,ANDHRA PRADESH,ON
H1855101,1855,VEMBAKKAM,CHENNAI,BANGALORE,TAMIL NADU,ON
H1861101,1861,MADAKASIRA,KURNOOL,HYDERABAD,ANDHRA PRADESH,ON
H1867101,1867,HOSUR,CHENNAI,BANGALORE,TAMIL NADU,ON
H1868101,1868,KALWAR,JAIPUR,NEWDELHI,RAJASTHAN,ON
H1881101,1881,MOOVALUR,COIMBATORE,BANGALORE,TAMIL NADU,ON
H1882101,1882,DEORIA,LUCKNOW,NEWDELHI,UTTAR PRADESH,ON
H1883101,1883,MEDRAPAR,LUCKNOW,NEWDELHI,UTTAR PRADESH,ON
H1885101,1885,VRINDAVAN,MEERUT,NEWDELHI,UTTAR PRADESH,ON
H1889101,1889,DHANUPURA,MEERUT,NEWDELHI,UTTAR PRADESH,ON
H1891101,1891,PALLAVPURAM,MEERUT,NEWDELHI,UTTAR PRADESH,ON
H1894101,1894,TITARDI,JAIPUR,NEWDELHI,RAJASTHAN,ON
H1897101,1897,CHINNAIGUDEM,ELURU,VIJAYAWADA,ANDHRA PRADESH,ON
H1898101,1898,KAMBHAMPADU,VIJAYAWADA,VIJAYAWADA,ANDHRA PRADESH,ON
H1901101,1901,PUTTUR,TIRUPATHI,BANGALORE,ANDHRA PRADESH,ON
H1902101,1902,V KOTA,TIRUPATHI,BANGALORE,ANDHRA PRADESH,ON
H1905101,1905,VINJAMUR,ONGOLE,VIJAYAWADA,ANDHRA PRADESH,ON
H1907101,1907,THOPPAMPATTI,COIMBATORE,BANGALORE,TAMIL NADU,ON
H1908101,1908,GANAPATHI,COIMBATORE,BANGALORE,TAMIL NADU,ON
H1918101,1918,RAVIKAMATAM,VISAKHAPATNAM,VISAKHAPATNAM,ANDHRA PRADESH,ON
H1919101,1919,KOMMADI,VISAKHAPATNAM,VISAKHAPATNAM,ANDHRA PRADESH,ON
H1922101,1922,EDLAPADU,GUNTUR,VIJAYAWADA,ANDHRA PRADESH,ON
H1929101,1929,BUS STATION AREA,GUNTUR,VIJAYAWADA,ANDHRA PRADESH,ON
H1941101,1941,YERRAGONDAPALEM,ONGOLE,VIJAYAWADA,ANDHRA PRADESH,ON
H1942101,1942,CHAIBASA,PATNA,BHUBANESWAR,JHARKHAND,ON
H1943101,1943,KALWAKURTHY,MAHABOOBNAGAR,TELANGANA,TELANGANA,ON
H1945101,1945,MELLA CHERUVU,MAHABOOBNAGAR,TELANGANA,TELANGANA,ON
H1946101,1946,PEDDAVOORA,MAHABOOBNAGAR,TELANGANA,TELANGANA,ON
H1947101,1947,KHAMMAM X ROADS,MAHABOOBNAGAR,TELANGANA,TELANGANA,ON
H1948101,1948,VELDURTHY,KURNOOL,HYDERABAD,ANDHRA PRADESH,ON
H1949101,1949,PATTIKONDA,KURNOOL,HYDERABAD,ANDHRA PRADESH,ON
H1952101,1952,MUNIKOLLALA,BANGALORE,BANGALORE,KARNATAKA,ON
H1966101,1966,IMT MANESAR,NEWDELHI,NEWDELHI,HARYANA,ON
H1971101,1971,DASNAPUR,KARIMNAGAR,TELANGANA,TELANGANA,ON
H1972101,1972,A N REDDY NAGAR,NIZAMABAD,TELANGANA,TELANGANA,ON
H1978101,1978,RAI BARELI,LUCKNOW,NEWDELHI,UTTAR PRADESH,ON
H1989101,1989,NEW TOWN KAMAREDDY,NIZAMABAD,TELANGANA,TELANGANA,ON
H1990101,1990,MADNOOR,NIZAMABAD,TELANGANA,TELANGANA,ON
H1991101,1991,PRASHANTHINAGAR,KARIMNAGAR,TELANGANA,TELANGANA,ON
H1992101,1992,DODDAKKANAHALLI,BANGALORE,BANGALORE,KARNATAKA,ON
H1995101,1995,MALAMPATTI,COIMBATORE,BANGALORE,TAMIL NADU,ON
H1996101,1996,PATRAPADA AIIMS ROAD,BHUBANESWAR,BHUBANESWAR,ODISHA,ON
H2000101,2000,ARAKKONAM,CHENNAI,BANGALORE,TAMIL NADU,ON
H2001101,2001,PENUGANCHIPROLU,VIJAYAWADA,VIJAYAWADA,ANDHRA PRADESH,ON
H2010101,2010,ASIFABAD,KARIMNAGAR,TELANGANA,TELANGANA,ON
H2013101,2013,NAGARKURNOOL,MAHABOOBNAGAR,TELANGANA,TELANGANA,OFF
H2015101,2015,KOLLAPUR,MAHABOOBNAGAR,TELANGANA,TELANGANA,ON
H2017101,2017,PURNEA,PATNA,BHUBANESWAR,BIHAR,ON
H2021101,2021,GANGAGHAT,LUCKNOW,NEWDELHI,UTTAR PRADESH,ON
H2024101,2024,"RAMA TALKIES ROAD,MACHERLA",GUNTUR,VIJAYAWADA,ANDHRA PRADESH,ON
H2032101,2032,HANSI,CHANDIGARH,NEWDELHI,HARYANA,ON
H2040101,2040,GOHANA,CHANDIGARH,NEWDELHI,HARYANA,ON
H2046101,2046,BARAUT,MEERUT,NEWDELHI,UTTAR PRADESH,ON
H2047101,2047,Shamli,MEERUT,NEWDELHI,UTTAR PRADESH,ON
H2049101,2049,CHERIAL,KARIMNAGAR,TELANGANA,TELANGANA,ON
H2052101,2052,PALWAL,NEWDELHI,NEWDELHI,HARYANA,ON
H2061101,2061,KHURJA,MEERUT,NEWDELHI,UTTAR PRADESH,ON
H2063101,2063,SHARADA NAGAR,HYDERABAD-II,HYDERABAD,TELANGANA,ON
H2064101,2064,MYLARDEVPALLY,HYDERABAD-II,HYDERABAD,TELANGANA,ON
H2066101,2066,MEDIPALLY,SECUNDERABAD,HYDERABAD,TELANGANA,ON
H2074101,2074,RAMAGONDANAHALLI,BANGALORE,BANGALORE,KARNATAKA,ON
H2077101,2077,ANNAMAYYA CIRCLE,ONGOLE,VIJAYAWADA,ANDHRA PRADESH,ON
H2078101,2078,MADHUBANI,PATNA,BHUBANESWAR,BIHAR,ON
H2096101,2096,K.P.H.B 9TH PHASE,SECUNDERABAD,HYDERABAD,TELANGANA,ON
H2098101,2098,THUMMALAGUNTA,TIRUPATHI,BANGALORE,ANDHRA PRADESH,ON
H2105101,2105,PRATAP VIHAR,NEWDELHI,NEWDELHI,UTTAR PRADESH,ON
H2110101,2110,KANAKAPURA,BANGALORE,BANGALORE,KARNATAKA,ON
H2113101,2113,TIRUTTANI,CHENNAI,BANGALORE,TAMIL NADU,ON
H2115101,2115,UTHUKOTTAI,CHENNAI,BANGALORE,TAMIL NADU,ON
H2120101,2120,B C ROAD,VISAKHAPATNAM,VISAKHAPATNAM,ANDHRA PRADESH,ON
H2124101,2124,BAGHAUCH,LUCKNOW,NEWDELHI,UTTAR PRADESH,ON
H2128101,2128,VELLAVEDU,CHENNAI,BANGALORE,TAMIL NADU,ON
H2129101,2129,BAPUJINAGAR,SECUNDERABAD,HYDERABAD,TELANGANA,ON
H2132101,2132,KHANAPUR,NIZAMABAD,TELANGANA,TELANGANA,ON
H2139101,2139,KRUSHNA PRASAD GARH,BHUBANESWAR,BHUBANESWAR,ODISHA,ON
H2141101,2141,KONDA MALLEPALLY,MAHABOOBNAGAR,TELANGANA,TELANGANA,ON
H2143101,2143,THONDA THIRUMALAGIRI,MAHABOOBNAGAR,TELANGANA,TELANGANA,ON
H2146101,2146,ROTARY NAGAR,WARANGAL,TELANGANA,TELANGANA,ON
H2147101,2147,SHAYAMPET,WARANGAL,TELANGANA,TELANGANA,ON
H2173101,2173,TANGELLAMUDI,ELURU,VIJAYAWADA,ANDHRA PRADESH,ON
H2174101,2174,DEVARAPALLI,ELURU,VIJAYAWADA,ANDHRA PRADESH,ON
H2176101,2176,MARUTHI NAGAR,SECUNDERABAD,HYDERABAD,TELANGANA,ON
H2215101,2215,KOTHIRAMPUR,KARIMNAGAR,TELANGANA,TELANGANA,ON
H2218101,2218,KASAVANAHALLI,BANGALORE,BANGALORE,KARNATAKA,ON
H2219101,2219,MARTHAHALLI BRIDGE,BANGALORE,BANGALORE,KARNATAKA,ON
H2222101,2222,INAM MANIACHI,COIMBATORE,BANGALORE,TAMIL NADU,ON
H2231101,2231,DUBBAKA,KARIMNAGAR,TELANGANA,TELANGANA,ON
H2232101,2232,NARAYANKHED,NIZAMABAD,TELANGANA,TELANGANA,ON
H2236101,2236,SULTANPUR,LUCKNOW,NEWDELHI,UTTAR PRADESH,ON
H2238101,2238,GUMMIDIPOONDI,CHENNAI,BANGALORE,TAMIL NADU,ON
H2243101,2243,BHOKARA,PUNE,MUMBAI,MAHARASHTRA,ON
H2251101,2251,BONTHAPALLI,NIZAMABAD,TELANGANA,TELANGANA,ON
H2252101,2252,SHANTHI NAGAR,MAHABOOBNAGAR,TELANGANA,TELANGANA,ON
H2261101,2261,RAPTI NAGAR,LUCKNOW,NEWDELHI,UTTAR PRADESH,ON
H2262101,2262,"RAMNAGAR,VARANASI",LUCKNOW,NEWDELHI,UTTAR PRADESH,ON
H2266101,2266,BOTHAN ROAD,NIZAMABAD,TELANGANA,TELANGANA,ON
H2290101,2290,NEREDUCHERLA,MAHABOOBNAGAR,TELANGANA,TELANGANA,ON
H2303101,2303,B KOTHA KOTA,TIRUPATHI,BANGALORE,ANDHRA PRADESH,ON
H2305101,2305,YOGIMALLAVARAM,TIRUPATHI,BANGALORE,ANDHRA PRADESH,ON
H2306101,2306,BAIRAGI PATTEDA,TIRUPATHI,BANGALORE,ANDHRA PRADESH,ON
H2310101,2310,MANGALAM,TIRUPATHI,BANGALORE,ANDHRA PRADESH,ON
H2357101,2357,TADEPALLIGUDEM,ELURU,VIJAYAWADA,ANDHRA PRADESH,ON
H2359101,2359,HAZIPUR,PATNA,BHUBANESWAR,BIHAR,ON
H2360101,2360,MOTIHARI,PATNA,BHUBANESWAR,BIHAR,ON
H2367101,2367,RAJENDRA NAGAR,NEWDELHI,NEWDELHI,DELHI,ON
H2373101,2373,GURGAON-OLD STATION ROAD,NEWDELHI,NEWDELHI,HARYANA,ON
H2376101,2376,PADERU,VISAKHAPATNAM,VISAKHAPATNAM,ANDHRA PRADESH,OFF
H2377101,2377,ARRAH,PATNA,BHUBANESWAR,BIHAR,ON
H2378101,2378,MUNGER,PATNA,BHUBANESWAR,BIHAR,ON
H2379101,2379,KOTHAGUDA,HYDERABAD-II,HYDERABAD,TELANGANA,ON
H2381101,2381,ADI KAVI NANNAYYA UNIVERSITY,KAKINADA,VISAKHAPATNAM,ANDHRA PRADESH,ON
H2384101,2384,BALKAMPET,HYDERABAD-I,HYDERABAD,TELANGANA,ON
H2407101,2407,MOOSAPET,SECUNDERABAD,HYDERABAD,TELANGANA,ON
H2409101,2409,GADDIANNARAM,HYDERABAD-II,HYDERABAD,TELANGANA,ON
H2410101,2410,KHANAPUR,HYDERABAD-II,HYDERABAD,TELANGANA,ON
H2424101,2424,GUDIYATTAM,CHENNAI,BANGALORE,TAMIL NADU,ON
H2428101,2428,SUBHASH NAGAR,NEWDELHI,NEWDELHI,DELHI,ON
H2430101,2430,FARIDABAD SECTOR -7,NEWDELHI,NEWDELHI,HARYANA,ON
H2432101,2432,GAREBHAVIPALYA,BANGALORE,BANGALORE,KARNATAKA,ON
H2435101,2435,HARDOI,LUCKNOW,NEWDELHI,UTTAR PRADESH,ON
H2436101,2436,HARDOI ROAD,LUCKNOW,NEWDELHI,UTTAR PRADESH,ON
H2437101,2437,FAIZABAD ROAD,LUCKNOW,NEWDELHI,UTTAR PRADESH,ON
H2438101,2438,RAJAJI PURAM,LUCKNOW,NEWDELHI,UTTAR PRADESH,ON
H2439101,2439,SHASTRI NAGAR,MEERUT,NEWDELHI,UTTAR PRADESH,ON
H2441101,2441,GANGADHARA,KARIMNAGAR,TELANGANA,TELANGANA,ON
H2443101,2443,KHAJAGUDA,HYDERABAD-II,HYDERABAD,TELANGANA,ON
H2451101,2451,NJARAKKAL,KOCHI,BANGALORE,KERALA,ON
H2455101,2455,NEW NARODA,AHMEDABAD,MUMBAI,GUJARAT,ON
H2461101,2461,HIMMATTNAGAR,AHMEDABAD,MUMBAI,GUJARAT,ON
H2462101,2462,WAGHODIA ROAD,AHMEDABAD,MUMBAI,GUJARAT,ON
H2463101,2463,VEERAVAL,AHMEDABAD,MUMBAI,GUJARAT,ON
H2472101,2472,SERAMPORE,KOLKATA,BHUBANESWAR,WEST BENGAL,ON
H2473101,2473,CHANDUR,MAHABOOBNAGAR,TELANGANA,TELANGANA,ON
H2477101,2477,BANSAWARA,JAIPUR,NEWDELHI,RAJASTHAN,ON
H2478101,2478,BHIWADI,JAIPUR,NEWDELHI,RAJASTHAN,ON
H2480101,2480,DHOLPUR,JAIPUR,NEWDELHI,RAJASTHAN,ON
H2481101,2481,SAWAI MADHOPUR,JAIPUR,NEWDELHI,RAJASTHAN,ON
H2482101,2482,SURATGARH,JAIPUR,NEWDELHI,RAJASTHAN,ON
H2489101,2489,KANCHEEPURAM,CHENNAI,BANGALORE,TAMIL NADU,ON
H2499101,2499,VIDYANAGAR COLONY,WARANGAL,TELANGANA,TELANGANA,ON
H2504101,2504,JEYPOREPRADADA RAO,BERHAMPUR,BHUBANESWAR,ODISHA,ON
H2506101,2506,PALAGUDEM,ELURU,VIJAYAWADA,ANDHRA PRADESH,ON
H2511101,2511,ALUGUNUR,KARIMNAGAR,TELANGANA,TELANGANA,ON
H2512101,2512,DAUSA,JAIPUR,NEWDELHI,RAJASTHAN,ON
H2513101,2513,BUNDI,JAIPUR,NEWDELHI,RAJASTHAN,ON
H2514101,2514,BARMER,JAIPUR,NEWDELHI,RAJASTHAN,ON
H2522101,2522,KADIYAPULANKA,KAKINADA,VISAKHAPATNAM,ANDHRA PRADESH,ON
H2535101,2535,KATRAS,PATNA,BHUBANESWAR,JHARKHAND,ON
H2536101,2536,GOPALGANJ,PATNA,BHUBANESWAR,BIHAR,ON
H2542101,2542,VELAGAPUDI -OFFSITE-RECYCLER,GUNTUR,VIJAYAWADA,ANDHRA PRADESH,OFF
H2543101,2543,KHAGARIA,PATNA,BHUBANESWAR,BIHAR,ON
H2545101,2545,UTTAM NAGAR,NEWDELHI,NEWDELHI,DELHI,ON
H2546101,2546,ROHINI SEC 24,NEWDELHI,NEWDELHI,DELHI,ON
H2547101,2547,SUSHANT ARCADE,NEWDELHI,NEWDELHI,HARYANA,ON
H2549101,2549,ROHINI SEC 3,NEWDELHI,NEWDELHI,DELHI,ON
H2561101,2561,DALTONGANJ,PATNA,BHUBANESWAR,JHARKHAND,ON
H2562101,2562,GUMLA,PATNA,BHUBANESWAR,JHARKHAND,ON
H2571101,2571,KHADI COLONY,TIRUPATHI,BANGALORE,ANDHRA PRADESH,ON
H2572101,2572,MANEWADA CHOWK,PUNE,MUMBAI,MAHARASHTRA,ON
H2573101,2573,WARORA,PUNE,MUMBAI,MAHARASHTRA,ON
H2575101,2575,BETTIAH,PATNA,BHUBANESWAR,BIHAR,ON
H2576101,2576,SAHARSA,PATNA,BHUBANESWAR,BIHAR,ON
H2581101,2581,DUMKA,PATNA,BHUBANESWAR,JHARKHAND,ON
H2583101,2583,BARDOLI,AHMEDABAD,MUMBAI,GUJARAT,ON
H2584101,2584,SAMA SAVELI ROAD,AHMEDABAD,MUMBAI,GUJARAT,ON
H2585101,2585,AMRELI,AHMEDABAD,MUMBAI,GUJARAT,ON
H2586101,2586,METODA,AHMEDABAD,MUMBAI,GUJARAT,ON
H2588101,2588,BAVDHAN,PUNE,MUMBAI,MAHARASHTRA,ON
H2590101,2590,KASARVADAVALI,MUMBAI,MUMBAI,MAHARASHTRA,ON
H2593101,2593,TONK,JAIPUR,NEWDELHI,RAJASTHAN,ON
H2594101,2594,JAISALMER,JAIPUR,NEWDELHI,RAJASTHAN,ON
H2595101,2595,VAISHALI NAGAR,JAIPUR,NEWDELHI,RAJASTHAN,ON
H2596101,2596,MANSAROVAR,JAIPUR,NEWDELHI,RAJASTHAN,ON
H2599101,2599,KANKE ROAD,PATNA,BHUBANESWAR,JHARKHAND,ON
H2603101,2603,MOGALRAJAPURAM,VIJAYAWADA,VIJAYAWADA,ANDHRA PRADESH,ON
H2607101,2607,YENKAMPETA,MAHABOOBNAGAR,TELANGANA,TELANGANA,ON
H2609101,2609,MALHANPUR,LUCKNOW,NEWDELHI,UTTAR PRADESH,ON
H2610101,2610,CHAKAN,PUNE,MUMBAI,MAHARASHTRA,ON
H2611101,2611,PARATWADA,PUNE,MUMBAI,MAHARASHTRA,ON
H2614101,2614,KARAD,PUNE,MUMBAI,MAHARASHTRA,ON
H2620101,2620,AUNDH,PUNE,MUMBAI,MAHARASHTRA,ON
H2621101,2621,KHAMGAON,PUNE,MUMBAI,MAHARASHTRA,ON
H2634101,2634,MULUG,WARANGAL,TELANGANA,TELANGANA,ON
H2643101,2643,JAGATPURA,JAIPUR,NEWDELHI,RAJASTHAN,ON
H2644101,2644,HINDAUN,JAIPUR,NEWDELHI,RAJASTHAN,ON
H2645101,2645,SIKAR,JAIPUR,NEWDELHI,RAJASTHAN,ON
H2646101,2646,KISHANGARH,JAIPUR,NEWDELHI,RAJASTHAN,ON
H2647101,2647,BEAWAR,JAIPUR,NEWDELHI,RAJASTHAN,ON
H2651101,2651,GHORPADI,PUNE,MUMBAI,MAHARASHTRA,ON
H2659101,2659,PRATAP NAGAR,KAKINADA,VISAKHAPATNAM,ANDHRA PRADESH,ON
H2672101,2672,CHITYALA,MAHABOOBNAGAR,TELANGANA,TELANGANA,ON
H2675101,2675,KHANAMET,HYDERABAD-II,HYDERABAD,TELANGANA,ON
H2679101,2679,PALAIR,WARANGAL,TELANGANA,TELANGANA,ON
H2703101,2703,TADA,ONGOLE,VIJAYAWADA,ANDHRA PRADESH,ON
H2722101,2722,WADI,PUNE,MUMBAI,MAHARASHTRA,ON
H2723101,2723,WAKAD,PUNE,MUMBAI,MAHARASHTRA,ON
H2729101,2729,RAMPHAL CHOWK,NEWDELHI,NEWDELHI,DELHI,ON
H2745101,2745,MOOLAKKADAI,CHENNAI,BANGALORE,TAMIL NADU,ON
H2746101,2746,EDUPUGALLU,VIJAYAWADA,VIJAYAWADA,ANDHRA PRADESH,ON
H2754101,2754,JANGAREDDYGUDEM BUSSTAND ROAD,ELURU,VIJAYAWADA,ANDHRA PRADESH,ON
H2813101,2813,DIGHA DANAPUR,PATNA,BHUBANESWAR,BIHAR,ON
H2827101,2827,JAJPUR,BHUBANESWAR,BHUBANESWAR,ODISHA,ON
H2834101,2834,KULASEKHARAMANGALAM,KOCHI,BANGALORE,KERALA,ON
H2835101,2835,CHINTOOR,KAKINADA,VISAKHAPATNAM,ANDHRA PRADESH,ON
H2837101,2837,SABBAVARAM,VISAKHAPATNAM,VISAKHAPATNAM,ANDHRA PRADESH,OFF
H2842101,2842,BOUDH,BERHAMPUR,BHUBANESWAR,ODISHA,ON
H2847101,2847,RAIKAL,KARIMNAGAR,TELANGANA,TELANGANA,ON
H2853101,2853,VENKATAPURAM,SRIKAKULAM,VISAKHAPATNAM,ANDHRA PRADESH,ON
H2860101,2860,H S R LAYOUT 7TH SECTOR,BANGALORE,BANGALORE,KARNATAKA,ON
H2863101,2863,SIRIGUPPA ROAD,HUBLI,BANGALORE,KARNATAKA,ON
H2867101,2867,EXCISE COLONY,WARANGAL,TELANGANA,TELANGANA,ON
H2871101,2871,DUNGURIPALI,SAMBALPUR,BHUBANESWAR,ODISHA,ON
H2888101,2888,DUBBA,NIZAMABAD,TELANGANA,TELANGANA,ON
H2892101,2892,GOVIND MITRA ROAD,PATNA,BHUBANESWAR,BIHAR,ON
H2930101,2930,GAJAPATI NAGAR,BERHAMPUR,BHUBANESWAR,ODISHA,ON
H2954101,2954,7 TOMBS ROAD BRANCH,HYDERABAD-I,HYDERABAD,TELANGANA,ON
H2957101,2957,NALAROAD,PATNA,BHUBANESWAR,BIHAR,ON
H2983101,2983,APMC YARD,HUBLI,BANGALORE,KARNATAKA,ON
H3008101,3008,RAIN TREE PARK,GUNTUR,VIJAYAWADA,ANDHRA PRADESH,ON
H3021101,3021,GADAG,HUBLI,BANGALORE,KARNATAKA,ON
H3025101,3025,SRINIVASA NAGAR COLONY,NIZAMABAD,TELANGANA,TELANGANA,ON
K0010101,0010,AMATHALURU,GUNTUR,VIJAYAWADA,ANDHRA PRADESH,ON
K0018101,0018,ASKA,BERHAMPUR,BHUBANESWAR,ODISHA,OFF
K0033103,0033,BALAJI COLONY,TIRUPATHI,BANGALORE,ANDHRA PRADESH,ON
K0035101,0035,VADISALERU,KAKINADA,VISAKHAPATNAM,ANDHRA PRADESH,ON
K0053102,0053,BHUDAWARPETA,KURNOOL,HYDERABAD,ANDHRA PRADESH,ON
K0056101,0056,BOLANGIR,SAMBALPUR,BHUBANESWAR,ODISHA,ON
K0065102,0065,BHANJANAGAR OFFSITE,BERHAMPUR,BHUBANESWAR,ODISHA,OFF
K0065103,0065,BHANJANAGAR,BERHAMPUR,BHUBANESWAR,ODISHA,OFF
K0081102,0081,CHITTOOR ONISTE,TIRUPATHI,BANGALORE,ANDHRA PRADESH,ON
K0088101,0088,CHIKITI PENTHO,BERHAMPUR,BHUBANESWAR,ODISHA,ON
K0097101,0097,CALICUT,KOCHI,BANGALORE,KERALA,ON
K0114101,0114,ANDHRA BANK-DURGAPUR,KOLKATA,BHUBANESWAR,WEST BENGAL,ON
K0125101,0125,ERNAKULAM,KOCHI,BANGALORE,KERALA,ON
K0131101,0131,TTD ADMIN BUILDING,TIRUPATHI,BANGALORE,ANDHRA PRADESH,ON
K0145102,0145,VIJAYAWADA RLY STATION,VIJAYAWADA,VIJAYAWADA,ANDHRA PRADESH,OFF
K0197102,0197,BANSWADA OFFSITE,NIZAMABAD,TELANGANA,TELANGANA,OFF
K0198101,0198,TRICHY,COIMBATORE,BANGALORE,TAMIL NADU,ON
K0217102,0217,RAMNAGAR,KURNOOL,HYDERABAD,ANDHRA PRADESH,ON
K0234101,0234,INDORE,BHOPAL,MUMBAI,MADHYA PRADESH,ON
K0256102,0256,JAGANNAICKPUR,KAKINADA,VISAKHAPATNAM,ANDHRA PRADESH,ON
K0265101,0265,JALNA,PUNE,MUMBAI,MAHARASHTRA,ON
K0266101,0266,JABALPUR,BHOPAL,MUMBAI,MADHYA PRADESH,ON
K0269101,0269,JAIPUR,JAIPUR,NEWDELHI,RAJASTHAN,ON
K0335102,0335,K KANNAPURAM,ELURU,VIJAYAWADA,ANDHRA PRADESH,ON
K0357103,0357,MIRYALAGUDA,MAHABOOBNAGAR,TELANGANA,TELANGANA,OFF
K0363102,0363,MANCHERIAL,KARIMNAGAR,TELANGANA,TELANGANA,ON
K0382102,0382,NARSAPUR,ELURU,VIJAYAWADA,ANDHRA PRADESH,OFF
K0403102,0403,OLD GUNTUR,GUNTUR,VIJAYAWADA,ANDHRA PRADESH,ON
K0410101,0410,SK UNIVERSITY,KURNOOL,HYDERABAD,ANDHRA PRADESH,OFF
K0429101,0429,PENUGONDA,ELURU,VIJAYAWADA,ANDHRA PRADESH,ON
K0435102,0435,PRAKASAMNAGAR,SECUNDERABAD,HYDERABAD,TELANGANA,ON
K0460101,0460,QUILON,KOCHI,BANGALORE,KERALA,ON
K0492101,0492,ROURKELA,SAMBALPUR,BHUBANESWAR,ODISHA,OFF
K0554102,0554,VELIVENNU,ELURU,VIJAYAWADA,ANDHRA PRADESH,OFF
K0559102,0559,TIRUPATI MAIN,TIRUPATHI,BANGALORE,ANDHRA PRADESH,ON
K0570101,0570,TALUPULA,KURNOOL,HYDERABAD,ANDHRA PRADESH,OFF
K0574102,0574,TALLAREVU,KAKINADA,VISAKHAPATNAM,ANDHRA PRADESH,ON
K0585101,0585,UDAIPUR,JAIPUR,NEWDELHI,RAJASTHAN,ON
K0708101,0708,ANKAPUR,NIZAMABAD,TELANGANA,TELANGANA,OFF
K0725101,0725,ANANDAPURAM,VISAKHAPATNAM,VISAKHAPATNAM,ANDHRA PRADESH,ON
K0779101,0779,CHARKONDA,MAHABOOBNAGAR,TELANGANA,TELANGANA,ON
K0869101,0869,MYSORE,BANGALORE,BANGALORE,KARNATAKA,ON
K0906101,0906,PUNE CAMP BRANCH,PUNE,MUMBAI,MAHARASHTRA,ON
K0988101,0988,DINDI,MAHABOOBNAGAR,TELANGANA,TELANGANA,ON
K1012101,1012,M P NAGAR,BHOPAL,MUMBAI,MADHYA PRADESH,ON
K1030101,1030,"KGH,MAHARANIPETA",VISAKHAPATNAM,VISAKHAPATNAM,ANDHRA PRADESH,ON
K1064101,1064,BRUNDABAN SUBHDRA IOCL,SAMBALPUR,BHUBANESWAR,ODISHA,OFF
K1092101,1092,PREET VIHAR,NEWDELHI,NEWDELHI,DELHI,ON
K1095101,1095,PARK ROAD,KURNOOL,HYDERABAD,ANDHRA PRADESH,ON
K1104101,1104,"SEC-8, PANCHKULA",CHANDIGARH,NEWDELHI,HARYANA,ON
K1116101,1116,AKOTA,AHMEDABAD,MUMBAI,GUJARAT,ON
K1133101,1133,PANIPAT,CHANDIGARH,NEWDELHI,HARYANA,ON
K1136101,1136,MAPUSA,HUBLI,BANGALORE,GOA,ON
K1138101,1138,PRABHADEVI,MUMBAI,MUMBAI,MAHARASHTRA,ON
K1149101,1149,NEWDELHI,NEWDELHI,NEWDELHI,UTTAR PRADESH,ON
K1152101,1152,SHIVAJI NAGAR,PUNE,MUMBAI,MAHARASHTRA,ON
K1156101,1156,ST. ANNS SCHOOL,VISAKHAPATNAM,VISAKHAPATNAM,ANDHRA PRADESH,ON
K1161101,1161,RTPP KALAMALLA,TIRUPATHI,BANGALORE,ANDHRA PRADESH,OFF
K1179102,1179,PATTABHI BHAVAN,HYDERABAD-I,HYDERABAD,TELANGANA,ON
K1243101,1243,NANDYAL ROAD,KURNOOL,HYDERABAD,ANDHRA PRADESH,OFF
K1254101,1254,VISWAKAVI,ELURU,VIJAYAWADA,ANDHRA PRADESH,ON
K1263101,1263,NAVSARI,AHMEDABAD,MUMBAI,GUJARAT,ON
K1286101,1286,GUNUPUR,BERHAMPUR,BHUBANESWAR,ODISHA,ON
K1298101,1298,SUBBARAOPET,ELURU,VIJAYAWADA,ANDHRA PRADESH,ON
K1301101,1301,UMERKOTE-ONISTE,BERHAMPUR,BHUBANESWAR,ODISHA,ON
K1316101,1316,"RR LAB, BHOPAL",BHOPAL,MUMBAI,MADHYA PRADESH,ON
K1320101,1320,VISHRANTWADI,PUNE,MUMBAI,MAHARASHTRA,ON
K1344101,1344,PURUSHOTTAMPUR,BERHAMPUR,BHUBANESWAR,ODISHA,ON
K1346101,1346,MARATHAHALLI,BANGALORE,BANGALORE,KARNATAKA,ON
K1377101,1377,SOUTH CITY,NEWDELHI,NEWDELHI,HARYANA,ON
K1379101,1379,KURNOOL MEDICAL COLLEGE,KURNOOL,HYDERABAD,ANDHRA PRADESH,ON
K1408101,1408,SEMILIGUDA,BERHAMPUR,BHUBANESWAR,ODISHA,OFF
K1435101,1435,RAJARAJESHWARI NAGAR,BANGALORE,BANGALORE,KARNATAKA,ON
K1439101,1439,RAMANAYYAPETA,KAKINADA,VISAKHAPATNAM,ANDHRA PRADESH,ON
K1476101,1476,PUTTAPARTHY,KURNOOL,HYDERABAD,ANDHRA PRADESH,OFF
K1504101,1504,ST THERESSA COLLEGE,ELURU,VIJAYAWADA,ANDHRA PRADESH,ON
K1518101,1518,HEMSHEELA,KOLKATA,BHUBANESWAR,WEST BENGAL,OFF
K1525101,1525,VENKATA RAMANA COLONY,KURNOOL,HYDERABAD,ANDHRA PRADESH,ON
K1530101,1530,KHARGHAR,MUMBAI,MUMBAI,MAHARASHTRA,ON
K1540102,1540,NARAVARIPALLI OFFSITE,TIRUPATHI,BANGALORE,ANDHRA PRADESH,OFF
K1622101,1622,MANINAGAR,AHMEDABAD,MUMBAI,GUJARAT,ON
K1637101,1637,MALVIYA NAGAR,NEWDELHI,NEWDELHI,DELHI,ON
K1639101,1639,PATEL NAGAR,NEWDELHI,NEWDELHI,DELHI,ON
K1641101,1641,PUSHPANJALI ENCLAVE,NEWDELHI,NEWDELHI,DELHI,ON
K1653101,1653,KAMALA NAGAR,NEWDELHI,NEWDELHI,DELHI,ON
K1658101,1658,CHHAWANI,BHOPAL,MUMBAI,MADHYA PRADESH,ON
K1662101,1662,BAGALUR,BANGALORE,BANGALORE,KARNATAKA,ON
K1687101,1687,SIRSA,CHANDIGARH,NEWDELHI,HARYANA,ON
K1700101,1700,HASAN,BANGALORE,BANGALORE,KARNATAKA,ON
K1710101,1710,AMBARNATH,MUMBAI,MUMBAI,MAHARASHTRA,ON
K1716101,1716,PUNJABI BAGH,NEWDELHI,NEWDELHI,DELHI,ON
K1718101,1718,PASCHIM VIHAR,NEWDELHI,NEWDELHI,DELHI,ON
K1719101,1719,DEEPALI CHOWK,NEWDELHI,NEWDELHI,DELHI,ON
K1733102,1733,NARASAPUR OFFSITE,NIZAMABAD,TELANGANA,TELANGANA,OFF
K1737101,1737,NELAKONDAPALLY,WARANGAL,TELANGANA,TELANGANA,OFF
K1739102,1739,SRUNGAVARAKOTA,SRIKAKULAM,VISAKHAPATNAM,ANDHRA PRADESH,ON
K1748101,1748,KILLIPALEM,SRIKAKULAM,VISAKHAPATNAM,ANDHRA PRADESH,OFF
K1761101,1761,BARANAGAR,KOLKATA,BHUBANESWAR,WEST BENGAL,ON
K1805101,1805,KOTA,JAIPUR,NEWDELHI,RAJASTHAN,ON
K1953101,1953,THANISANDRA,BANGALORE,BANGALORE,KARNATAKA,ON
K1994101,1994,MATHIKERE,BANGALORE,BANGALORE,KARNATAKA,ON
K2019101,2019,KUKUNOOR,ELURU,VIJAYAWADA,ANDHRA PRADESH,ON
K2026101,2026,GIRIDIH,PATNA,BHUBANESWAR,JHARKHAND,ON
K2028101,2028,MUMBAI,MUMBAI,MUMBAI,MAHARASHTRA,ON
K2029101,2029,KHANPUR,NEWDELHI,NEWDELHI,DELHI,ON
K2073101,2073,BTM 4TH STAGE,BANGALORE,BANGALORE,KARNATAKA,ON
K2101101,2101,MANASSERY,KOCHI,BANGALORE,KERALA,ON
K2131101,2131,ANNAPOORNESWARI NAGAR,BANGALORE,BANGALORE,KARNATAKA,ON
K2194101,2194,ANKUPALEM,VISAKHAPATNAM,VISAKHAPATNAM,ANDHRA PRADESH,ON
K2200101,2200,"VIJAY NAGAR, JABALPUR",BHOPAL,MUMBAI,MADHYA PRADESH,ON
K2240101,2240,BAWANA,NEWDELHI,NEWDELHI,DELHI,ON
K2248101,2248,MEENAKSHI NAGAR,BERHAMPUR,BHUBANESWAR,ODISHA,OFF
K2284101,2284,BHANDUP,MUMBAI,MUMBAI,MAHARASHTRA,ON
K2308101,2308,THAVANAMPALLI,TIRUPATHI,BANGALORE,ANDHRA PRADESH,ON
K2323101,2323,DHENKIKOTE,SAMBALPUR,BHUBANESWAR,ODISHA,ON
K2329101,2329,BHARATH NAGAR,BANGALORE,BANGALORE,KARNATAKA,ON
K2374101,2374,PN ROAD,COIMBATORE,BANGALORE,TAMIL NADU,ON
K2386101,2386,ISHAR NAGAR,CHANDIGARH,NEWDELHI,HARYANA,ON
K2487101,2487,VARTHUR,BANGALORE,BANGALORE,KARNATAKA,ON
K2515101,2515,K K FILLING STATION-KUDA KUDA ROAD,MAHABOOBNAGAR,TELANGANA,TELANGANA,OFF
K2540101,2540,"MAIN ROAD, NGOS COLONY, NANDYAL",KURNOOL,HYDERABAD,ANDHRA PRADESH,ON
K2591101,2591,JOGESHWARI,MUMBAI,MUMBAI,MAHARASHTRA,ON
K2601101,2601,VIRAR,MUMBAI,MUMBAI,MAHARASHTRA,ON
K2642101,2642,SHOLINGAR,CHENNAI,BANGALORE,TAMIL NADU,ON
K2700101,2700,MUNGELINAKA â€“ BILASPUR,BHOPAL,MUMBAI,CHHATISGARH,ON
K2730101,2730,TATIBANDH â€“ RAIPUR,BHOPAL,MUMBAI,CHHATISGARH,ON
K2742101,2742,DEWAS,BHOPAL,MUMBAI,MADHYA PRADESH,ON
K2744101,2744,GOPAL NAGAR,KARIMNAGAR,TELANGANA,TELANGANA,ON
K2796101,2796,GUINDY,CHENNAI,BANGALORE,TAMIL NADU,ON
K2815101,2815,JEHANABAD,PATNA,BHUBANESWAR,BIHAR,ON
K2921101,2921,NALLURAHALLI,BANGALORE,BANGALORE,KARNATAKA,ON
K2930102,2930,ITI CAMPUS,BERHAMPUR,BHUBANESWAR,ODISHA,OFF
K2931101,2931,GANJAM,BERHAMPUR,BHUBANESWAR,ODISHA,ON
K2965101,2965,SME GOHALPUR,BHOPAL,MUMBAI,MADHYA PRADESH,ON
K2987101,2987,SOHELA,SAMBALPUR,BHUBANESWAR,ODISHA,ON
K2989101,2989,PREM NAGAR - BAREILLY,MEERUT,NEWDELHI,UTTAR PRADESH,ON
K3015101,3015,HARIDWAR BY PASS BRANCH,MEERUT,NEWDELHI,UTTARAKHAND,ON
K3088101,3088,BANER,PUNE,MUMBAI,MAHARASHTRA,ON
K3095101,3095,KANKARBAGH,PATNA,BHUBANESWAR,BIHAR,ON
K3106101,3106,SHAHAPUR,HUBLI,BANGALORE,KARNATAKA,ON
K3108101,3108,BRAJARAJANAGAR,SAMBALPUR,BHUBANESWAR,ODISHA,ON
K3114101,3114,MARKET YARD,PUNE,MUMBAI,MAHARASHTRA,ON
K3117101,3117,GURGAON SEC- 49,NEWDELHI,NEWDELHI,HARYANA,ON
K3120101,3120,"STATION ROAD, HUBLI",HUBLI,BANGALORE,KARNATAKA,ON
Y0032101,0032,BAKARAM,HYDERABAD-I,HYDERABAD,TELANGANA,ON
Y0187101,0187,PONNALUR,ONGOLE,VIJAYAWADA,ANDHRA PRADESH,ON
Y0189102,0189,BALAJINAGAR-NELLORE,ONGOLE,VIJAYAWADA,ANDHRA PRADESH,ON
Y0208101,0208,HYDERGUDA,HYDERABAD-I,HYDERABAD,TELANGANA,ON
Y0321101,0321,KACHEGUDA,HYDERABAD-I,HYDERABAD,TELANGANA,ON
Y0384102,0384,NELLORE MAIN BRANCH,ONGOLE,VIJAYAWADA,ANDHRA PRADESH,ON
Y0462101,0462,HINJILICUT,BERHAMPUR,BHUBANESWAR,ODISHA,ON
Y0522102,0522,SANJEEVREDDY NAGAR,HYDERABAD-I,HYDERABAD,TELANGANA,ON
Y0530101,0530,SHAMSHEERGUNJ,HYDERABAD-I,HYDERABAD,TELANGANA,ON
Y0602101,0602,VENKATAGIRI,ONGOLE,VIJAYAWADA,ANDHRA PRADESH,OFF
Y0606102,0606,"CITY BUS TERMINAL,VIJAYAWADA",VIJAYAWADA,VIJAYAWADA,ANDHRA PRADESH,OFF
Y0863101,0863,MOMINIPET,HYDERABAD-II,HYDERABAD,TELANGANA,ON
Y0930101,0930,RAJOLE,MAHABOOBNAGAR,TELANGANA,TELANGANA,ON
Y0931101,0931,RAGHUPATHIPET,MAHABOOBNAGAR,TELANGANA,TELANGANA,ON
Y0960101,0960,K AGRAHARAM,ONGOLE,VIJAYAWADA,ANDHRA PRADESH,ON
Y1006101,1006,SCF HYDERABAD,HYDERABAD-I,HYDERABAD,TELANGANA,ON
Y1037101,1037,S M E BRANCH ONSITE,COIMBATORE,BANGALORE,TAMIL NADU,ON
Y1038101,1038,GIDDALUR,ONGOLE,VIJAYAWADA,ANDHRA PRADESH,ON
Y1047101,1047,RK MISSION,VISAKHAPATNAM,VISAKHAPATNAM,ANDHRA PRADESH,ON
Y1075101,1075,APOLLO HOSPITAL,HYDERABAD-I,HYDERABAD,TELANGANA,ON
Y1086101,1086,JALANDHAR,LUDHIANA,NEWDELHI,PUNJAB,ON
Y1091101,1091,"HALL GATE,AMRITSAR",LUDHIANA,NEWDELHI,PUNJAB,ON
Y1130101,1130,PATIALA,LUDHIANA,NEWDELHI,PUNJAB,ON
Y1144101,1144,KANHANGAD,KOCHI,BANGALORE,KERALA,ON
Y1157101,1157,TRIMULGHERRY,SECUNDERABAD,HYDERABAD,TELANGANA,ON
Y1162101,1162,HARANATHAPURAM,ONGOLE,VIJAYAWADA,ANDHRA PRADESH,ON
Y1168101,1168,SECUNDERABAD CLUB,SECUNDERABAD,HYDERABAD,TELANGANA,ON
Y1187101,1187,HOSHIARPUR,LUDHIANA,NEWDELHI,PUNJAB,ON
Y1190101,1190,TIRUNELVELI,COIMBATORE,BANGALORE,TAMIL NADU,ON
Y1199101,1199,DINDIGUL,COIMBATORE,BANGALORE,TAMIL NADU,ON
Y1213101,1213,POLLACHI,COIMBATORE,BANGALORE,TAMIL NADU,ON
Y1280101,1280,PUNJAI PULIAMPATTI,COIMBATORE,BANGALORE,TAMIL NADU,ON
Y1326101,1326,MEDCHAL,SECUNDERABAD,HYDERABAD,TELANGANA,ON
Y1340101,1340,KALYAN NAGAR,HYDERABAD-I,HYDERABAD,TELANGANA,ON
Y1342101,1342,SUNDARNAGAR,HYDERABAD-I,HYDERABAD,TELANGANA,ON
Y1356102,1356,KAVURI HILLS-2,HYDERABAD-II,HYDERABAD,TELANGANA,ON
Y1369101,1369,DIGAPAHANDI,BERHAMPUR,BHUBANESWAR,ODISHA,ON
Y1404101,1404,PRASASHAN NAGAR,SECUNDERABAD,HYDERABAD,TELANGANA,ON
Y1426102,1426,PENDURTHI,VISAKHAPATNAM,VISAKHAPATNAM,ANDHRA PRADESH,ON
Y1451101,1451,RASOOLGARH,BHUBANESWAR,BHUBANESWAR,ODISHA,ON
Y1467101,1467,K P H B COLONY,SECUNDERABAD,HYDERABAD,TELANGANA,ON
Y1511102,1511,BALAJI NAGAR,SECUNDERABAD,HYDERABAD,TELANGANA,ON
Y1513101,1513,JEEDIMETLA,SECUNDERABAD,HYDERABAD,TELANGANA,ON
Y1537101,1537,B V NAGAR,ONGOLE,VIJAYAWADA,ANDHRA PRADESH,ON
Y1581101,1581,KURICHEDU,ONGOLE,VIJAYAWADA,ANDHRA PRADESH,ON
Y1582101,1582,BANASHANKARI,BANGALORE,BANGALORE,KARNATAKA,ON
Y1663101,1663,LADOWALI ROAD,LUDHIANA,NEWDELHI,PUNJAB,ON
Y1665101,1665,NAWANSAHAR,LUDHIANA,NEWDELHI,PUNJAB,ON
Y1668101,1668,LUDHIANA,LUDHIANA,NEWDELHI,PUNJAB,ON
Y1671101,1671,KAPURTHALA,LUDHIANA,NEWDELHI,PUNJAB,ON
Y1756101,1756,RIMS BRANCH,ONGOLE,VIJAYAWADA,ANDHRA PRADESH,ON
Y1780101,1780,ZIRAKPUR,LUDHIANA,NEWDELHI,PUNJAB,ON
Y1848101,1848,KUMBRA,LUDHIANA,NEWDELHI,PUNJAB,ON
Y1877101,1877,LUDHIANA,LUDHIANA,NEWDELHI,PUNJAB,ON
Y1906101,1906,ELURPATTI,COIMBATORE,BANGALORE,TAMIL NADU,ON
Y1962101,1962,BARNALA,LUDHIANA,NEWDELHI,PUNJAB,ON
Y1964101,1964,NABHA,LUDHIANA,NEWDELHI,PUNJAB,ON
Y1965101,1965,SANGRUR,LUDHIANA,NEWDELHI,PUNJAB,ON
Y1967101,1967,LUDHIANA,LUDHIANA,NEWDELHI,PUNJAB,ON
Y2012101,2012,COIMBATORE,COIMBATORE,BANGALORE,TAMIL NADU,ON
Y2016101,2016,RAJAVARAM,MAHABOOBNAGAR,TELANGANA,TELANGANA,ON
Y2020101,2020,NARASINGARAOPET,ONGOLE,VIJAYAWADA,ANDHRA PRADESH,ON
Y2065101,2065,THANJAVUR,COIMBATORE,BANGALORE,TAMIL NADU,ON
Y2070101,2070,ABOHAR,LUDHIANA,NEWDELHI,PUNJAB,ON
Y2097102,2097,JIVA CAMPUS,HYDERABAD-II,HYDERABAD,TELANGANA,ON
Y2118101,2118,ULAVAPADU,ONGOLE,VIJAYAWADA,ANDHRA PRADESH,ON
Y2192101,2192,MAHENDRA HILLS,SECUNDERABAD,HYDERABAD,TELANGANA,ON
Y2272101,2272,RAMANATHAPURAM,COIMBATORE,BANGALORE,TAMIL NADU,ON
Y2333101,2333,DAMERACHERLA,MAHABOOBNAGAR,TELANGANA,TELANGANA,ON
Y2353101,2353,NALLAGANDLA,HYDERABAD-II,HYDERABAD,TELANGANA,ON
Y2361101,2361,VINAYAKNAGAR,VISAKHAPATNAM,VISAKHAPATNAM,ANDHRA PRADESH,ON
Y2362101,2362,KURMANAPALEM,VISAKHAPATNAM,VISAKHAPATNAM,ANDHRA PRADESH,OFF
Y2394101,2394,KOVILMEDU,COIMBATORE,BANGALORE,TAMIL NADU,ON
Y2397101,2397,DUMBRIGUDA,VISAKHAPATNAM,VISAKHAPATNAM,ANDHRA PRADESH,ON
Y2427101,2427,EDAPALLY,KOCHI,BANGALORE,KERALA,ON
Y2440101,2440,JANDIALA,LUDHIANA,NEWDELHI,PUNJAB,ON
Y2491101,2491,RAJIV NAGAR,SECUNDERABAD,HYDERABAD,TELANGANA,ON
Y2492101,2492,HAFEEZPET,HYDERABAD-II,HYDERABAD,TELANGANA,ON
Y2493101,2493,SECTOR 32A,LUDHIANA,NEWDELHI,PUNJAB,ON
Y2524101,2524,CHERAN MA NAGAR,COIMBATORE,BANGALORE,TAMIL NADU,ON
Y2532101,2532,SINDHI COLONY,SECUNDERABAD,HYDERABAD,TELANGANA,ON
Y2541101,2541,PAPAMPET,KURNOOL,HYDERABAD,ANDHRA PRADESH,ON
Y2558101,2558,PALANI,COIMBATORE,BANGALORE,TAMIL NADU,ON
Y2592101,2592,DHARAPURAM ROAD,COIMBATORE,BANGALORE,TAMIL NADU,ON
Y2638101,2638,KONDAPI,ONGOLE,VIJAYAWADA,ANDHRA PRADESH,ON
Y2639101,2639,KOTHUR,ONGOLE,VIJAYAWADA,ANDHRA PRADESH,ON
Y2648101,2648,"RANJEET AVENUE, AMRITSAR",LUDHIANA,NEWDELHI,PUNJAB,ON
Y2693101,2693,KUPPANOOR,COIMBATORE,BANGALORE,TAMIL NADU,ON
Y2740101,2740,MIRA ROAD,MUMBAI,MUMBAI,MAHARASHTRA,ON
Y2757101,2757,KODUMURU,KURNOOL,HYDERABAD,ANDHRA PRADESH,ON
Y2784101,2784,VEERAPPANCHATRAM,COIMBATORE,BANGALORE,TAMIL NADU,ON
Y2848101,2848,P&T NAGAR MADURAI,COIMBATORE,BANGALORE,TAMIL NADU,ON
Y2896101,2896,SAI BABA COLONY,COIMBATORE,BANGALORE,TAMIL NADU,ON
Y2920101,2920,A.S. RAO NAGAR,SECUNDERABAD,HYDERABAD,TELANGANA,ON
Y2934101,2934,OLD ALWAL,SECUNDERABAD,HYDERABAD,TELANGANA,ON
Y2945101,2945,ANJANEYANAGAR,SECUNDERABAD,HYDERABAD,TELANGANA,ON
Y2946101,2946,BORABANDA,SECUNDERABAD,HYDERABAD,TELANGANA,ON
Y2953101,2953,SHIVAM ROAD,HYDERABAD-I,HYDERABAD,TELANGANA,ON
Y2955101,2955,ANAND BAGH,HYDERABAD-I,HYDERABAD,TELANGANA,ON
Y3030101,3030,MAJITHA ROAD,LUDHIANA,NEWDELHI,PUNJAB,ON
Y3046101,3046,SALEEMNAGAR,HYDERABAD-I,HYDERABAD,TELANGANA,ON
Y3054101,3054,BARKATPURA,HYDERABAD-I,HYDERABAD,TELANGANA,ON
Y3075101,3075,HAMBRAN ROAD,LUDHIANA,NEWDELHI,PUNJAB,ON
Y3083101,3083,MUTHIGANJ,LUCKNOW,NEWDELHI,UTTAR PRADESH,ON
Y3084101,3084,JANKIPURAM,LUCKNOW,NEWDELHI,UTTAR PRADESH,ON
Y3085101,3085,LUCKNOW,LUCKNOW,NEWDELHI,UTTAR PRADESH,ON
Y3112101,3112,THALAYOLAPARAMBU,KOCHI,BANGALORE,KERALA,ON
