Description,DataType,DatePattern
URN ,str,
BANK_ACCT_ID,str,
IFSC_CODE ,str,
BEN_BANK_ACCOUNT_NUM,str,
BENEFICIARY_NAME,str,
TRANSFER_TYPE,str,
TRAN_AMT_DR_CR_IND,str,
TRAN_AMT,str,
PAYMENT_AMT_DR_CR_IND,str,
PAYMENT_AMT,np.float64,
ADJ_AMT_DR_CR_IND,str,
 ADJ_AMT,str,
EVENT_ID,str,
INSTN_ID,str,
USER_ID ,str,
FILENAME,str,
STATUS_FLG,str,
H2H_GENERATION_TS ,str,
H2H_RESPONSE_TS ,str,
MSG_MODE,str,
OPENING_BAL,str,
OPENING_BAL_DR_CR_IND,str,
CLOSING_BAL,str,
CLOSING_BAL_DR_CR_IND,str,
BANK_CONSUMER_ID,str,
BANK_ID ,str,
BANK_ACCT_NUMBER,str,
BENE_CODE ,str,
REMARKS,str,
PAYOUT_FOR_DATE ,str,
MERCHANT_PAYOUT_REFERENCE ,str,
 MOD_COUNT,str,
CREATED_BY,str,
CREATED_AT,str,
LAST_EDITED_BY,str,
LAST_EDITED_AT,str,
BANK_REFERENCE,str,
REFERENCE_1,str,
REFERENCE_2,str,
REFERENCE_3,str,
REFERENCE_4,str,
REFERENCE_5,str,
BANK_RESP_CODE,str,
BANK_RESP_MSG ,str,
BANK_URN,str,
 TOT_TDR,str,
TOT_TAX_AMT,str,
RECON_DONE_FLAG,str,
RECON_DETAILS ,str,
BATCH_ID,str,
