Description,DataType,DatePattern,Required
SOL_ID,str,,y
SOL_DESC,str,,y
ZONE,str,,y
FORACID,str,,y
BACID,str,,y
ACCT_NAME,str,,y
TRAN DATE,np.datetime64,%d-%m-%Y,y
TRAN_ID,str,,y
ECS TRAN REF NO,str,,y
TRAN_PARTICULARS,str,,y
TRAN_RMKS,str,,y
DEBIT_AMT,np.float64,,y
Amount,np.float64,,y
OSB,str,,y

