Description,DataType,DatePattern
TRAN_DATE,np.datetime64,%d-%m-%Y
TRAN_ID,str,
PART_TRAN_ID,str,
CR_DR_IND,str,
EVENT_ID,str,
ACCOUNT_ID,str,
PART_TRAN_AMT,np.float64,
REMARKS,str,
PAYMENT_REFERENCE,str,
WALLET_FMT_ID,str,
INSNT_ID,str,
MERCHANT_REFERENCE,str,
BEN_IFSC_CODE,str,
BEN_BANK_ACCT_NUM,str,
BEN_NAME,str,
TRANSFER_TYPE,str,
TRANSFER_STATUS,str,
GEN_TIME_TS,str,
BANK_REFERENCE,str,
REFERENCE_1,str,
REFERENCE_2,str,
RESP_CODE,str,
RESP_MSG,str,
FEE_INCL_CHRGS,str,
