Description,DataType,DatePattern,Required
Current IC No,str,,y
Customer ID,str,,y
Cust open Dt,np.datetime64,%d-%m-%Y,y
Customer Category,str,,y
Prefix,str,,y
First Name,str,,y
Middle Name,str,,y
Last Name,str,,y
Company Name,str,,y
Short Name,str,,y
Mobile Nummber,str,,y
Phone(Res),str,,y
Phone(office),str,,y
Fax,str,,y
Aadhaar Number,str,,y
PAN,str,,y
FORM 60 NO,str,,y
Registered Number,str,,y
Date of Birth,np.datetime64,%d-%m-%Y,y
Date Registered,np.datetime64,%d-%m-%Y,y
Business Type,str,,y
Nationality,str,,y
Language,str,,y
Home Branch,str,,y
Gender,str,,y
Email,str,,y
Alternate Mail,str,,y
Mother Name,str,,y
Marital Status,str,,y
Staff Checkbox,str,,y
Employee ID,str,,y
Mailing Address1,str,,y
Mailing Address2,str,,y
Mailing Address3,str,,y
Postal_Code,str,,y
City,str,,y
State,str,,y
Country,str,,y
Permanent Address1,str,,y
Permanent Address2,str,,y
Permanent Address3,str,,y
Postal Code,str,,y
PERMCITY,str,,y
PERMSTATE,str,,y
PERMCOUNTRY,str,,y
AOR,str,,y
