Description,DataType,DatePattern
REQUEST_DATE,np.datetime64,%d-%m-%Y
REF_NO,str,
FEBA TRAN,str,
USER_ID,str,
SCHEDULED_DATE,np.datetime64,%d-%m-%Y
TRAN_TIME,str,
DEBIT_ACCT_NO,str,
CREDIT_ACCT_NO,str,
NAME,str,
AMOUNT,np.float64,
CURRENCY,str,
STATUS,str,
TYPE_OF_TRAN,str,
CUST_TYPE,str,
