Description,DataType,DatePattern
FEBA TRAN ID,str,
TRAN PARTICULARS,str,
CORE TRAN ID ,str,
TRAN_DATE,np.datetime64,%d-%m-%Y
TRAN TIME,str,
DR ACCOUNT NUMBER,str,
CR ACCOUNT NUMBER,str,
NAME,str,
TRAN AMOUNT,np.float64,
TRAN CURRENCY,str,
STATUS,str,
CHANNEL ID,str,
