Description,DataType,DatePattern
BATCH_ID,str,
TRAN_ID,str,
SUPPLIER_CODE,,
DISBURSEDAMT,,
BENEFICIARYNAME,,
BENIFICIARYCITY,,
CHEQUEDATE,,
DOWNLOADDATE,,
DOWNLOAD_USERID,,
CHEQUEID,str,
CHEQUE_NUM,str,
BANKNAME,,
BANKCITY,,
CHEQUEAMT,,
AGREEMENTID,,
BRANCHID,,
PRODUCTFLAG,,
DISBURSALDATE,,
AMTFIN,,
DISBURSALAMOUNT,,
QDP_DONE_FLAG,,
AGREEMENTNO,,
AGREEMENTDATE,,
APP_FORMNO,,
AUTHDATE1,,
AUTHDATE2,,
CUSTOMERNAME,,
Download,,
REASON,,
P,,
BP,,
