DataType,DatePattern,Description,To,From
str,,Participant ID,3,1
str,,Transaction Type,5,4
str,,From Account Type,7,6
str,,To Account Type,9,8
str,,Ref Number,21,10
str,,Response Code,23,22
str,,PAN Number,42,24
str,,Member Number,43,43
str,,Approval Number,49,44
str,,System Trace Audit Number,61,50
np.datetime64,%y%m%d,Transaction Date,67,62
str,,Transaction Time,73,68
str,,Merchant Category Code,77,74
str,,Card Acceptor Settl Date,83,78
str,,Card Acceptor ID,98,84
str,,Card Acceptor Terminal ID,106,99
str,,Card Acceptor Term. Location,146,107
str,,Aquirer ID,157,147
str,,NETWORK ID,160,158
str,,ACCOUNT 1 NUMBER,179,161
str,,ACCOUNT 1 BRANCH ID,189,180
str,,ACCOUNT 2 NUMBER,208,190
str,,ACCOUNT 2 BRANCH ID,218,209
str,,Transaction Currency Code,221,219
np.float64,,Transaction Amount,236,222
np.float64,,Actual Transaction Amount,251,237
np.float64,,Trans Activity Fee,266,252
np.float64,,ISSUER 1 SETTLEMENT AMOUNT,269,267
np.float64,,ISSUER Settlement Amount,284,270
str,,ISSUER Stl Fee,299,285
str,,ISSUER Stl Proc Fee,314,300
str,,CARDHOLDER BILL CURRENCY,317,315
str,,CARDHOLDER BILL AMOUNT,332,318
str,,CARDHOLDER ACTIVE FEE,347,333
str,,CARDHOLDER PROC FEE,362,348
str,,CARDHOLDER SVC FEE,377,363
np.float64,,TRANS CONV RATE,392,378
np.float64,,STLMNT CONV RATE,407,393
str,,REMARKS,457,408
str,,ORIGINAL CHANNEL,460,458
str,,IFSC CODE,471,461
str,,ACCOUNT NUMBER,501,472
