OFSAA,WIZARD
FIC_MIS_DATE,FIC_MIS_DATE
V_PARTY_ID,V_PARTY_ID
V_CUSTOMER_TYPE_CODE,V_CUSTOMER_TYPE_CODE
V_DOCUMENT_NAME,V_DOCUMENT_NAME
V_DOC_REF_NO,V_DOC_REF_NO
V_DOC_TYPE_CODE,V_DOC_TYPE_CODE
V_DATA_JURISDICTION,V_DATA_JURISDICTION
