Description,DataType,DatePattern,Required
Sl No,np.int64,,y
Mobile Number,str,,y
CustomerID,str,,y
TransactionID,str,,y
Narration,str,,y
Debit Account,str,,y
Credit Account,str,,y
Security Fee,np.float64,,y
JoiningFee,np.float64,,y
GST,np.float64,,y
Service Charge,np.float64,,
Threshold Limit,np.float64,,
Total Amount,np.float64,,y
Transaction Date,np.datetime64,%d/%m/%Y %H:%M:%S,y
PG RefNo,str,,y
PGCharge,np.float64,,
CourierCharge,np.float64,,
Courier GST,np.float64,,
