DataType,DatePattern,Description,To,From
str,,Transaction Code,2,1
str,,Transaction Code Qualifier,4,3
str,,Card Number,23,5
str,,Floor Limit Indicator,24,24
str,,CRB/Exception File Indicator,25,25
str,,Positive Cardholder Authorization Service (PCAS) Indicator,26,26
str,,ARN ,49,27
str,,Acquirer Business ID,57,50
str,,Purchase Date,61,58
str,,Destination Amount,73,62
str,,Destination Currency Code,76,74
str,,Source Amount,88,77
str,,Source Currency Code,91,89
str,,Merchant Name,116,92
str,,Merchant City,129,117
str,,Merchant Country Code,132,130
str,,Merchant Category Code,136,133
str,,Merchant ZIP Code,141,137
str,,Merchant State/Province Code,144,142
str,,Requested Payment Service,145,145
str,,Reserved,146,146
str,,Usage Code,147,147
str,,Reason Code,149,148
str,,Settlement Flag,150,150
str,,Authorization Characteristics Indicator,151,151
str,,Authorization Code,157,152
str,,POS Terminal Capability,158,158
str,,International Fee Indicator,159,159
str,,Cardholder ID Method,160,160
str,,Collection-Only Flag,161,161
str,,POS Entry Mode,163,162
str,,Central Processing Date,167,164
str,,Reimbursement Attribute,168,168