,CHARGE,OGLSOURCE,SOURCE,STATE CODE,STATE NAME,STATEMENT DATE,TAX,TRANSACTION COUNT
0,999.0,INDUS,INDUS,,Madhya Pradesh,20171012,179.82,1
1,,,branch control,0.0,Madhya Pradesh,20171013,0.0,0
2,41021.0,NOVOPAYMENTS,NOVOPAYMENTS,,Maharashtra,20171012,6258.01,1211
3,,,branch control,0.0,Maharashtra,20171013,0.0,0
