,CHARGE,MATCHSOURCE,OGLSOURCE,SOURCE,STATE CODE,STATE NAME,STATEMENT DATE,TAX,TRANSACTION COUNT
0,1998.0,,RSYS,RSYS,,Telangana,20171013,359.64,2
1,1034669.49,,TIPLUS,TIPLUS,,Telangana,20171013,186240.51,19
2,,CBS,,OGL,,Telangana,20171013,-195.84,2
3,,RSYS,,OGL,,Telangana,20171013,-359.64,2
4,,TIPLUS,,OGL,,Telangana,20171013,-183063.5,18
5,,,,branch control,0.0,Telangana,20171013,0.0,0
6,6993.0,,INDUS,INDUS,,Rajasthan,20171013,1258.74,7
7,44927.76,,NOVOLOAN,NOVOLOAN,,Rajasthan,20171013,6853.24,127
8,,CBS,,OGL,,Rajasthan,20171013,-8605.44,17
9,,INDUS,,OGL,,Rajasthan,20171013,-1258.74,6
10,,,,branch control,0.0,Rajasthan,20171013,0.0,0
11,101688.0,,CBS,BB onboarding,,Andhra Pradesh,20171013,18312.0,12
12,,CBS,,OGL,,Andhra Pradesh,20171013,-77453.97,10
13,,,,branch control,0.0,Andhra Pradesh,20171013,0.0,0
14,3009.66,,CBS,CBS,,Karnataka,20171013,541.75,4
15,75649.0,,INDUS,INDUS,,Karnataka,20171013,13616.82,73
16,59237.42,,NOVOLOAN,NOVOLOAN,,Karnataka,20171013,9035.83,153
17,6000.0,,RSYS,RSYS,,Karnataka,20171013,1080.0,1
18,71788.47,,TIPLUS,TIPLUS,,Karnataka,20171013,12921.88,38
19,,CBS,,OGL,,Karnataka,20171013,-112767.16,50
20,,INDUS,,OGL,,Karnataka,20171013,-13616.82,44
21,,RSYS,,OGL,,Karnataka,20171013,-1080.0,2
22,,TIPLUS,,OGL,,Karnataka,20171013,-1584.0,34
23,,,,branch control,0.0,Karnataka,20171013,0.0,0
24,376359.05,,TIPLUS,TIPLUS,,Haryana,20171013,67744.65,43
25,60000.0,,CBS,wbo lending,,Haryana,20171013,10800.0,1
26,,CBS,,OGL,,Haryana,20171013,-10536.48,4
27,,TIPLUS,,OGL,,Haryana,20171013,-50874.27,29
28,,,,branch control,0.0,Haryana,20171013,0.0,0
29,8474.0,,CBS,BB onboarding,,Meghalaya,20171013,1526.0,1
30,,CBS,,OGL,,Meghalaya,20171013,-5677.07,2
31,,,,branch control,0.0,Meghalaya,20171013,0.0,0
32,21423.72,,CBS,CBS,,Delhi,20171013,3856.26,2
33,44166.0,,RSYS,RSYS,,Delhi,20171013,9029.88,17
34,594608.24,,TIPLUS,TIPLUS,,Delhi,20171013,107029.51,55
35,-1029.28,,CBS,tech excel,,Delhi,20171013,-185.27,1
36,534.18,,CBS,tech excel1,,Delhi,20171013,96.15,1
37,10.0,,CBS,wbo cms,,Delhi,20171013,1.8,1
38,,CBS,,OGL,,Delhi,20171013,-64983.09,7
39,,RSYS,,OGL,,Delhi,20171013,-9029.88,9
40,,TIPLUS,,OGL,,Delhi,20171013,-80242.46,48
41,,,,branch control,0.0,Delhi,20171013,0.0,0
42,50844.0,,CBS,BB onboarding,,Madhya Pradesh,20171013,9156.0,6
43,15000.0,,CBS,CBS,,Madhya Pradesh,20171013,2700.0,1
44,64749.57,,INDUS,INDUS,,Madhya Pradesh,20171013,11654.94,62
45,163966.37,,NOVOLOAN,NOVOLOAN,,Madhya Pradesh,20171013,25011.56,224
46,,CBS,,OGL,,Madhya Pradesh,20171013,-263002.8,96
47,,INDUS,,OGL,,Madhya Pradesh,20171013,-11834.76,50
48,,,,branch control,0.0,Madhya Pradesh,20171013,0.0,0
49,39770.37,,TIPLUS,TIPLUS,,Uttar Pradesh,20171013,7158.69,20
50,,CBS,,OGL,,Uttar Pradesh,20171013,-12493.8,5
51,,TIPLUS,,OGL,,Uttar Pradesh,20171013,-1343.45,13
52,,,,branch control,0.0,Uttar Pradesh,20171013,0.0,0
53,216413.47,,TIPLUS,TIPLUS,,West Bengal,20171013,38954.42,8
54,,TIPLUS,,OGL,,West Bengal,20171013,-32493.22,10
55,,,,branch control,0.0,West Bengal,20171013,0.0,0
56,1998.0,,INDUS,INDUS,,Gujarat,20171013,359.64,2
57,34155.56,,NOVOLOAN,NOVOLOAN,,Gujarat,20171013,5210.0,81
58,10000.0,,RSYS,RSYS,,Gujarat,20171013,1800.0,2
59,52179.18,,TIPLUS,TIPLUS,,Gujarat,20171013,9392.26,14
60,,CBS,,OGL,,Gujarat,20171013,-11964.06,19
61,,INDUS,,OGL,,Gujarat,20171013,-359.64,2
62,,RSYS,,OGL,,Gujarat,20171013,-1800.0,4
63,,TIPLUS,,OGL,,Gujarat,20171013,-8717.48,17
64,,,,branch control,0.0,Gujarat,20171013,0.0,0
65,271168.0,,CBS,BB onboarding,,Maharashtra,20171013,48832.0,32
66,7033.89,,CBS,CBS,,Maharashtra,20171013,1266.1,2
67,1007248.0,,NOVOLOAN,NOVOLOAN,,Maharashtra,20171013,153648.0,2392
68,72245.0,,RSYS,RSYS,,Maharashtra,20171013,13006.86,14
69,942943.81,,TIPLUS,TIPLUS,,Maharashtra,20171013,169729.91,115
70,5211997.11,,CBS,pos-fd and retail-retail npci,,Maharashtra,20171013,938159.48,4
71,-1194.64,,CBS,tech excel,,Maharashtra,20171013,-215.04,1
72,438.35,,CBS,tech excel1,,Maharashtra,20171013,78.9,1
73,1000.0,,CBS,wbo cms,,Maharashtra,20171013,180.0,1
74,5723.71,,CBS,wbo trade,,Maharashtra,20171013,1030.27,1
75,,CBS,,OGL,,Maharashtra,20171013,-1729973.54,37
76,,RSYS,,OGL,,Maharashtra,20171013,-13006.86,14
77,,TIPLUS,,OGL,,Maharashtra,20171013,-93742.57,111
78,,,,branch control,0.0,Maharashtra,20171013,0.0,0
79,50844.0,,CBS,BB onboarding,,Tripura,20171013,9156.0,6
80,,CBS,,OGL,,Tripura,20171013,-20913.51,3
81,,,,branch control,0.0,Tripura,20171013,0.0,0
82,8474.0,,CBS,BB onboarding,,Tamil Nadu,20171013,1526.0,1
83,1264558.8,,NOVOLOAN,NOVOLOAN,,Tamil Nadu,20171013,192898.8,2919
84,26563.0,,RSYS,RSYS,,Tamil Nadu,20171013,4781.28,11
85,4881284.62,,TIPLUS,TIPLUS,,Tamil Nadu,20171013,878631.24,22
86,1000.0,,CBS,wbo trade,,Tamil Nadu,20171013,180.0,1
87,,CBS,,OGL,,Tamil Nadu,20171013,-60871.55,8
88,,RSYS,,OGL,,Tamil Nadu,20171013,-4781.28,10
89,,TIPLUS,,OGL,,Tamil Nadu,20171013,-873119.42,16
90,,,,branch control,0.0,Tamil Nadu,20171013,0.0,0
