,SOURCE NAME,SOURCECODE,STATEMENT DATE,STATE CODE,STATE NAME,NATURAL_AC,TAX VALUE
0,CBS,1.0,13-Oct-17,84.0,Karnataka,24543.0,-346.84
1,CBS,1.0,13-Oct-17,54.0,Gujarat,24543.0,-92.7
2,TIPLUS,6.0,13-Oct-17,60.0,Maharashtra,24543.0,-112.5
3,TIPLUS,6.0,13-Oct-17,60.0,Maharashtra,24543.0,-1093.34
4,TIPLUS,6.0,13-Oct-17,60.0,Maharashtra,24543.0,-1167.71
5,TIPLUS,6.0,13-Oct-17,60.0,Maharashtra,24543.0,-1181.24
6,TIPLUS,6.0,13-Oct-17,81.0,Telangana,24543.0,-90.0
7,TIPLUS,6.0,13-Oct-17,81.0,Telangana,24543.0,-90.0
8,TIPLUS,6.0,13-Oct-17,81.0,Telangana,24543.0,-180.0
9,TIPLUS,6.0,13-Oct-17,81.0,Telangana,24543.0,-180.0
10,TIPLUS,6.0,13-Oct-17,60.0,Maharashtra,24543.0,-405.0
11,TIPLUS,6.0,13-Oct-17,60.0,Maharashtra,24543.0,-544.79
12,TIPLUS,6.0,13-Oct-17,29.0,Delhi,24543.0,-58.5
13,RSYSTEM,3.0,13-Oct-17,60.0,Maharashtra,24543.0,-179.82
14,RSYSTEM,3.0,13-Oct-17,60.0,Maharashtra,24543.0,-990.0
15,RSYSTEM,3.0,13-Oct-17,60.0,Maharashtra,24543.0,-1067.0
16,RSYSTEM,3.0,13-Oct-17,60.0,Maharashtra,24543.0,-1091.61
17,RSYSTEM,3.0,13-Oct-17,60.0,Maharashtra,24543.0,-1654.0
18,TIPLUS,6.0,13-Oct-17,60.0,Maharashtra,24543.0,-45.0
19,TIPLUS,6.0,13-Oct-17,60.0,Maharashtra,24543.0,-605.84
20,TIPLUS,6.0,13-Oct-17,60.0,Maharashtra,24543.0,-1144.95
21,TIPLUS,6.0,13-Oct-17,60.0,Maharashtra,24543.0,-63.0
22,TIPLUS,6.0,13-Oct-17,60.0,Maharashtra,24543.0,-63.0
23,TIPLUS,6.0,13-Oct-17,60.0,Maharashtra,24543.0,-90.0
24,TIPLUS,6.0,13-Oct-17,60.0,Maharashtra,24543.0,-90.0
25,TIPLUS,6.0,13-Oct-17,60.0,Maharashtra,24543.0,-90.0
26,TIPLUS,6.0,13-Oct-17,60.0,Maharashtra,24543.0,-90.0
27,RSYSTEM,3.0,13-Oct-17,29.0,Delhi,24543.0,-225.0
28,RSYSTEM,3.0,13-Oct-17,29.0,Delhi,24543.0,-269.73
29,RSYSTEM,3.0,13-Oct-17,29.0,Delhi,24543.0,-1485.0
30,RSYSTEM,3.0,13-Oct-17,90.0,Tamil Nadu,24543.0,-359.64
31,RSYSTEM,3.0,13-Oct-17,90.0,Tamil Nadu,24543.0,-501.0
32,RSYSTEM,3.0,13-Oct-17,90.0,Tamil Nadu,24543.0,-675.0
33,RSYSTEM,3.0,13-Oct-17,90.0,Tamil Nadu,24543.0,-765.0
34,RSYSTEM,3.0,13-Oct-17,84.0,Karnataka,24543.0,-540.0
35,TIPLUS,6.0,13-Oct-17,60.0,Maharashtra,24543.0,-117.0
36,TIPLUS,6.0,13-Oct-17,29.0,Delhi,24543.0,-67.5
37,TIPLUS,6.0,13-Oct-17,84.0,Karnataka,24543.0,-45.0
38,TIPLUS,6.0,13-Oct-17,60.0,Maharashtra,24543.0,-22.5
39,TIPLUS,6.0,13-Oct-17,60.0,Maharashtra,24543.0,-22.5
40,TIPLUS,6.0,13-Oct-17,60.0,Maharashtra,24543.0,-22.5
41,TIPLUS,6.0,13-Oct-17,60.0,Maharashtra,24543.0,-22.5
42,TIPLUS,6.0,13-Oct-17,60.0,Maharashtra,24543.0,-22.5
43,TIPLUS,6.0,13-Oct-17,60.0,Maharashtra,24543.0,-35173.21
44,TIPLUS,6.0,13-Oct-17,54.0,Gujarat,24543.0,-3503.74
45,TIPLUS,6.0,13-Oct-17,29.0,Delhi,24543.0,-549.86
46,TIPLUS,6.0,13-Oct-17,60.0,Maharashtra,24543.0,-27.0
47,TIPLUS,6.0,13-Oct-17,60.0,Maharashtra,24543.0,-20.25
48,INDUS,8.0,13-Oct-17,84.0,Karnataka,24543.0,-809.19
49,INDUS,8.0,13-Oct-17,84.0,Karnataka,24543.0,-269.73
50,INDUS,8.0,13-Oct-17,84.0,Karnataka,24543.0,-359.64
51,INDUS,8.0,13-Oct-17,84.0,Karnataka,24543.0,-179.82
52,CBS,1.0,13-Oct-17,60.0,Maharashtra,24543.0,-76.25
53,INDUS,8.0,13-Oct-17,70.0,Madhya Pradesh,24543.0,-449.55
54,INDUS,8.0,13-Oct-17,84.0,Karnataka,24543.0,-179.82
55,INDUS,8.0,13-Oct-17,84.0,Karnataka,24543.0,-539.46
56,INDUS,8.0,13-Oct-17,84.0,Karnataka,24543.0,-179.82
57,INDUS,8.0,13-Oct-17,84.0,Karnataka,24543.0,-179.82
58,INDUS,8.0,13-Oct-17,84.0,Karnataka,24543.0,-179.82
59,INDUS,8.0,13-Oct-17,70.0,Madhya Pradesh,24543.0,-89.91
60,INDUS,8.0,13-Oct-17,84.0,Karnataka,24543.0,-359.64
61,INDUS,8.0,13-Oct-17,84.0,Karnataka,24543.0,-179.82
62,INDUS,8.0,13-Oct-17,70.0,Madhya Pradesh,24543.0,-179.82
63,INDUS,8.0,13-Oct-17,84.0,Karnataka,24543.0,-179.82
64,TIPLUS,6.0,13-Oct-17,29.0,Delhi,24543.0,-7650.0
65,TIPLUS,6.0,13-Oct-17,90.0,Tamil Nadu,24543.0,-653.41
66,TIPLUS,6.0,13-Oct-17,60.0,Maharashtra,24543.0,-22.5
67,TIPLUS,6.0,13-Oct-17,60.0,Maharashtra,24543.0,-45.0
68,TIPLUS,6.0,13-Oct-17,60.0,Maharashtra,24543.0,-45.0
69,TIPLUS,6.0,13-Oct-17,60.0,Maharashtra,24543.0,-45.0
70,TIPLUS,6.0,13-Oct-17,60.0,Maharashtra,24543.0,-90.0
71,TIPLUS,6.0,13-Oct-17,34.0,Haryana,24543.0,-18.0
72,TIPLUS,6.0,13-Oct-17,34.0,Haryana,24543.0,-18.0
73,TIPLUS,6.0,13-Oct-17,34.0,Haryana,24543.0,-18.0
74,CBS,1.0,13-Oct-17,90.0,Tamil Nadu,24543.0,-90.0
75,TIPLUS,6.0,13-Oct-17,60.0,Maharashtra,24543.0,-45.0
76,TIPLUS,6.0,13-Oct-17,60.0,Maharashtra,24543.0,-45.0
77,TIPLUS,6.0,13-Oct-17,60.0,Maharashtra,24543.0,-45.0
78,TIPLUS,6.0,13-Oct-17,60.0,Maharashtra,24543.0,-45.0
79,TIPLUS,6.0,13-Oct-17,54.0,Gujarat,24543.0,-135.0
80,TIPLUS,6.0,13-Oct-17,54.0,Gujarat,24543.0,-135.0
81,TIPLUS,6.0,13-Oct-17,54.0,Gujarat,24543.0,-135.0
82,TIPLUS,6.0,13-Oct-17,60.0,Maharashtra,24543.0,-22.5
83,TIPLUS,6.0,13-Oct-17,10.0,West Bengal,24543.0,-67.5
84,TIPLUS,6.0,13-Oct-17,60.0,Maharashtra,24543.0,-91.99
85,TIPLUS,6.0,13-Oct-17,60.0,Maharashtra,24543.0,-2399.58
86,TIPLUS,6.0,13-Oct-17,60.0,Maharashtra,24543.0,-135.0
87,TIPLUS,6.0,13-Oct-17,60.0,Maharashtra,24543.0,-90.0
88,RSYSTEM,3.0,13-Oct-17,81.0,Telangana,24543.0,-179.82
89,RSYSTEM,3.0,13-Oct-17,54.0,Gujarat,24543.0,-450.0
90,CBS,1.0,13-Oct-17,2.0,Meghalaya,24543.0,-2838.44
91,INDUS,8.0,13-Oct-17,70.0,Madhya Pradesh,24543.0,-89.91
92,INDUS,8.0,13-Oct-17,70.0,Madhya Pradesh,24543.0,-179.82
93,INDUS,8.0,13-Oct-17,70.0,Madhya Pradesh,24543.0,-269.73
94,INDUS,8.0,13-Oct-17,50.0,Rajasthan,24543.0,-449.55
95,CBS,1.0,13-Oct-17,70.0,Madhya Pradesh,24543.0,-520.62
96,CBS,1.0,13-Oct-17,70.0,Madhya Pradesh,24543.0,-605.7
97,CBS,1.0,13-Oct-17,54.0,Gujarat,24543.0,-213.92
98,CBS,1.0,13-Oct-17,54.0,Gujarat,24543.0,-213.92
99,TIPLUS,6.0,13-Oct-17,10.0,West Bengal,24543.0,-6993.05
100,CBS,1.0,13-Oct-17,54.0,Gujarat,24543.0,-131.26
101,TIPLUS,6.0,13-Oct-17,60.0,Maharashtra,24543.0,-27.0
102,TIPLUS,6.0,13-Oct-17,34.0,Haryana,24543.0,-22711.44
103,CBS,1.0,13-Oct-17,60.0,Maharashtra,24543.0,-54.0
104,CBS,1.0,13-Oct-17,50.0,Rajasthan,24543.0,-341.1
105,CBS,1.0,13-Oct-17,50.0,Rajasthan,24543.0,-257.88
106,CBS,1.0,13-Oct-17,50.0,Rajasthan,24543.0,-639.0
107,CBS,1.0,13-Oct-17,54.0,Gujarat,24543.0,-99.0
108,CBS,1.0,13-Oct-17,84.0,Karnataka,24543.0,-139.5
109,TIPLUS,6.0,13-Oct-17,60.0,Maharashtra,24543.0,-9.0
110,TIPLUS,6.0,13-Oct-17,60.0,Maharashtra,24543.0,-9.0
111,TIPLUS,6.0,13-Oct-17,60.0,Maharashtra,24543.0,-20.25
112,TIPLUS,6.0,13-Oct-17,29.0,Delhi,24543.0,-45.0
113,TIPLUS,6.0,13-Oct-17,29.0,Delhi,24543.0,-45.0
114,TIPLUS,6.0,13-Oct-17,29.0,Delhi,24543.0,-45.0
115,TIPLUS,6.0,13-Oct-17,84.0,Karnataka,24543.0,-45.0
116,TIPLUS,6.0,13-Oct-17,54.0,Gujarat,24543.0,-45.0
117,TIPLUS,6.0,13-Oct-17,84.0,Karnataka,24543.0,-45.0
118,TIPLUS,6.0,13-Oct-17,84.0,Karnataka,24543.0,-45.0
119,TIPLUS,6.0,13-Oct-17,84.0,Karnataka,24543.0,-45.0
120,TIPLUS,6.0,13-Oct-17,84.0,Karnataka,24543.0,-45.0
121,TIPLUS,6.0,13-Oct-17,84.0,Karnataka,24543.0,-45.0
122,TIPLUS,6.0,13-Oct-17,84.0,Karnataka,24543.0,-45.0
123,TIPLUS,6.0,13-Oct-17,84.0,Karnataka,24543.0,-45.0
124,TIPLUS,6.0,13-Oct-17,84.0,Karnataka,24543.0,-45.0
125,TIPLUS,6.0,13-Oct-17,84.0,Karnataka,24543.0,-45.0
126,TIPLUS,6.0,13-Oct-17,84.0,Karnataka,24543.0,-45.0
127,TIPLUS,6.0,13-Oct-17,84.0,Karnataka,24543.0,-45.0
128,TIPLUS,6.0,13-Oct-17,90.0,Tamil Nadu,24543.0,-27.0
129,TIPLUS,6.0,13-Oct-17,90.0,Tamil Nadu,24543.0,-45.0
130,TIPLUS,6.0,13-Oct-17,20.0,Uttar Pradesh,24543.0,-13.5
131,TIPLUS,6.0,13-Oct-17,20.0,Uttar Pradesh,24543.0,-13.5
132,TIPLUS,6.0,13-Oct-17,20.0,Uttar Pradesh,24543.0,-45.0
133,TIPLUS,6.0,13-Oct-17,20.0,Uttar Pradesh,24543.0,-45.0
134,TIPLUS,6.0,13-Oct-17,20.0,Uttar Pradesh,24543.0,-45.0
135,CBS,1.0,13-Oct-17,60.0,Maharashtra,24543.0,-236.97
136,CBS,1.0,13-Oct-17,60.0,Maharashtra,24543.0,-469250.35
137,CBS,1.0,13-Oct-17,29.0,Delhi,24543.0,-25866.23
138,CBS,1.0,13-Oct-17,60.0,Maharashtra,24543.0,-80217.43
139,CBS,1.0,13-Oct-17,34.0,Haryana,24543.0,-4570.36
140,INDUS,8.0,13-Oct-17,84.0,Karnataka,24543.0,-629.37
141,TIPLUS,6.0,13-Oct-17,29.0,Delhi,24543.0,-27.0
142,TIPLUS,6.0,13-Oct-17,29.0,Delhi,24543.0,-27.0
143,TIPLUS,6.0,13-Oct-17,60.0,Maharashtra,24543.0,-90.0
144,TIPLUS,6.0,13-Oct-17,60.0,Maharashtra,24543.0,-90.0
145,TIPLUS,6.0,13-Oct-17,60.0,Maharashtra,24543.0,-90.0
146,CBS,1.0,13-Oct-17,54.0,Gujarat,24543.0,-4390.78
147,CBS,1.0,13-Oct-17,90.0,Tamil Nadu,24543.0,-16581.31
148,CBS,1.0,13-Oct-17,20.0,Uttar Pradesh,24543.0,-4804.92
149,CBS,1.0,13-Oct-17,60.0,Maharashtra,24543.0,-3077.73
150,CBS,1.0,13-Oct-17,60.0,Maharashtra,24543.0,-1663.42
151,CBS,1.0,13-Oct-17,70.0,Madhya Pradesh,24543.0,-1914.25
152,CBS,1.0,13-Oct-17,70.0,Madhya Pradesh,24543.0,-4091.72
153,CBS,1.0,13-Oct-17,60.0,Maharashtra,24543.0,-373.23
154,CBS,1.0,13-Oct-17,70.0,Madhya Pradesh,24543.0,-4124.92
155,CBS,1.0,13-Oct-17,70.0,Madhya Pradesh,24543.0,-7552.03
156,CBS,1.0,13-Oct-17,70.0,Madhya Pradesh,24543.0,-2981.76
157,CBS,1.0,13-Oct-17,70.0,Madhya Pradesh,24543.0,-5161.25
158,CBS,1.0,13-Oct-17,60.0,Maharashtra,24543.0,-4691.76
159,CBS,1.0,13-Oct-17,84.0,Karnataka,24543.0,-770.16
160,INDUS,8.0,13-Oct-17,84.0,Karnataka,24543.0,-179.82
161,INDUS,8.0,13-Oct-17,50.0,Rajasthan,24543.0,-89.91
162,INDUS,8.0,13-Oct-17,84.0,Karnataka,24543.0,-449.55
163,CBS,1.0,13-Oct-17,60.0,Maharashtra,24543.0,-2740.23
164,CBS,1.0,13-Oct-17,70.0,Madhya Pradesh,24543.0,-4718.39
165,CBS,1.0,13-Oct-17,70.0,Madhya Pradesh,24543.0,-2584.18
166,CBS,1.0,13-Oct-17,70.0,Madhya Pradesh,24543.0,-6609.77
167,CBS,1.0,13-Oct-17,70.0,Madhya Pradesh,24543.0,-6596.24
168,CBS,1.0,13-Oct-17,70.0,Madhya Pradesh,24543.0,-9533.61
169,CBS,1.0,13-Oct-17,70.0,Madhya Pradesh,24543.0,-3002.13
170,CBS,1.0,13-Oct-17,70.0,Madhya Pradesh,24543.0,-6891.27
171,CBS,1.0,13-Oct-17,70.0,Madhya Pradesh,24543.0,-3769.97
172,CBS,1.0,13-Oct-17,70.0,Madhya Pradesh,24543.0,-2095.45
173,CBS,1.0,13-Oct-17,70.0,Madhya Pradesh,24543.0,-2652.15
174,CBS,1.0,13-Oct-17,70.0,Madhya Pradesh,24543.0,-7020.88
175,CBS,1.0,13-Oct-17,18.0,Tripura,24543.0,-10452.17
176,CBS,1.0,13-Oct-17,70.0,Madhya Pradesh,24543.0,-3186.46
177,CBS,1.0,13-Oct-17,84.0,Karnataka,24543.0,-2786.17
178,CBS,1.0,13-Oct-17,84.0,Karnataka,24543.0,-3027.96
179,CBS,1.0,13-Oct-17,80.0,Andhra Pradesh,24543.0,-23498.8
180,CBS,1.0,13-Oct-17,90.0,Tamil Nadu,24543.0,-13505.27
181,CBS,1.0,13-Oct-17,84.0,Karnataka,24543.0,-2055.43
182,CBS,1.0,13-Oct-17,84.0,Karnataka,24543.0,-7605.29
183,CBS,1.0,13-Oct-17,84.0,Karnataka,24543.0,-3241.94
184,INDUS,8.0,13-Oct-17,84.0,Karnataka,24543.0,-359.64
185,INDUS,8.0,13-Oct-17,70.0,Madhya Pradesh,24543.0,-269.73
186,INDUS,8.0,13-Oct-17,70.0,Madhya Pradesh,24543.0,-269.73
187,INDUS,8.0,13-Oct-17,70.0,Madhya Pradesh,24543.0,-89.91
188,RSYSTEM,3.0,13-Oct-17,54.0,Gujarat,24543.0,-450.0
189,TIPLUS,6.0,13-Oct-17,60.0,Maharashtra,24543.0,-495.0
190,TIPLUS,6.0,13-Oct-17,60.0,Maharashtra,24543.0,-315.0
191,TIPLUS,6.0,13-Oct-17,84.0,Karnataka,24543.0,-45.0
192,TIPLUS,6.0,13-Oct-17,60.0,Maharashtra,24543.0,-45.0
193,TIPLUS,6.0,13-Oct-17,60.0,Maharashtra,24543.0,-45.0
194,TIPLUS,6.0,13-Oct-17,60.0,Maharashtra,24543.0,-45.0
195,TIPLUS,6.0,13-Oct-17,90.0,Tamil Nadu,24543.0,-67.5
196,TIPLUS,6.0,13-Oct-17,29.0,Delhi,24543.0,-315.0
197,TIPLUS,6.0,13-Oct-17,84.0,Karnataka,24543.0,-90.0
198,TIPLUS,6.0,13-Oct-17,84.0,Karnataka,24543.0,-45.0
199,TIPLUS,6.0,13-Oct-17,34.0,Haryana,24543.0,-112.5
200,TIPLUS,6.0,13-Oct-17,34.0,Haryana,24543.0,-112.5
201,TIPLUS,6.0,13-Oct-17,34.0,Haryana,24543.0,-112.5
202,TIPLUS,6.0,13-Oct-17,34.0,Haryana,24543.0,-112.5
203,TIPLUS,6.0,13-Oct-17,54.0,Gujarat,24543.0,-45.0
204,TIPLUS,6.0,13-Oct-17,54.0,Gujarat,24543.0,-45.0
205,CBS,1.0,13-Oct-17,29.0,Delhi,24543.0,-3094.74
206,TIPLUS,6.0,13-Oct-17,84.0,Karnataka,24543.0,-27.0
207,TIPLUS,6.0,13-Oct-17,90.0,Tamil Nadu,24543.0,-112.5
208,RSYSTEM,3.0,13-Oct-17,60.0,Maharashtra,24543.0,-405.0
209,RSYSTEM,3.0,13-Oct-17,60.0,Maharashtra,24543.0,-1116.0
210,TIPLUS,6.0,13-Oct-17,54.0,Gujarat,24543.0,-135.0
211,TIPLUS,6.0,13-Oct-17,29.0,Delhi,24543.0,-9.0
212,TIPLUS,6.0,13-Oct-17,29.0,Delhi,24543.0,-9.0
213,TIPLUS,6.0,13-Oct-17,29.0,Delhi,24543.0,-9.0
214,CBS,1.0,13-Oct-17,70.0,Madhya Pradesh,24543.0,-1899.21
215,CBS,1.0,13-Oct-17,70.0,Madhya Pradesh,24543.0,-1165.0
216,CBS,1.0,13-Oct-17,70.0,Madhya Pradesh,24543.0,-6847.71
217,CBS,1.0,13-Oct-17,70.0,Madhya Pradesh,24543.0,-6118.31
218,CBS,1.0,13-Oct-17,70.0,Madhya Pradesh,24543.0,-4743.57
219,CBS,1.0,13-Oct-17,70.0,Madhya Pradesh,24543.0,-4326.45
220,CBS,1.0,13-Oct-17,70.0,Madhya Pradesh,24543.0,-5014.61
221,CBS,1.0,13-Oct-17,70.0,Madhya Pradesh,24543.0,-1727.36
222,CBS,1.0,13-Oct-17,70.0,Madhya Pradesh,24543.0,-379.52
223,CBS,1.0,13-Oct-17,70.0,Madhya Pradesh,24543.0,-403.1
224,CBS,1.0,13-Oct-17,70.0,Madhya Pradesh,24543.0,-878.95
225,CBS,1.0,13-Oct-17,50.0,Rajasthan,24543.0,-1237.19
226,CBS,1.0,13-Oct-17,70.0,Madhya Pradesh,24543.0,-751.45
227,CBS,1.0,13-Oct-17,80.0,Andhra Pradesh,24543.0,-9162.74
228,CBS,1.0,13-Oct-17,84.0,Karnataka,24543.0,-1782.52
229,CBS,1.0,13-Oct-17,84.0,Karnataka,24543.0,-5598.39
230,CBS,1.0,13-Oct-17,84.0,Karnataka,24543.0,-2617.68
231,CBS,1.0,13-Oct-17,84.0,Karnataka,24543.0,-1431.66
232,CBS,1.0,13-Oct-17,70.0,Madhya Pradesh,24543.0,-2845.62
233,CBS,1.0,13-Oct-17,84.0,Karnataka,24543.0,-1263.4
234,CBS,1.0,13-Oct-17,84.0,Karnataka,24543.0,-2559.48
235,CBS,1.0,13-Oct-17,60.0,Maharashtra,24543.0,-249.84
236,CBS,1.0,13-Oct-17,84.0,Karnataka,24543.0,-5884.78
237,CBS,1.0,13-Oct-17,84.0,Karnataka,24543.0,-5331.51
238,CBS,1.0,13-Oct-17,84.0,Karnataka,24543.0,-816.2
239,CBS,1.0,13-Oct-17,80.0,Andhra Pradesh,24543.0,-2959.46
240,CBS,1.0,13-Oct-17,84.0,Karnataka,24543.0,-1073.11
241,CBS,1.0,13-Oct-17,84.0,Karnataka,24543.0,-3624.26
242,INDUS,8.0,13-Oct-17,54.0,Gujarat,24543.0,-179.82
243,TIPLUS,6.0,13-Oct-17,10.0,West Bengal,24543.0,-180.0
244,CBS,1.0,13-Oct-17,70.0,Madhya Pradesh,24543.0,-392.1
245,CBS,1.0,13-Oct-17,70.0,Madhya Pradesh,24543.0,-1722.05
246,CBS,1.0,13-Oct-17,50.0,Rajasthan,24543.0,-443.15
247,CBS,1.0,13-Oct-17,70.0,Madhya Pradesh,24543.0,-901.22
248,CBS,1.0,13-Oct-17,70.0,Madhya Pradesh,24543.0,-922.34
249,CBS,1.0,13-Oct-17,70.0,Madhya Pradesh,24543.0,-3319.2
250,TIPLUS,6.0,13-Oct-17,60.0,Maharashtra,24543.0,-45.0
251,CBS,1.0,13-Oct-17,81.0,Telangana,24543.0,-97.92
252,CBS,1.0,13-Oct-17,84.0,Karnataka,24543.0,-1462.4
253,INDUS,8.0,13-Oct-17,70.0,Madhya Pradesh,24543.0,-89.91
254,CBS,1.0,13-Oct-17,50.0,Rajasthan,24543.0,-450.55
255,CBS,1.0,13-Oct-17,80.0,Andhra Pradesh,24543.0,-1738.49
256,INDUS,8.0,13-Oct-17,70.0,Madhya Pradesh,24543.0,-52.98
257,INDUS,8.0,13-Oct-17,70.0,Madhya Pradesh,24543.0,-573.57
258,INDUS,8.0,13-Oct-17,70.0,Madhya Pradesh,24543.0,-89.91
259,INDUS,8.0,13-Oct-17,70.0,Madhya Pradesh,24543.0,-179.82
260,INDUS,8.0,13-Oct-17,70.0,Madhya Pradesh,24543.0,-359.64
261,INDUS,8.0,13-Oct-17,70.0,Madhya Pradesh,24543.0,-719.28
262,INDUS,8.0,13-Oct-17,84.0,Karnataka,24543.0,-359.64
263,INDUS,8.0,13-Oct-17,70.0,Madhya Pradesh,24543.0,-89.91
264,INDUS,8.0,13-Oct-17,70.0,Madhya Pradesh,24543.0,-449.55
265,TIPLUS,6.0,13-Oct-17,29.0,Delhi,24543.0,-202.5
266,INDUS,8.0,13-Oct-17,70.0,Madhya Pradesh,24543.0,-179.82
267,INDUS,8.0,13-Oct-17,70.0,Madhya Pradesh,24543.0,-89.91
268,RSYSTEM,3.0,13-Oct-17,90.0,Tamil Nadu,24543.0,-90.0
269,INDUS,8.0,13-Oct-17,70.0,Madhya Pradesh,24543.0,-269.73
270,TIPLUS,6.0,13-Oct-17,60.0,Maharashtra,24543.0,-90.0
271,TIPLUS,6.0,13-Oct-17,34.0,Haryana,24543.0,-478.69
272,TIPLUS,6.0,13-Oct-17,34.0,Haryana,24543.0,-478.69
273,INDUS,8.0,13-Oct-17,70.0,Madhya Pradesh,24543.0,-89.91
274,INDUS,8.0,13-Oct-17,84.0,Karnataka,24543.0,-179.82
275,TIPLUS,6.0,13-Oct-17,60.0,Maharashtra,24543.0,-13.5
276,TIPLUS,6.0,13-Oct-17,10.0,West Bengal,24543.0,-8938.56
277,INDUS,8.0,13-Oct-17,50.0,Rajasthan,24543.0,-89.91
278,TIPLUS,6.0,13-Oct-17,10.0,West Bengal,24543.0,-67.5
279,INDUS,8.0,13-Oct-17,70.0,Madhya Pradesh,24543.0,-269.73
280,TIPLUS,6.0,13-Oct-17,29.0,Delhi,24543.0,-45.0
281,TIPLUS,6.0,13-Oct-17,29.0,Delhi,24543.0,-45.0
282,CBS,1.0,13-Oct-17,70.0,Madhya Pradesh,24543.0,-214.54
283,CBS,1.0,13-Oct-17,54.0,Gujarat,24543.0,-598.28
284,CBS,1.0,13-Oct-17,50.0,Rajasthan,24543.0,-187.96
285,INDUS,8.0,13-Oct-17,84.0,Karnataka,24543.0,-269.73
286,INDUS,8.0,13-Oct-17,70.0,Madhya Pradesh,24543.0,-165.6
287,CBS,1.0,13-Oct-17,50.0,Rajasthan,24543.0,-743.92
288,CBS,1.0,13-Oct-17,84.0,Karnataka,24543.0,-1371.28
289,INDUS,8.0,13-Oct-17,84.0,Karnataka,24543.0,-154.8
290,CBS,1.0,13-Oct-17,84.0,Karnataka,24543.0,-363.38
291,CBS,1.0,13-Oct-17,84.0,Karnataka,24543.0,-852.54
292,CBS,1.0,13-Oct-17,54.0,Gujarat,24543.0,-108.0
293,CBS,1.0,13-Oct-17,54.0,Gujarat,24543.0,-108.0
294,TIPLUS,6.0,13-Oct-17,60.0,Maharashtra,24543.0,-609.55
295,INDUS,8.0,13-Oct-17,84.0,Karnataka,24543.0,-359.64
296,TIPLUS,6.0,13-Oct-17,81.0,Telangana,24543.0,-864.38
297,TIPLUS,6.0,13-Oct-17,81.0,Telangana,24543.0,-88286.69
298,INDUS,8.0,13-Oct-17,84.0,Karnataka,24543.0,-270.0
299,TIPLUS,6.0,13-Oct-17,90.0,Tamil Nadu,24543.0,-17119.72
300,TIPLUS,6.0,13-Oct-17,29.0,Delhi,24543.0,-145.42
301,TIPLUS,6.0,13-Oct-17,29.0,Delhi,24543.0,-149.32
302,TIPLUS,6.0,13-Oct-17,29.0,Delhi,24543.0,-168.8
303,TIPLUS,6.0,13-Oct-17,29.0,Delhi,24543.0,-189.26
304,TIPLUS,6.0,13-Oct-17,90.0,Tamil Nadu,24543.0,-45.0
305,TIPLUS,6.0,13-Oct-17,81.0,Telangana,24543.0,-180.0
306,INDUS,8.0,13-Oct-17,70.0,Madhya Pradesh,24543.0,-360.0
307,TIPLUS,6.0,13-Oct-17,90.0,Tamil Nadu,24543.0,-418489.58
308,CBS,1.0,13-Oct-17,84.0,Karnataka,24544.0,-346.88
309,CBS,1.0,13-Oct-17,54.0,Gujarat,24544.0,-92.7
310,INDUS,8.0,13-Oct-17,84.0,Karnataka,24544.0,-269.73
311,TIPLUS,6.0,13-Oct-17,60.0,Maharashtra,24544.0,-112.5
312,TIPLUS,6.0,13-Oct-17,60.0,Maharashtra,24544.0,-1093.34
313,TIPLUS,6.0,13-Oct-17,60.0,Maharashtra,24544.0,-1167.71
314,TIPLUS,6.0,13-Oct-17,60.0,Maharashtra,24544.0,-1181.24
315,TIPLUS,6.0,13-Oct-17,81.0,Telangana,24544.0,-90.0
316,TIPLUS,6.0,13-Oct-17,81.0,Telangana,24544.0,-90.0
317,TIPLUS,6.0,13-Oct-17,81.0,Telangana,24544.0,-180.0
318,TIPLUS,6.0,13-Oct-17,81.0,Telangana,24544.0,-180.0
319,TIPLUS,6.0,13-Oct-17,29.0,Delhi,24544.0,-67.5
320,TIPLUS,6.0,13-Oct-17,60.0,Maharashtra,24544.0,-405.0
321,TIPLUS,6.0,13-Oct-17,60.0,Maharashtra,24544.0,-544.79
322,TIPLUS,6.0,13-Oct-17,29.0,Delhi,24544.0,-58.5
323,RSYSTEM,3.0,13-Oct-17,60.0,Maharashtra,24544.0,-179.82
324,RSYSTEM,3.0,13-Oct-17,60.0,Maharashtra,24544.0,-990.0
325,RSYSTEM,3.0,13-Oct-17,60.0,Maharashtra,24544.0,-1067.0
326,RSYSTEM,3.0,13-Oct-17,60.0,Maharashtra,24544.0,-1091.61
327,RSYSTEM,3.0,13-Oct-17,60.0,Maharashtra,24544.0,-1654.0
328,RSYSTEM,3.0,13-Oct-17,29.0,Delhi,24544.0,-225.0
329,RSYSTEM,3.0,13-Oct-17,29.0,Delhi,24544.0,-269.73
330,RSYSTEM,3.0,13-Oct-17,29.0,Delhi,24544.0,-1485.0
331,TIPLUS,6.0,13-Oct-17,60.0,Maharashtra,24544.0,-45.0
332,TIPLUS,6.0,13-Oct-17,60.0,Maharashtra,24544.0,-605.84
333,TIPLUS,6.0,13-Oct-17,60.0,Maharashtra,24544.0,-1144.95
334,TIPLUS,6.0,13-Oct-17,60.0,Maharashtra,24544.0,-63.0
335,TIPLUS,6.0,13-Oct-17,60.0,Maharashtra,24544.0,-63.0
336,TIPLUS,6.0,13-Oct-17,60.0,Maharashtra,24544.0,-90.0
337,TIPLUS,6.0,13-Oct-17,60.0,Maharashtra,24544.0,-90.0
338,TIPLUS,6.0,13-Oct-17,60.0,Maharashtra,24544.0,-90.0
339,TIPLUS,6.0,13-Oct-17,60.0,Maharashtra,24544.0,-90.0
340,RSYSTEM,3.0,13-Oct-17,90.0,Tamil Nadu,24544.0,-359.64
341,RSYSTEM,3.0,13-Oct-17,90.0,Tamil Nadu,24544.0,-501.0
342,RSYSTEM,3.0,13-Oct-17,90.0,Tamil Nadu,24544.0,-675.0
343,RSYSTEM,3.0,13-Oct-17,90.0,Tamil Nadu,24544.0,-765.0
344,RSYSTEM,3.0,13-Oct-17,84.0,Karnataka,24544.0,-540.0
345,TIPLUS,6.0,13-Oct-17,60.0,Maharashtra,24544.0,-22.5
346,TIPLUS,6.0,13-Oct-17,60.0,Maharashtra,24544.0,-22.5
347,TIPLUS,6.0,13-Oct-17,60.0,Maharashtra,24544.0,-22.5
348,TIPLUS,6.0,13-Oct-17,60.0,Maharashtra,24544.0,-22.5
349,TIPLUS,6.0,13-Oct-17,60.0,Maharashtra,24544.0,-22.5
350,TIPLUS,6.0,13-Oct-17,60.0,Maharashtra,24544.0,-117.0
351,TIPLUS,6.0,13-Oct-17,84.0,Karnataka,24544.0,-45.0
352,TIPLUS,6.0,13-Oct-17,60.0,Maharashtra,24544.0,-35173.21
353,TIPLUS,6.0,13-Oct-17,54.0,Gujarat,24544.0,-3503.74
354,TIPLUS,6.0,13-Oct-17,29.0,Delhi,24544.0,-549.86
355,TIPLUS,6.0,13-Oct-17,60.0,Maharashtra,24544.0,-27.0
356,TIPLUS,6.0,13-Oct-17,60.0,Maharashtra,24544.0,-20.25
357,INDUS,8.0,13-Oct-17,84.0,Karnataka,24544.0,-809.19
358,INDUS,8.0,13-Oct-17,84.0,Karnataka,24544.0,-269.73
359,INDUS,8.0,13-Oct-17,84.0,Karnataka,24544.0,-359.64
360,INDUS,8.0,13-Oct-17,70.0,Madhya Pradesh,24544.0,-179.82
361,CBS,1.0,13-Oct-17,60.0,Maharashtra,24544.0,-76.25
362,INDUS,8.0,13-Oct-17,84.0,Karnataka,24544.0,-179.82
363,INDUS,8.0,13-Oct-17,70.0,Madhya Pradesh,24544.0,-449.55
364,INDUS,8.0,13-Oct-17,84.0,Karnataka,24544.0,-179.82
365,INDUS,8.0,13-Oct-17,84.0,Karnataka,24544.0,-539.46
366,INDUS,8.0,13-Oct-17,84.0,Karnataka,24544.0,-179.82
367,INDUS,8.0,13-Oct-17,84.0,Karnataka,24544.0,-179.82
368,INDUS,8.0,13-Oct-17,84.0,Karnataka,24544.0,-179.82
369,INDUS,8.0,13-Oct-17,70.0,Madhya Pradesh,24544.0,-89.91
370,INDUS,8.0,13-Oct-17,84.0,Karnataka,24544.0,-359.64
371,INDUS,8.0,13-Oct-17,84.0,Karnataka,24544.0,-179.82
372,INDUS,8.0,13-Oct-17,84.0,Karnataka,24544.0,-179.82
373,TIPLUS,6.0,13-Oct-17,29.0,Delhi,24544.0,-7650.0
374,TIPLUS,6.0,13-Oct-17,90.0,Tamil Nadu,24544.0,-653.41
375,TIPLUS,6.0,13-Oct-17,60.0,Maharashtra,24544.0,-22.5
376,TIPLUS,6.0,13-Oct-17,60.0,Maharashtra,24544.0,-45.0
377,TIPLUS,6.0,13-Oct-17,60.0,Maharashtra,24544.0,-45.0
378,TIPLUS,6.0,13-Oct-17,60.0,Maharashtra,24544.0,-45.0
379,TIPLUS,6.0,13-Oct-17,60.0,Maharashtra,24544.0,-90.0
380,TIPLUS,6.0,13-Oct-17,34.0,Haryana,24544.0,-18.0
381,TIPLUS,6.0,13-Oct-17,34.0,Haryana,24544.0,-18.0
382,TIPLUS,6.0,13-Oct-17,34.0,Haryana,24544.0,-18.0
383,CBS,1.0,13-Oct-17,90.0,Tamil Nadu,24544.0,-90.0
384,TIPLUS,6.0,13-Oct-17,60.0,Maharashtra,24544.0,-45.0
385,TIPLUS,6.0,13-Oct-17,60.0,Maharashtra,24544.0,-45.0
386,TIPLUS,6.0,13-Oct-17,60.0,Maharashtra,24544.0,-45.0
387,TIPLUS,6.0,13-Oct-17,60.0,Maharashtra,24544.0,-45.0
388,TIPLUS,6.0,13-Oct-17,54.0,Gujarat,24544.0,-135.0
389,TIPLUS,6.0,13-Oct-17,54.0,Gujarat,24544.0,-135.0
390,TIPLUS,6.0,13-Oct-17,54.0,Gujarat,24544.0,-135.0
391,TIPLUS,6.0,13-Oct-17,60.0,Maharashtra,24544.0,-22.5
392,TIPLUS,6.0,13-Oct-17,10.0,West Bengal,24544.0,-67.5
393,TIPLUS,6.0,13-Oct-17,60.0,Maharashtra,24544.0,-91.99
394,TIPLUS,6.0,13-Oct-17,60.0,Maharashtra,24544.0,-2399.58
395,TIPLUS,6.0,13-Oct-17,60.0,Maharashtra,24544.0,-135.0
396,TIPLUS,6.0,13-Oct-17,60.0,Maharashtra,24544.0,-90.0
397,RSYSTEM,3.0,13-Oct-17,81.0,Telangana,24544.0,-179.82
398,RSYSTEM,3.0,13-Oct-17,54.0,Gujarat,24544.0,-450.0
399,CBS,1.0,13-Oct-17,2.0,Meghalaya,24544.0,-2838.63
400,INDUS,8.0,13-Oct-17,70.0,Madhya Pradesh,24544.0,-89.91
401,INDUS,8.0,13-Oct-17,70.0,Madhya Pradesh,24544.0,-179.82
402,INDUS,8.0,13-Oct-17,70.0,Madhya Pradesh,24544.0,-269.73
403,INDUS,8.0,13-Oct-17,50.0,Rajasthan,24544.0,-449.55
404,CBS,1.0,13-Oct-17,70.0,Madhya Pradesh,24544.0,-520.68
405,CBS,1.0,13-Oct-17,70.0,Madhya Pradesh,24544.0,-605.7
406,CBS,1.0,13-Oct-17,54.0,Gujarat,24544.0,-213.94
407,CBS,1.0,13-Oct-17,54.0,Gujarat,24544.0,-213.94
408,TIPLUS,6.0,13-Oct-17,10.0,West Bengal,24544.0,-6993.05
409,CBS,1.0,13-Oct-17,54.0,Gujarat,24544.0,-131.27
410,TIPLUS,6.0,13-Oct-17,60.0,Maharashtra,24544.0,-27.0
411,TIPLUS,6.0,13-Oct-17,34.0,Haryana,24544.0,-22711.44
412,CBS,1.0,13-Oct-17,60.0,Maharashtra,24544.0,-54.0
413,CBS,1.0,13-Oct-17,50.0,Rajasthan,24544.0,-341.1
414,CBS,1.0,13-Oct-17,50.0,Rajasthan,24544.0,-257.91
415,CBS,1.0,13-Oct-17,50.0,Rajasthan,24544.0,-639.0
416,CBS,1.0,13-Oct-17,54.0,Gujarat,24544.0,-99.0
417,CBS,1.0,13-Oct-17,84.0,Karnataka,24544.0,-139.5
418,TIPLUS,6.0,13-Oct-17,60.0,Maharashtra,24544.0,-9.0
419,TIPLUS,6.0,13-Oct-17,60.0,Maharashtra,24544.0,-9.0
420,TIPLUS,6.0,13-Oct-17,60.0,Maharashtra,24544.0,-20.25
421,TIPLUS,6.0,13-Oct-17,29.0,Delhi,24544.0,-45.0
422,TIPLUS,6.0,13-Oct-17,29.0,Delhi,24544.0,-45.0
423,TIPLUS,6.0,13-Oct-17,29.0,Delhi,24544.0,-45.0
424,TIPLUS,6.0,13-Oct-17,84.0,Karnataka,24544.0,-45.0
425,TIPLUS,6.0,13-Oct-17,54.0,Gujarat,24544.0,-45.0
426,TIPLUS,6.0,13-Oct-17,84.0,Karnataka,24544.0,-45.0
427,TIPLUS,6.0,13-Oct-17,84.0,Karnataka,24544.0,-45.0
428,TIPLUS,6.0,13-Oct-17,84.0,Karnataka,24544.0,-45.0
429,TIPLUS,6.0,13-Oct-17,84.0,Karnataka,24544.0,-45.0
430,TIPLUS,6.0,13-Oct-17,84.0,Karnataka,24544.0,-45.0
431,TIPLUS,6.0,13-Oct-17,84.0,Karnataka,24544.0,-45.0
432,TIPLUS,6.0,13-Oct-17,84.0,Karnataka,24544.0,-45.0
433,TIPLUS,6.0,13-Oct-17,84.0,Karnataka,24544.0,-45.0
434,TIPLUS,6.0,13-Oct-17,84.0,Karnataka,24544.0,-45.0
435,TIPLUS,6.0,13-Oct-17,84.0,Karnataka,24544.0,-45.0
436,TIPLUS,6.0,13-Oct-17,84.0,Karnataka,24544.0,-45.0
437,TIPLUS,6.0,13-Oct-17,90.0,Tamil Nadu,24544.0,-27.0
438,TIPLUS,6.0,13-Oct-17,90.0,Tamil Nadu,24544.0,-45.0
439,TIPLUS,6.0,13-Oct-17,20.0,Uttar Pradesh,24544.0,-13.5
440,TIPLUS,6.0,13-Oct-17,20.0,Uttar Pradesh,24544.0,-13.5
441,TIPLUS,6.0,13-Oct-17,20.0,Uttar Pradesh,24544.0,-45.0
442,TIPLUS,6.0,13-Oct-17,20.0,Uttar Pradesh,24544.0,-45.0
443,TIPLUS,6.0,13-Oct-17,20.0,Uttar Pradesh,24544.0,-45.0
444,CBS,1.0,13-Oct-17,60.0,Maharashtra,24544.0,-236.97
445,CBS,1.0,13-Oct-17,60.0,Maharashtra,24544.0,-469250.35
446,CBS,1.0,13-Oct-17,29.0,Delhi,24544.0,-25868.05
447,CBS,1.0,13-Oct-17,60.0,Maharashtra,24544.0,-80224.58
448,CBS,1.0,13-Oct-17,34.0,Haryana,24544.0,-4571.03
449,INDUS,8.0,13-Oct-17,84.0,Karnataka,24544.0,-629.37
450,TIPLUS,6.0,13-Oct-17,29.0,Delhi,24544.0,-27.0
451,TIPLUS,6.0,13-Oct-17,29.0,Delhi,24544.0,-27.0
452,TIPLUS,6.0,13-Oct-17,60.0,Maharashtra,24544.0,-90.0
453,TIPLUS,6.0,13-Oct-17,60.0,Maharashtra,24544.0,-90.0
454,TIPLUS,6.0,13-Oct-17,60.0,Maharashtra,24544.0,-90.0
455,CBS,1.0,13-Oct-17,54.0,Gujarat,24544.0,-4390.79
456,CBS,1.0,13-Oct-17,90.0,Tamil Nadu,24544.0,-16585.27
457,CBS,1.0,13-Oct-17,20.0,Uttar Pradesh,24544.0,-4804.92
458,CBS,1.0,13-Oct-17,60.0,Maharashtra,24544.0,-3077.73
459,CBS,1.0,13-Oct-17,60.0,Maharashtra,24544.0,-1663.43
460,CBS,1.0,13-Oct-17,70.0,Madhya Pradesh,24544.0,-1914.53
461,CBS,1.0,13-Oct-17,70.0,Madhya Pradesh,24544.0,-4092.79
462,CBS,1.0,13-Oct-17,60.0,Maharashtra,24544.0,-373.23
463,CBS,1.0,13-Oct-17,70.0,Madhya Pradesh,24544.0,-4125.88
464,CBS,1.0,13-Oct-17,70.0,Madhya Pradesh,24544.0,-7553.57
465,CBS,1.0,13-Oct-17,70.0,Madhya Pradesh,24544.0,-2982.36
466,CBS,1.0,13-Oct-17,70.0,Madhya Pradesh,24544.0,-5162.11
467,CBS,1.0,13-Oct-17,80.0,Andhra Pradesh,24544.0,-9165.58
468,INDUS,8.0,13-Oct-17,84.0,Karnataka,24544.0,-179.82
469,INDUS,8.0,13-Oct-17,50.0,Rajasthan,24544.0,-89.91
470,INDUS,8.0,13-Oct-17,84.0,Karnataka,24544.0,-449.55
471,CBS,1.0,13-Oct-17,60.0,Maharashtra,24544.0,-4691.76
472,CBS,1.0,13-Oct-17,60.0,Maharashtra,24544.0,-2740.23
473,CBS,1.0,13-Oct-17,70.0,Madhya Pradesh,24544.0,-4719.42
474,CBS,1.0,13-Oct-17,70.0,Madhya Pradesh,24544.0,-2584.7
475,CBS,1.0,13-Oct-17,70.0,Madhya Pradesh,24544.0,-6611.14
476,CBS,1.0,13-Oct-17,70.0,Madhya Pradesh,24544.0,-6598.3
477,CBS,1.0,13-Oct-17,70.0,Madhya Pradesh,24544.0,-9534.88
478,CBS,1.0,13-Oct-17,70.0,Madhya Pradesh,24544.0,-3002.76
479,CBS,1.0,13-Oct-17,70.0,Madhya Pradesh,24544.0,-6892.41
480,CBS,1.0,13-Oct-17,70.0,Madhya Pradesh,24544.0,-3772.12
481,CBS,1.0,13-Oct-17,70.0,Madhya Pradesh,24544.0,-2095.85
482,CBS,1.0,13-Oct-17,70.0,Madhya Pradesh,24544.0,-2652.81
483,CBS,1.0,13-Oct-17,70.0,Madhya Pradesh,24544.0,-7023.8
484,CBS,1.0,13-Oct-17,18.0,Tripura,24544.0,-10452.79
485,CBS,1.0,13-Oct-17,70.0,Madhya Pradesh,24544.0,-3187.16
486,CBS,1.0,13-Oct-17,84.0,Karnataka,24544.0,-2787.26
487,CBS,1.0,13-Oct-17,84.0,Karnataka,24544.0,-3028.41
488,CBS,1.0,13-Oct-17,80.0,Andhra Pradesh,24544.0,-23503.53
489,CBS,1.0,13-Oct-17,90.0,Tamil Nadu,24544.0,-13506.79
490,CBS,1.0,13-Oct-17,84.0,Karnataka,24544.0,-2056.04
491,CBS,1.0,13-Oct-17,84.0,Karnataka,24544.0,-7606.06
492,CBS,1.0,13-Oct-17,84.0,Karnataka,24544.0,-3242.47
493,INDUS,8.0,13-Oct-17,84.0,Karnataka,24544.0,-359.64
494,INDUS,8.0,13-Oct-17,70.0,Madhya Pradesh,24544.0,-269.73
495,INDUS,8.0,13-Oct-17,70.0,Madhya Pradesh,24544.0,-269.73
496,INDUS,8.0,13-Oct-17,70.0,Madhya Pradesh,24544.0,-89.91
497,RSYSTEM,3.0,13-Oct-17,54.0,Gujarat,24544.0,-450.0
498,TIPLUS,6.0,13-Oct-17,60.0,Maharashtra,24544.0,-495.0
499,TIPLUS,6.0,13-Oct-17,60.0,Maharashtra,24544.0,-315.0
500,TIPLUS,6.0,13-Oct-17,84.0,Karnataka,24544.0,-45.0
501,TIPLUS,6.0,13-Oct-17,60.0,Maharashtra,24544.0,-45.0
502,TIPLUS,6.0,13-Oct-17,60.0,Maharashtra,24544.0,-45.0
503,TIPLUS,6.0,13-Oct-17,60.0,Maharashtra,24544.0,-45.0
504,TIPLUS,6.0,13-Oct-17,90.0,Tamil Nadu,24544.0,-67.5
505,TIPLUS,6.0,13-Oct-17,29.0,Delhi,24544.0,-315.0
506,TIPLUS,6.0,13-Oct-17,84.0,Karnataka,24544.0,-90.0
507,TIPLUS,6.0,13-Oct-17,84.0,Karnataka,24544.0,-45.0
508,TIPLUS,6.0,13-Oct-17,34.0,Haryana,24544.0,-112.5
509,TIPLUS,6.0,13-Oct-17,34.0,Haryana,24544.0,-112.5
510,TIPLUS,6.0,13-Oct-17,34.0,Haryana,24544.0,-112.5
511,TIPLUS,6.0,13-Oct-17,34.0,Haryana,24544.0,-112.5
512,TIPLUS,6.0,13-Oct-17,54.0,Gujarat,24544.0,-45.0
513,TIPLUS,6.0,13-Oct-17,54.0,Gujarat,24544.0,-45.0
514,CBS,1.0,13-Oct-17,29.0,Delhi,24544.0,-3094.74
515,TIPLUS,6.0,13-Oct-17,84.0,Karnataka,24544.0,-27.0
516,TIPLUS,6.0,13-Oct-17,90.0,Tamil Nadu,24544.0,-112.5
517,RSYSTEM,3.0,13-Oct-17,60.0,Maharashtra,24544.0,-405.0
518,RSYSTEM,3.0,13-Oct-17,60.0,Maharashtra,24544.0,-1116.0
519,TIPLUS,6.0,13-Oct-17,54.0,Gujarat,24544.0,-135.0
520,TIPLUS,6.0,13-Oct-17,29.0,Delhi,24544.0,-9.0
521,TIPLUS,6.0,13-Oct-17,29.0,Delhi,24544.0,-9.0
522,TIPLUS,6.0,13-Oct-17,29.0,Delhi,24544.0,-9.0
523,CBS,1.0,13-Oct-17,70.0,Madhya Pradesh,24544.0,-1899.78
524,CBS,1.0,13-Oct-17,70.0,Madhya Pradesh,24544.0,-1165.1
525,CBS,1.0,13-Oct-17,70.0,Madhya Pradesh,24544.0,-6848.49
526,CBS,1.0,13-Oct-17,70.0,Madhya Pradesh,24544.0,-6119.67
527,CBS,1.0,13-Oct-17,70.0,Madhya Pradesh,24544.0,-4746.21
528,CBS,1.0,13-Oct-17,70.0,Madhya Pradesh,24544.0,-4327.86
529,CBS,1.0,13-Oct-17,70.0,Madhya Pradesh,24544.0,-5015.44
530,CBS,1.0,13-Oct-17,70.0,Madhya Pradesh,24544.0,-1727.83
531,CBS,1.0,13-Oct-17,70.0,Madhya Pradesh,24544.0,-379.54
532,CBS,1.0,13-Oct-17,70.0,Madhya Pradesh,24544.0,-403.3
533,CBS,1.0,13-Oct-17,70.0,Madhya Pradesh,24544.0,-879.92
534,CBS,1.0,13-Oct-17,50.0,Rajasthan,24544.0,-1237.27
535,CBS,1.0,13-Oct-17,70.0,Madhya Pradesh,24544.0,-751.55
536,CBS,1.0,13-Oct-17,84.0,Karnataka,24544.0,-1783.19
537,CBS,1.0,13-Oct-17,84.0,Karnataka,24544.0,-5600.04
538,CBS,1.0,13-Oct-17,84.0,Karnataka,24544.0,-2617.89
539,CBS,1.0,13-Oct-17,84.0,Karnataka,24544.0,-1431.87
540,CBS,1.0,13-Oct-17,70.0,Madhya Pradesh,24544.0,-2845.89
541,CBS,1.0,13-Oct-17,84.0,Karnataka,24544.0,-1263.8
542,CBS,1.0,13-Oct-17,84.0,Karnataka,24544.0,-2559.9
543,CBS,1.0,13-Oct-17,60.0,Maharashtra,24544.0,-249.84
544,CBS,1.0,13-Oct-17,84.0,Karnataka,24544.0,-770.37
545,CBS,1.0,13-Oct-17,84.0,Karnataka,24544.0,-5884.79
546,CBS,1.0,13-Oct-17,84.0,Karnataka,24544.0,-5334.39
547,CBS,1.0,13-Oct-17,84.0,Karnataka,24544.0,-816.31
548,CBS,1.0,13-Oct-17,80.0,Andhra Pradesh,24544.0,-2960.02
549,CBS,1.0,13-Oct-17,84.0,Karnataka,24544.0,-1073.12
550,CBS,1.0,13-Oct-17,84.0,Karnataka,24544.0,-3624.61
551,INDUS,8.0,13-Oct-17,54.0,Gujarat,24544.0,-179.82
552,TIPLUS,6.0,13-Oct-17,10.0,West Bengal,24544.0,-180.0
553,CBS,1.0,13-Oct-17,70.0,Madhya Pradesh,24544.0,-392.25
554,CBS,1.0,13-Oct-17,70.0,Madhya Pradesh,24544.0,-1722.25
555,CBS,1.0,13-Oct-17,50.0,Rajasthan,24544.0,-443.26
556,CBS,1.0,13-Oct-17,70.0,Madhya Pradesh,24544.0,-901.48
557,CBS,1.0,13-Oct-17,70.0,Madhya Pradesh,24544.0,-922.48
558,CBS,1.0,13-Oct-17,70.0,Madhya Pradesh,24544.0,-3319.65
559,TIPLUS,6.0,13-Oct-17,60.0,Maharashtra,24544.0,-45.0
560,CBS,1.0,13-Oct-17,81.0,Telangana,24544.0,-97.92
561,CBS,1.0,13-Oct-17,84.0,Karnataka,24544.0,-1462.6
562,INDUS,8.0,13-Oct-17,70.0,Madhya Pradesh,24544.0,-89.91
563,CBS,1.0,13-Oct-17,50.0,Rajasthan,24544.0,-450.62
564,CBS,1.0,13-Oct-17,80.0,Andhra Pradesh,24544.0,-1739.29
565,INDUS,8.0,13-Oct-17,70.0,Madhya Pradesh,24544.0,-52.98
566,INDUS,8.0,13-Oct-17,70.0,Madhya Pradesh,24544.0,-573.57
567,INDUS,8.0,13-Oct-17,70.0,Madhya Pradesh,24544.0,-89.91
568,INDUS,8.0,13-Oct-17,70.0,Madhya Pradesh,24544.0,-179.82
569,INDUS,8.0,13-Oct-17,70.0,Madhya Pradesh,24544.0,-359.64
570,INDUS,8.0,13-Oct-17,70.0,Madhya Pradesh,24544.0,-719.28
571,INDUS,8.0,13-Oct-17,84.0,Karnataka,24544.0,-359.64
572,INDUS,8.0,13-Oct-17,70.0,Madhya Pradesh,24544.0,-89.91
573,INDUS,8.0,13-Oct-17,70.0,Madhya Pradesh,24544.0,-449.55
574,TIPLUS,6.0,13-Oct-17,29.0,Delhi,24544.0,-202.5
575,INDUS,8.0,13-Oct-17,70.0,Madhya Pradesh,24544.0,-179.82
576,INDUS,8.0,13-Oct-17,70.0,Madhya Pradesh,24544.0,-89.91
577,RSYSTEM,3.0,13-Oct-17,90.0,Tamil Nadu,24544.0,-90.0
578,INDUS,8.0,13-Oct-17,70.0,Madhya Pradesh,24544.0,-269.73
579,TIPLUS,6.0,13-Oct-17,60.0,Maharashtra,24544.0,-90.0
580,TIPLUS,6.0,13-Oct-17,34.0,Haryana,24544.0,-478.69
581,TIPLUS,6.0,13-Oct-17,34.0,Haryana,24544.0,-478.69
582,INDUS,8.0,13-Oct-17,70.0,Madhya Pradesh,24544.0,-89.91
583,INDUS,8.0,13-Oct-17,84.0,Karnataka,24544.0,-179.82
584,TIPLUS,6.0,13-Oct-17,60.0,Maharashtra,24544.0,-13.5
585,TIPLUS,6.0,13-Oct-17,10.0,West Bengal,24544.0,-8938.56
586,INDUS,8.0,13-Oct-17,50.0,Rajasthan,24544.0,-89.91
587,TIPLUS,6.0,13-Oct-17,10.0,West Bengal,24544.0,-67.5
588,INDUS,8.0,13-Oct-17,70.0,Madhya Pradesh,24544.0,-269.73
589,TIPLUS,6.0,13-Oct-17,29.0,Delhi,24544.0,-45.0
590,TIPLUS,6.0,13-Oct-17,29.0,Delhi,24544.0,-45.0
591,CBS,1.0,13-Oct-17,70.0,Madhya Pradesh,24544.0,-214.58
592,CBS,1.0,13-Oct-17,54.0,Gujarat,24544.0,-598.36
593,CBS,1.0,13-Oct-17,50.0,Rajasthan,24544.0,-187.97
594,INDUS,8.0,13-Oct-17,70.0,Madhya Pradesh,24544.0,-165.6
595,CBS,1.0,13-Oct-17,50.0,Rajasthan,24544.0,-743.96
596,CBS,1.0,13-Oct-17,84.0,Karnataka,24544.0,-1371.38
597,INDUS,8.0,13-Oct-17,84.0,Karnataka,24544.0,-154.8
598,CBS,1.0,13-Oct-17,84.0,Karnataka,24544.0,-363.46
599,CBS,1.0,13-Oct-17,84.0,Karnataka,24544.0,-852.69
600,CBS,1.0,13-Oct-17,54.0,Gujarat,24544.0,-108.0
601,CBS,1.0,13-Oct-17,54.0,Gujarat,24544.0,-108.0
602,TIPLUS,6.0,13-Oct-17,60.0,Maharashtra,24544.0,-609.56
603,INDUS,8.0,13-Oct-17,84.0,Karnataka,24544.0,-359.64
604,TIPLUS,6.0,13-Oct-17,81.0,Telangana,24544.0,-864.38
605,TIPLUS,6.0,13-Oct-17,81.0,Telangana,24544.0,-88286.69
606,INDUS,8.0,13-Oct-17,70.0,Madhya Pradesh,24544.0,-360.0
607,INDUS,8.0,13-Oct-17,84.0,Karnataka,24544.0,-270.0
608,TIPLUS,6.0,13-Oct-17,90.0,Tamil Nadu,24544.0,-17119.72
609,TIPLUS,6.0,13-Oct-17,29.0,Delhi,24544.0,-145.42
610,TIPLUS,6.0,13-Oct-17,29.0,Delhi,24544.0,-149.32
611,TIPLUS,6.0,13-Oct-17,29.0,Delhi,24544.0,-168.8
612,TIPLUS,6.0,13-Oct-17,29.0,Delhi,24544.0,-189.26
613,TIPLUS,6.0,13-Oct-17,90.0,Tamil Nadu,24544.0,-45.0
614,TIPLUS,6.0,13-Oct-17,81.0,Telangana,24544.0,-180.0
615,TIPLUS,6.0,13-Oct-17,90.0,Tamil Nadu,24544.0,-418489.58
616,CBS,1.0,13-Oct-17,70.0,Madhya Pradesh,24545.0,-16.92
617,CBS,1.0,13-Oct-17,60.0,Maharashtra,24545.0,-18.0
618,CBS,1.0,13-Oct-17,70.0,Madhya Pradesh,24545.0,-23.13
619,CBS,1.0,13-Oct-17,60.0,Maharashtra,24545.0,-3.6
620,CBS,1.0,13-Oct-17,84.0,Karnataka,24545.0,-32.4
621,CBS,1.0,13-Oct-17,70.0,Madhya Pradesh,24545.0,-5.13
622,TIPLUS,6.0,13-Oct-17,81.0,Telangana,24545.0,-495.0
623,TIPLUS,6.0,13-Oct-17,81.0,Telangana,24545.0,-495.0
624,TIPLUS,6.0,13-Oct-17,81.0,Telangana,24545.0,-1165.68
625,TIPLUS,6.0,13-Oct-17,81.0,Telangana,24545.0,-1165.68
626,TIPLUS,6.0,13-Oct-17,34.0,Haryana,24545.0,-90.0
627,TIPLUS,6.0,13-Oct-17,34.0,Haryana,24545.0,-90.0
628,CBS,1.0,13-Oct-17,60.0,Maharashtra,24545.0,-522317.84
629,TIPLUS,6.0,13-Oct-17,29.0,Delhi,24545.0,-26660.67
630,CBS,1.0,13-Oct-17,60.0,Maharashtra,24545.0,-21519.91
631,CBS,1.0,13-Oct-17,70.0,Madhya Pradesh,24545.0,-4.5
632,TIPLUS,6.0,13-Oct-17,34.0,Haryana,24545.0,-135.0
633,TIPLUS,6.0,13-Oct-17,34.0,Haryana,24545.0,-135.0
634,CBS,1.0,13-Oct-17,84.0,Karnataka,24545.0,-3.6
635,CBS,1.0,13-Oct-17,90.0,Tamil Nadu,24545.0,-461.07
636,CBS,1.0,13-Oct-17,70.0,Madhya Pradesh,24545.0,-227.16
637,CBS,1.0,13-Oct-17,70.0,Madhya Pradesh,24545.0,-7.2
638,CBS,1.0,13-Oct-17,50.0,Rajasthan,24545.0,-3.6
639,CBS,1.0,13-Oct-17,18.0,Tripura,24545.0,-8.55
640,CBS,1.0,13-Oct-17,70.0,Madhya Pradesh,24545.0,-32.4
641,CBS,1.0,13-Oct-17,70.0,Madhya Pradesh,24545.0,-3.6
642,CBS,1.0,13-Oct-17,84.0,Karnataka,24545.0,-10.26
643,TIPLUS,6.0,13-Oct-17,60.0,Maharashtra,24545.0,-18.0
644,TIPLUS,6.0,13-Oct-17,20.0,Uttar Pradesh,24545.0,-90.0
645,TIPLUS,6.0,13-Oct-17,20.0,Uttar Pradesh,24545.0,-90.0
646,TIPLUS,6.0,13-Oct-17,20.0,Uttar Pradesh,24545.0,-839.45
647,TIPLUS,6.0,13-Oct-17,34.0,Haryana,24545.0,-180.0
648,CBS,1.0,13-Oct-17,60.0,Maharashtra,24545.0,-281.42
649,RSYSTEM,3.0,13-Oct-17,29.0,Delhi,24545.0,-179.82
650,RSYSTEM,3.0,13-Oct-17,29.0,Delhi,24545.0,-1350.0
651,RSYSTEM,3.0,13-Oct-17,29.0,Delhi,24545.0,-3540.6
652,TIPLUS,6.0,13-Oct-17,29.0,Delhi,24545.0,-90.0
653,TIPLUS,6.0,13-Oct-17,29.0,Delhi,24545.0,-90.0
654,CBS,1.0,13-Oct-17,20.0,Uttar Pradesh,24545.0,-2937.96
655,CBS,1.0,13-Oct-17,60.0,Maharashtra,24545.0,-61020.23
656,CBS,1.0,13-Oct-17,34.0,Haryana,24545.0,-1404.09
657,TIPLUS,6.0,13-Oct-17,34.0,Haryana,24545.0,-225.0
658,TIPLUS,6.0,13-Oct-17,54.0,Gujarat,24545.0,-360.0
659,TIPLUS,6.0,13-Oct-17,34.0,Haryana,24545.0,-90.0
660,CBS,1.0,13-Oct-17,29.0,Delhi,24545.0,-1548.72
661,CBS,1.0,13-Oct-17,29.0,Delhi,24545.0,-5519.61
662,CBS,1.0,13-Oct-17,70.0,Madhya Pradesh,24545.0,-7.2
663,CBS,1.0,13-Oct-17,80.0,Andhra Pradesh,24545.0,-2676.56
664,CBS,1.0,13-Oct-17,70.0,Madhya Pradesh,24545.0,-135.54
665,TIPLUS,6.0,13-Oct-17,29.0,Delhi,24545.0,-90.0
666,TIPLUS,6.0,13-Oct-17,34.0,Haryana,24545.0,-495.0
667,TIPLUS,6.0,13-Oct-17,29.0,Delhi,24545.0,-90.0
668,TIPLUS,6.0,13-Oct-17,29.0,Delhi,24545.0,-90.0
669,CBS,1.0,13-Oct-17,84.0,Karnataka,24545.0,-697.99
670,CBS,1.0,13-Oct-17,80.0,Andhra Pradesh,24545.0,-49.5
671,TIPLUS,6.0,13-Oct-17,29.0,Delhi,24545.0,-33122.47
672,CBS,1.0,13-Oct-17,70.0,Madhya Pradesh,24545.0,-7.2
673,CBS,1.0,13-Oct-17,54.0,Gujarat,24545.0,-52.2
674,CBS,1.0,13-Oct-17,70.0,Madhya Pradesh,24545.0,-52.92
675,CBS,1.0,13-Oct-17,70.0,Madhya Pradesh,24545.0,-60.48
676,CBS,1.0,13-Oct-17,70.0,Madhya Pradesh,24545.0,-21.42
677,CBS,1.0,13-Oct-17,70.0,Madhya Pradesh,24545.0,-2028.47
678,CBS,1.0,13-Oct-17,70.0,Madhya Pradesh,24545.0,-8.73
679,CBS,1.0,13-Oct-17,90.0,Tamil Nadu,24545.0,-51.84
680,CBS,1.0,13-Oct-17,60.0,Maharashtra,24545.0,-23.4
681,TIPLUS,6.0,13-Oct-17,34.0,Haryana,24545.0,-1088.63
682,TIPLUS,6.0,13-Oct-17,60.0,Maharashtra,24545.0,-61.27
683,TIPLUS,6.0,13-Oct-17,29.0,Delhi,24545.0,-405.0
684,CBS,1.0,13-Oct-17,20.0,Uttar Pradesh,49222.0,27.0
685,CBS,1.0,13-Oct-17,60.0,Maharashtra,49222.0,14.4
686,CBS,1.0,13-Oct-17,60.0,Maharashtra,49222.0,7.2
687,CBS,1.0,13-Oct-17,60.0,Maharashtra,49222.0,170.61
688,CBS,1.0,13-Oct-17,70.0,Madhya Pradesh,49222.0,20.25
689,CBS,1.0,13-Oct-17,20.0,Uttar Pradesh,49223.0,27.0
690,CBS,1.0,13-Oct-17,60.0,Maharashtra,49223.0,14.4
691,CBS,1.0,13-Oct-17,60.0,Maharashtra,49223.0,7.2
692,CBS,1.0,13-Oct-17,60.0,Maharashtra,49223.0,170.61
693,CBS,1.0,13-Oct-17,70.0,Madhya Pradesh,49223.0,20.25
694,CBS,1.0,13-Oct-17,60.0,Maharashtra,49224.0,6.02
695,CBS,1.0,13-Oct-17,29.0,Delhi,49224.0,9.0
696,CBS,1.0,13-Oct-17,34.0,Haryana,49224.0,9.0
697,CBS,1.0,13-Oct-17,60.0,Maharashtra,49224.0,90.0
698,TIPLUS,6.0,13-Oct-17,60.0,Maharashtra,49224.0,1219.11
