Sl No.,Sender_IFSC,Sender_Name,Sender_A/C Number,Beneficiary Details,Unnamed: 5,Unnamed: 6,Txn Ref,Batch Time,Amount,STB,Failed,LINK_ID,awefwe Match
24.0,IBKL0NEFT01,CHANDRA ENTERPRISES,0907102000067014,STCB0000065,CHANDRA ENTERPRISES,20022019000217,190614i219193837,1330.0,3600000.0,--,--,,UNMATCHED
25.0,IBKL0NEFT01,GYANGURU ENTERPRISES,0907102000064275,STCB0000065,GYANGURU ENTERPRISES,80230100001099,190614i219197907,1330.0,1200000.0,--,--,,UNMATCHED
