,Combined GL,ATM Id,Sol ID,ATM Name,Feeder Branch,City,State,Site,GL
0,13521002102007,UK101101,1352,Alopibagh,Allahabad,Allahabad,Uttar Pradesh,Off Site,1002102007
1,13541002102007,UK102501,1354,"Kudaghat, Gorakhpur",Gorakhpur,Gorakhpur,Uttar Pradesh,Off Site,1002102007
2,10311002102006,UK103101,1031,Chandauli,Chandauli,Chandauli,Uttar Pradesh,Onsite,1002102006
3,10861002102006,UK108601,1086,Silhauri,Silhauri,Muzaffarpur,BIHAR,Onsite,1002102006
4,10921002102006,UK109201,1092,Bangra,Bangra,Muzaffarpur,BIHAR,Onsite,1002102006
5,11171002102006,UK111701,1117,Poanta Sahib,Poanta Sahib,Poanta Sahib,Himachal Pradesh,Onsite,1002102006
6,12261002102006,UK122601,1226,Kurukshetra,Kurukshetra,Kurukshetra,HARYANA,Onsite,1002102006
7,12801002102006,Uk128001,1280,Robertsganj,Robertsganj,Robertsganj,Uttar Pradesh,Onsite,1002102006
8,13721002102007,UK126401,1372,"ITI Road, Ranchi",Ranchi,Ranchi,JHARKHAND,Off Site,1002102007
9,13521002102006,UK135201,1352,Civil Lines,Allahabad,Allahabad,Uttar Pradesh,Onsite,1002102006
10,13531002102006,UK135302,1353,Fraser Road,Fraser Road,Patna,BIHAR,Onsite,1002102006
11,13561002102006,UK135601,1356,Aarah,Arrah,Aarah,BIHAR,Onsite,1002102006
12,13591002102004,UK135901,1359,Najafgadh,Najafgarh,New Delhi,DELHI,Onsite,1002102004
13,13601002102006,UK136001,1360,Muzaffarpur,Muzaffarpur,Muzaffarpur,BIHAR,Onsite,1002102006
14,13631002102006,UK136301,1363,Jaunpur,Jaunpur,Jaunpur,Uttar Pradesh,Onsite,1002102006
15,13721002102006,UK137201,1372,"Narayani Complex, Ranchi",Ranchi,Ranchi,JHARKHAND,Onsite,1002102006
16,13741002102006,UK137401,1374,Faridabad,Faridabad,Faridabad,HARYANA,Onsite,1002102006
17,13741002102007,UK137402,1374,"Kalyan Chowk, Faridabad",Faridabad,Faridabad,HARYANA,Off Site,1002102007
18,13751002102005,UK137501,1375,Orderly Bazar,Godwalia,Varanasi,Uttar Pradesh,Onsite,1002102005
19,13751002102001,UK137502,1375,Gadolia,Godwalia,Varanasi,Uttar Pradesh,Onsite,1002102001
20,13751002102008,UK137503,1375,Harhua Bazar,Godwalia,Varanasi,Uttar Pradesh,Off Site,1002102008
21,13751002102009,UK137504,1375,Pahariya,Godwalia,Varanasi,Uttar Pradesh,Off Site,1002102009
22,13751002102010,UK137505,1375,Maqbool Alam Road,Godwalia,Varanasi,Uttar Pradesh,Off Site,1002102010
23,13751002102011,UK137506,1375,Sarnath,Godwalia,Varanasi,Uttar Pradesh,Off Site,1002102011
24,13751002102012,UK137507,1375,Maidagin,Godwalia,Varanasi,Uttar Pradesh,Off Site,1002102012
25,13761002102006,UK137601,1376,Gurugram,Gurugram,Gurugram,HARYANA,Onsite,1002102006
26,13761002102007,UK137602,1376,"Civil Line, Gurugram",Gurugram,Gurugram,HARYANA,Off Site,1002102007
27,13761002102008,UK137603,1376,"Gaushala Market, Gurugram",Gurugram,Gurugram,HARYANA,Off Site,1002102008
28,13771002102003,UK137701,1377,"Vashikunj Complex, Saguna More",Saguna More,Patna,BIHAR,Onsite,1002102003
29,13771002102007,UK137702,1377,Bihta,Saguna More,Patna,BIHAR,Off Site,1002102007
30,13771002102008,UK137703,1377,Agamkuaa,Saguna More,Patna,BIHAR,Off Site,1002102008
31,13771002102009,UK137704,1377,"Laxmi Niwas, Patna",Saguna More,Patna,BIHAR,Off Site,1002102009
32,13771002102010,UK137705,1377,"Digha, Patna",Saguna More,Patna,BIHAR,Off Site,1002102010
33,13781002102006,UK137801,1378,Manasar,Manesar,Manesar,HARYANA,Onsite,1002102006
34,13791002102002,UK137901,1379,Lakadganj,Lakadganj,Nagpur,MAHARASHTRA,Onsite,1002102002
35,13791002102007,UK137902,1379,"Kharbi Chowk Rd, Nagpur",Lakadganj,Nagpur,MAHARASHTRA,Off Site,1002102007
36,13791002102008,UK137903,1379,"Jafar Nagar, Nagpur",Lakadganj,Nagpur,MAHARASHTRA,Off Site,1002102008
37,13791002102009,UK137904,1379,"Teka Naka Chowk, Nagpur",Lakadganj,Nagpur,MAHARASHTRA,Off Site,1002102009
38,13791002102010,UK137905,1379,"Dhantoli, Nagpur",Lakadganj,Nagpur,MAHARASHTRA,Off Site,1002102010
39,13791002102011,UK137906,1379,Hanuman Nagar,Lakadganj,Nagpur,MAHARASHTRA,Off Site,1002102011
40,13801002102006,UK138001,1380,Barh,Barh,Barh,BIHAR,Onsite,1002102006
41,13841002102006,UK138401,1384,Mehmoorganj,Mehmoorganj,Varanasi,Uttar Pradesh,Onsite,1002102006
42,13841002102007,UK138402,1384,Manduadih,Mehmoorganj,Varanasi,Uttar Pradesh,Off Site,1002102007
43,13841002102008,UK138403,1384,Sujabad Chandaulli,Mehmoorganj,Varanasi,Uttar Pradesh,Off Site,1002102008
44,13841002102009,UK138404,1384,Choubepur Bazar,Mehmoorganj,Varanasi,Uttar Pradesh,Off Site,1002102009
45,13841002102010,UK138405,1384,UP College,Mehmoorganj,Varanasi,Uttar Pradesh,Off Site,1002102010
46,13851002102006,UK138501,1385,Chembur,Chembur,Mumbai,MAHARASHTRA,Onsite,1002102006
47,13861002102006,UK138601,1386,Pusa Road,"Pusa Road, Delhi",New Delhi,DELHI,Onsite,1002102006
48,13901002102006,UK139001,1390,Sonipat,Sonipat,Sonipat,HARYANA,Onsite,1002102006
49,13911002102006,UK139101,1391,Yamuna Nagar,Yamuna Nagar,yamuna nagar,HARYANA,Onsite,1002102006
50,13921002102006,UK139201,1392,Basti,Basti,Basti,Uttar Pradesh,Onsite,1002102006
51,13931002102006,UK139301,1393,Ambala Cantt,Ambala,Ambala,HARYANA,Onsite,1002102006
52,13951002102006,UK139501,1395,Dhanbad,Dhanbad,Dhanbad,JHARKHAND,Onsite,1002102006
53,13961002102006,UK139601,1396,Ramgarh,Ramgarh,Ramgarh,JHARKHAND,Onsite,1002102006
54,13971002102008,UK139703,1397,Haridwar,Haridwar,Haridwar,UTTARANCHAL,Onsite,1002102008
55,13981002102006,UK139801,1398,Bokaro,Bokaro,Bokaro,JHARKHAND,Onsite,1002102006
56,13991002102006,UK139901,1399,Darbhanga,Darbhanga,Dharbhanga,BIHAR,Onsite,1002102006
57,14001002102006,UK140001,1400,Raipur,Raipur,Raipur,CHHATTISGARH,Onsite,1002102006
58,14001002102007,UK140002,1400,"Bhanpuri, Raipur",Raipur,Raipur,CHHATTISGARH,Off Site,1002102007
59,14011002102006,UK140101,1401,Lajpat Nagar,Lajpat Nagar,New Delhi,DELHI,Onsite,1002102006
60,14011002102007,UK140102,1401,Jamia Nagar,Lajpat Nagar,New Delhi,DELHI,Off Site,1002102007
61,14011002102008,UK140103,1401,Lajpat Nagar,Lajpat Nagar,New Delhi,New Delhi,Off Site,1002102008
62,14021002102006,UK140201,1402,Lalganj,Lalganj,Muzaffarpur,BIHAR,Onsite,1002102006
63,14031002102006,UK140301,1403,Bihar Shariff,Bihar Shariff,Bihar Shariff,BIHAR,Onsite,1002102006
64,14041002102006,UK140401,1404,Rasra,Rasra,Rasra,Uttar Pradesh,Onsite,1002102006
65,14051002102006,UK140501,1405,Bhabhua,Bhabhua,Bhabhua,BIHAR,Onsite,1002102006
66,14061002102006,UK140601,1406,Pratapgarh,Pratapgarh,Pratapgarh,Uttar Pradesh,Onsite,1002102006
67,14071002102006,UK140701,1407,Jamshedpur,Jamshedpur,Jamshedpur,JHARKHAND,Onsite,1002102006
68,14081002102006,UK140801,1408,Fatuha,Kankarbagh,Patna,BIHAR,Off Site,1002102006
69,14081002102007,UK140802,1408,Bhootnath Main road,Kankarbagh,Patna,BIHAR,Onsite,1002102007
70,14081002102008,UK140803,1408,Machchuatoli Chowk,Kankarbagh,Patna,BIHAR,Off Site,1002102008
71,14091002102006,UK140901,1409,Roorkee,Roorkee,Roorkee,UTTARANCHAL,Onsite,1002102006
72,14101002102006,UK141001,1410,Rudrapur,Rudrapur,Rudrapur,UTTARANCHAL,Onsite,1002102006
73,13621002102006,UK141101,1362,Deoria,Deoria,Deoria,Uttar Pradesh,Onsite,1002102006
74,15011002102006,UK150101,1501,Lucknow,Lucknow,Lucknow,Uttar Pradesh,Onsite,1002102006
75,15011002102007,UK150102,1501,"Gomti Nagar, Lucknow",Lucknow,Lucknow,Uttar Pradesh,Off Site,1002102007
76,13541002102006,UK150201,1354,Gorakhpur,Gorakhpur,Gorakhpur,Uttar Pradesh,Onsite,1002102006
77,15041002102006,UK150401,1504,Jabalpur,Jabalpur,Jabalpur,Madhya Pradesh,Onsite,1002102006
78,15041002102007,UK150402,1504,"Ranital Chowk, Jabalpur",Jabalpur,Jabalpur,MADHYA PRADESH,Off Site,1002102007
79,15051002102006,UK150501,1505,Kanpur,Kanpur,Kanpur,Uttar Pradesh,Onsite,1002102006
80,15061002102006,UK150601,1506,"Civil Lines, Bareilly",Bareilly,Bareilly,Uttar Pradesh,Onsite,1002102006
81,15071002102006,UK150701,1507,Moradabad,Moradabad,Moradabad,Uttar Pradesh,Onsite,1002102006
82,15081002102006,UK150801,1508,Panchkula,Panchkula,Panchkula,HARYANA,Onsite,1002102006
83,15091002102006,UK150901,1509,MP Nagar,Bhopal,Bhopal,MADHYA PRADESH,Onsite,1002102006
84,15101002102006,UK151001,1510,Salt Lake City,Kolkata,Kolkata,West Bengal,Onsite,1002102006
85,15111002102006,UK151101,1511,Bhagalpur,Bhagalpur,Bhagalpur,BIHAR,Onsite,1002102006
86,15121002102006,UK151201,1512,Preet Vihar,Preet Vihar,New Delhi,DELHI,Onsite,1002102006
87,15131002102006,UK151301,1513,Durga Kund,Durga Kund,Varanasi,Uttar Pradesh,Onsite,1002102006
88,15141002102006,UK151401,1514,Noida Sec 18,Noida,Noida,Uttar Pradesh,Onsite,1002102006
89,15151002102006,UK151501,1515,Mangal Mall,Indore,Indore,MADHYA PRADESH,Onsite,1002102006
90,15161002102006,UK151601,1516,Agra,Agra,Agra,Uttar Pradesh,Onsite,1002102006
91,13791002102012,UK137907,1379,Sarda Chowk,Lakadganj,Nagpur,MAHARASHTRA,Off Site,1002102012
92,13741002102008,UK137403,1374,Badarpur,Faridabad,New Delhi,DELHI,Off Site,1002102008
93,13861002102007,UK138602,1386,Dilshad colony,"Pusa Road, Delhi",New Delhi,DELHI,Off Site,1002102007
94,12611002102006,UK126101,1261,Bhagalpur (MB),Bhagalpur,Bhagalpur,BIHAR,Onsite,1002102006
95,11621002102006,UK116201,1162,Sagauli,Sagauli,Sagauli,BIHAR,Onsite,1002102006
96,15171002102006,UK151701,1517,Dehradun,Dehradun,Dehradun,UTTARANCHAL,Onsite,1002102006
97,12691002102006,UK126901,1269,Chindwara,Chindwara,Chindwara,MP,Onsite,1002102006
98,11361002102006,UK113601,1136,Katni,Katni,Katni,MP,Onsite,1002102006
99,13841002102011,UK138406,1384,Mawaya,Mehmoorganj,Varanasi,Uttar Pradesh,Off Site,1002102011
100,15181002102006,UK151801,1518,Meerut,Meerut,Meerut,Uttar Pradesh,Onsite,1002102006
101,10951002102006,UK109501,1095,Naini,Naini,Allahabad,Uttar Pradesh,Onsite,1002102006
102,13031002102006,UK130301,1303,Delhi Mod Darbhanga,Delhi Mod Darbhanga,Darbhanga,BIHAR,Onsite,1002102006
103,11571002102006,UK115701,1157,Khalilabad,Khalilabad,Gorakhpur,UP,Onsite,1002102006
104,10941002102006,UK109401,1094,Geeta Vatika,Geeta Vatika,Gorakhpur,UP,Onsite,1002102006
105,13331002102006,UK133301,1333,Washim,Washim,Mumbai,MAHARASHTRA,Onsite,1002102006
106,11581002102006,UK115801,1158,Sherghati,Sherghati,Gaya,BIHAR,Onsite,1002102006
107,11491002102006,UK114901,1149,Banu Chhapra ( Bettiah ),Bettiah,Bettiah,BIHAR,Onsite,1002102006
108,11561002102006,UK115601,1156,Ramtek,Ramtek,Ramtek,MAHARASHTRA,Onsite,1002102006
109,12311002102006,UK123101,1231,Samastipur,Samastipur,Samastipur,BIHAR,Onsite,1002102006
110,14171002102006,UK141701,1417,Pakur,Pakur,Pakur,JHARKHAND,Onsite,1002102006
111,10891002102006,UK108901,1089,Sonepur,Sonepur,Sonepur,BIHAR,Onsite,1002102006
112,12921002102006,UK129201,1292,Pheowa,Pheowa,Pheowa,HARYANA,Onsite,1002102006
113,12551002102006,UK125501,1255,Khatopur,Khatopur,Khatopur,BIHAR,Onsite,1002102006
114,11411002102006,UK114101,1141,Ballabhgarh Faridabad,Ballabhgarh Faridabad,Ballabhgarh Faridabad,HARYANA,Off Site,1002102006
115,12521002102006,UK125201,1252,Silao,Silao nalanda,Silao nalanda,BIHAR,Onsite,1002102006
116,10101002102006,UK101001,1010,Ghazipur,Ghazipur,Ghazipur,UP,Onsite,1002102006
117,15251002102006,UK152501,1525,Hajipur,Hajipur,Hajipur,BIHAR,Onsite,1002102006
118,15191002102006,UK151901,1519,Punjabi Bagh,Punjabi Bagh,Punjabi Bagh,DELHI,Onsite,1002102006
119,15201002102006,UK152001,1520,Tilak nagar,Tilak nagar,Tilak nagar,DELHI,Onsite,1002102006
120,12511002102006,UK125101,1251,Bilaspur,Bilaspur,Bilaspur,HARYANA,Onsite,1002102006
121,15221002102006,UK152201,1522,Ghaziabad,Ghaziabad,Ghaziabad,UP,Onsite,1002102006
122,15301002102006,UK153001,1530,Sakchi,Sakchi,Sakchi,JHARKHAND,Onsite,1002102006
123,11081002102006,UK110801,1108,Dilshad Garden,Dilshad Garden,Dilshad Garden,DELHI,Onsite,1002102006
124,15211002102006,UK152101,1521,CR Park,CR Park,CR Park,DELHI,Onsite,1002102006
125,15231002102006,UK152301,1523,Ujjain,Ujjain,Ujjain,MP,Onsite,1002102006
126,15261002102006,UK152601,1526,Aligarh,Aligarh,Aligarh,UP,Onsite,1002102006
