{
	"fileType": "csv",
	"action": [{
			"filters": [{
				"resultkey": "payload['custom_reports']['Advancetobematch_fileF']",
				"source": "ManualPostedmembersrecon_fileH",
				"expressions": [
						"df = df.loc[df['Amount_Diff'] >0]",
                                         "df.loc[:,'Remarks'] = 'Manual Data'",
      					"print payload['custom_reports']['Advancetobematch_fileF']",
						
					"payload['custom_reports']['Advancetobematch_fileF'] = payload['custom_reports']['Advancetobematch_fileF'].append(df)",
			
 					"payload['custom_reports']['Advancetobematch_fileF'] =payload['custom_reports']['Advancetobematch_fileF'].copy()"
					


				]
			}
                    ],
                   "header":["Branch ID","Branch Name","Center ID","Customer ID",
       "Customer Name","Loan ID","Remarks","member_loan",
         "Amount_Diff","Amount"]


		}
	]
       
}
