SrNo,FODealId,FMDealID,OriginalEventDate,BOCaptureDate,BODealFirstFather,CounterpartyType,ClientCategory,CounterPartyShortName,CounterPartyName,TypeOfDeal,TypeOfInstr,DealType,CurrencyPair,CurrencyPair_1,MatchAmount1,CurrencyPair_2,MatchAmount2,Rate,MaturityDate1,MaturityDate,Folder,DealerName,ClearingMode,BrokerName,Brokerage,InternalStatus,USDEquivalentRate,AmountUSDEquivalent,AmountINREquivalent,PendingUnderlying,PendingConfirmation,DMSID,SourceDealId,SourcePlatform,Zone,Underlying,UnderlyingBasis,TradeDate,ClientOwner,Capture DateTime,FEED_FILE_NAME,SourceDealId_Derived,SOURCE,STATEMENT_DATE,System_Idx,Ageing,LINK_ID,CARRY_FORWARD,JP_Spot CarryForward,JP_Spot Match
1,374815,0,19-11-2018 00:00:00,19/11/2018,0.00,InterBank,None,JPMLON,JP MORGAN CHASE LONDON,Sell,SPOT,SpotDeals,GBP/NZD,GBP,1000000.00,NZD,1868220.00,1.86822,,21-11-2018 00:00:00,17-IB-FX,HIMANSHU SAREEN.,CCIL,DIRECT BROKER FOR STP,0,In Progress,1.2829,1282900.0,0,0.00,0.00,0,ATS-13Z-UHUH37-0-0+p,JGLP,North,0.00,0.00,19/11/2018,Rupali Nayak,Nov 19 2018  8:45AM,KPTP_SPOT_191118_FINAL.xls,13Z-UHUH37,KPTP_Spot,22-11-2018 00:00:00,12643675756036399732,15,nan,,,MATCHED
2,374816,0,19-11-2018 00:00:00,19/11/2018,0.00,InterBank,None,JPMLON,JP MORGAN CHASE LONDON,Buy,SPOT,SpotDeals,NZD/USD,NZD,2000000.00,USD,1373000.00,0.6865,,21-11-2018 00:00:00,17-IB-FX,HIMANSHU SAREEN.,CCIL,DIRECT BROKER FOR STP,0,In Progress,0.6813,1362600.0,0,0.00,0.00,0,ATS-13Z-UHUH3Y-0-0+p,JGLP,North,0.00,0.00,19/11/2018,Rupali Nayak,Nov 19 2018  8:45AM,KPTP_SPOT_191118_FINAL.xls,13Z-UHUH3Y,KPTP_Spot,22-11-2018 00:00:00,12380668831358212754,15,nan,,,MATCHED
7,374825,0,19-11-2018 00:00:00,19/11/2018,0.00,InterBank,None,JPMLON,JP MORGAN CHASE LONDON,Buy,SPOT,SpotDeals,EUR/USD,EUR,500000.00,USD,570330.00,1.14066,,21-11-2018 00:00:00,17-IB-FX,HIMANSHU SAREEN.,CCIL,DIRECT BROKER FOR STP,0,In Progress,1.1335,566750.0,0,0.00,0.00,0,ATS-XE-5IGG3G-0-0+pr,JGLP,North,0.00,0.00,19/11/2018,Rupali Nayak,Nov 19 2018  9:15AM,KPTP_SPOT_191118_FINAL.xls,XE-5IGG3G,KPTP_Spot,22-11-2018 00:00:00,12242396178350727470,15,nan,,,MATCHED
8,374828,0,19-11-2018 00:00:00,19/11/2018,0.00,InterBank,None,JPMLON,JP MORGAN CHASE LONDON,Buy,SPOT,SpotDeals,NZD/USD,NZD,2000000.00,USD,1371000.00,0.6855,,21-11-2018 00:00:00,17-IB-FX,HIMANSHU SAREEN.,CCIL,DIRECT BROKER FOR STP,0,In Progress,0.6813,1362600.0,0,0.00,0.00,0,ATS-13Z-UHUH4T-0-0+p,JGLP,North,0.00,0.00,19/11/2018,Rupali Nayak,Nov 19 2018  9:22AM,KPTP_SPOT_191118_FINAL.xls,13Z-UHUH4T,KPTP_Spot,22-11-2018 00:00:00,12027974649427407569,15,nan,,,MATCHED
16,374873,0,19-11-2018 00:00:00,19/11/2018,0.00,InterBank,None,JPMLON,JP MORGAN CHASE LONDON,Buy,SPOT,SpotDeals,NZD/USD,NZD,1000000.00,USD,685190.00,0.68519,,21-11-2018 00:00:00,17-IB-FX,HIMANSHU SAREEN.,CCIL,DIRECT BROKER FOR STP,0,In Progress,0.6813,681300.0,0,0.00,0.00,0,ATS-XE-5IGG3M-0-0+pr,JGLP,North,0.00,0.00,19/11/2018,Rupali Nayak,Nov 19 2018  9:46AM,KPTP_SPOT_191118_FINAL.xls,XE-5IGG3M,KPTP_Spot,22-11-2018 00:00:00,9750458609003398412,15,nan,,,MATCHED
17,374874,0,19-11-2018 00:00:00,19/11/2018,0.00,InterBank,None,JPMLON,JP MORGAN CHASE LONDON,Buy,SPOT,SpotDeals,EUR/USD,EUR,500000.00,USD,570210.00,1.14042,,21-11-2018 00:00:00,17-IB-FX,HIMANSHU SAREEN.,CCIL,DIRECT BROKER FOR STP,0,In Progress,1.1335,566750.0,0,0.00,0.00,0,ATS-XE-5IGG3S-0-0+pr,JGLP,North,0.00,0.00,19/11/2018,Rupali Nayak,Nov 19 2018  9:49AM,KPTP_SPOT_191118_FINAL.xls,XE-5IGG3S,KPTP_Spot,22-11-2018 00:00:00,9572323988898891793,15,nan,,,MATCHED
18,374877,0,19-11-2018 00:00:00,19/11/2018,0.00,InterBank,None,JPMLON,JP MORGAN CHASE LONDON,Buy,SPOT,SpotDeals,EUR/USD,EUR,500000.00,USD,570170.00,1.14034,,21-11-2018 00:00:00,17-IB-FX,HIMANSHU SAREEN.,CCIL,DIRECT BROKER FOR STP,0,In Progress,1.1335,566750.0,0,0.00,0.00,0,ATS-XE-5IGG3X-0-0+pr,JGLP,North,0.00,0.00,19/11/2018,Rupali Nayak,Nov 19 2018  9:52AM,KPTP_SPOT_191118_FINAL.xls,XE-5IGG3X,KPTP_Spot,22-11-2018 00:00:00,11545064682463804548,15,nan,,,MATCHED
19,374880,0,19-11-2018 00:00:00,19/11/2018,0.00,InterBank,None,JPMLON,JP MORGAN CHASE LONDON,Buy,SPOT,SpotDeals,EUR/USD,EUR,500000.00,USD,570080.00,1.14016,,21-11-2018 00:00:00,17-IB-FX,HIMANSHU SAREEN.,CCIL,DIRECT BROKER FOR STP,0,In Progress,1.1335,566750.0,0,0.00,0.00,0,ATS-XE-5IGG3Z-0-0+pr,JGLP,North,0.00,0.00,19/11/2018,Rupali Nayak,Nov 19 2018  9:54AM,KPTP_SPOT_191118_FINAL.xls,XE-5IGG3Z,KPTP_Spot,22-11-2018 00:00:00,12322793247303595173,15,nan,,,MATCHED
20,374881,0,19-11-2018 00:00:00,19/11/2018,0.00,InterBank,None,JPMLON,JP MORGAN CHASE LONDON,Buy,SPOT,SpotDeals,EUR/USD,EUR,500000.00,USD,570035.00,1.14007,,21-11-2018 00:00:00,17-IB-FX,HIMANSHU SAREEN.,CCIL,DIRECT BROKER FOR STP,0,In Progress,1.1335,566750.0,0,0.00,0.00,0,ATS-XE-5IGG40-0-0+pr,JGLP,North,0.00,0.00,19/11/2018,Rupali Nayak,Nov 19 2018  9:56AM,KPTP_SPOT_191118_FINAL.xls,XE-5IGG40,KPTP_Spot,22-11-2018 00:00:00,10317182269097875968,15,nan,,,MATCHED
21,374882,0,19-11-2018 00:00:00,19/11/2018,0.00,InterBank,None,JPMLON,JP MORGAN CHASE LONDON,Buy,SPOT,SpotDeals,EUR/USD,EUR,500000.00,USD,569980.00,1.13996,,21-11-2018 00:00:00,17-IB-FX,HIMANSHU SAREEN.,CCIL,DIRECT BROKER FOR STP,0,In Progress,1.1335,566750.0,0,0.00,0.00,0,ATS-XE-5IGG43-0-0+pr,JGLP,North,0.00,0.00,19/11/2018,Rupali Nayak,Nov 19 2018  9:58AM,KPTP_SPOT_191118_FINAL.xls,XE-5IGG43,KPTP_Spot,22-11-2018 00:00:00,12465008033640211298,15,nan,,,MATCHED
29,374902,0,19-11-2018 00:00:00,19/11/2018,0.00,InterBank,None,JPMLON,JP MORGAN CHASE LONDON,Buy,SPOT,SpotDeals,EUR/USD,EUR,500000.00,USD,569915.00,1.13983,,21-11-2018 00:00:00,17-IB-FX,HIMANSHU SAREEN.,CCIL,DIRECT BROKER FOR STP,0,In Progress,1.1335,566750.0,0,0.00,0.00,0,ATS-XE-5IGG46-0-0+pr,JGLP,North,0.00,0.00,19/11/2018,Rupali Nayak,Nov 19 2018 10:27AM,KPTP_SPOT_191118_FINAL.xls,XE-5IGG46,KPTP_Spot,22-11-2018 00:00:00,11758301123427443104,15,nan,,,MATCHED
30,374903,0,19-11-2018 00:00:00,19/11/2018,0.00,InterBank,None,JPMLON,JP MORGAN CHASE LONDON,Buy,SPOT,SpotDeals,EUR/USD,EUR,500000.00,USD,569915.00,1.13983,,21-11-2018 00:00:00,17-IB-FX,HIMANSHU SAREEN.,CCIL,DIRECT BROKER FOR STP,0,In Progress,1.1335,566750.0,0,0.00,0.00,0,ATS-XE-5IGG47-0-0+pr,JGLP,North,0.00,0.00,19/11/2018,Rupali Nayak,Nov 19 2018 10:28AM,KPTP_SPOT_191118_FINAL.xls,XE-5IGG47,KPTP_Spot,22-11-2018 00:00:00,11923609574009631595,15,nan,,,MATCHED
31,374910,0,19-11-2018 00:00:00,19/11/2018,0.00,InterBank,None,JPMLON,JP MORGAN CHASE LONDON,Buy,SPOT,SpotDeals,EUR/USD,EUR,500000.00,USD,569890.00,1.13978,,21-11-2018 00:00:00,17-IB-FX,HIMANSHU SAREEN.,CCIL,DIRECT BROKER FOR STP,0,In Progress,1.1335,566750.0,0,0.00,0.00,0,ATS-XE-5IGG4C-0-0+pr,JGLP,North,0.00,0.00,19/11/2018,Rupali Nayak,Nov 19 2018 10:32AM,KPTP_SPOT_191118_FINAL.xls,XE-5IGG4C,KPTP_Spot,22-11-2018 00:00:00,11528018780571646147,15,nan,,,MATCHED
32,374919,0,19-11-2018 00:00:00,19/11/2018,0.00,InterBank,None,JPMLON,JP MORGAN CHASE LONDON,Buy,SPOT,SpotDeals,EUR/USD,EUR,500000.00,USD,569845.00,1.13969,,21-11-2018 00:00:00,17-IB-FX,HIMANSHU SAREEN.,CCIL,DIRECT BROKER FOR STP,0,In Progress,1.1335,566750.0,0,0.00,0.00,0,ATS-XE-5IGG4H-0-0+pr,JGLP,North,0.00,0.00,19/11/2018,Rupali Nayak,Nov 19 2018 10:36AM,KPTP_SPOT_191118_FINAL.xls,XE-5IGG4H,KPTP_Spot,22-11-2018 00:00:00,13691855534457633676,15,nan,,,MATCHED
35,374934,0,19-11-2018 00:00:00,19/11/2018,0.00,InterBank,None,JPMLON,JP MORGAN CHASE LONDON,Buy,SPOT,SpotDeals,EUR/USD,EUR,500000.00,USD,569810.00,1.13962,,21-11-2018 00:00:00,17-IB-FX,HIMANSHU SAREEN.,CCIL,DIRECT BROKER FOR STP,0,In Progress,1.1335,566750.0,0,0.00,0.00,0,ATS-13Z-UHUH6R-0-0+p,JGLP,North,0.00,0.00,19/11/2018,Rupali Nayak,Nov 19 2018 10:56AM,KPTP_SPOT_191118_FINAL.xls,13Z-UHUH6R,KPTP_Spot,22-11-2018 00:00:00,9469759028214232880,15,nan,,,MATCHED
42,375003,0,19-11-2018 00:00:00,19/11/2018,0.00,InterBank,None,JPMLON,JP MORGAN CHASE LONDON,Buy,SPOT,SpotDeals,EUR/USD,EUR,500000.00,USD,569775.00,1.13955,,21-11-2018 00:00:00,17-IB-FX,HIMANSHU SAREEN.,CCIL,DIRECT BROKER FOR STP,0,In Progress,1.1335,566750.0,0,0.00,0.00,0,ATS-13Z-UHUH7D-0-0+p,JGLP,North,0.00,0.00,19/11/2018,Rupali Nayak,Nov 19 2018 11:35AM,KPTP_SPOT_191118_FINAL.xls,13Z-UHUH7D,KPTP_Spot,22-11-2018 00:00:00,12496760814662013022,15,nan,,,MATCHED
48,375023,0,19-11-2018 00:00:00,19/11/2018,0.00,InterBank,None,JPMLON,JP MORGAN CHASE LONDON,Buy,SPOT,SpotDeals,EUR/USD,EUR,500000.00,USD,569730.00,1.13946,,21-11-2018 00:00:00,17-IB-FX,HIMANSHU SAREEN.,CCIL,DIRECT BROKER FOR STP,0,In Progress,1.1335,566750.0,0,0.00,0.00,0,ATS-13Z-UHUH7J-0-0+p,JGLP,North,0.00,0.00,19/11/2018,Rupali Nayak,Nov 19 2018 11:41AM,KPTP_SPOT_191118_FINAL.xls,13Z-UHUH7J,KPTP_Spot,22-11-2018 00:00:00,11548988210405547339,15,nan,,,MATCHED
59,375111,0,19-11-2018 00:00:00,19/11/2018,0.00,InterBank,None,JPMLON,JP MORGAN CHASE LONDON,Sell,SPOT,SpotDeals,GBP/USD,GBP,1000000.00,USD,1284030.00,1.28403,,21-11-2018 00:00:00,17-IB-FX,HIMANSHU SAREEN.,CCIL,DIRECT BROKER FOR STP,0,In Progress,1.2829,1282900.0,0,0.00,0.00,0,ATS-XE-5IGG6H-0-0+pr,JGLP,North,0.00,0.00,19/11/2018,Rupali Nayak,Nov 19 2018 12:38PM,KPTP_SPOT_191118_FINAL.xls,XE-5IGG6H,KPTP_Spot,22-11-2018 00:00:00,11114373249558824496,15,nan,,,MATCHED
61,375144,0,19-11-2018 00:00:00,19/11/2018,0.00,InterBank,None,JPMLON,JP MORGAN CHASE LONDON,Sell,SPOT,SpotDeals,USD/ZAR,USD,1000000.00,ZAR,14010500.00,14.0105,,21-11-2018 00:00:00,17-IB-FX,HIMANSHU SAREEN.,CCIL,DIRECT BROKER FOR STP,0,In Progress,1.0,1000000.0,0,0.00,0.00,0,ATS-XE-5IGG7C-0-0+pr,JGLP,North,0.00,0.00,19/11/2018,Rupali Nayak,Nov 19 2018 12:55PM,KPTP_SPOT_191118_FINAL.xls,XE-5IGG7C,KPTP_Spot,22-11-2018 00:00:00,13116003807346019554,15,nan,,,MATCHED
70,375211,0,19-11-2018 00:00:00,19/11/2018,0.00,InterBank,None,JPMLON,JP MORGAN CHASE LONDON,Sell,SPOT,SpotDeals,EUR/USD,EUR,1000000.00,USD,1140700.00,1.1407,,21-11-2018 00:00:00,17-IB-FX,HIMANSHU SAREEN.,CCIL,DIRECT BROKER FOR STP,0,In Progress,1.1335,1133500.0,0,0.00,0.00,0,ATS-XE-5IGG7O-0-0+pr,JGLP,North,0.00,0.00,19/11/2018,Rupali Nayak,Nov 19 2018  1:16PM,KPTP_SPOT_191118_FINAL.xls,XE-5IGG7O,KPTP_Spot,22-11-2018 00:00:00,11232282347580210075,15,nan,,,MATCHED
71,375227,0,19-11-2018 00:00:00,19/11/2018,0.00,InterBank,None,JPMLON,JP MORGAN CHASE LONDON,Buy,SPOT,SpotDeals,USD/ZAR,USD,1000000.00,ZAR,14005000.00,14.005,,21-11-2018 00:00:00,17-IB-FX,HIMANSHU SAREEN.,CCIL,DIRECT BROKER FOR STP,0,In Progress,1.0,1000000.0,0,0.00,0.00,0,ATS-13Z-UHUH9G-0-0+p,JGLP,North,0.00,0.00,19/11/2018,Rupali Nayak,Nov 19 2018  1:21PM,KPTP_SPOT_191118_FINAL.xls,13Z-UHUH9G,KPTP_Spot,22-11-2018 00:00:00,12368400707620762953,15,nan,,,MATCHED
84,375282,0,19-11-2018 00:00:00,19/11/2018,0.00,InterBank,None,JPMLON,JP MORGAN CHASE LONDON,Buy,SPOT,SpotDeals,GBP/USD,GBP,1000000.00,USD,1286730.00,1.28673,,21-11-2018 00:00:00,17-IB-FX,HIMANSHU SAREEN.,CCIL,DIRECT BROKER FOR STP,0,In Progress,1.2829,1282900.0,0,0.00,0.00,0,ATS-XE-5II8WM-0-0+pr,JGLP,North,0.00,0.00,19/11/2018,Rupali Nayak,Nov 19 2018  1:52PM,KPTP_SPOT_191118_FINAL.xls,XE-5II8WM,KPTP_Spot,22-11-2018 00:00:00,12707137932317021256,15,nan,,,MATCHED
113,375469,0,19-11-2018 00:00:00,19/11/2018,0.00,InterBank,None,JPMLON,JP MORGAN CHASE LONDON,Sell,SPOT,SpotDeals,EUR/USD,EUR,1000000.00,USD,1141940.00,1.14194,,21-11-2018 00:00:00,17-IB-FX,HIMANSHU SAREEN.,CCIL,DIRECT BROKER FOR STP,0,In Progress,1.1335,1133500.0,0,0.00,0.00,0,ATS-XE-5IK6BD-0-0+pr,JGLP,North,0.00,0.00,19/11/2018,Rupali Nayak,Nov 19 2018  2:57PM,KPTP_SPOT_191118_FINAL.xls,XE-5IK6BD,KPTP_Spot,22-11-2018 00:00:00,10158226805874388011,15,nan,,,MATCHED
117,375541,0,19-11-2018 00:00:00,19/11/2018,0.00,InterBank,None,JPMLON,JP MORGAN CHASE LONDON,Sell,SPOT,SpotDeals,USD/ZAR,USD,1000000.00,ZAR,13980600.00,13.9806,,21-11-2018 00:00:00,17-IB-FX,HIMANSHU SAREEN.,CCIL,DIRECT BROKER FOR STP,0,In Progress,1.0,1000000.0,0,0.00,0.00,0,ATS-XE-5IK6HT-0-0+pr,JGLP,North,0.00,0.00,19/11/2018,Rupali Nayak,Nov 19 2018  3:18PM,KPTP_SPOT_191118_FINAL.xls,XE-5IK6HT,KPTP_Spot,22-11-2018 00:00:00,11665154607243582194,15,nan,,,MATCHED
118,375544,0,19-11-2018 00:00:00,19/11/2018,0.00,InterBank,None,JPMLON,JP MORGAN CHASE LONDON,Sell,SPOT,SpotDeals,EUR/USD,EUR,1000000.00,USD,1142460.00,1.14246,,21-11-2018 00:00:00,17-IB-FX,HIMANSHU SAREEN.,CCIL,DIRECT BROKER FOR STP,0,In Progress,1.1335,1133500.0,0,0.00,0.00,0,ATS-XE-5IK6HU-0-0+pr,JGLP,North,0.00,0.00,19/11/2018,Rupali Nayak,Nov 19 2018  3:18PM,KPTP_SPOT_191118_FINAL.xls,XE-5IK6HU,KPTP_Spot,22-11-2018 00:00:00,12613660637918372119,15,nan,,,MATCHED
119,375549,0,19-11-2018 00:00:00,19/11/2018,0.00,InterBank,None,JPMLON,JP MORGAN CHASE LONDON,Sell,SPOT,SpotDeals,EUR/USD,EUR,1000000.00,USD,1142540.00,1.14254,,21-11-2018 00:00:00,17-IB-FX,HIMANSHU SAREEN.,CCIL,DIRECT BROKER FOR STP,0,In Progress,1.1335,1133500.0,0,0.00,0.00,0,ATS-XE-5IK6HX-0-0+pr,JGLP,North,0.00,0.00,19/11/2018,Rupali Nayak,Nov 19 2018  3:20PM,KPTP_SPOT_191118_FINAL.xls,XE-5IK6HX,KPTP_Spot,22-11-2018 00:00:00,13402895791888550453,15,nan,,,MATCHED
120,375558,0,19-11-2018 00:00:00,19/11/2018,0.00,InterBank,None,JPMLON,JP MORGAN CHASE LONDON,Buy,SPOT,SpotDeals,USD/JPY,USD,1000000.00,JPY,112697000.00,112.697,,21-11-2018 00:00:00,17-IB-FX,HIMANSHU SAREEN.,CCIL,DIRECT BROKER FOR STP,0,In Progress,1.0,1000000.0,0,0.00,0.00,0,ATS-XE-5IK6I8-0-0+pr,JGLP,North,0.00,0.00,19/11/2018,Rupali Nayak,Nov 19 2018  3:22PM,KPTP_SPOT_191118_FINAL.xls,XE-5IK6I8,KPTP_Spot,22-11-2018 00:00:00,9541561503250737802,15,nan,,,MATCHED
122,375577,0,19-11-2018 00:00:00,19/11/2018,0.00,InterBank,None,JPMLON,JP MORGAN CHASE LONDON,Sell,SPOT,SpotDeals,EUR/USD,EUR,1000000.00,USD,1142810.00,1.14281,,21-11-2018 00:00:00,17-IB-FX,HIMANSHU SAREEN.,CCIL,DIRECT BROKER FOR STP,0,In Progress,1.1335,1133500.0,0,0.00,0.00,0,ATS-XE-5IK6IK-0-0+pr,JGLP,North,0.00,0.00,19/11/2018,Rupali Nayak,Nov 19 2018  3:28PM,KPTP_SPOT_191118_FINAL.xls,XE-5IK6IK,KPTP_Spot,22-11-2018 00:00:00,12150808757120002201,15,nan,,,MATCHED
130,375630,0,19-11-2018 00:00:00,19/11/2018,0.00,InterBank,None,JPMLON,JP MORGAN CHASE LONDON,Sell,SPOT,SpotDeals,EUR/USD,EUR,1000000.00,USD,1142710.00,1.14271,,21-11-2018 00:00:00,17-IB-FX,HIMANSHU SAREEN.,CCIL,DIRECT BROKER FOR STP,0,In Progress,1.1335,1133500.0,0,0.00,0.00,0,ATS-XE-5IK6JN-0-0+pr,JGLP,North,0.00,0.00,19/11/2018,Rupali Nayak,Nov 19 2018  3:46PM,KPTP_SPOT_191118_FINAL.xls,XE-5IK6JN,KPTP_Spot,22-11-2018 00:00:00,11047855895921135260,15,nan,,,MATCHED
134,375692,0,19-11-2018 00:00:00,19/11/2018,0.00,InterBank,None,JPMLON,JP MORGAN CHASE LONDON,Sell,SPOT,SpotDeals,EUR/USD,EUR,1000000.00,USD,1142800.00,1.1428,,21-11-2018 00:00:00,17-IB-FX,HIMANSHU SAREEN.,CCIL,DIRECT BROKER FOR STP,0,In Progress,1.1335,1133500.0,0,0.00,0.00,0,ATS-XE-5IK6K4-0-0+pr,JGLP,North,0.00,0.00,19/11/2018,Rupali Nayak,Nov 19 2018  3:54PM,KPTP_SPOT_191118_FINAL.xls,XE-5IK6K4,KPTP_Spot,22-11-2018 00:00:00,10152357057025848247,15,nan,,,MATCHED
140,375720,0,19-11-2018 00:00:00,19/11/2018,0.00,InterBank,None,JPMLON,JP MORGAN CHASE LONDON,Sell,SPOT,SpotDeals,EUR/USD,EUR,1000000.00,USD,1142680.00,1.14268,,21-11-2018 00:00:00,17-IB-FX,HIMANSHU SAREEN.,CCIL,DIRECT BROKER FOR STP,0,In Progress,1.1335,1133500.0,0,0.00,0.00,0,ATS-XE-5IK6PZ-0-0+pr,JGLP,North,0.00,0.00,19/11/2018,Rupali Nayak,Nov 19 2018  4:00PM,KPTP_SPOT_191118_FINAL.xls,XE-5IK6PZ,KPTP_Spot,22-11-2018 00:00:00,13644975419525603984,15,nan,,,MATCHED
146,375895,0,19-11-2018 00:00:00,19/11/2018,0.00,InterBank,None,JPMLON,JP MORGAN CHASE LONDON,Sell,SPOT,SpotDeals,EUR/USD,EUR,1000000.00,USD,1142320.00,1.14232,,21-11-2018 00:00:00,17-IB-FX,HIMANSHU SAREEN.,CCIL,DIRECT BROKER FOR STP,0,In Progress,1.1335,1133500.0,0,0.00,0.00,0,ATS-XE-5IK6R7-0-0+pr,JGLP,North,0.00,0.00,19/11/2018,Rupali Nayak,Nov 19 2018  4:34PM,KPTP_SPOT_191118_FINAL.xls,XE-5IK6R7,KPTP_Spot,22-11-2018 00:00:00,9362895373435493956,15,nan,,,MATCHED
148,375909,0,19-11-2018 00:00:00,19/11/2018,0.00,InterBank,None,JPMLON,JP MORGAN CHASE LONDON,Sell,SPOT,SpotDeals,EUR/USD,EUR,1000000.00,USD,1142310.00,1.14231,,21-11-2018 00:00:00,17-IB-FX,HIMANSHU SAREEN.,CCIL,DIRECT BROKER FOR STP,0,In Progress,1.1335,1133500.0,0,0.00,0.00,0,ATS-XE-5IK6RQ-0-0+pr,JGLP,North,0.00,0.00,19/11/2018,Rupali Nayak,Nov 19 2018  4:45PM,KPTP_SPOT_191118_FINAL.xls,XE-5IK6RQ,KPTP_Spot,22-11-2018 00:00:00,9370334062936680072,15,nan,,,MATCHED
151,375922,0,19-11-2018 00:00:00,19/11/2018,0.00,InterBank,None,JPMLON,JP MORGAN CHASE LONDON,Sell,SPOT,SpotDeals,EUR/USD,EUR,1000000.00,USD,1142320.00,1.14232,,21-11-2018 00:00:00,17-IB-FX,HIMANSHU SAREEN.,CCIL,DIRECT BROKER FOR STP,0,In Progress,1.1335,1133500.0,0,0.00,0.00,0,ATS-XE-5IK6S2-0-0+pr,JGLP,North,0.00,0.00,19/11/2018,Rupali Nayak,Nov 19 2018  4:58PM,KPTP_SPOT_191118_FINAL.xls,XE-5IK6S2,KPTP_Spot,22-11-2018 00:00:00,12195723269573402991,15,nan,,Y,MATCHED
154,375962,0,19-11-2018 00:00:00,19/11/2018,0.00,InterBank,None,JPMLON,JP MORGAN CHASE LONDON,Sell,SPOT,SpotDeals,EUR/USD,EUR,2000000.00,USD,2285800.00,1.1429,,21-11-2018 00:00:00,17-IB-FX,HIMANSHU SAREEN.,CCIL,DIRECT BROKER FOR STP,0,In Progress,1.1335,2267000.0,0,0.00,0.00,0,ATS-13Z-UHUHNW-0-0+p,JGLP,North,0.00,0.00,19/11/2018,Rupali Nayak,Nov 20 2018  8:29AM,KPTP_SPOT_191118_FINAL.xls,13Z-UHUHNW,KPTP_Spot,22-11-2018 00:00:00,10484809019468316293,15,nan,,,MATCHED
155,375963,0,19-11-2018 00:00:00,19/11/2018,0.00,InterBank,None,JPMLON,JP MORGAN CHASE LONDON,Buy,SPOT,SpotDeals,USD/NOK,USD,3000000.00,NOK,25379700.00,8.4599,,21-11-2018 00:00:00,17-IB-FX,HIMANSHU SAREEN.,CCIL,DIRECT BROKER FOR STP,0,In Progress,1.0,3000000.0,0,0.00,0.00,0,ATS-13Z-UHUHPI-0-0+p,JGLP,North,0.00,0.00,19/11/2018,Rupali Nayak,Nov 20 2018  8:29AM,KPTP_SPOT_191118_FINAL.xls,13Z-UHUHPI,KPTP_Spot,22-11-2018 00:00:00,11943032734204978492,15,nan,,,MATCHED
156,375964,0,19-11-2018 00:00:00,19/11/2018,0.00,InterBank,None,JPMLON,JP MORGAN CHASE LONDON,Buy,SPOT,SpotDeals,EUR/CAD,EUR,1000000.00,CAD,1506350.00,1.50635,,21-11-2018 00:00:00,17-IB-FX,HIMANSHU SAREEN.,CCIL,DIRECT BROKER FOR STP,0,In Progress,1.1335,1133500.0,0,0.00,0.00,0,ATS-13Z-UHUHPK-0-0+p,JGLP,North,0.00,0.00,19/11/2018,Rupali Nayak,Nov 20 2018  8:29AM,KPTP_SPOT_191118_FINAL.xls,13Z-UHUHPK,KPTP_Spot,22-11-2018 00:00:00,11914577169417478802,15,nan,,,MATCHED
157,375965,0,19-11-2018 00:00:00,19/11/2018,0.00,InterBank,None,JPMLON,JP MORGAN CHASE LONDON,Buy,SPOT,SpotDeals,EUR/CAD,EUR,500000.00,CAD,753365.00,1.50673,,21-11-2018 00:00:00,17-IB-FX,HIMANSHU SAREEN.,CCIL,DIRECT BROKER FOR STP,0,In Progress,1.1335,566750.0,0,0.00,0.00,0,ATS-13Z-UHUHPX-0-0+p,JGLP,North,0.00,0.00,19/11/2018,Rupali Nayak,Nov 20 2018  8:29AM,KPTP_SPOT_191118_FINAL.xls,13Z-UHUHPX,KPTP_Spot,22-11-2018 00:00:00,13376038982628597437,15,nan,,,MATCHED
158,375966,0,19-11-2018 00:00:00,19/11/2018,0.00,InterBank,None,JPMLON,JP MORGAN CHASE LONDON,Buy,SPOT,SpotDeals,USD/ZAR,USD,1000000.00,ZAR,14052400.00,14.0524,,21-11-2018 00:00:00,17-IB-FX,HIMANSHU SAREEN.,CCIL,DIRECT BROKER FOR STP,0,In Progress,1.0,1000000.0,0,0.00,0.00,0,ATS-13Z-UHUHQS-0-0+p,JGLP,North,0.00,0.00,19/11/2018,Rupali Nayak,Nov 20 2018  8:29AM,KPTP_SPOT_191118_FINAL.xls,13Z-UHUHQS,KPTP_Spot,22-11-2018 00:00:00,12381424183482963687,15,nan,,,MATCHED
159,375967,0,19-11-2018 00:00:00,19/11/2018,0.00,InterBank,MarkUp1,JPCMUM,JP MORGAN CHASE BANK,Sell,SPOT,SpotDeals,EUR/USD,EUR,250000.00,USD,285860.00,1.14344,,21-11-2018 00:00:00,16-IB-FX,SHIKHA GUPTA,SWIFT,,0,In Progress,1.1335,283375.0,0,0.00,0.00,0,ATS-XE-5IKL21-0-0+pr,JGLP,North,0.00,0.00,19/11/2018,Rupali Nayak,Nov 20 2018  8:29AM,KPTP_SPOT_191118_FINAL.xls,XE-5IKL21,KPTP_Spot,22-11-2018 00:00:00,9961666310332047135,15,nan,,Y,MATCHED
160,375968,0,19-11-2018 00:00:00,19/11/2018,0.00,InterBank,None,JPMLON,JP MORGAN CHASE LONDON,Buy,SPOT,SpotDeals,USD/JPY,USD,1000000.00,JPY,112630000.00,112.63,,21-11-2018 00:00:00,17-IB-FX,HIMANSHU SAREEN.,CCIL,DIRECT BROKER FOR STP,0,In Progress,1.0,1000000.0,0,0.00,0.00,0,ATS-13Z-UHUHSX-0-0+p,JGLP,North,0.00,0.00,19/11/2018,Rupali Nayak,Nov 20 2018  8:29AM,KPTP_SPOT_191118_FINAL.xls,13Z-UHUHSX,KPTP_Spot,22-11-2018 00:00:00,10805960001149145408,15,nan,,,MATCHED
161,375969,0,19-11-2018 00:00:00,19/11/2018,0.00,InterBank,None,JPMLON,JP MORGAN CHASE LONDON,Buy,SPOT,SpotDeals,EUR/USD,EUR,1000000.00,USD,1142600.00,1.1426,,21-11-2018 00:00:00,17-IB-FX,HIMANSHU SAREEN.,CCIL,DIRECT BROKER FOR STP,0,In Progress,1.1335,1133500.0,0,0.00,0.00,0,ATS-13Z-UHUHT8-0-0+p,JGLP,North,0.00,0.00,19/11/2018,Rupali Nayak,Nov 20 2018  8:29AM,KPTP_SPOT_191118_FINAL.xls,13Z-UHUHT8,KPTP_Spot,22-11-2018 00:00:00,10691382759449976815,15,nan,,,MATCHED
162,375970,0,19-11-2018 00:00:00,19/11/2018,0.00,InterBank,None,JPMLON,JP MORGAN CHASE LONDON,Sell,SPOT,SpotDeals,EUR/JPY,EUR,1000000.00,JPY,128755000.00,128.755,,21-11-2018 00:00:00,17-IB-FX,HIMANSHU SAREEN.,CCIL,DIRECT BROKER FOR STP,0,In Progress,1.1335,1133500.0,0,0.00,0.00,0,ATS-13Z-UHUHUG-0-0+p,JGLP,North,0.00,0.00,19/11/2018,Rupali Nayak,Nov 20 2018  8:29AM,KPTP_SPOT_191118_FINAL.xls,13Z-UHUHUG,KPTP_Spot,22-11-2018 00:00:00,12224299328041787112,15,nan,,,MATCHED
163,375971,0,19-11-2018 00:00:00,19/11/2018,0.00,InterBank,None,JPMLON,JP MORGAN CHASE LONDON,Sell,SPOT,SpotDeals,EUR/JPY,EUR,1000000.00,JPY,128810000.00,128.81,,21-11-2018 00:00:00,17-IB-FX,HIMANSHU SAREEN.,CCIL,DIRECT BROKER FOR STP,0,In Progress,1.1335,1133500.0,0,0.00,0.00,0,ATS-13Z-UHUHUX-0-0+p,JGLP,North,0.00,0.00,19/11/2018,Rupali Nayak,Nov 20 2018  8:29AM,KPTP_SPOT_191118_FINAL.xls,13Z-UHUHUX,KPTP_Spot,22-11-2018 00:00:00,10934471998458819711,15,nan,,,MATCHED
164,375972,0,19-11-2018 00:00:00,19/11/2018,0.00,InterBank,None,JPMLON,JP MORGAN CHASE LONDON,Sell,SPOT,SpotDeals,EUR/JPY,EUR,1000000.00,JPY,128851000.00,128.851,,21-11-2018 00:00:00,17-IB-FX,HIMANSHU SAREEN.,CCIL,DIRECT BROKER FOR STP,0,In Progress,1.1335,1133500.0,0,0.00,0.00,0,ATS-13Z-UHUHVC-0-0+p,JGLP,North,0.00,0.00,19/11/2018,Rupali Nayak,Nov 20 2018  8:29AM,KPTP_SPOT_191118_FINAL.xls,13Z-UHUHVC,KPTP_Spot,22-11-2018 00:00:00,13005811656621310639,15,nan,,,MATCHED
165,375973,0,19-11-2018 00:00:00,19/11/2018,0.00,InterBank,None,JPMLON,JP MORGAN CHASE LONDON,Sell,SPOT,SpotDeals,EUR/JPY,EUR,1000000.00,JPY,128910000.00,128.91,,21-11-2018 00:00:00,17-IB-FX,HIMANSHU SAREEN.,CCIL,DIRECT BROKER FOR STP,0,In Progress,1.1335,1133500.0,0,0.00,0.00,0,ATS-13Z-UHUHX2-0-0+p,JGLP,North,0.00,0.00,19/11/2018,Rupali Nayak,Nov 20 2018  8:29AM,KPTP_SPOT_191118_FINAL.xls,13Z-UHUHX2,KPTP_Spot,22-11-2018 00:00:00,12360133757066585111,15,nan,,,MATCHED
166,375974,0,19-11-2018 00:00:00,19/11/2018,0.00,InterBank,None,JPMLON,JP MORGAN CHASE LONDON,Buy,SPOT,SpotDeals,EUR/CAD,EUR,1000000.00,CAD,1508680.00,1.50868,,21-11-2018 00:00:00,17-IB-FX,HIMANSHU SAREEN.,CCIL,DIRECT BROKER FOR STP,0,In Progress,1.1335,1133500.0,0,0.00,0.00,0,ATS-13Z-UI8L5S-0-0+p,JGLP,North,0.00,0.00,19/11/2018,Rupali Nayak,Nov 20 2018  8:29AM,KPTP_SPOT_191118_FINAL.xls,13Z-UI8L5S,KPTP_Spot,22-11-2018 00:00:00,10448481292263270042,15,nan,,,MATCHED
167,375975,0,19-11-2018 00:00:00,19/11/2018,0.00,InterBank,None,JPMLON,JP MORGAN CHASE LONDON,Buy,SPOT,SpotDeals,USD/JPY,USD,1000000.00,JPY,112469000.00,112.469,,21-11-2018 00:00:00,17-IB-FX,HIMANSHU SAREEN.,CCIL,DIRECT BROKER FOR STP,0,In Progress,1.0,1000000.0,0,0.00,0.00,0,ATS-13Z-UI8L67-0-0+p,JGLP,North,0.00,0.00,19/11/2018,Rupali Nayak,Nov 20 2018  8:29AM,KPTP_SPOT_191118_FINAL.xls,13Z-UI8L67,KPTP_Spot,22-11-2018 00:00:00,9397101351994943122,15,nan,,,MATCHED
168,375976,0,19-11-2018 00:00:00,19/11/2018,0.00,InterBank,None,JPMLON,JP MORGAN CHASE LONDON,Buy,SPOT,SpotDeals,EUR/JPY,EUR,1000000.00,JPY,128790000.00,128.79,,21-11-2018 00:00:00,17-IB-FX,HIMANSHU SAREEN.,CCIL,DIRECT BROKER FOR STP,0,In Progress,1.1335,1133500.0,0,0.00,0.00,0,ATS-13Z-UI8L6K-0-0+p,JGLP,North,0.00,0.00,19/11/2018,Rupali Nayak,Nov 20 2018  8:29AM,KPTP_SPOT_191118_FINAL.xls,13Z-UI8L6K,KPTP_Spot,22-11-2018 00:00:00,12489165176756888991,15,nan,,,MATCHED
