CBS_REF_NUMBER,SRV_REF_NUM,TRAN_AMT,ForceMatchRemarks,UserID
,MOB_2018071600438597,2000,THIS IS FINE,reconciler
,MOB_2018071600438604,3000,this is fine,reconciler
819709544275.0,MOB_2018071300415841,8500,this is fine,reconciler
819711598867.0,MOB_2018071600441154,8500,this is fine,reconciler
819711610686.0,MOB_2018071600441644,8500,this is to check recon_summary,reconciler
