Transaction Date,Description,Amount,C.D.Falg,Reference No,Value Date,Branch Name
2018-04-06,00030330004897   EOD SWEEP ,10406055.64,D, ,05/04/2018,K G MARG
2018-04-06,IMPS-809606574189-PHONEPE PRIVATE LIMI-HDFC-xxxxxxxxxxx0025-PvrcinemasRedemption,84393.15,C,809606574189,06/04/2018,FORT
2018-04-06,NEFT Cr-ICIC0000031-ONE 97 COMMUNICATIONS LTD-Pvr Limited-CMS798775714,264.61,C,CMS798775714,06/04/2018,FORT
2018-04-06,NEFT Cr-AIRP0000001-PVR LIMITED-PVR LTD-A096180000970620,8621.0,C,A096180000970620,06/04/2018,FORT
2018-04-06,NEFT Cr-KKBK0000958-BIG TREE ENTERTAINMENT PRIVATE LIMITED-PVR LIMITED-KKBK180964746410,1150070.0,C,KKBK180964746410,06/04/2018,FORT
2018-04-06,NEFT Cr-KKBK0000958-BIG TREE ENTERTAINMENT PRIVATE LIMITED-PVR LIMITED-KKBK180964746300,204721.0,C,KKBK180964746300,06/04/2018,FORT
2018-04-06,NEFT Cr-KKBK0000958-BIG TREE ENTERTAINMENT PRIVATE LIMITED-PVR LIMITED-KKBK180964746418,8692242.0,C,KKBK180964746418,06/04/2018,FORT
2018-04-06,NEFT Cr-KKBK0000958-BIG TREE ENTERTAINMENT PRIVATE LIMITED-PVR LIMITED-KKBK180964746327,17174.0,C,KKBK180964746327,06/04/2018,FORT
2018-04-06,NEFT Cr-KKBK0000958-BIG TREE ENTERTAINMENT PRIVATE LIMITED-PVR LIMITED-KKBK180964746432,587375.0,C,KKBK180964746432,06/04/2018,FORT
2018-04-06,NEFT Cr-KKBK0000958-BIG TREE ENTERTAINMENT PRIVATE LIMITED-PVR LIMITED-KKBK180964746329,27307.0,C,KKBK180964746329,06/04/2018,FORT
2018-04-06,NEFT Cr-CITI0000002-ONE97 COMMUNICATIONS LIMITED-PVR LIMITED-CITIN18844415092,1526057.48,C,CITIN18844415092,06/04/2018,FORT
2018-04-06,NEFT Cr-CITI0000002-ONE97 COMMUNICATIONS LIMITED-PVR LIMITED-CITIN18844419096,1745134.17,C,CITIN18844419096,06/04/2018,FORT
2018-04-06,00030330004897   EOD SWEEP ,14043359.41,D, ,06/04/2018,K G MARG
2018-04-07,IMPS-809706810170-PHONEPE PRIVATE LIMI-HDFC-xxxxxxxxxxx0025-PvrcinemasRedemption,85835.18,C,809706810170,07/04/2018,FORT
2018-04-07,NEFT Cr-ICIC0000031-ONE 97 COMMUNICATIONS LTD-Pvr Limited-CMS799558612,1575.32,C,CMS799558612,07/04/2018,FORT
2018-04-07,NEFT Cr-AIRP0000001-PVR LIMITED-PVR LTD-A097180000972029,13255.5,C,A097180000972029,07/04/2018,FORT
2018-04-07,NEFT Cr-KKBK0000958-BIG TREE ENTERTAINMENT PRIVATE LIMITED-PVR LIMITED-KKBK180974950409,1321505.0,C,KKBK180974950409,07/04/2018,FORT
2018-04-07,NEFT Cr-KKBK0000958-BIG TREE ENTERTAINMENT PRIVATE LIMITED-PVR LIMITED-KKBK180974950525,47649.0,C,KKBK180974950525,07/04/2018,FORT
2018-04-07,NEFT Cr-KKBK0000958-BIG TREE ENTERTAINMENT PRIVATE LIMITED-PVR LIMITED-KKBK180974950503,21601.0,C,KKBK180974950503,07/04/2018,FORT
2018-04-07,NEFT Cr-KKBK0000958-BIG TREE ENTERTAINMENT PRIVATE LIMITED-PVR LIMITED-KKBK180974950523,263114.0,C,KKBK180974950523,07/04/2018,FORT
2018-04-07,NEFT Cr-KKBK0000958-BIG TREE ENTERTAINMENT PRIVATE LIMITED-PVR LIMITED-KKBK180974950426,14035943.0,C,KKBK180974950426,07/04/2018,FORT
2018-04-07,NEFT Cr-KKBK0000958-BIG TREE ENTERTAINMENT PRIVATE LIMITED-PVR LIMITED-KKBK180974951873,2278061.0,C,KKBK180974951873,07/04/2018,FORT
2018-04-07,NEFT Cr-CITI0000002-ONE97 COMMUNICATIONS LIMITED-PVR LIMITED-CITIN18844965220,1811261.78,C,CITIN18844965220,07/04/2018,FORT
2018-04-07,NEFT Cr-ICIC0000031-ONE 97 COMMUNICATIONS LTD-Pvr Limited-CMS800443660,3149.65,C,CMS800443660,07/04/2018,FORT
2018-04-07,NEFT Cr-CITI0000002-ONE97 COMMUNICATIONS LIMITED-PVR LIMITED-CITIN18844958146,2762696.75,C,CITIN18844958146,07/04/2018,FORT
2018-04-07,00030330004897   EOD SWEEP ,22645647.18,D, ,07/04/2018,K G MARG
