Transaction Date,Description,Amount,C.D.Falg,Reference No,Value Date,Branch Name
2018-04-20,IMPS-811006542400-PHONEPE PRIVATE LIMI-HDFC-xxxxxxxxxxx0025-PvrcinemasRedemption,44399.32,C,811006542400,20/04/2018,FORT
2018-04-20,NEFT Cr-ICIC0SF0002-ARTHASHASTRA FINTECH PRIVATE LIMITED-PVR LIMITED-20506016871DC,8646.42,C,20506016871DC,20/04/2018,FORT
2018-04-20,NEFT Cr-KKBK0000958-BIG TREE ENTERTAINMENT PRIVATE LIMITED-PVR LIMITED-KKBK181106767601,109162.0,C,KKBK181106767601,20/04/2018,FORT
2018-04-20,NEFT Cr-KKBK0000958-BIG TREE ENTERTAINMENT PRIVATE LIMITED-PVR LIMITED-KKBK181106767653,637848.0,C,KKBK181106767653,20/04/2018,FORT
2018-04-20,NEFT Cr-KKBK0000958-BIG TREE ENTERTAINMENT PRIVATE LIMITED-PVR LIMITED-KKBK181106767639,291960.0,C,KKBK181106767639,20/04/2018,FORT
2018-04-20,NEFT Cr-KKBK0000958-BIG TREE ENTERTAINMENT PRIVATE LIMITED-PVR LIMITED-KKBK181106767608,3600.0,C,KKBK181106767608,20/04/2018,FORT
2018-04-20,NEFT Cr-KKBK0000958-BIG TREE ENTERTAINMENT PRIVATE LIMITED-PVR LIMITED-KKBK181106768019,13621.0,C,KKBK181106768019,20/04/2018,FORT
2018-04-20,NEFT Cr-KKBK0000958-BIG TREE ENTERTAINMENT PRIVATE LIMITED-PVR LIMITED-KKBK181106767623,4424805.0,C,KKBK181106767623,20/04/2018,FORT
2018-04-20,NEFT Cr-AIRP0000001-PVR LIMITED-PVR LTD-A110180001006085,28720.21,C,A110180001006085,20/04/2018,FORT
2018-04-20,NEFT Cr-CITI0000002-ONE97 COMMUNICATIONS LIMITED-PVR LIMITED-CITIN18849650713,2180824.59,C,CITIN18849650713,20/04/2018,FORT
2018-04-20,NEFT Cr-CITI0000002-ONE97 COMMUNICATIONS LIMITED-PVR LIMITED-CITIN18849656980,2610009.63,C,CITIN18849656980,20/04/2018,FORT
2018-04-20,NEFT Cr-KKBK0000958-BIG TREE ENTERTAINMENT PRIVATE LIMITED-PVR LIMITED-KKBK181106818750,162045.0,C,KKBK181106818750,20/04/2018,FORT
2018-04-20,NEFT Cr-KKBK0000958-BIG TREE ENTERTAINMENT PRIVATE LIMITED-PVR LIMITED-KKBK181106818704,7407.0,C,KKBK181106818704,20/04/2018,FORT
2018-04-20,NEFT Cr-KKBK0000958-BIG TREE ENTERTAINMENT PRIVATE LIMITED-PVR LIMITED-KKBK181106819023,1288137.0,C,KKBK181106819023,20/04/2018,FORT
2018-04-20,NEFT Cr-KKBK0000958-BIG TREE ENTERTAINMENT PRIVATE LIMITED-PVR LIMITED-KKBK181106818701,21615.0,C,KKBK181106818701,20/04/2018,FORT
2018-04-20,NEFT Cr-KKBK0000958-BIG TREE ENTERTAINMENT PRIVATE LIMITED-PVR LIMITED-KKBK181106818975,465350.0,C,KKBK181106818975,20/04/2018,FORT
2018-04-20,NEFT Cr-KKBK0000958-BIG TREE ENTERTAINMENT PRIVATE LIMITED-PVR LIMITED-KKBK181106818963,8983950.0,C,KKBK181106818963,20/04/2018,FORT
2018-04-20,NEFT Cr-ICIC0000031-ONE 97 COMMUNICATIONS LTD-Pvr Limited-CMS808200112,4257.89,C,CMS808200112,20/04/2018,FORT
2018-04-20,NEFT Cr-ICIC0000031-ONE 97 COMMUNICATIONS LTD-Pvr Limited-CMS808278731,2425.76,C,CMS808278731,20/04/2018,FORT
2018-04-21,00030330004897   EOD SWEEP ,21288783.82,D, ,20/04/2018,K G MARG
2018-04-21,IMPS-811107803423-PHONEPE PRIVATE LIMI-HDFC-xxxxxxxxxxx0025-PvrcinemasRedemption,140805.55,C,811107803423,21/04/2018,FORT
2018-04-21,NEFT Cr-AIRP0000001-PVR LIMITED-PVR LTD-A111180001006567,29707.17,C,A111180001006567,21/04/2018,FORT
2018-04-21,NEFT Cr-CITI0000002-ONE97 COMMUNICATIONS LIMITED-PVR LIMITED-CITIN18849960759,1450901.46,C,CITIN18849960759,21/04/2018,FORT
2018-04-21,NEFT Cr-CITI0000002-ONE97 COMMUNICATIONS LIMITED-PVR LIMITED-CITIN18849965842,2347903.49,C,CITIN18849965842,21/04/2018,FORT
