Transaction Date,Description,Amount,C.D.Falg,Reference No,Value Date,Branch Name
2018-04-30,RTGS Cr-CITI0000002-ONE97 COMMUNICATIONS LIMITED-PVR LIMITED-CITIR52018043000702039,5385687.86,C,CITIR52018043000702039,30/04/2018,FORT
2018-04-30,NEFT Cr-CITI0000002-ONE97 COMMUNICATIONS LIMITED-PVR LIMITED-CITIN18853854041,8991252.07,C,CITIN18853854041,30/04/2018,FORT
2018-04-30,NEFT Cr-ICIC0000031-ONE 97 COMMUNICATIONS LTD-Pvr Limited-CMS813614661,1823.76,C,CMS813614661,30/04/2018,FORT
2018-04-30,NEFT Cr-CITI0000002-ONE97 COMMUNICATIONS LIMITED-PVR LIMITED-CITIN18854306851,16567261.86,C,CITIN18854306851,30/04/2018,FORT
2018-04-30,NEFT Cr-CITI0000002-ONE97 COMMUNICATIONS LIMITED-PVR LIMITED-CITIN18854306661,10735309.93,C,CITIN18854306661,30/04/2018,FORT
2018-04-30,00030330004897   EOD SWEEP ,41681335.48,D, ,30/04/2018,K G MARG
