Transaction Date,Description,Amount,C.D.Falg,Reference No,Value Date,Branch Name
2018-04-05,00030330004897   EOD SWEEP ,11431868.47,D, ,04/04/2018,K G MARG
2018-04-05,IMPS-809506331428-PHONEPE PRIVATE LIMI-HDFC-xxxxxxxxxxx0025-PvrcinemasRedemption,92362.53,C,809506331428,05/04/2018,FORT
2018-04-05,NEFT Cr-ICIC0SF0002-ARTHASHASTRA FINTECH PRIVATE LIMITED-PVR LIMITED-20486762401DC,19913.2,C,20486762401DC,05/04/2018,FORT
2018-04-05,NEFT Cr-KKBK0000958-CC PVR MERCHANT PAYBALE ACCOUNT-PVR LIMITED-KKBKH18095674222,150387.22,C,KKBKH18095674222,05/04/2018,FORT
2018-04-05,NEFT Cr-AIRP0000001-PVR LIMITED-PVR LTD-A095180000964332,1713.2,C,A095180000964332,05/04/2018,FORT
2018-04-05,NEFT Cr-KKBK0000958-PVR POOL ACCOUNT-PVR LIMITED-KKBKH18095707187,188363.28,C,KKBKH18095707187,05/04/2018,FORT
2018-04-05,NEFT Cr-KKBK0000958-BIG TREE ENTERTAINMENT PRIVATE LIMITED-PVR LIMITED-KKBK180954588669,157444.0,C,KKBK180954588669,05/04/2018,FORT
2018-04-05,NEFT Cr-KKBK0000958-BIG TREE ENTERTAINMENT PRIVATE LIMITED-PVR LIMITED-KKBK180954588648,4230.0,C,KKBK180954588648,05/04/2018,FORT
2018-04-05,NEFT Cr-KKBK0000958-BIG TREE ENTERTAINMENT PRIVATE LIMITED-PVR LIMITED-KKBK180954588641,20929.0,C,KKBK180954588641,05/04/2018,FORT
2018-04-05,NEFT Cr-KKBK0000958-BIG TREE ENTERTAINMENT PRIVATE LIMITED-PVR LIMITED-KKBK180954589352,781735.0,C,KKBK180954589352,05/04/2018,FORT
2018-04-05,NEFT Cr-KKBK0000958-BIG TREE ENTERTAINMENT PRIVATE LIMITED-PVR LIMITED-KKBK180954589355,342445.0,C,KKBK180954589355,05/04/2018,FORT
2018-04-05,NEFT Cr-CITI0000002-ONE97 COMMUNICATIONS LIMITED-PVR LIMITED-CITIN18843814597,1367955.87,C,CITIN18843814597,05/04/2018,FORT
2018-04-05,NEFT Cr-CITI0000002-ONE97 COMMUNICATIONS LIMITED-PVR LIMITED-CITIN18843814614,1232279.34,C,CITIN18843814614,05/04/2018,FORT
2018-04-05,NEFT Cr-KKBK0000958-BIG TREE ENTERTAINMENT PRIVATE LIMITED-PVR LIMITED-KKBK180954589358,6046298.0,C,KKBK180954589358,05/04/2018,FORT
2018-04-06,00030330004897   EOD SWEEP ,10406055.64,D, ,05/04/2018,K G MARG
2018-04-06,IMPS-809606574189-PHONEPE PRIVATE LIMI-HDFC-xxxxxxxxxxx0025-PvrcinemasRedemption,84393.15,C,809606574189,06/04/2018,FORT
2018-04-06,NEFT Cr-ICIC0000031-ONE 97 COMMUNICATIONS LTD-Pvr Limited-CMS798775714,264.61,C,CMS798775714,06/04/2018,FORT
2018-04-06,NEFT Cr-AIRP0000001-PVR LIMITED-PVR LTD-A096180000970620,8621.0,C,A096180000970620,06/04/2018,FORT
2018-04-06,NEFT Cr-KKBK0000958-BIG TREE ENTERTAINMENT PRIVATE LIMITED-PVR LIMITED-KKBK180964746410,1150070.0,C,KKBK180964746410,06/04/2018,FORT
2018-04-06,NEFT Cr-KKBK0000958-BIG TREE ENTERTAINMENT PRIVATE LIMITED-PVR LIMITED-KKBK180964746300,204721.0,C,KKBK180964746300,06/04/2018,FORT
2018-04-06,NEFT Cr-KKBK0000958-BIG TREE ENTERTAINMENT PRIVATE LIMITED-PVR LIMITED-KKBK180964746418,8692242.0,C,KKBK180964746418,06/04/2018,FORT
2018-04-06,NEFT Cr-KKBK0000958-BIG TREE ENTERTAINMENT PRIVATE LIMITED-PVR LIMITED-KKBK180964746327,17174.0,C,KKBK180964746327,06/04/2018,FORT
2018-04-06,NEFT Cr-KKBK0000958-BIG TREE ENTERTAINMENT PRIVATE LIMITED-PVR LIMITED-KKBK180964746432,587375.0,C,KKBK180964746432,06/04/2018,FORT
2018-04-06,NEFT Cr-KKBK0000958-BIG TREE ENTERTAINMENT PRIVATE LIMITED-PVR LIMITED-KKBK180964746329,27307.0,C,KKBK180964746329,06/04/2018,FORT
2018-04-06,NEFT Cr-CITI0000002-ONE97 COMMUNICATIONS LIMITED-PVR LIMITED-CITIN18844415092,1526057.48,C,CITIN18844415092,06/04/2018,FORT
2018-04-06,NEFT Cr-CITI0000002-ONE97 COMMUNICATIONS LIMITED-PVR LIMITED-CITIN18844419096,1745134.17,C,CITIN18844419096,06/04/2018,FORT
2018-04-06,00030330004897   EOD SWEEP ,14043359.41,D, ,06/04/2018,K G MARG
