{
  "ATM ID": [
    "atm_id",
    "atmid"
  ],
  "Transaction Date": [
    "transactiondate",
    "transaction_date",
    "txndate",
    "txn-date",
    "transactiondate(dd-mmm-yy)"
  ],
  "Dispute Date": [
    "disputedate"
  ],
  "Disputed Amount": [
    "disputedamt",
    "disputedamount",
    "disputeamt",
    "amount",
    "dispamt"
  ],
  "Reference No": [
    "referenceno",
    "rrn"
  ],
  "Shortage From Date": [],
  "Shortage To Date": [],
  "Card Number": [
    "cardno",
    "cardnumber",
    "card-no"
  ],
  "Transaction Amount": [
    "tranamt",
    "transactionamount",
    "txamount",
    "txn-amt",
    "txnamount",
    "txnamt"
  ],
  "Transaction Number": [
    "tranno",
    "seqno",
    "newseqno",
    "tracerrn",
    "trnxno",
    "tlf"
  ],
  "Dispute Comments": [],
  "EJ Error": [
    "ej_error",
    "ejstatus",
    "ejcode"
  ],
  "Customer Status": [],
  "Justification (if Rejected)": [],
  "HO Remarks": [],
  "Internal Action": [],
  "Deposited Date": [],
  "Deposited Amount": [],
  "Transaction Time": [
    "transactiontime",
    "transaction_time",
    "txntime"
  ],
  "Tie up": [
    "tie",
    "tieup"
  ],
  "CRA": [
    "cra"
  ]
}