,ACCOUNT_NUMBER,CL BAL DR / CR,CLOSING_BALANCE_AMOUNT,CURRENCY,Closing_Currency,OP BAL DR / CR,OPENING BALANCE,Opening_Currency,STATEMENT_DATE
0,924514NZD00001,C,51962.24,NZD,NZD,C,34457.24,NZD,2018-05-16
1,653-0471119,C,7080884,,JPY,,,,2018-05-16
2,924514AUD00001,C,109724.73,,AUD,,,,2018-05-16
3,6103020000000010000,C,246977.78,CNY,CNY,C,248637.98,CNY,2018-05-16
4,9022406,C,133955.76,ZAR,ZAR,C,150155.74,ZAR,2018-05-16
5,50040000/400875178600EUR,C,1094700.5,,EUR,,,,2018-05-16
6,67101498,C,59444.38,,CAD,,,,2018-05-16
7,4465470,C,1867794.38,,USD,,,,2018-05-16
8,36372551,C,886410.47,,USD,,,,2018-05-16
9,37-003669-2 IDFC BANK LIMITED,C,150982.64,SGD,SGD,C,116200.62,SGD,2018-05-16
10,783257300,C,336843.99,HKD,HKD,C,336843.99,HKD,2018-05-16
11,CH6500700070001300601,C,156733.42,CHF,CHF,C,155915.32,CHF,2018-05-16
12,20325343403017,C,283384.83,,GBP,,,,2018-05-16
13,2000293914147,C,20614.67,,USD,,,,2018-05-16
17,6103020000000010000,C,248637.98,CNY,CNY,C,260649.98,CNY,2018-05-15
27,40307379,C,476013.14,SEK,SEK,C,244173.14,SEK,2018-05-15
29,1265082363501,C,280658.55,AED,AED,C,283018.55,AED,2018-05-15
