AMT_TXN_LCY,AMT_TXN_LCY_USE,Ageing,CARRY_FORWARD,COD_ACCT_NO,COD_CC_BRN,COD_CUST,COD_DRCR,COD_DRCR_USE,COD_GL_ACCT,COD_ORG_CHANNEL,COD_PROD,COD_TXN_LITERAL,DAT_TXN_POSTING,DAT_TXN_PROCESSING,FEED_FILE_NAME,NFS_ISSUER CarryForward,NFS_ISSUER Match,REF TXN NO,REF_DOC_NO,REF_VOUCHER_NO,SOURCE,STATEMENT_DATE,Self Matched,System_Idx,TXT_TXN_DESC,TXT_TXN_DESC_TWO,RRN,REMARKS
-2000.00,2000.00,7,,09999208100036,9999,0.00,C,D,208100036,ATM,1014,ATW,2018-06-30 00:00:00,30-06-2018 19:18:01,GL_Dump_as_on_30-Jun-2018.xlsx,,UNMATCHED,20180630191801614534,818119002306,,ISSUER,18-07-2018 00:00:00,,10785,5089981100981814   002306100003320760,ATM WITHDRAWAL AT OTHER BANK ATMs,,
10000.00,10000.00,7,,09999208100036,9999,0.00,C,C,208100036,ATM,1014,ATW,2018-06-30 00:00:00,30-06-2018 23:00:14,GL_Dump_as_on_30-Jun-2018.xlsx,,UNMATCHED,20180630230014879133,818123218859,,ISSUER,18-07-2018 00:00:00,,10807,4723571000153856   218859100002855890,ATM WITHDRAWAL AT OTHER BANK ATMs,,POST CUTOFF
-1000.00,1000.00,7,,09999208100036,9999,0.00,C,D,208100036,ATM,1004,ATW,2018-06-30 00:00:00,30-06-2018 09:33:44,GL_Dump_as_on_30-Jun-2018.xlsx,,UNMATCHED,20180630093344272726,818109561184,,ISSUER,18-07-2018 00:00:00,,10834,4723574000106973   561184100002293010,ATM WITHDRAWAL AT OTHER BANK ATMs,,
-1000.00,1000.00,7,,09999208100036,9999,0.00,C,D,208100036,ATM,1005,ATW,2018-06-30 00:00:00,30-06-2018 13:24:52,GL_Dump_as_on_30-Jun-2018.xlsx,,UNMATCHED,20180630132452949556,818112464005,,ISSUER,18-07-2018 00:00:00,,10910,5089980000904538   464005100002400140,ATM WITHDRAWAL AT OTHER BANK ATMs,818112464005,LT_REVERSAL
-10000.00,10000.00,7,,09999208100036,9999,0.00,C,D,208100036,ATM,1004,ATW,2018-06-30 00:00:00,30-06-2018 16:49:52,GL_Dump_as_on_30-Jun-2018.xlsx,,UNMATCHED,20180630164952737456,818116014067,,ISSUER,18-07-2018 00:00:00,,10948,5089991200212283   014067100002748191,ATM WITHDRAWAL AT OTHER BANK ATMs,,
-1000.00,1000.00,7,,09999208100036,9999,0.00,C,D,208100036,ATM,1005,ATW,2018-06-30 00:00:00,30-06-2018 15:58:43,GL_Dump_as_on_30-Jun-2018.xlsx,,UNMATCHED,20180630155843997057,818112466679,,ISSUER,18-07-2018 00:00:00,,10994,5089980000904538   466679100002400140,ATM WITHDRAWAL AT OTHER BANK ATMs,818112466679,LT_REVERSAL
-300.00,300.00,7,,09999208100036,9999,0.00,C,D,208100036,ATM,1014,ATW,2018-06-30 00:00:00,30-06-2018 15:31:39,GL_Dump_as_on_30-Jun-2018.xlsx,,UNMATCHED,20180630153139006341,818115423061,,ISSUER,18-07-2018 00:00:00,,10996,4723574000380123   423061100002642383,ATM WITHDRAWAL AT OTHER BANK ATMs,,
200.00,200.00,7,,09999208100036,9999,0.00,C,C,208100036,ATM,1014,ATW,2018-06-30 00:00:00,30-06-2018 23:40:37,GL_Dump_as_on_30-Jun-2018.xlsx,,UNMATCHED,20180630234037989373,818123022092,,ISSUER,18-07-2018 00:00:00,,12830,5089981100418072   022092100000971085,ATM WITHDRAWAL AT OTHER BANK ATMs,,POST CUTOFF
6000.00,6000.00,7,,09999208100036,9999,0.00,C,C,208100036,ATM,1014,ATW,2018-06-30 00:00:00,30-06-2018 23:33:32,GL_Dump_as_on_30-Jun-2018.xlsx,,UNMATCHED,20180630233332973478,818123004472,,ISSUER,18-07-2018 00:00:00,,12896,4723574000260895   004472100002801274,ATM WITHDRAWAL AT OTHER BANK ATMs,,POST CUTOFF
-10000.00,10000.00,7,,09999208100036,9999,0.00,C,D,208100036,ATM,2002,ATW,2018-06-30 00:00:00,30-06-2018 21:24:26,GL_Dump_as_on_30-Jun-2018.xlsx,,UNMATCHED,20180630212426324969,818121009445,,ISSUER,18-07-2018 00:00:00,,12984,5089991200183773   009445200000124378,ATM WITHDRAWAL AT OTHER BANK ATMs,,
-10000.00,10000.00,7,,09999208100036,9999,0.00,C,D,208100036,ATM,1020,ATW,2018-06-30 00:00:00,30-06-2018 18:37:14,GL_Dump_as_on_30-Jun-2018.xlsx,,UNMATCHED,20180630183714011536,818118028787,,ISSUER,18-07-2018 00:00:00,,13011,4723577700283273   028787100003664929,ATM WITHDRAWAL AT OTHER BANK ATMs,,
200.00,200.00,7,,09999208100036,9999,0.00,C,C,208100036,ATM,2002,ATW,2018-06-30 00:00:00,30-06-2018 23:30:02,GL_Dump_as_on_30-Jun-2018.xlsx,,UNMATCHED,20180630233002965160,818123007440,,ISSUER,18-07-2018 00:00:00,,13024,5089991200218140   007440200000781952,ATM WITHDRAWAL AT OTHER BANK ATMs,,POST CUTOFF
3000.00,3000.00,7,,09999208100036,9999,0.00,C,C,208100036,ATM,1014,ATW,2018-06-30 00:00:00,30-06-2018 23:23:56,GL_Dump_as_on_30-Jun-2018.xlsx,,UNMATCHED,20180630232356949872,818123000705,,ISSUER,18-07-2018 00:00:00,,13032,4723571000194843   000705100003129320,ATM WITHDRAWAL AT OTHER BANK ATMs,,POST CUTOFF
-10000.00,10000.00,7,,09999208100036,9999,0.00,C,D,208100036,ATM,1020,ATW,2018-06-30 00:00:00,30-06-2018 16:12:10,GL_Dump_as_on_30-Jun-2018.xlsx,,UNMATCHED,20180630161210383998,818116094021,,ISSUER,18-07-2018 00:00:00,,13082,4723577700208940   094021100003114190,ATM WITHDRAWAL AT OTHER BANK ATMs,,
-10000.00,10000.00,7,,09999208100036,9999,0.00,C,D,208100036,ATM,2001,ATW,2018-06-30 00:00:00,30-06-2018 15:30:42,GL_Dump_as_on_30-Jun-2018.xlsx,,UNMATCHED,20180630153042997434,818115015419,,ISSUER,18-07-2018 00:00:00,,13093,5089981400386839   015419200000716470,ATM WITHDRAWAL AT OTHER BANK ATMs,,
10000.00,10000.00,7,,09999208100036,9999,0.00,C,C,208100036,ATM,1020,ATW,2018-06-30 00:00:00,30-06-2018 23:03:15,GL_Dump_as_on_30-Jun-2018.xlsx,,UNMATCHED,20180630230315889022,818123549046,,ISSUER,18-07-2018 00:00:00,,13096,4723577700110971   549046100002708051,ATM WITHDRAWAL AT OTHER BANK ATMs,,POST CUTOFF
-3000.00,3000.00,7,,09999208100036,9999,0.00,C,D,208100036,ATM,1004,ATW,2018-06-30 00:00:00,30-06-2018 09:11:07,GL_Dump_as_on_30-Jun-2018.xlsx,,UNMATCHED,20180630091107128155,818109691610,,ISSUER,18-07-2018 00:00:00,,13100,4723571000210326   691610100003209011,ATM WITHDRAWAL AT OTHER BANK ATMs,,
-10000.00,10000.00,7,,09999208100036,9999,0.00,C,D,208100036,ATM,1004,ATW,2018-06-30 00:00:00,30-06-2018 13:48:24,GL_Dump_as_on_30-Jun-2018.xlsx,,UNMATCHED,20180630134824448793,818112334787,,ISSUER,18-07-2018 00:00:00,,13116,5089981100317753   334787100000527463,ATM WITHDRAWAL AT OTHER BANK ATMs,818112334787,LT_REVERSAL
-2000.00,2000.00,7,,09999208100036,9999,0.00,C,D,208100036,ATM,1014,ATW,2018-06-30 00:00:00,30-06-2018 20:16:45,GL_Dump_as_on_30-Jun-2018.xlsx,,UNMATCHED,20180630201645603041,818120118342,,ISSUER,18-07-2018 00:00:00,,13153,5089991200008491   118342100000020007,ATM WITHDRAWAL AT OTHER BANK ATMs,,
-5000.00,5000.00,7,,09999208100036,9999,0.00,C,D,208100036,ATM,1014,ATW,2018-06-30 00:00:00,30-06-2018 19:51:49,GL_Dump_as_on_30-Jun-2018.xlsx,,UNMATCHED,20180630195149200929,818119107216,,ISSUER,18-07-2018 00:00:00,,13183,4723574000064230   107216100000164490,ATM WITHDRAWAL AT OTHER BANK ATMs,,
-2000.00,2000.00,7,,09999208100036,9999,0.00,C,D,208100036,ATM,1020,ATW,2018-06-30 00:00:00,30-06-2018 22:50:34,GL_Dump_as_on_30-Jun-2018.xlsx,,UNMATCHED,20180630225034841962,818122020137,,ISSUER,18-07-2018 00:00:00,,13260,4723577700276723   020137100003605215,ATM WITHDRAWAL AT OTHER BANK ATMs,,
10000.00,10000.00,7,,09999208100036,9999,0.00,C,C,208100036,ATM,1020,ATW,2018-06-30 00:00:00,30-06-2018 23:12:30,GL_Dump_as_on_30-Jun-2018.xlsx,,UNMATCHED,20180630231230917632,818123020527,,ISSUER,18-07-2018 00:00:00,,13261,4723577700139616   020527100002910864,ATM WITHDRAWAL AT OTHER BANK ATMs,,POST CUTOFF
500.00,500.00,7,,09999208100036,9999,0.00,C,C,208100036,ATM,1004,ATW,2018-06-30 00:00:00,30-06-2018 23:22:11,GL_Dump_as_on_30-Jun-2018.xlsx,,UNMATCHED,20180630232211952471,818123021244,,ISSUER,18-07-2018 00:00:00,,13278,5089980000666376   021244100001872560,ATM WITHDRAWAL AT OTHER BANK ATMs,,POST CUTOFF
7000.00,7000.00,7,,09999208100036,9999,0.00,C,C,208100036,ATM,1004,ATW,2018-06-30 00:00:00,30-06-2018 23:09:45,GL_Dump_as_on_30-Jun-2018.xlsx,,UNMATCHED,20180630230945909433,818123024525,,ISSUER,18-07-2018 00:00:00,,13322,5089980000227385   024525100000798525,ATM WITHDRAWAL AT OTHER BANK ATMs,,POST CUTOFF
-10000.00,10000.00,7,,09999208100036,9999,0.00,C,D,208100036,ATM,1004,ATS,2018-06-30 00:00:00,30-06-2018 18:55:54,GL_Dump_as_on_30-Jun-2018.xlsx,,UNMATCHED,20180630185554268464,818118016189,,ISSUER,18-07-2018 00:00:00,,13414,5089980000810255   016189100002109325,ATM WITHDRAWAL AT OTHER BANK ATM-SBI,,
500.00,500.00,7,,09999208100036,9999,0.00,C,C,208100036,ATM,1014,ATW,2018-06-30 00:00:00,30-06-2018 23:27:40,GL_Dump_as_on_30-Jun-2018.xlsx,,UNMATCHED,20180630232740968386,818123010004,,ISSUER,18-07-2018 00:00:00,,13551,5089981100486582   010004100001239347,ATM WITHDRAWAL AT OTHER BANK ATMs,,POST CUTOFF
-7000.00,7000.00,7,,09999208100036,9999,0.00,C,D,208100036,ATM,1014,ATS,2018-06-30 00:00:00,30-06-2018 21:51:32,GL_Dump_as_on_30-Jun-2018.xlsx,,UNMATCHED,20180630215132537019,818121007164,,ISSUER,18-07-2018 00:00:00,,13563,5089991200046954   007164100000161670,ATM WITHDRAWAL AT OTHER BANK ATM-SBI,,
10000.00,10000.00,7,,09999208100036,9999,0.00,C,C,208100036,ATM,1005,ATS,2018-06-30 00:00:00,30-06-2018 23:01:31,GL_Dump_as_on_30-Jun-2018.xlsx,,UNMATCHED,20180630230131883102,818123006282,,ISSUER,18-07-2018 00:00:00,,13584,5089981100738636   006282100002003237,ATM WITHDRAWAL AT OTHER BANK ATM-SBI,,POST CUTOFF
500.00,500.00,7,,09999208100036,9999,0.00,C,C,208100036,ATM,1014,ATW,2018-06-30 00:00:00,30-06-2018 23:33:12,GL_Dump_as_on_30-Jun-2018.xlsx,,UNMATCHED,20180630233312972642,818123004443,,ISSUER,18-07-2018 00:00:00,,13656,4723574000287435   004443100002939745,ATM WITHDRAWAL AT OTHER BANK ATMs,,POST CUTOFF
-200.00,200.00,7,,09999208100036,9999,0.00,C,D,208100036,ATM,1004,ABW,2018-06-30 00:00:00,30-06-2018 17:46:03,GL_Dump_as_on_30-Jun-2018.xlsx,,UNMATCHED,20180630174603378320,818117029239,,ISSUER,18-07-2018 00:00:00,,13692,4723571000234763   029239100001747082,REMOTE ONUS ATM WDL - ANDHRA BANK,,
-3000.00,3000.00,7,,09999208100036,9999,0.00,C,D,208100036,ATM,1014,ATW,2018-06-30 00:00:00,30-06-2018 19:28:54,GL_Dump_as_on_30-Jun-2018.xlsx,,UNMATCHED,20180630192854806929,818119080659,,ISSUER,18-07-2018 00:00:00,,13697,4723574000305187   080659100000138454,ATM WITHDRAWAL AT OTHER BANK ATMs,,
1000.00,1000.00,7,,09999208100036,9999,0.00,C,C,208100036,ATM,1014,ATW,2018-06-30 00:00:00,30-06-2018 23:34:52,GL_Dump_as_on_30-Jun-2018.xlsx,,UNMATCHED,20180630233452983041,818123021559,,ISSUER,18-07-2018 00:00:00,,13707,5089981100385073   021559100000947060,ATM WITHDRAWAL AT OTHER BANK ATMs,,POST CUTOFF
-10000.00,10000.00,7,,09999208100036,9999,0.00,C,D,208100036,ATM,2002,ATW,2018-06-30 00:00:00,30-06-2018 14:25:44,GL_Dump_as_on_30-Jun-2018.xlsx,,UNMATCHED,20180630142544383107,818114484251,,ISSUER,18-07-2018 00:00:00,,13787,4723571000202596   484251200000724476,ATM WITHDRAWAL AT OTHER BANK ATMs,,
-4500.00,4500.00,7,,09999208100036,9999,0.00,C,D,208100036,ATM,1023,ATS,2018-06-30 00:00:00,30-06-2018 18:51:21,GL_Dump_as_on_30-Jun-2018.xlsx,,UNMATCHED,20180630185121212882,818118021187,,ISSUER,18-07-2018 00:00:00,,13808,4723574700006416   021187100003331764,ATM WITHDRAWAL AT OTHER BANK ATM-SBI,,
4000.00,4000.00,7,,09999208100036,9999,0.00,C,C,208100036,ATM,1014,ATW,2018-06-30 00:00:00,30-06-2018 23:20:19,GL_Dump_as_on_30-Jun-2018.xlsx,,UNMATCHED,20180630232019940224,818123019991,,ISSUER,18-07-2018 00:00:00,,13823,5089991200046954   019991100000161670,ATM WITHDRAWAL AT OTHER BANK ATMs,,POST CUTOFF
-2300.00,2300.00,7,,09999208100036,9999,0.00,C,D,208100036,ATM,1014,ATW,2018-06-30 00:00:00,30-06-2018 20:34:43,GL_Dump_as_on_30-Jun-2018.xlsx,,UNMATCHED,20180630203443850672,818120775070,,ISSUER,18-07-2018 00:00:00,,13827,4723571000141661   775070100000206020,ATM WITHDRAWAL AT OTHER BANK ATMs,,
-300.00,300.00,7,,09999208100036,9999,0.00,C,D,208100036,ATM,1014,ATW,2018-06-30 00:00:00,30-06-2018 13:17:22,GL_Dump_as_on_30-Jun-2018.xlsx,,UNMATCHED,20180630131722665167,818113434840,,ISSUER,18-07-2018 00:00:00,,13856,5089981100983950   434840100003384583,ATM WITHDRAWAL AT OTHER BANK ATMs,,
-500.00,500.00,7,,09999208100036,9999,0.00,C,D,208100036,ATM,1005,ATS,2018-06-30 00:00:00,30-06-2018 17:22:41,GL_Dump_as_on_30-Jun-2018.xlsx,,UNMATCHED,20180630172241101390,818117030581,,ISSUER,18-07-2018 00:00:00,,13860,5089980000854733   030581100002247215,ATM WITHDRAWAL AT OTHER BANK ATM-SBI,,
-6500.00,6500.00,7,,09999208100036,9999,0.00,C,D,208100036,ATM,1014,ATW,2018-06-30 00:00:00,30-06-2018 20:01:27,GL_Dump_as_on_30-Jun-2018.xlsx,,UNMATCHED,20180630200127368740,818119028037,,ISSUER,18-07-2018 00:00:00,,13876,5089981100000748   028037100000008573,ATM WITHDRAWAL AT OTHER BANK ATMs,,
-10000.00,10000.00,7,,09999208100036,9999,0.00,C,D,208100036,ATM,2002,ATS,2018-06-30 00:00:00,30-06-2018 19:08:19,GL_Dump_as_on_30-Jun-2018.xlsx,,UNMATCHED,20180630190819472922,818119023607,,ISSUER,18-07-2018 00:00:00,,13927,4723574000313140   023607200000702350,ATM WITHDRAWAL AT OTHER BANK ATM-SBI,,
7500.00,7500.00,7,,09999208100036,9999,0.00,C,C,208100036,ATM,1014,ATW,2018-06-30 00:00:00,30-06-2018 23:19:20,GL_Dump_as_on_30-Jun-2018.xlsx,,UNMATCHED,20180630231920936655,818123204296,,ISSUER,18-07-2018 00:00:00,,13940,5089981100930852   204296100002667706,ATM WITHDRAWAL AT OTHER BANK ATMs,,POST CUTOFF
-10000.00,10000.00,7,,09999208100036,9999,0.00,C,D,208100036,ATM,1014,ATW,2018-06-30 00:00:00,30-06-2018 19:37:02,GL_Dump_as_on_30-Jun-2018.xlsx,,UNMATCHED,20180630193702919545,818119012411,,ISSUER,18-07-2018 00:00:00,,13994,5089981100151731   012411100000204667,ATM WITHDRAWAL AT OTHER BANK ATMs,,
200.00,200.00,7,,09999208100036,9999,0.00,C,C,208100036,ATM,1014,ATW,2018-06-30 00:00:00,30-06-2018 23:21:50,GL_Dump_as_on_30-Jun-2018.xlsx,,UNMATCHED,20180630232150944344,818123007236,,ISSUER,18-07-2018 00:00:00,,14053,5089981100813025   007236100001795045,ATM WITHDRAWAL AT OTHER BANK ATMs,,POST CUTOFF
2000.00,2000.00,7,,09999208100036,9999,0.00,C,C,208100036,ATM,1004,ATW,2018-06-30 00:00:00,30-06-2018 23:22:53,GL_Dump_as_on_30-Jun-2018.xlsx,,UNMATCHED,20180630232253946994,818123020783,,ISSUER,18-07-2018 00:00:00,,14078,4723574000208753   020783100000610951,ATM WITHDRAWAL AT OTHER BANK ATMs,,POST CUTOFF
800.00,800.00,7,,09999208100036,9999,0.00,C,C,208100036,ATM,1014,ATS,2018-06-30 00:00:00,30-06-2018 23:40:03,GL_Dump_as_on_30-Jun-2018.xlsx,,UNMATCHED,20180630234003988137,818123000556,,ISSUER,18-07-2018 00:00:00,,14080,4723574300000173   000556100000264989,ATM WITHDRAWAL AT OTHER BANK ATM-SBI,,POST CUTOFF
-4000.00,4000.00,7,,09999208100036,9999,0.00,C,D,208100036,ATM,1004,ATW,2018-06-30 00:00:00,30-06-2018 12:04:12,GL_Dump_as_on_30-Jun-2018.xlsx,,UNMATCHED,20180630120412830775,818112690461,,ISSUER,18-07-2018 00:00:00,,14134,5089980001095773   690461100003183824,ATM WITHDRAWAL AT OTHER BANK ATMs,,
-7000.00,7000.00,7,,09999208100036,9999,0.00,C,D,208100036,ATM,2002,ATS,2018-06-30 00:00:00,30-06-2018 21:37:34,GL_Dump_as_on_30-Jun-2018.xlsx,,UNMATCHED,20180630213734433565,818121006478,,ISSUER,18-07-2018 00:00:00,,14182,5089991200191099   006478200000543662,ATM WITHDRAWAL AT OTHER BANK ATM-SBI,,
100.00,100.00,7,,09999208100036,9999,0.00,C,C,208100036,ATM,1020,ATW,2018-06-30 00:00:00,30-06-2018 23:05:22,GL_Dump_as_on_30-Jun-2018.xlsx,,UNMATCHED,20180630230522895494,818123945834,,ISSUER,18-07-2018 00:00:00,,14183,4723577700294577   945834100003709720,ATM WITHDRAWAL AT OTHER BANK ATMs,,POST CUTOFF
100.00,100.00,7,,09999208100036,9999,0.00,C,C,208100036,ATM,1020,ATW,2018-06-30 00:00:00,30-06-2018 23:07:16,GL_Dump_as_on_30-Jun-2018.xlsx,,UNMATCHED,20180630230716901765,818123945855,,ISSUER,18-07-2018 00:00:00,,14184,4723577700294577   945855100003709720,ATM WITHDRAWAL AT OTHER BANK ATMs,,POST CUTOFF
100.00,100.00,7,,09999208100036,9999,0.00,C,C,208100036,ATM,1020,ATW,2018-06-30 00:00:00,30-06-2018 23:11:35,GL_Dump_as_on_30-Jun-2018.xlsx,,UNMATCHED,20180630231135914988,818123945897,,ISSUER,18-07-2018 00:00:00,,14185,4723577700294577   945897100003709720,ATM WITHDRAWAL AT OTHER BANK ATMs,,POST CUTOFF
-10000.00,10000.00,7,,09999208100036,9999,0.00,C,D,208100036,ATM,1004,ATW,2018-06-30 00:00:00,30-06-2018 13:44:06,GL_Dump_as_on_30-Jun-2018.xlsx,,UNMATCHED,20180630134406957489,818113776954,,ISSUER,18-07-2018 00:00:00,,14260,5089980001095724   776954100003183776,ATM WITHDRAWAL AT OTHER BANK ATMs,,
-5000.00,5000.00,7,,09999208100036,9999,0.00,C,D,208100036,ATM,2002,ATS,2018-06-30 00:00:00,30-06-2018 19:10:00,GL_Dump_as_on_30-Jun-2018.xlsx,,UNMATCHED,20180630191000500379,818119023857,,ISSUER,18-07-2018 00:00:00,,14318,4723574000313140   023857200000702350,ATM WITHDRAWAL AT OTHER BANK ATM-SBI,,
100.00,100.00,7,,09999208100036,9999,0.00,C,C,208100036,ATM,1020,ATW,2018-06-30 00:00:00,30-06-2018 23:00:36,GL_Dump_as_on_30-Jun-2018.xlsx,,UNMATCHED,20180630230036880188,818123945785,,ISSUER,18-07-2018 00:00:00,,14335,4723577700294577   945785100003709720,ATM WITHDRAWAL AT OTHER BANK ATMs,,POST CUTOFF
100.00,100.00,7,,09999208100036,9999,0.00,C,C,208100036,ATM,1020,ATW,2018-06-30 00:00:00,30-06-2018 23:01:33,GL_Dump_as_on_30-Jun-2018.xlsx,,UNMATCHED,20180630230133883261,818123945795,,ISSUER,18-07-2018 00:00:00,,14336,4723577700294577   945795100003709720,ATM WITHDRAWAL AT OTHER BANK ATMs,,POST CUTOFF
500.00,500.00,7,,09999208100036,9999,0.00,C,C,208100036,ATM,1004,ATW,2018-06-30 00:00:00,30-06-2018 23:00:03,GL_Dump_as_on_30-Jun-2018.xlsx,,UNMATCHED,20180630230003878456,818123020704,,ISSUER,18-07-2018 00:00:00,,14371,4723571000157626   020704100002889360,ATM WITHDRAWAL AT OTHER BANK ATMs,,POST CUTOFF
-10000.00,10000.00,7,,09999208100036,9999,0.00,C,D,208100036,ATM,2002,ATW,2018-06-30 00:00:00,30-06-2018 07:16:30,GL_Dump_as_on_30-Jun-2018.xlsx,,UNMATCHED,20180630071630645551,818107641074,,ISSUER,18-07-2018 00:00:00,,14434,5089981100493562   641074200000132919,ATM WITHDRAWAL AT OTHER BANK ATMs,,
-2000.00,2000.00,7,,09999208100036,9999,0.00,C,D,208100036,ATM,1014,ATW,2018-06-30 00:00:00,30-06-2018 13:39:16,GL_Dump_as_on_30-Jun-2018.xlsx,,UNMATCHED,20180630133916916419,818113691929,,ISSUER,18-07-2018 00:00:00,,14438,5089981100187974   691929100000284073,ATM WITHDRAWAL AT OTHER BANK ATMs,,
-2000.00,2000.00,7,,09999208100036,9999,0.00,C,D,208100036,ATM,1014,ATW,2018-06-30 00:00:00,30-06-2018 13:40:01,GL_Dump_as_on_30-Jun-2018.xlsx,,UNMATCHED,20180630134001924934,818113691930,,ISSUER,18-07-2018 00:00:00,,14439,5089981100187974   691930100000284073,ATM WITHDRAWAL AT OTHER BANK ATMs,,
100.00,100.00,7,,09999208100036,9999,0.00,C,C,208100036,ATM,1020,ATW,2018-06-30 00:00:00,30-06-2018 23:02:15,GL_Dump_as_on_30-Jun-2018.xlsx,,UNMATCHED,20180630230215885486,818123945802,,ISSUER,18-07-2018 00:00:00,,14448,4723577700294577   945802100003709720,ATM WITHDRAWAL AT OTHER BANK ATMs,,POST CUTOFF
10000.00,10000.00,7,,09999208100036,9999,0.00,C,C,208100036,ATM,1014,ATW,2018-06-30 00:00:00,30-06-2018 23:15:09,GL_Dump_as_on_30-Jun-2018.xlsx,,UNMATCHED,20180630231509925162,818123009448,,ISSUER,18-07-2018 00:00:00,,14457,5089991200022245   009448100000126294,ATM WITHDRAWAL AT OTHER BANK ATMs,,POST CUTOFF
-10000.00,10000.00,7,,09999208100036,9999,0.00,C,D,208100036,ATM,2002,ATS,2018-06-30 00:00:00,30-06-2018 19:09:19,GL_Dump_as_on_30-Jun-2018.xlsx,,UNMATCHED,20180630190919489076,818119023747,,ISSUER,18-07-2018 00:00:00,,14465,4723574000313140   023747200000702350,ATM WITHDRAWAL AT OTHER BANK ATM-SBI,,
-10000.00,10000.00,7,,09999208100036,9999,0.00,C,D,208100036,ATM,1004,ATS,2018-06-30 00:00:00,30-06-2018 16:03:51,GL_Dump_as_on_30-Jun-2018.xlsx,,UNMATCHED,20180630160351305229,818116000159,,ISSUER,18-07-2018 00:00:00,,14533,5089980000029930   000159100000354144,ATM WITHDRAWAL AT OTHER BANK ATM-SBI,,
100.00,100.00,7,,09999208100036,9999,0.00,C,C,208100036,ATM,1004,ATW,2018-06-30 00:00:00,30-06-2018 23:00:16,GL_Dump_as_on_30-Jun-2018.xlsx,,UNMATCHED,20180630230016879177,818123005075,,ISSUER,18-07-2018 00:00:00,,14555,5089980000652418   005075100001858609,ATM WITHDRAWAL AT OTHER BANK ATMs,,POST CUTOFF
-300.00,300.00,7,,09999208100036,9999,0.00,C,D,208100036,ATM,1004,ATW,2018-06-30 00:00:00,30-06-2018 15:28:04,GL_Dump_as_on_30-Jun-2018.xlsx,,UNMATCHED,20180630152804969423,818115287557,,ISSUER,18-07-2018 00:00:00,,14599,5089980000516605   287557100001342928,ATM WITHDRAWAL AT OTHER BANK ATMs,,
-10000.00,10000.00,7,,09999208100036,9999,0.00,C,D,208100036,ATM,2002,ATW,2018-06-30 00:00:00,30-06-2018 10:59:35,GL_Dump_as_on_30-Jun-2018.xlsx,,UNMATCHED,20180630105935069698,818110018961,,ISSUER,18-07-2018 00:00:00,,14665,4723576000012945   018961200000564160,ATM WITHDRAWAL AT OTHER BANK ATMs,,
-8000.00,8000.00,7,,09999208100036,9999,0.00,C,D,208100036,ATM,1014,ATW,2018-06-30 00:00:00,30-06-2018 20:31:45,GL_Dump_as_on_30-Jun-2018.xlsx,,UNMATCHED,20180630203145815103,818120008671,,ISSUER,18-07-2018 00:00:00,,14668,4723571000150290   008671100002817667,ATM WITHDRAWAL AT OTHER BANK ATMs,,
1000.00,1000.00,7,,09999208100036,9999,0.00,C,C,208100036,ATM,1014,ATW,2018-06-30 00:00:00,30-06-2018 23:21:51,GL_Dump_as_on_30-Jun-2018.xlsx,,UNMATCHED,20180630232151948694,818123001554,,ISSUER,18-07-2018 00:00:00,,14718,4723574000093346   001554100002263773,ATM WITHDRAWAL AT OTHER BANK ATMs,,POST CUTOFF
5000.00,5000.00,7,,09999208100036,9999,0.00,C,C,208100036,ATM,1014,ATW,2018-06-30 00:00:00,30-06-2018 23:26:31,GL_Dump_as_on_30-Jun-2018.xlsx,,UNMATCHED,20180630232631956687,818123912247,,ISSUER,18-07-2018 00:00:00,,14739,5089991200136227   912247100000305970,ATM WITHDRAWAL AT OTHER BANK ATMs,,POST CUTOFF
10000.00,10000.00,7,,09999208100036,9999,0.00,C,C,208100036,ATM,1005,ATS,2018-06-30 00:00:00,30-06-2018 23:02:29,GL_Dump_as_on_30-Jun-2018.xlsx,,UNMATCHED,20180630230229886201,818123006288,,ISSUER,18-07-2018 00:00:00,,14741,5089981100738636   006288100002003237,ATM WITHDRAWAL AT OTHER BANK ATM-SBI,,POST CUTOFF
5000.00,5000.00,7,,09999208100036,9999,0.00,C,C,208100036,ATM,1014,ATW,2018-06-30 00:00:00,30-06-2018 23:15:02,GL_Dump_as_on_30-Jun-2018.xlsx,,UNMATCHED,20180630231502924872,818123019861,,ISSUER,18-07-2018 00:00:00,,14771,5089991200046343   019861100000222856,ATM WITHDRAWAL AT OTHER BANK ATMs,,POST CUTOFF
-6000.00,6000.00,7,,09999208100036,9999,0.00,C,D,208100036,ATM,1014,ATW,2018-06-30 00:00:00,30-06-2018 19:24:27,GL_Dump_as_on_30-Jun-2018.xlsx,,UNMATCHED,20180630192427735078,818119075670,,ISSUER,18-07-2018 00:00:00,,14791,5089981100435365   075670100000263652,ATM WITHDRAWAL AT OTHER BANK ATMs,,
-10000.00,10000.00,7,,09999208100036,9999,0.00,C,D,208100036,ATM,1014,ATW,2018-06-30 00:00:00,30-06-2018 19:28:25,GL_Dump_as_on_30-Jun-2018.xlsx,,UNMATCHED,20180630192825798039,818119080065,,ISSUER,18-07-2018 00:00:00,,14798,5089981100138241   080065100000188527,ATM WITHDRAWAL AT OTHER BANK ATMs,,
-10000.00,10000.00,7,,09999208100036,9999,0.00,C,D,208100036,ATM,2002,ATW,2018-06-30 00:00:00,30-06-2018 12:02:18,GL_Dump_as_on_30-Jun-2018.xlsx,,UNMATCHED,20180630120218802225,818112219242,,ISSUER,18-07-2018 00:00:00,,14822,5089991200076332   219242200000052408,ATM WITHDRAWAL AT OTHER BANK ATMs,,
10000.00,10000.00,7,,09999208100036,9999,0.00,C,C,208100036,ATM,1014,ATW,2018-06-30 00:00:00,30-06-2018 23:34:32,GL_Dump_as_on_30-Jun-2018.xlsx,,UNMATCHED,20180630233432975651,818123003473,,ISSUER,18-07-2018 00:00:00,,14899,4723574000373342   003473100003374581,ATM WITHDRAWAL AT OTHER BANK ATMs,,POST CUTOFF
1000.00,1000.00,7,,09999208100036,9999,0.00,C,C,208100036,ATM,1014,ATW,2018-06-30 00:00:00,30-06-2018 23:40:36,GL_Dump_as_on_30-Jun-2018.xlsx,,UNMATCHED,20180630234036989374,818123337053,,ISSUER,18-07-2018 00:00:00,,14900,4723574000373342   337053100003374581,ATM WITHDRAWAL AT OTHER BANK ATMs,,POST CUTOFF
-8500.00,8500.00,7,,09999208100036,9999,0.00,C,D,208100036,ATM,1020,ATW,2018-06-30 00:00:00,30-06-2018 14:05:08,GL_Dump_as_on_30-Jun-2018.xlsx,,UNMATCHED,20180630140508176853,818114030932,,ISSUER,18-07-2018 00:00:00,,15115,4723577700258556   030932100003486115,ATM WITHDRAWAL AT OTHER BANK ATMs,,
-5000.00,5000.00,7,,09999208100036,9999,0.00,C,D,208100036,ATM,2002,ATW,2018-06-30 00:00:00,30-06-2018 14:03:33,GL_Dump_as_on_30-Jun-2018.xlsx,,UNMATCHED,20180630140333164725,818114005534,,ISSUER,18-07-2018 00:00:00,,15145,5089981100179583   005534200000019173,ATM WITHDRAWAL AT OTHER BANK ATMs,,
300.00,300.00,7,,09999208100036,9999,0.00,C,C,208100036,ATM,1005,ATW,2018-06-30 00:00:00,30-06-2018 23:19:55,GL_Dump_as_on_30-Jun-2018.xlsx,,UNMATCHED,20180630231955939293,818123001567,,ISSUER,18-07-2018 00:00:00,,15171,4723574000385510   001567100003518088,ATM WITHDRAWAL AT OTHER BANK ATMs,,POST CUTOFF
-2500.00,2500.00,7,,09999208100036,9999,0.00,C,D,208100036,ATM,1004,ATW,2018-06-30 00:00:00,30-06-2018 09:54:43,GL_Dump_as_on_30-Jun-2018.xlsx,,UNMATCHED,20180630095443439046,818109006671,,ISSUER,18-07-2018 00:00:00,,15175,5089980000815924   006671100002108992,ATM WITHDRAWAL AT OTHER BANK ATMs,,
-10000.00,10000.00,7,,09999208100036,9999,0.00,C,D,208100036,ATM,1014,ATW,2018-06-30 00:00:00,30-06-2018 22:39:17,GL_Dump_as_on_30-Jun-2018.xlsx,,UNMATCHED,20180630223917793249,818122007360,,ISSUER,18-07-2018 00:00:00,,15217,4723574000309106   007360100000261555,ATM WITHDRAWAL AT OTHER BANK ATMs,,
1900.00,1900.00,7,,09999208100036,9999,0.00,C,C,208100036,ATM,1014,ATW,2018-06-30 00:00:00,30-06-2018 23:13:27,GL_Dump_as_on_30-Jun-2018.xlsx,,UNMATCHED,20180630231327920410,818123002454,,ISSUER,18-07-2018 00:00:00,,15219,5089991200029240   002454100000168727,ATM WITHDRAWAL AT OTHER BANK ATMs,,POST CUTOFF
4000.00,4000.00,7,,09999208100036,9999,0.00,C,C,208100036,ATM,1015,ATW,2018-06-30 00:00:00,30-06-2018 23:03:09,GL_Dump_as_on_30-Jun-2018.xlsx,,UNMATCHED,20180630230309888287,818123024307,,ISSUER,18-07-2018 00:00:00,,15223,4723574000314189   024307100001926947,ATM WITHDRAWAL AT OTHER BANK ATMs,,POST CUTOFF
1500.00,1500.00,7,,09999208100036,9999,0.00,C,C,208100036,ATM,1006,ATW,2018-06-30 00:00:00,30-06-2018 23:23:10,GL_Dump_as_on_30-Jun-2018.xlsx,,UNMATCHED,20180630232310947441,818123644990,,ISSUER,18-07-2018 00:00:00,,15241,4723574000273369   644990100002316159,ATM WITHDRAWAL AT OTHER BANK ATMs,,POST CUTOFF
1000.00,1000.00,7,,09999208100036,9999,0.00,C,C,208100036,ATM,1019,ATW,2018-06-30 00:00:00,30-06-2018 23:20:25,GL_Dump_as_on_30-Jun-2018.xlsx,,UNMATCHED,20180630232025940507,818123019994,,ISSUER,18-07-2018 00:00:00,,15244,5089981100992621   019994100003565649,ATM WITHDRAWAL AT OTHER BANK ATMs,,POST CUTOFF
-3500.00,3500.00,7,,09999208100036,9999,0.00,C,D,208100036,ATM,2002,ATW,2018-06-30 00:00:00,30-06-2018 15:43:17,GL_Dump_as_on_30-Jun-2018.xlsx,,UNMATCHED,20180630154317121349,818115008487,,ISSUER,18-07-2018 00:00:00,,15310,4723574000135469   008487200000563612,ATM WITHDRAWAL AT OTHER BANK ATMs,,
-8700.00,8700.00,7,,09999208100036,9999,0.00,C,D,208100036,ATM,1014,ATW,2018-06-30 00:00:00,30-06-2018 20:00:00,GL_Dump_as_on_30-Jun-2018.xlsx,,UNMATCHED,20180630200000336145,818119116068,,ISSUER,18-07-2018 00:00:00,,15336,5089991200028952   116068100000168933,ATM WITHDRAWAL AT OTHER BANK ATMs,,
-5500.00,5500.00,7,,09999208100036,9999,0.00,C,D,208100036,ATM,1014,ATW,2018-06-30 00:00:00,30-06-2018 19:51:47,GL_Dump_as_on_30-Jun-2018.xlsx,,UNMATCHED,20180630195147199927,818119107115,,ISSUER,18-07-2018 00:00:00,,15395,5089981100150063   107115100000203519,ATM WITHDRAWAL AT OTHER BANK ATMs,,
-10000.00,10000.00,7,,09999208100036,9999,0.00,C,D,208100036,ATM,2002,ATW,2018-06-30 00:00:00,30-06-2018 12:27:25,GL_Dump_as_on_30-Jun-2018.xlsx,,UNMATCHED,20180630122725558058,818111338959,,ISSUER,18-07-2018 00:00:00,,15399,4723574000409187   338959200000792944,ATM WITHDRAWAL AT OTHER BANK ATMs,,
-10000.00,10000.00,7,,09999208100036,9999,0.00,C,D,208100036,ATM,1020,ATW,2018-06-30 00:00:00,30-06-2018 20:14:43,GL_Dump_as_on_30-Jun-2018.xlsx,,UNMATCHED,20180630201443559706,818120028871,,ISSUER,18-07-2018 00:00:00,,15575,4723577700000610   028871100002444431,ATM WITHDRAWAL AT OTHER BANK ATMs,,
-10000.00,10000.00,7,,09999208100036,9999,0.00,C,D,208100036,ATM,1014,ATW,2018-06-30 00:00:00,30-06-2018 21:31:54,GL_Dump_as_on_30-Jun-2018.xlsx,,UNMATCHED,20180630213154384595,818121015538,,ISSUER,18-07-2018 00:00:00,,15605,5089991200038878   015538100000247866,ATM WITHDRAWAL AT OTHER BANK ATMs,,
-2000.00,2000.00,7,,09999208100036,9999,0.00,C,D,208100036,ATM,1014,ATW,2018-06-30 00:00:00,30-06-2018 20:14:36,GL_Dump_as_on_30-Jun-2018.xlsx,,UNMATCHED,20180630201436572789,818120375334,,ISSUER,18-07-2018 00:00:00,,15724,5089981100514771   375334100001259967,ATM WITHDRAWAL AT OTHER BANK ATMs,,
10000.00,10000.00,7,,09999208100036,9999,0.00,C,C,208100036,ATM,1014,ATS,2018-06-30 00:00:00,30-06-2018 23:39:33,GL_Dump_as_on_30-Jun-2018.xlsx,,UNMATCHED,20180630233933987126,818123030958,,ISSUER,18-07-2018 00:00:00,,15761,4723574000197196   030958100000197541,ATM WITHDRAWAL AT OTHER BANK ATM-SBI,,POST CUTOFF
-5000.00,5000.00,7,,09999208100036,9999,0.00,C,D,208100036,ATM,1004,ATS,2018-06-30 00:00:00,30-06-2018 18:49:17,GL_Dump_as_on_30-Jun-2018.xlsx,,UNMATCHED,20180630184917185302,818118002323,,ISSUER,18-07-2018 00:00:00,,15785,4723571000180313   002323100003013182,ATM WITHDRAWAL AT OTHER BANK ATM-SBI,,
4000.00,4000.00,7,,09999208100036,9999,0.00,C,C,208100036,ATM,1014,ATS,2018-06-30 00:00:00,30-06-2018 23:40:19,GL_Dump_as_on_30-Jun-2018.xlsx,,UNMATCHED,20180630234019988700,818123030963,,ISSUER,18-07-2018 00:00:00,,15793,4723574000197196   030963100000197541,ATM WITHDRAWAL AT OTHER BANK ATM-SBI,,POST CUTOFF
-10000.00,10000.00,7,,09999208100036,9999,0.00,C,D,208100036,ATM,1023,ATW,2018-06-30 00:00:00,30-06-2018 20:54:21,GL_Dump_as_on_30-Jun-2018.xlsx,,UNMATCHED,20180630205421043354,818120545274,,ISSUER,18-07-2018 00:00:00,,15823,4723574700020433   545274100003376294,ATM WITHDRAWAL AT OTHER BANK ATMs,,
1000.00,1000.00,7,,09999208100036,9999,0.00,C,C,208100036,ATM,1014,ATW,2018-06-30 00:00:00,30-06-2018 23:28:36,GL_Dump_as_on_30-Jun-2018.xlsx,,UNMATCHED,20180630232836961771,818123004067,,ISSUER,18-07-2018 00:00:00,,15833,4723571000226090   004067100001384946,ATM WITHDRAWAL AT OTHER BANK ATMs,,POST CUTOFF
700.00,700.00,7,,09999208100036,9999,0.00,C,C,208100036,ATM,1014,ATW,2018-06-30 00:00:00,30-06-2018 23:33:21,GL_Dump_as_on_30-Jun-2018.xlsx,,UNMATCHED,20180630233321973058,818123004068,,ISSUER,18-07-2018 00:00:00,,15834,5089981100943038   004068100002792100,ATM WITHDRAWAL AT OTHER BANK ATMs,,POST CUTOFF
500.00,500.00,7,,09999208100036,9999,0.00,C,C,208100036,ATM,1004,ATS,2018-06-30 00:00:00,30-06-2018 23:34:28,GL_Dump_as_on_30-Jun-2018.xlsx,,UNMATCHED,20180630233428975499,818123006423,,ISSUER,18-07-2018 00:00:00,,15841,5089980000901948   006423100002382520,ATM WITHDRAWAL AT OTHER BANK ATM-SBI,,POST CUTOFF
2000.00,2000.00,7,,09999208100036,9999,0.00,C,C,208100036,ATM,1020,ATW,2018-06-30 00:00:00,30-06-2018 23:03:06,GL_Dump_as_on_30-Jun-2018.xlsx,,UNMATCHED,20180630230306888140,818123001540,,ISSUER,18-07-2018 00:00:00,,15983,4723577700276723   001540100003605215,ATM WITHDRAWAL AT OTHER BANK ATMs,,POST CUTOFF
10000.00,10000.00,7,,09999208100036,9999,0.00,C,C,208100036,ATM,1014,ATW,2018-06-30 00:00:00,30-06-2018 23:38:02,GL_Dump_as_on_30-Jun-2018.xlsx,,UNMATCHED,20180630233802987336,818123002017,,ISSUER,18-07-2018 00:00:00,,16046,4723574000065716   002017100000182533,ATM WITHDRAWAL AT OTHER BANK ATMs,,POST CUTOFF
1000.00,1000.00,7,,09999208100036,9999,0.00,C,C,208100036,ATM,1014,ATW,2018-06-30 00:00:00,30-06-2018 23:09:20,GL_Dump_as_on_30-Jun-2018.xlsx,,UNMATCHED,20180630230920916518,818123020873,,ISSUER,18-07-2018 00:00:00,,16060,4723571000195477   020873100003128432,ATM WITHDRAWAL AT OTHER BANK ATMs,,POST CUTOFF
-2500.00,2500.00,7,,09999208100036,9999,0.00,C,D,208100036,ATM,1014,ATW,2018-06-30 00:00:00,30-06-2018 22:31:12,GL_Dump_as_on_30-Jun-2018.xlsx,,UNMATCHED,20180630223112761358,818122006209,,ISSUER,18-07-2018 00:00:00,,16147,4723574000032021   006209100000164739,ATM WITHDRAWAL AT OTHER BANK ATMs,,
-1500.00,1500.00,7,,09999208100036,9999,0.00,C,D,208100036,ATM,1020,ATW,2018-06-30 00:00:00,30-06-2018 15:27:38,GL_Dump_as_on_30-Jun-2018.xlsx,,UNMATCHED,20180630152738972393,818115257506,,ISSUER,18-07-2018 00:00:00,,16253,4723574000370371   257506100002990897,ATM WITHDRAWAL AT OTHER BANK ATMs,,
-10000.00,10000.00,7,,09999208100036,9999,0.00,C,D,208100036,ATM,2002,ATW,2018-06-30 00:00:00,30-06-2018 18:18:41,GL_Dump_as_on_30-Jun-2018.xlsx,,UNMATCHED,20180630181841757586,818118023246,,ISSUER,18-07-2018 00:00:00,,16260,4723574000174047   023246200000248390,ATM WITHDRAWAL AT OTHER BANK ATMs,,
500.00,500.00,7,,09999208100036,9999,0.00,C,C,208100036,ATM,1014,ATW,2018-06-30 00:00:00,30-06-2018 23:27:54,GL_Dump_as_on_30-Jun-2018.xlsx,,UNMATCHED,20180630232754966815,818123021382,,ISSUER,18-07-2018 00:00:00,,16347,4723574000267049   021382100002817860,ATM WITHDRAWAL AT OTHER BANK ATMs,,POST CUTOFF
1000.00,1000.00,7,,09999208100036,9999,0.00,C,C,208100036,ATM,1014,ATW,2018-06-30 00:00:00,30-06-2018 23:07:25,GL_Dump_as_on_30-Jun-2018.xlsx,,UNMATCHED,20180630230725902279,818123026500,,ISSUER,18-07-2018 00:00:00,,16363,4723574000355216   026500100003208212,ATM WITHDRAWAL AT OTHER BANK ATMs,,POST CUTOFF
-3500.00,3500.00,7,,09999208100036,9999,0.00,C,D,208100036,ATM,1023,ATW,2018-06-30 00:00:00,30-06-2018 11:46:03,GL_Dump_as_on_30-Jun-2018.xlsx,,UNMATCHED,20180630114603608298,818111025323,,ISSUER,18-07-2018 00:00:00,,16493,4723574700004189   025323100003320538,ATM WITHDRAWAL AT OTHER BANK ATMs,,
-5000.00,5000.00,7,,09999208100036,9999,0.00,C,D,208100036,ATM,1004,ATW,2018-06-30 00:00:00,30-06-2018 11:17:24,GL_Dump_as_on_30-Jun-2018.xlsx,,UNMATCHED,20180630111724272652,818111015850,,ISSUER,18-07-2018 00:00:00,,16546,4723574000310534   015850100003015379,ATM WITHDRAWAL AT OTHER BANK ATMs,,
3000.00,3000.00,7,,09999208100036,9999,0.00,C,C,208100036,ATM,1014,ATW,2018-06-30 00:00:00,30-06-2018 23:03:51,GL_Dump_as_on_30-Jun-2018.xlsx,,UNMATCHED,20180630230351890690,818123002580,,ISSUER,18-07-2018 00:00:00,,16549,5089981100476203   002580100001036137,ATM WITHDRAWAL AT OTHER BANK ATMs,,POST CUTOFF
10000.00,10000.00,7,,09999208100036,9999,0.00,C,C,208100036,ATM,1014,ATW,2018-06-30 00:00:00,30-06-2018 23:34:40,GL_Dump_as_on_30-Jun-2018.xlsx,,UNMATCHED,20180630233440978605,818123536786,,ISSUER,18-07-2018 00:00:00,,16587,5089981100107204   536786100000139088,ATM WITHDRAWAL AT OTHER BANK ATMs,,POST CUTOFF
-300.00,300.00,7,,09999208100036,9999,0.00,C,D,208100036,ATM,1015,ATS,2018-06-30 00:00:00,30-06-2018 19:49:24,GL_Dump_as_on_30-Jun-2018.xlsx,,UNMATCHED,20180630194924158043,818119029241,,ISSUER,18-07-2018 00:00:00,,16602,4723571000043123   029241100002235001,ATM WITHDRAWAL AT OTHER BANK ATM-SBI,,
-10000.00,10000.00,7,,09999208100036,9999,0.00,C,D,208100036,ATM,2003,ATS,2018-06-30 00:00:00,30-06-2018 19:20:42,GL_Dump_as_on_30-Jun-2018.xlsx,,UNMATCHED,20180630192042665353,818119006828,,ISSUER,18-07-2018 00:00:00,,16605,4723576000026176   006828200000783179,ATM WITHDRAWAL AT OTHER BANK ATM-SBI,,
200.00,200.00,7,,09999208100036,9999,0.00,C,C,208100036,ATM,1014,ATS,2018-06-30 00:00:00,30-06-2018 23:07:15,GL_Dump_as_on_30-Jun-2018.xlsx,,UNMATCHED,20180630230715901686,818123008992,,ISSUER,18-07-2018 00:00:00,,16646,5089991200049552   008992100000202394,ATM WITHDRAWAL AT OTHER BANK ATM-SBI,,POST CUTOFF
-300.00,300.00,7,,09999208100036,9999,0.00,C,D,208100036,ATM,1014,ATW,2018-06-30 00:00:00,30-06-2018 16:31:29,GL_Dump_as_on_30-Jun-2018.xlsx,,UNMATCHED,20180630163129571638,818116016323,,ISSUER,18-07-2018 00:00:00,,16659,5089981100156094   016323100000213918,ATM WITHDRAWAL AT OTHER BANK ATMs,,
500.00,500.00,7,,09999208100036,9999,0.00,C,C,208100036,ATM,1005,ATW,2018-06-30 00:00:00,30-06-2018 23:02:48,GL_Dump_as_on_30-Jun-2018.xlsx,,UNMATCHED,20180630230248890207,818123004291,,ISSUER,18-07-2018 00:00:00,,16759,4723571000254381   004291100003623369,ATM WITHDRAWAL AT OTHER BANK ATMs,,POST CUTOFF
-10000.00,10000.00,7,,09999208100036,9999,0.00,C,D,208100036,ATM,1014,ATW,2018-06-30 00:00:00,30-06-2018 19:13:26,GL_Dump_as_on_30-Jun-2018.xlsx,,UNMATCHED,20180630191326554086,818119011007,,ISSUER,18-07-2018 00:00:00,,16784,5089981100135353   011007100000173766,ATM WITHDRAWAL AT OTHER BANK ATMs,,
7500.00,7500.00,7,,09999208100036,9999,0.00,C,C,208100036,ATM,1014,ATW,2018-06-30 00:00:00,30-06-2018 23:30:04,GL_Dump_as_on_30-Jun-2018.xlsx,,UNMATCHED,20180630233004967812,818123536704,,ISSUER,18-07-2018 00:00:00,,16820,5089981100099450   536704100000135341,ATM WITHDRAWAL AT OTHER BANK ATMs,,POST CUTOFF
5400.00,5400.00,7,,09999208100036,9999,0.00,C,C,208100036,ATM,1014,ATW,2018-06-30 00:00:00,30-06-2018 23:35:40,GL_Dump_as_on_30-Jun-2018.xlsx,,UNMATCHED,20180630233540980984,818123536809,,ISSUER,18-07-2018 00:00:00,,16821,5089981100107204   536809100000139088,ATM WITHDRAWAL AT OTHER BANK ATMs,,POST CUTOFF
-2000.00,2000.00,7,,09999208100036,9999,0.00,C,D,208100036,ATM,1014,ATW,2018-06-30 00:00:00,30-06-2018 09:23:59,GL_Dump_as_on_30-Jun-2018.xlsx,,UNMATCHED,20180630092359205544,818109021579,,ISSUER,18-07-2018 00:00:00,,16825,4723574000300196   021579100002971519,ATM WITHDRAWAL AT OTHER BANK ATMs,,
-1000.00,1000.00,7,,09999208100036,9999,0.00,C,D,208100036,ATM,1004,ATW,2018-06-30 00:00:00,30-06-2018 17:32:58,GL_Dump_as_on_30-Jun-2018.xlsx,,UNMATCHED,20180630173258215439,818117455899,,ISSUER,18-07-2018 00:00:00,,16927,4723574000300600   455899100000382936,ATM WITHDRAWAL AT OTHER BANK ATMs,,
5000.00,5000.00,7,,09999208100036,9999,0.00,C,C,208100036,ATM,1014,ATW,2018-06-30 00:00:00,30-06-2018 23:37:12,GL_Dump_as_on_30-Jun-2018.xlsx,,UNMATCHED,20180630233712981920,818123007290,,ISSUER,18-07-2018 00:00:00,,17005,5089991200043514   007290100000264500,ATM WITHDRAWAL AT OTHER BANK ATMs,,POST CUTOFF
10000.00,10000.00,7,,09999208100036,9999,0.00,C,C,208100036,ATM,1014,ATW,2018-06-30 00:00:00,30-06-2018 23:03:49,GL_Dump_as_on_30-Jun-2018.xlsx,,UNMATCHED,20180630230349890569,818123823165,,ISSUER,18-07-2018 00:00:00,,17066,5089981100571862   823165100000254358,ATM WITHDRAWAL AT OTHER BANK ATMs,,POST CUTOFF
-500.00,500.00,7,,09999208100036,9999,0.00,C,D,208100036,ATM,1004,ATW,2018-06-30 00:00:00,30-06-2018 20:47:44,GL_Dump_as_on_30-Jun-2018.xlsx,,UNMATCHED,20180630204744936244,818120006301,,ISSUER,18-07-2018 00:00:00,,17071,4723571000269181   006301100003687549,ATM WITHDRAWAL AT OTHER BANK ATMs,,
500.00,500.00,7,,09999208100036,9999,0.00,C,C,208100036,ATM,1004,ATW,2018-06-30 00:00:00,30-06-2018 23:24:24,GL_Dump_as_on_30-Jun-2018.xlsx,,UNMATCHED,20180630232424951164,818123020070,,ISSUER,18-07-2018 00:00:00,,17133,5089980000569273   020070100001712096,ATM WITHDRAWAL AT OTHER BANK ATMs,,POST CUTOFF
10000.00,10000.00,7,,09999208100036,9999,0.00,C,C,208100036,ATM,1014,ATW,2018-06-30 00:00:00,30-06-2018 23:26:31,GL_Dump_as_on_30-Jun-2018.xlsx,,UNMATCHED,20180630232631956623,818123824741,,ISSUER,18-07-2018 00:00:00,,17144,5089981100127186   824741100000170600,ATM WITHDRAWAL AT OTHER BANK ATMs,,POST CUTOFF
-3500.00,3500.00,7,,09999208100036,9999,0.00,C,D,208100036,ATM,2002,ATW,2018-06-30 00:00:00,30-06-2018 18:27:16,GL_Dump_as_on_30-Jun-2018.xlsx,,UNMATCHED,20180630182716884346,818118341611,,ISSUER,18-07-2018 00:00:00,,17149,5089981101005704   341611200000788773,ATM WITHDRAWAL AT OTHER BANK ATMs,,
-10000.00,10000.00,7,,09999208100036,9999,0.00,C,D,208100036,ATM,1014,ATW,2018-06-30 00:00:00,30-06-2018 20:41:58,GL_Dump_as_on_30-Jun-2018.xlsx,,UNMATCHED,20180630204158930466,818120007199,,ISSUER,18-07-2018 00:00:00,,17184,5089981100114234   007199100000151754,ATM WITHDRAWAL AT OTHER BANK ATMs,,
2700.00,2700.00,7,,09999208100036,9999,0.00,C,C,208100036,ATM,1014,ATW,2018-06-30 00:00:00,30-06-2018 23:39:14,GL_Dump_as_on_30-Jun-2018.xlsx,,UNMATCHED,20180630233914986490,818123032235,,ISSUER,18-07-2018 00:00:00,,17188,5089981100169030   032235100000251512,ATM WITHDRAWAL AT OTHER BANK ATMs,,POST CUTOFF
2500.00,2500.00,7,,09999208100036,9999,0.00,C,C,208100036,ATM,1014,ATS,2018-06-30 00:00:00,30-06-2018 23:12:24,GL_Dump_as_on_30-Jun-2018.xlsx,,UNMATCHED,20180630231224917249,818123013816,,ISSUER,18-07-2018 00:00:00,,17199,5089981100134950   013816100000173649,ATM WITHDRAWAL AT OTHER BANK ATM-SBI,,POST CUTOFF
10000.00,10000.00,7,,09999208100036,9999,0.00,C,C,208100036,ATM,1014,ATW,2018-06-30 00:00:00,30-06-2018 23:25:23,GL_Dump_as_on_30-Jun-2018.xlsx,,UNMATCHED,20180630232523953678,818123824681,,ISSUER,18-07-2018 00:00:00,,17267,5089981100127186   824681100000170600,ATM WITHDRAWAL AT OTHER BANK ATMs,,POST CUTOFF
700.00,700.00,7,,09999208100036,9999,0.00,C,C,208100036,ATM,1014,ATW,2018-06-30 00:00:00,30-06-2018 23:22:01,GL_Dump_as_on_30-Jun-2018.xlsx,,UNMATCHED,20180630232201944895,818123007246,,ISSUER,18-07-2018 00:00:00,,17288,4723574000302549   007246100002992892,ATM WITHDRAWAL AT OTHER BANK ATMs,,POST CUTOFF
-4000.00,4000.00,7,,09999208100036,9999,0.00,C,D,208100036,ATM,2002,ATW,2018-06-30 00:00:00,30-06-2018 15:29:54,GL_Dump_as_on_30-Jun-2018.xlsx,,UNMATCHED,20180630152954985625,818115008303,,ISSUER,18-07-2018 00:00:00,,17295,4723574000395907   008303200000784082,ATM WITHDRAWAL AT OTHER BANK ATMs,,
-700.00,700.00,7,,09999208100036,9999,0.00,C,D,208100036,ATM,1005,ATW,2018-06-30 00:00:00,30-06-2018 11:13:14,GL_Dump_as_on_30-Jun-2018.xlsx,,UNMATCHED,20180630111314520588,818105002755,,ISSUER,18-07-2018 00:00:00,,17349,5089991200091216   002755100000943380,ATM WITHDRAWAL AT OTHER BANK ATMs,,
-5000.00,5000.00,7,,09999208100036,9999,0.00,C,D,208100036,ATM,1014,ATS,2018-06-30 00:00:00,30-06-2018 20:56:55,GL_Dump_as_on_30-Jun-2018.xlsx,,UNMATCHED,20180630205655069070,818120030935,,ISSUER,18-07-2018 00:00:00,,17380,4723574000233488   030935100000490436,ATM WITHDRAWAL AT OTHER BANK ATM-SBI,,
4500.00,4500.00,7,,09999208100036,9999,0.00,C,C,208100036,ATM,1014,ATW,2018-06-30 00:00:00,30-06-2018 23:27:38,GL_Dump_as_on_30-Jun-2018.xlsx,,UNMATCHED,20180630232738959437,818123824798,,ISSUER,18-07-2018 00:00:00,,17430,5089981100730393   824798100001978687,ATM WITHDRAWAL AT OTHER BANK ATMs,,POST CUTOFF
10000.00,10000.00,7,,09999208100036,9999,0.00,C,C,208100036,ATM,1014,ATW,2018-06-30 00:00:00,30-06-2018 23:24:12,GL_Dump_as_on_30-Jun-2018.xlsx,,UNMATCHED,20180630232412950523,818123824591,,ISSUER,18-07-2018 00:00:00,,17483,5089981100730393   824591100001978687,ATM WITHDRAWAL AT OTHER BANK ATMs,,POST CUTOFF
2000.00,2000.00,7,,09999208100036,9999,0.00,C,C,208100036,ATM,1014,ATS,2018-06-30 00:00:00,30-06-2018 23:05:23,GL_Dump_as_on_30-Jun-2018.xlsx,,UNMATCHED,20180630230523895581,818123008971,,ISSUER,18-07-2018 00:00:00,,17516,5089981100960594   008971100002966297,ATM WITHDRAWAL AT OTHER BANK ATM-SBI,,POST CUTOFF
1500.00,1500.00,7,,09999208100036,9999,0.00,C,C,208100036,ATM,1014,ATW,2018-06-30 00:00:00,30-06-2018 23:05:14,GL_Dump_as_on_30-Jun-2018.xlsx,,UNMATCHED,20180630230514907024,818123009428,,ISSUER,18-07-2018 00:00:00,,17544,5089981100268196   009428100000496371,ATM WITHDRAWAL AT OTHER BANK ATMs,,POST CUTOFF
100.00,100.00,7,,09999208100036,9999,0.00,C,C,208100036,ATM,1020,ATW,2018-06-30 00:00:00,30-06-2018 23:03:20,GL_Dump_as_on_30-Jun-2018.xlsx,,UNMATCHED,20180630230320889075,818123945810,,ISSUER,18-07-2018 00:00:00,,17592,4723577700294577   945810100003709720,ATM WITHDRAWAL AT OTHER BANK ATMs,,POST CUTOFF
100.00,100.00,7,,09999208100036,9999,0.00,C,C,208100036,ATM,1020,ATW,2018-06-30 00:00:00,30-06-2018 23:03:55,GL_Dump_as_on_30-Jun-2018.xlsx,,UNMATCHED,20180630230355891010,818123945819,,ISSUER,18-07-2018 00:00:00,,17593,4723577700294577   945819100003709720,ATM WITHDRAWAL AT OTHER BANK ATMs,,POST CUTOFF
-10000.00,10000.00,7,,09999208100036,9999,0.00,C,D,208100036,ATM,1004,ATW,2018-06-30 00:00:00,30-06-2018 16:43:54,GL_Dump_as_on_30-Jun-2018.xlsx,,UNMATCHED,20180630164354633790,818116002671,,ISSUER,18-07-2018 00:00:00,,17612,5089980000278354   002671100000848455,ATM WITHDRAWAL AT OTHER BANK ATMs,,
-5500.00,5500.00,7,,09999208100036,9999,0.00,C,D,208100036,ATM,1004,ATW,2018-06-30 00:00:00,30-06-2018 09:20:55,GL_Dump_as_on_30-Jun-2018.xlsx,,UNMATCHED,20180630092055189918,818109317614,,ISSUER,18-07-2018 00:00:00,,17627,4723574000216905   317614100000868080,ATM WITHDRAWAL AT OTHER BANK ATMs,,
-5000.00,5000.00,7,,09999208100036,9999,0.00,C,D,208100036,ATM,2002,ATW,2018-06-30 00:00:00,30-06-2018 14:04:42,GL_Dump_as_on_30-Jun-2018.xlsx,,UNMATCHED,20180630140442176856,818114006091,,ISSUER,18-07-2018 00:00:00,,17677,5089981100179583   006091200000019173,ATM WITHDRAWAL AT OTHER BANK ATMs,,
-100.00,100.00,7,,09999208100036,9999,0.00,C,D,208100036,ATM,1023,ATW,2018-06-30 00:00:00,30-06-2018 19:28:31,GL_Dump_as_on_30-Jun-2018.xlsx,,UNMATCHED,20180630192831801049,818119080251,,ISSUER,18-07-2018 00:00:00,,17731,4723574700061130   080251100003659399,ATM WITHDRAWAL AT OTHER BANK ATMs,,
10000.00,10000.00,7,,09999208100036,9999,0.00,C,C,208100036,ATM,2002,ATS,2018-06-30 00:00:00,30-06-2018 23:32:35,GL_Dump_as_on_30-Jun-2018.xlsx,,UNMATCHED,20180630233235971209,818123014016,,ISSUER,18-07-2018 00:00:00,,17742,4723574000183725   014016200000627586,ATM WITHDRAWAL AT OTHER BANK ATM-SBI,,POST CUTOFF
-3000.00,3000.00,7,,09999208100036,9999,0.00,C,D,208100036,ATM,1004,ATW,2018-06-30 00:00:00,30-06-2018 09:22:53,GL_Dump_as_on_30-Jun-2018.xlsx,,UNMATCHED,20180630092253194808,818109317649,,ISSUER,18-07-2018 00:00:00,,17751,4723574000216905   317649100000868080,ATM WITHDRAWAL AT OTHER BANK ATMs,,
-3900.00,3900.00,7,,09999208100036,9999,0.00,C,D,208100036,ATM,1014,ATW,2018-06-30 00:00:00,30-06-2018 20:32:45,GL_Dump_as_on_30-Jun-2018.xlsx,,UNMATCHED,20180630203245820595,818120519584,,ISSUER,18-07-2018 00:00:00,,17795,4723571000148443   519584100000226450,ATM WITHDRAWAL AT OTHER BANK ATMs,,
2500.00,2500.00,7,,09999208100036,9999,0.00,C,C,208100036,ATM,1005,ATW,2018-06-30 00:00:00,30-06-2018 23:07:56,GL_Dump_as_on_30-Jun-2018.xlsx,,UNMATCHED,20180630230756903943,818123219661,,ISSUER,18-07-2018 00:00:00,,17805,4723574000318867   219661100003054961,ATM WITHDRAWAL AT OTHER BANK ATMs,,POST CUTOFF
-2500.00,2500.00,7,,09999208100036,9999,0.00,C,D,208100036,ATM,1005,ATW,2018-06-30 00:00:00,30-06-2018 23:08:37,GL_Dump_as_on_30-Jun-2018.xlsx,,UNMATCHED,20180630230837903943,818123219661,,ISSUER,18-07-2018 00:00:00,,17806,4723574000318867   219661100003054961,ATM WITHDRAWAL AT OTHER BANK ATMs,,POST CUTOFF
2400.00,2400.00,7,,09999208100036,9999,0.00,C,C,208100036,ATM,1005,ATW,2018-06-30 00:00:00,30-06-2018 23:11:54,GL_Dump_as_on_30-Jun-2018.xlsx,,UNMATCHED,20180630231154915909,818123005122,,ISSUER,18-07-2018 00:00:00,,17807,4723574000318867   005122100003054961,ATM WITHDRAWAL AT OTHER BANK ATMs,,POST CUTOFF
500.00,500.00,7,,09999208100036,9999,0.00,C,C,208100036,ATM,1004,ATW,2018-06-30 00:00:00,30-06-2018 23:11:39,GL_Dump_as_on_30-Jun-2018.xlsx,,UNMATCHED,20180630231139919966,818123001273,,ISSUER,18-07-2018 00:00:00,,17830,5089981100353451   001273100000257048,ATM WITHDRAWAL AT OTHER BANK ATMs,,POST CUTOFF
1100.00,1100.00,7,,09999208100036,9999,0.00,C,C,208100036,ATM,1014,ATW,2018-06-30 00:00:00,30-06-2018 23:10:54,GL_Dump_as_on_30-Jun-2018.xlsx,,UNMATCHED,20180630231054912799,818123024558,,ISSUER,18-07-2018 00:00:00,,17881,5089981100808942   024558100002215693,ATM WITHDRAWAL AT OTHER BANK ATMs,,POST CUTOFF
2000.00,2000.00,7,,09999208100036,9999,0.00,C,C,208100036,ATM,1014,ATS,2018-06-30 00:00:00,30-06-2018 23:08:01,GL_Dump_as_on_30-Jun-2018.xlsx,,UNMATCHED,20180630230801904164,818123027546,,ISSUER,18-07-2018 00:00:00,,17907,4723576000024007   027546100003308961,ATM WITHDRAWAL AT OTHER BANK ATM-SBI,,POST CUTOFF
10000.00,10000.00,7,,09999208100036,9999,0.00,C,C,208100036,ATM,1014,ATW,2018-06-30 00:00:00,30-06-2018 23:05:23,GL_Dump_as_on_30-Jun-2018.xlsx,,UNMATCHED,20180630230523895519,818123219438,,ISSUER,18-07-2018 00:00:00,,18046,5089981100962640   219438100002998947,ATM WITHDRAWAL AT OTHER BANK ATMs,,POST CUTOFF
5000.00,5000.00,7,,09999208100036,9999,0.00,C,C,208100036,ATM,1014,ATW,2018-06-30 00:00:00,30-06-2018 23:06:25,GL_Dump_as_on_30-Jun-2018.xlsx,,UNMATCHED,20180630230625899015,818123219548,,ISSUER,18-07-2018 00:00:00,,18047,5089981100962640   219548100002998947,ATM WITHDRAWAL AT OTHER BANK ATMs,,POST CUTOFF
10000.00,10000.00,7,,09999208100036,9999,0.00,C,C,208100036,ATM,1014,ATW,2018-06-30 00:00:00,30-06-2018 23:08:40,GL_Dump_as_on_30-Jun-2018.xlsx,,UNMATCHED,20180630230840906192,818123007547,,ISSUER,18-07-2018 00:00:00,,18112,5089981100661820   007547100001895417,ATM WITHDRAWAL AT OTHER BANK ATMs,,POST CUTOFF
6000.00,6000.00,7,,09999208100036,9999,0.00,C,C,208100036,ATM,1014,ATW,2018-06-30 00:00:00,30-06-2018 23:09:33,GL_Dump_as_on_30-Jun-2018.xlsx,,UNMATCHED,20180630230933908903,818123007548,,ISSUER,18-07-2018 00:00:00,,18113,5089981100661820   007548100001895417,ATM WITHDRAWAL AT OTHER BANK ATMs,,POST CUTOFF
-500.00,500.00,7,,09999208100036,9999,0.00,C,D,208100036,ATM,2002,ATW,2018-06-30 00:00:00,30-06-2018 13:42:39,GL_Dump_as_on_30-Jun-2018.xlsx,,UNMATCHED,20180630134239759530,818113339886,,ISSUER,18-07-2018 00:00:00,,18150,4723574000380008   339886200000763880,ATM WITHDRAWAL AT OTHER BANK ATMs,,
-3500.00,3500.00,7,,09999208100036,9999,0.00,C,D,208100036,ATM,1014,ATW,2018-06-30 00:00:00,30-06-2018 20:29:06,GL_Dump_as_on_30-Jun-2018.xlsx,,UNMATCHED,20180630202906756685,818120001594,,ISSUER,18-07-2018 00:00:00,,18206,5089981100374473   001594100000932421,ATM WITHDRAWAL AT OTHER BANK ATMs,,
-500.00,500.00,7,,09999208100036,9999,0.00,C,D,208100036,ATM,2002,ATW,2018-06-30 00:00:00,30-06-2018 07:04:24,GL_Dump_as_on_30-Jun-2018.xlsx,,UNMATCHED,20180630070424493043,818105642803,,ISSUER,18-07-2018 00:00:00,,18264,5089981100720634   642803200000448429,ATM WITHDRAWAL AT OTHER BANK ATMs,,
-200.00,200.00,7,,09999208100036,9999,0.00,C,D,208100036,ATM,1014,ATS,2018-06-30 00:00:00,30-06-2018 20:46:30,GL_Dump_as_on_30-Jun-2018.xlsx,,UNMATCHED,20180630204630973336,818120002883,,ISSUER,18-07-2018 00:00:00,,18265,4723574000040172   002883100002127891,ATM WITHDRAWAL AT OTHER BANK ATM-SBI,,
9000.00,9000.00,7,,09999208100036,9999,0.00,C,C,208100036,ATM,1020,ATW,2018-06-30 00:00:00,30-06-2018 23:23:04,GL_Dump_as_on_30-Jun-2018.xlsx,,UNMATCHED,20180630232304947567,818123009442,,ISSUER,18-07-2018 00:00:00,,18283,4723577700233609   009442100003234197,ATM WITHDRAWAL AT OTHER BANK ATMs,,POST CUTOFF
1900.00,1900.00,7,,09999208100036,9999,0.00,C,C,208100036,ATM,1014,ATS,2018-06-30 00:00:00,30-06-2018 23:14:18,GL_Dump_as_on_30-Jun-2018.xlsx,,UNMATCHED,20180630231418922761,818123009080,,ISSUER,18-07-2018 00:00:00,,18313,5089981100461361   009080100001024820,ATM WITHDRAWAL AT OTHER BANK ATM-SBI,,POST CUTOFF
10000.00,10000.00,7,,09999208100036,9999,0.00,C,C,208100036,ATM,1014,ATW,2018-06-30 00:00:00,30-06-2018 23:03:56,GL_Dump_as_on_30-Jun-2018.xlsx,,UNMATCHED,20180630230356891009,818123023060,,ISSUER,18-07-2018 00:00:00,,18314,5089981100772767   023060100002053840,ATM WITHDRAWAL AT OTHER BANK ATMs,,POST CUTOFF
3900.00,3900.00,7,,09999208100036,9999,0.00,C,C,208100036,ATM,1014,ATW,2018-06-30 00:00:00,30-06-2018 23:04:59,GL_Dump_as_on_30-Jun-2018.xlsx,,UNMATCHED,20180630230459894300,818123023061,,ISSUER,18-07-2018 00:00:00,,18315,5089981100772767   023061100002053840,ATM WITHDRAWAL AT OTHER BANK ATMs,,POST CUTOFF
-2000.00,2000.00,7,,09999208100036,9999,0.00,C,D,208100036,ATM,1023,ATW,2018-06-30 00:00:00,30-06-2018 12:41:37,GL_Dump_as_on_30-Jun-2018.xlsx,,UNMATCHED,20180630124137274998,818112347992,,ISSUER,18-07-2018 00:00:00,,18321,4723574700012992   347992100003350368,ATM WITHDRAWAL AT OTHER BANK ATMs,,
-5000.00,5000.00,7,,09999208100036,9999,0.00,C,D,208100036,ATM,1014,ATW,2018-06-30 00:00:00,30-06-2018 20:48:18,GL_Dump_as_on_30-Jun-2018.xlsx,,UNMATCHED,20180630204818960549,818120017639,,ISSUER,18-07-2018 00:00:00,,18330,5089981100114226   017639100000151080,ATM WITHDRAWAL AT OTHER BANK ATMs,,
-7600.00,7600.00,7,,09999208100036,9999,0.00,C,D,208100036,ATM,1014,ATW,2018-06-30 00:00:00,30-06-2018 15:30:15,GL_Dump_as_on_30-Jun-2018.xlsx,,UNMATCHED,20180630153015989580,504456336498,,ISSUER,18-07-2018 00:00:00,,18335,4723574000154973   336498100002470449,ATM WITHDRAWAL AT OTHER BANK ATMs,,
-10000.00,10000.00,7,,09999208100036,9999,0.00,C,D,208100036,ATM,1014,ATW,2018-06-30 00:00:00,30-06-2018 19:22:58,GL_Dump_as_on_30-Jun-2018.xlsx,,UNMATCHED,20180630192258704317,818119580820,,ISSUER,18-07-2018 00:00:00,,18377,5089991200098096   580820100000977101,ATM WITHDRAWAL AT OTHER BANK ATMs,,
-500.00,500.00,7,,09999208100036,9999,0.00,C,D,208100036,ATM,2002,ATW,2018-06-30 00:00:00,30-06-2018 05:25:58,GL_Dump_as_on_30-Jun-2018.xlsx,,UNMATCHED,20180630052558492122,818105642799,,ISSUER,18-07-2018 00:00:00,,18393,5089981100720634   642799200000448429,ATM WITHDRAWAL AT OTHER BANK ATMs,,
-6000.00,6000.00,7,,09999208100036,9999,0.00,C,D,208100036,ATM,1004,ATW,2018-06-30 00:00:00,30-06-2018 12:36:54,GL_Dump_as_on_30-Jun-2018.xlsx,,UNMATCHED,20180630123654211260,818112720560,,ISSUER,18-07-2018 00:00:00,,18458,5089980001071840   720560100002987662,ATM WITHDRAWAL AT OTHER BANK ATMs,,
-10000.00,10000.00,7,,09999208100036,9999,0.00,C,D,208100036,ATM,1014,ATS,2018-06-30 00:00:00,30-06-2018 20:43:20,GL_Dump_as_on_30-Jun-2018.xlsx,,UNMATCHED,20180630204320950761,818120002690,,ISSUER,18-07-2018 00:00:00,,18464,4723574000303109   002690100002994386,ATM WITHDRAWAL AT OTHER BANK ATM-SBI,,
100.00,100.00,7,,09999208100036,9999,0.00,C,C,208100036,ATM,1020,ATW,2018-06-30 00:00:00,30-06-2018 23:05:59,GL_Dump_as_on_30-Jun-2018.xlsx,,UNMATCHED,20180630230559897575,818123945842,,ISSUER,18-07-2018 00:00:00,,18627,4723577700294577   945842100003709720,ATM WITHDRAWAL AT OTHER BANK ATMs,,POST CUTOFF
100.00,100.00,7,,09999208100036,9999,0.00,C,C,208100036,ATM,1020,ATW,2018-06-30 00:00:00,30-06-2018 23:06:34,GL_Dump_as_on_30-Jun-2018.xlsx,,UNMATCHED,20180630230634899475,818123945847,,ISSUER,18-07-2018 00:00:00,,18628,4723577700294577   945847100003709720,ATM WITHDRAWAL AT OTHER BANK ATMs,,POST CUTOFF
100.00,100.00,7,,09999208100036,9999,0.00,C,C,208100036,ATM,1020,ATW,2018-06-30 00:00:00,30-06-2018 23:07:56,GL_Dump_as_on_30-Jun-2018.xlsx,,UNMATCHED,20180630230756903945,818123945862,,ISSUER,18-07-2018 00:00:00,,18630,4723577700294577   945862100003709720,ATM WITHDRAWAL AT OTHER BANK ATMs,,POST CUTOFF
-1000.00,1000.00,7,,09999208100036,9999,0.00,C,D,208100036,ATM,2001,ATW,2018-06-30 00:00:00,30-06-2018 19:51:44,GL_Dump_as_on_30-Jun-2018.xlsx,,UNMATCHED,20180630195144208216,818119004545,,ISSUER,18-07-2018 00:00:00,,18767,5089981400026179   004545200000112607,ATM WITHDRAWAL AT OTHER BANK ATMs,,
500.00,500.00,7,,09999208100036,9999,0.00,C,C,208100036,ATM,2002,ATW,2018-06-30 00:00:00,30-06-2018 23:29:32,GL_Dump_as_on_30-Jun-2018.xlsx,,UNMATCHED,20180630232932963939,818123020919,,ISSUER,18-07-2018 00:00:00,,18793,4723574000069981   020919200000527787,ATM WITHDRAWAL AT OTHER BANK ATMs,,POST CUTOFF
-3000.00,3000.00,7,,09999208100036,9999,0.00,C,D,208100036,ATM,1014,ATW,2018-06-30 00:00:00,30-06-2018 19:51:44,GL_Dump_as_on_30-Jun-2018.xlsx,,UNMATCHED,20180630195144199929,818119107121,,ISSUER,18-07-2018 00:00:00,,18814,4723571000087187   107121100002441665,ATM WITHDRAWAL AT OTHER BANK ATMs,,
-2000.00,2000.00,7,,09999208100036,9999,0.00,C,D,208100036,ATM,1004,ATS,2018-06-30 00:00:00,30-06-2018 12:15:47,GL_Dump_as_on_30-Jun-2018.xlsx,,UNMATCHED,20180630121547969892,818112025350,,ISSUER,18-07-2018 00:00:00,,18831,5089980000612354   025350100001778898,ATM WITHDRAWAL AT OTHER BANK ATM-SBI,,
5000.00,5000.00,7,,09999208100036,9999,0.00,C,C,208100036,ATM,1014,ATW,2018-06-30 00:00:00,30-06-2018 23:00:13,GL_Dump_as_on_30-Jun-2018.xlsx,,UNMATCHED,20180630230013879023,818123097011,,ISSUER,18-07-2018 00:00:00,,18851,5089981100127905   097011100000170230,ATM WITHDRAWAL AT OTHER BANK ATMs,,POST CUTOFF
400.00,400.00,7,,09999208100036,9999,0.00,C,C,208100036,ATM,1014,ATW,2018-06-30 00:00:00,30-06-2018 23:03:22,GL_Dump_as_on_30-Jun-2018.xlsx,,UNMATCHED,20180630230322889227,818123322776,,ISSUER,18-07-2018 00:00:00,,18969,5089981100232333   322776100000461665,ATM WITHDRAWAL AT OTHER BANK ATMs,,POST CUTOFF
10000.00,10000.00,7,,09999208100036,9999,0.00,C,C,208100036,ATM,2002,ATW,2018-06-30 00:00:00,30-06-2018 23:30:16,GL_Dump_as_on_30-Jun-2018.xlsx,,UNMATCHED,20180630233016965808,818123020936,,ISSUER,18-07-2018 00:00:00,,19045,4723574000069981   020936200000527787,ATM WITHDRAWAL AT OTHER BANK ATMs,,POST CUTOFF
5500.00,5500.00,7,,09999208100036,9999,0.00,C,C,208100036,ATM,2002,ATW,2018-06-30 00:00:00,30-06-2018 23:31:40,GL_Dump_as_on_30-Jun-2018.xlsx,,UNMATCHED,20180630233140969027,818123020971,,ISSUER,18-07-2018 00:00:00,,19046,4723574000069981   020971200000527787,ATM WITHDRAWAL AT OTHER BANK ATMs,,POST CUTOFF
1000.00,1000.00,7,,09999208100036,9999,0.00,C,C,208100036,ATM,1014,ATW,2018-06-30 00:00:00,30-06-2018 23:02:47,GL_Dump_as_on_30-Jun-2018.xlsx,,UNMATCHED,20180630230247899255,818123009370,,ISSUER,18-07-2018 00:00:00,,19069,5089991200012618   009370100000036650,ATM WITHDRAWAL AT OTHER BANK ATMs,,POST CUTOFF
1000.00,1000.00,7,,09999208100036,9999,0.00,C,C,208100036,ATM,1014,ATW,2018-06-30 00:00:00,30-06-2018 23:23:37,GL_Dump_as_on_30-Jun-2018.xlsx,,UNMATCHED,20180630232337948992,818123031342,,ISSUER,18-07-2018 00:00:00,,19144,5089991200023656   031342100000140604,ATM WITHDRAWAL AT OTHER BANK ATMs,,POST CUTOFF
-4500.00,4500.00,7,,09999208100036,9999,0.00,C,D,208100036,ATM,1004,ATW,2018-06-30 00:00:00,30-06-2018 18:45:48,GL_Dump_as_on_30-Jun-2018.xlsx,,UNMATCHED,20180630184548138671,818118017550,,ISSUER,18-07-2018 00:00:00,,19210,5089980000898490   017550100002407109,ATM WITHDRAWAL AT OTHER BANK ATMs,,
-10000.00,10000.00,7,,09999208100036,9999,0.00,C,D,208100036,ATM,1014,ATW,2018-06-30 00:00:00,30-06-2018 19:35:36,GL_Dump_as_on_30-Jun-2018.xlsx,,UNMATCHED,20180630193536923002,818119368867,,ISSUER,18-07-2018 00:00:00,,19296,5089981100667421   368867100001902586,ATM WITHDRAWAL AT OTHER BANK ATMs,,
500.00,500.00,7,,09999208100036,9999,0.00,C,C,208100036,ATM,1005,ATW,2018-06-30 00:00:00,30-06-2018 23:05:46,GL_Dump_as_on_30-Jun-2018.xlsx,,UNMATCHED,20180630230546896842,818123030015,,ISSUER,18-07-2018 00:00:00,,19357,5089980000204830   030015100000776411,ATM WITHDRAWAL AT OTHER BANK ATMs,,POST CUTOFF
-4500.00,4500.00,7,,09999208100036,9999,0.00,C,D,208100036,ATM,1014,ATW,2018-06-30 00:00:00,30-06-2018 19:13:13,GL_Dump_as_on_30-Jun-2018.xlsx,,UNMATCHED,20180630191313550016,818119006793,,ISSUER,18-07-2018 00:00:00,,19361,5089991200031246   006793100000189278,ATM WITHDRAWAL AT OTHER BANK ATMs,,
-4500.00,4500.00,7,,09999208100036,9999,0.00,C,D,208100036,ATM,1004,ATW,2018-06-30 00:00:00,30-06-2018 22:59:46,GL_Dump_as_on_30-Jun-2018.xlsx,,UNMATCHED,20180630225946874144,818122006950,,ISSUER,18-07-2018 00:00:00,,19407,5089980000647848   006950100001854035,ATM WITHDRAWAL AT OTHER BANK ATMs,,
10000.00,10000.00,7,,09999208100036,9999,0.00,C,C,208100036,ATM,1020,ATW,2018-06-30 00:00:00,30-06-2018 23:04:26,GL_Dump_as_on_30-Jun-2018.xlsx,,UNMATCHED,20180630230426892791,818123549051,,ISSUER,18-07-2018 00:00:00,,19442,4723577700110971   549051100002708051,ATM WITHDRAWAL AT OTHER BANK ATMs,,POST CUTOFF
-500.00,500.00,7,,09999208100036,9999,0.00,C,D,208100036,ATM,1014,ATW,2018-06-30 00:00:00,30-06-2018 19:29:12,GL_Dump_as_on_30-Jun-2018.xlsx,,UNMATCHED,20180630192912812072,818119081026,,ISSUER,18-07-2018 00:00:00,,19478,4723571000144525   081026100002730376,ATM WITHDRAWAL AT OTHER BANK ATMs,,
-10000.00,10000.00,7,,09999208100036,9999,0.00,C,D,208100036,ATM,1014,ATW,2018-06-30 00:00:00,30-06-2018 19:52:46,GL_Dump_as_on_30-Jun-2018.xlsx,,UNMATCHED,20180630195246204139,818119107454,,ISSUER,18-07-2018 00:00:00,,19495,5089981100143274   107454100000190993,ATM WITHDRAWAL AT OTHER BANK ATMs,,
4500.00,4500.00,7,,09999208100036,9999,0.00,C,C,208100036,ATM,1014,ATW,2018-06-30 00:00:00,30-06-2018 23:17:24,GL_Dump_as_on_30-Jun-2018.xlsx,,UNMATCHED,20180630231724935430,818123100134,,ISSUER,18-07-2018 00:00:00,,19517,5089991200037052   100134100000210950,ATM WITHDRAWAL AT OTHER BANK ATMs,,POST CUTOFF
-4000.00,4000.00,7,,09999208100036,9999,0.00,C,D,208100036,ATM,1014,ABW,2018-06-30 00:00:00,30-06-2018 19:22:41,GL_Dump_as_on_30-Jun-2018.xlsx,,UNMATCHED,20180630192241705970,818119031362,,ISSUER,18-07-2018 00:00:00,,19519,4723572000027520   031362100002932453,REMOTE ONUS ATM WDL - ANDHRA BANK,,
-9000.00,9000.00,7,,09999208100036,9999,0.00,C,D,208100036,ATM,1005,ATW,2018-06-30 00:00:00,30-06-2018 13:09:06,GL_Dump_as_on_30-Jun-2018.xlsx,,UNMATCHED,20180630130906584666,818113609305,,ISSUER,18-07-2018 00:00:00,,19521,5089980000949145   609305100002483082,ATM WITHDRAWAL AT OTHER BANK ATMs,,
-5000.00,5000.00,7,,09999208100036,9999,0.00,C,D,208100036,ATM,1020,ATW,2018-06-30 00:00:00,30-06-2018 17:00:36,GL_Dump_as_on_30-Jun-2018.xlsx,,UNMATCHED,20180630170036749484,818111364722,,ISSUER,18-07-2018 00:00:00,,19553,4723577700064004   364722100002696253,ATM WITHDRAWAL AT OTHER BANK ATMs,818111364722,LT_REVERSAL
100.00,100.00,7,,09999208100036,9999,0.00,C,C,208100036,ATM,1020,ATW,2018-06-30 00:00:00,30-06-2018 23:08:40,GL_Dump_as_on_30-Jun-2018.xlsx,,UNMATCHED,20180630230840906156,818123945868,,ISSUER,18-07-2018 00:00:00,,19657,4723577700294577   945868100003709720,ATM WITHDRAWAL AT OTHER BANK ATMs,,POST CUTOFF
100.00,100.00,7,,09999208100036,9999,0.00,C,C,208100036,ATM,1020,ATW,2018-06-30 00:00:00,30-06-2018 23:09:36,GL_Dump_as_on_30-Jun-2018.xlsx,,UNMATCHED,20180630230936909063,818123945874,,ISSUER,18-07-2018 00:00:00,,19658,4723577700294577   945874100003709720,ATM WITHDRAWAL AT OTHER BANK ATMs,,POST CUTOFF
100.00,100.00,7,,09999208100036,9999,0.00,C,C,208100036,ATM,1020,ATW,2018-06-30 00:00:00,30-06-2018 23:10:16,GL_Dump_as_on_30-Jun-2018.xlsx,,UNMATCHED,20180630231016910825,818123945878,,ISSUER,18-07-2018 00:00:00,,19659,4723577700294577   945878100003709720,ATM WITHDRAWAL AT OTHER BANK ATMs,,POST CUTOFF
100.00,100.00,7,,09999208100036,9999,0.00,C,C,208100036,ATM,1020,ATW,2018-06-30 00:00:00,30-06-2018 23:10:56,GL_Dump_as_on_30-Jun-2018.xlsx,,UNMATCHED,20180630231056912935,818123945886,,ISSUER,18-07-2018 00:00:00,,19683,4723577700294577   945886100003709720,ATM WITHDRAWAL AT OTHER BANK ATMs,,POST CUTOFF
100.00,100.00,7,,09999208100036,9999,0.00,C,C,208100036,ATM,1020,ATW,2018-06-30 00:00:00,30-06-2018 23:04:31,GL_Dump_as_on_30-Jun-2018.xlsx,,UNMATCHED,20180630230431892832,818123945827,,ISSUER,18-07-2018 00:00:00,,19686,4723577700294577   945827100003709720,ATM WITHDRAWAL AT OTHER BANK ATMs,,POST CUTOFF
10000.00,10000.00,7,,09999208100036,9999,0.00,C,C,208100036,ATM,1014,ATW,2018-06-30 00:00:00,30-06-2018 23:25:02,GL_Dump_as_on_30-Jun-2018.xlsx,,UNMATCHED,20180630232502952775,818123547350,,ISSUER,18-07-2018 00:00:00,,19773,5089991200079252   547350100000254182,ATM WITHDRAWAL AT OTHER BANK ATMs,,POST CUTOFF
8000.00,8000.00,7,,09999208100036,9999,0.00,C,C,208100036,ATM,1014,ATW,2018-06-30 00:00:00,30-06-2018 23:25:55,GL_Dump_as_on_30-Jun-2018.xlsx,,UNMATCHED,20180630232555955002,818123547351,,ISSUER,18-07-2018 00:00:00,,19774,5089991200079252   547351100000254182,ATM WITHDRAWAL AT OTHER BANK ATMs,,POST CUTOFF
-3000.00,3000.00,7,,09999208100036,9999,0.00,C,D,208100036,ATM,1004,ATW,2018-06-30 00:00:00,30-06-2018 08:53:13,GL_Dump_as_on_30-Jun-2018.xlsx,,UNMATCHED,20180630085313025078,818108013661,,ISSUER,18-07-2018 00:00:00,,19812,5089981100343726   013661100000900917,ATM WITHDRAWAL AT OTHER BANK ATMs,,
4000.00,4000.00,7,,09999208100036,9999,0.00,C,C,208100036,ATM,1014,ATW,2018-06-30 00:00:00,30-06-2018 23:32:23,GL_Dump_as_on_30-Jun-2018.xlsx,,UNMATCHED,20180630233223979342,818123006227,,ISSUER,18-07-2018 00:00:00,,19832,4723574000002925   006227100000164563,ATM WITHDRAWAL AT OTHER BANK ATMs,,POST CUTOFF
1000.00,1000.00,7,,09999208100036,9999,0.00,C,C,208100036,ATM,1014,ATW,2018-06-30 00:00:00,30-06-2018 23:35:35,GL_Dump_as_on_30-Jun-2018.xlsx,,UNMATCHED,20180630233535978328,818123004331,,ISSUER,18-07-2018 00:00:00,,19850,4723574000294837   004331100002953078,ATM WITHDRAWAL AT OTHER BANK ATMs,,POST CUTOFF
-10000.00,10000.00,7,,09999208100036,9999,0.00,C,D,208100036,ATM,2001,ATS,2018-06-30 00:00:00,30-06-2018 14:13:17,GL_Dump_as_on_30-Jun-2018.xlsx,,UNMATCHED,20180630141317260702,818114011909,,ISSUER,18-07-2018 00:00:00,,19897,5089981400020164   011909200000106599,ATM WITHDRAWAL AT OTHER BANK ATM-SBI,,
-10000.00,10000.00,7,,09999208100036,9999,0.00,C,D,208100036,ATM,1014,ATS,2018-06-30 00:00:00,30-06-2018 17:12:22,GL_Dump_as_on_30-Jun-2018.xlsx,,UNMATCHED,20180630171222990746,818117019850,,ISSUER,18-07-2018 00:00:00,,19900,5089991200081464   019850100000197103,ATM WITHDRAWAL AT OTHER BANK ATM-SBI,,
-10000.00,10000.00,7,,09999208100036,9999,0.00,C,D,208100036,ATM,1005,ATW,2018-06-30 00:00:00,30-06-2018 19:35:33,GL_Dump_as_on_30-Jun-2018.xlsx,,UNMATCHED,20180630193533920872,818119582980,,ISSUER,18-07-2018 00:00:00,,19945,4723571000230639   582980100003391327,ATM WITHDRAWAL AT OTHER BANK ATMs,,
-5000.00,5000.00,7,,09999208100036,9999,0.00,C,D,208100036,ATM,1015,ATW,2018-06-30 00:00:00,30-06-2018 10:11:13,GL_Dump_as_on_30-Jun-2018.xlsx,,UNMATCHED,20180630101113572301,818110017846,,ISSUER,18-07-2018 00:00:00,,20011,5089980000169165   017846100000766743,ATM WITHDRAWAL AT OTHER BANK ATMs,,
3000.00,3000.00,7,,09999208100036,9999,0.00,C,C,208100036,ATM,1014,ATS,2018-06-30 00:00:00,30-06-2018 23:14:41,GL_Dump_as_on_30-Jun-2018.xlsx,,UNMATCHED,20180630231441923911,818123010127,,ISSUER,18-07-2018 00:00:00,,20016,5089991200102963   010127100001021220,ATM WITHDRAWAL AT OTHER BANK ATM-SBI,,POST CUTOFF
1000.00,1000.00,7,,208100036,9999,0.00,D,D,208100036,BRN,,MGD,2018-06-30 00:00:00,30-06-2018 18:39:11,GL_Dump_as_on_30-Jun-2018.xlsx,,UNMATCHED,374712018063020955,NA,7,ISSUER,18-07-2018 00:00:00,,14986,ATW-5089981100812076/817315737750-22-jun,MISC DEBIT,,MANUAL ENTRY
1000.00,1000.00,7,,208100036,9999,0.00,D,D,208100036,BRN,,MGD,2018-06-30 00:00:00,30-06-2018 18:39:11,GL_Dump_as_on_30-Jun-2018.xlsx,,UNMATCHED,374712018063020955,NA,8,ISSUER,18-07-2018 00:00:00,,14987,ATW-5089981100812076/817315737751-22-jun,MISC DEBIT,,MANUAL ENTRY
500.00,500.00,7,,208100036,9999,0.00,D,D,208100036,BRN,,MGD,2018-06-30 00:00:00,30-06-2018 18:39:11,GL_Dump_as_on_30-Jun-2018.xlsx,,UNMATCHED,374712018063020955,NA,9,ISSUER,18-07-2018 00:00:00,,14988,ATW-5089980000067153/817317007060-22-jun,MISC DEBIT,,MANUAL ENTRY
10000.00,10000.00,7,,208100036,9999,0.00,D,D,208100036,BRN,,MGD,2018-06-30 00:00:00,30-06-2018 18:39:11,GL_Dump_as_on_30-Jun-2018.xlsx,,UNMATCHED,374712018063020955,NA,10,ISSUER,18-07-2018 00:00:00,,14989,ATW-5089981100595879/817613136475-25-jun,MISC DEBIT,,MANUAL ENTRY
500.00,500.00,7,,208100036,9999,0.00,D,D,208100036,BRN,,MGD,2018-06-30 00:00:00,30-06-2018 18:39:11,GL_Dump_as_on_30-Jun-2018.xlsx,,UNMATCHED,374712018063020955,NA,11,ISSUER,18-07-2018 00:00:00,,14990,ATW-4723572000032736/817620023913-25-jun,MISC DEBIT,,MANUAL ENTRY
1000.00,1000.00,7,,208100036,9999,0.00,D,D,208100036,BRN,,MGD,2018-06-30 00:00:00,30-06-2018 18:39:11,GL_Dump_as_on_30-Jun-2018.xlsx,,UNMATCHED,374712018063020955,NA,12,ISSUER,18-07-2018 00:00:00,,14991,ATW-5089981100409493/817815405811-27-jun,MISC DEBIT,,MANUAL ENTRY
11940373.00,11940373.00,7,,208100036,9999,0.00,D,D,208100036,BRN,,MGD,2018-06-30 00:00:00,30-06-2018 15:09:55,GL_Dump_as_on_30-Jun-2018.xlsx,,UNMATCHED,337722018063020937,NA,11,ISSUER,18-07-2018 00:00:00,,16763,1C NFS ATM SETTLEMENT TXN 28-06-18,MISC DEBIT,,MANUAL ENTRY
5870000.00,5870000.00,7,,208100036,9999,0.00,D,D,208100036,BRN,,MGD,2018-06-30 00:00:00,30-06-2018 15:09:56,GL_Dump_as_on_30-Jun-2018.xlsx,,UNMATCHED,337722018063020937,NA,148,ISSUER,18-07-2018 00:00:00,,16764,2C NFS ATM SETTLEMENT TXN 29-06-18,MISC DEBIT,,MANUAL ENTRY
7000.00,7000.00,7,,208100036,9999,0.00,D,D,208100036,BRN,,MGD,2018-06-30 00:00:00,30-06-2018 18:41:41,GL_Dump_as_on_30-Jun-2018.xlsx,,UNMATCHED,337722018063020976,NA,1,ISSUER,18-07-2018 00:00:00,,17707,N S-5089980000460713/6588-22-JUN-18,MISC DEBIT,,MANUAL ENTRY
500.00,500.00,7,,208100036,9999,0.00,D,D,208100036,BRN,,MGD,2018-06-30 00:00:00,30-06-2018 18:41:41,GL_Dump_as_on_30-Jun-2018.xlsx,,UNMATCHED,337722018063020976,NA,2,ISSUER,18-07-2018 00:00:00,,17708,N S-5089991200050659/7603-24-JUN-18,MISC DEBIT,,MANUAL ENTRY
10000.00,10000.00,7,,208100036,9999,0.00,D,D,208100036,BRN,,MGD,2018-06-30 00:00:00,30-06-2018 18:41:41,GL_Dump_as_on_30-Jun-2018.xlsx,,UNMATCHED,337722018063020976,NA,3,ISSUER,18-07-2018 00:00:00,,17709,N S-4723577700278216/2646-24-JUN-18,MISC DEBIT,,MANUAL ENTRY
2000.00,2000.00,7,,208100036,9999,0.00,D,D,208100036,BRN,,MGD,2018-06-30 00:00:00,30-06-2018 18:41:41,GL_Dump_as_on_30-Jun-2018.xlsx,,UNMATCHED,337722018063020976,NA,4,ISSUER,18-07-2018 00:00:00,,17743,N S-4723574000347114/2030-24-JUN-18,MISC DEBIT,,MANUAL ENTRY
500.00,500.00,7,,208100036,9999,0.00,D,D,208100036,BRN,,MGD,2018-06-30 00:00:00,30-06-2018 18:41:41,GL_Dump_as_on_30-Jun-2018.xlsx,,UNMATCHED,337722018063020976,NA,5,ISSUER,18-07-2018 00:00:00,,17744,N S-5089980000003869/4516-25-JUN-18,MISC DEBIT,,MANUAL ENTRY
3000.00,3000.00,7,,208100036,9999,0.00,D,D,208100036,BRN,,MGD,2018-06-30 00:00:00,30-06-2018 18:41:41,GL_Dump_as_on_30-Jun-2018.xlsx,,UNMATCHED,337722018063020976,NA,6,ISSUER,18-07-2018 00:00:00,,17745,N S-5089981100994783/7090-26-JUN-18,MISC DEBIT,,MANUAL ENTRY
10000.00,10000.00,7,,208100036,9999,0.00,D,D,208100036,BRN,,MGD,2018-06-30 00:00:00,30-06-2018 18:41:41,GL_Dump_as_on_30-Jun-2018.xlsx,,UNMATCHED,337722018063020976,NA,7,ISSUER,18-07-2018 00:00:00,,17746,N S-5089981100024474/4128-26-JUN-18,MISC DEBIT,,MANUAL ENTRY
3000.00,3000.00,7,,208100036,9999,0.00,C,C,208100036,BRN,,GMC,2018-06-30 00:00:00,30-06-2018 18:41:41,GL_Dump_as_on_30-Jun-2018.xlsx,,UNMATCHED,337722018063020976,NA,37,ISSUER,18-07-2018 00:00:00,,17747,OT REMIT-4723577900001194/1659-27-06-18,MISC CREDIT,,MANUAL ENTRY
3000.00,3000.00,7,,208100036,9999,0.00,C,C,208100036,BRN,,GMC,2018-06-30 00:00:00,30-06-2018 18:41:41,GL_Dump_as_on_30-Jun-2018.xlsx,,UNMATCHED,337722018063020976,NA,39,ISSUER,18-07-2018 00:00:00,,17748,OT REMIT-5089991200052457/0188-29-06-18,MISC CREDIT,,MANUAL ENTRY
3000.00,3000.00,7,,208100036,9999,0.00,C,C,208100036,BRN,,GMC,2018-06-30 00:00:00,30-06-2018 18:41:41,GL_Dump_as_on_30-Jun-2018.xlsx,,UNMATCHED,337722018063020976,NA,42,ISSUER,18-07-2018 00:00:00,,17749,ISS LTREV-5089980001099270/3548-26-06-18,MISC CREDIT,,MANUAL ENTRY
3000.00,3000.00,7,,208100036,9999,0.00,C,C,208100036,BRN,,GMC,2018-06-30 00:00:00,30-06-2018 18:41:41,GL_Dump_as_on_30-Jun-2018.xlsx,,UNMATCHED,337722018063020976,NA,44,ISSUER,18-07-2018 00:00:00,,17750,ISS LTREV-5089981100127467/9047-29-06-18,MISC CREDIT,,MANUAL ENTRY
5602300.00,5602300.00,7,,208100036,9999,0.00,D,D,208100036,BRN,,MGD,2018-06-30 00:00:00,30-06-2018 15:09:55,GL_Dump_as_on_30-Jun-2018.xlsx,,UNMATCHED,337722018063020937,NA,66,ISSUER,18-07-2018 00:00:00,,18160,2C NFS ATM SETTLEMENT TXN 28-06-18,MISC DEBIT,,MANUAL ENTRY
11785900.00,11785900.00,7,,208100036,9999,0.00,D,D,208100036,BRN,,MGD,2018-06-30 00:00:00,30-06-2018 15:09:55,GL_Dump_as_on_30-Jun-2018.xlsx,,UNMATCHED,337722018063020937,NA,80,ISSUER,18-07-2018 00:00:00,,18161,1C NFS ATM SETTLEMENT TXN 29-06-18,MISC DEBIT,,MANUAL ENTRY
