{
  "shop": "Shop",
  "recons": "Recons",
  "marketPlace": "Marketplace",
  "dashboard": "Dashboard",
  "runJob": "Run Job",
  "users": "Users",
  "setting": "Settings",
  "reconAssignment": "Recon Assignment",
  "reconJobDetails": "Recon Status",
  "totalRecons": "Total Recons",
  "jobSucces": "Job Success",
  "jobFailed": "Job Failed",
  "licenseRecon": "Licensed Recons",
  "db": "Data Base",
  "dbSettings": "Data Base Settings",
  "reconSetup": "Recon Setup",
  "reconProcess": "Recon Process",
  "reconName": "Recon Name",
  "actions": "Actions",
  "reconImage": "Recon Image",
  "sources": "Sources",
  "add": "Add",
  "structure": "Structure",
  "addStructure": "Add Structure",
  "keyColumns": "Key Columns",
  "dataTypes": "Data Types",
  "deleteMsg": "Are you sure you want to delete?",
  "jobStatus": "Job Status",
  "statementDate": "Statement Date",
  "jobs": "Jobs",
  "Today'sReconsOverview": "Today's Recons - Overview",
  "details": "Details",
  "edit": "Edit",
  "cancel": "Cancel",
  "save": "Save",
  "remove": "Remove",
  "delete": "Delete",
  "username": "User Name",
  "submit": "Submit",
  "create": "Create",
  "select": "Select",
  "user": "User",
  "upload": "Upload",
  "download": "Download",
  "filter": "Filter",
  "recon": "Recon",
  "source": "Source",
  "incrementLoader": "Increment Loader",
  "raiseError": "Raise Error",
  "disableCarryForward": "Disable Carry Forward",
  "metaInfo": "Recon MetaInfo",
  "sourceMetaInfo": "Source MetaInfo",
  "install": "Install",
  "int": "int",
  "float": "float",
  "string": "string",
  "login": "Log In",
  "signUp": "Sign Up",
  "forgotPassword": "Forgot password?",
  "password": "Password",
  "algoFusion": "Algofusion E-Recon",
  "showPassword": "Show Password",
  "deleteReconAssignmentmsg": "Are you sure want to unassign this Recon?",
  "deleteReconAssign": "Unassign Recon",
  "unlockUserMsg": "Are you sure want to unlock user?",
  "unlockUser": "Unlock User",
  "removeUserMsg": "Are you sure want to delete this user?",
  "removeUser": "Delete User",
  "invalideMailId": "Invalid Mail Id",
  "Ppnm": "Password Policy Not Matched",
  "confirmPassword": "Confirm Password",
  "forceMatch": "Force Match",
  "search": "Search",
  "primary": "Primary",
  "toMatch": "To match",
  "addColumns": "Add Columns",
  "forceMatchLog": "ForceMatch Log",
  "CustomOperation": "Custom Operation",
  "operation": "Operation",
  "dateTime": "Date & Time",
  "removeSuccess": "Removed Successfully.",
  "updateSuccess": "updated Successfully.",
  "addColumns": "Add Columns",
  "toolTip": "Your password must be 8-20 characters long, contain letters and numbers,and must not contain spaces, special characters,or emoji.",
  "unlock": "Unlock User",
  "password": "Password",
  "newPassword": "New Password",
  "updatePassword": "Update",
  "oldPassword": "Old Password",
  "updatePasswordTitle": "Update",
  "passwordUpdateSuccess": "Password updated successfully.",
  "unlockSuccess": "User unlocked successfully.",
  "excelSheets": "Excel sheets",
  "noDataFound": "No data found.",
  "plzEnterUser": "Please enter userName",
  "enterMail": "Enter mail id associated with username",
  "email": "Email",
  "confirm": "Confirm",
  "back": "Back",
  "forceMatchRecords": "Force match records",
  "installRecons": "Are you sure want to install this Recon?",
  "confirmation": "Confirmation",
  "imageUploadMsg": "Image uploaded successfully.",
  "reconImgUpload": "Upload Recon Image",
  "deleteReconMsg": "All details of this recon will be deleted. Are you sure want delete the recon?",
  "srcDelMsg": "Source deleted successfully.",
  "struDelMsg": "Structure deleted successfully.",
  "deleteCol": "column deleted successfully.",
  "deleteColMsg": "Are you want to delete this column?",
  "deleteStructMsg": "Are you want to delete this column?",
  "totalAssignedRecons": "Assigned Recons",
  "successFullyRun": "Successfully Run",
  "noRecons": "No recons assigned for this user.",
  "deleteReconSucc": "Recon deleted successfully.",
  "message": "Message",
  "forceMatchLogData": "No data found for forceMatchLog.",
  "forceMatchLog": "ForceMatch Log",
  "passwordPolicy": "Password Policy",
  "charLine": "Minimum 8 and maximum 32 characters",
  "passContain": "Must contain atleast one digit,one capital and small alphabet",
  "passSpecial": "Must contain atleast one of the special character( @ # $ ^ * _ )",
  "passCahrRepeat": "Should not repeat the characters more than 2 times",
  "passSpace": "Should not contain spaces",
  "reconJobMsg": "Recon job initiated, please refresh..",
  "changePassword": "Change Password",
  "signUpSucc": "Sign up successful",
  "reconDet": "Recon Details",
  "reconJob": "Recon Job",
  "file": "File",
  "runJob": "Run Job",
  "uploadRecon": "Run Recon Job",
  "rollBackRecon": "Recon Rollback",
  "rollBackMsg": "Do you want to rollback the recon ",
  "rollBackSuccMsg": " Recon rollback has done successfully.",
  "filePattern": "File Pattern",
  "loadType": "Load Type",
  "skipHeader": "Skip Header",
  "skipFooter": "Skip Footer",
  "parseIndex": "Parse Index",
  "delimeter": "Delimeter",
  "footerKey": "Footer Key",
  "excelSheets": "Excel Sheets",
  "columnName": "Column Name",
  "columnType": "Column DataType",
  "mappingColumn": "Mapping Column",
  "fileColumn": "File Column",
  "datePattern": "Date Pattern",
  "from": "From",
  "to": "To",
  "required": "Required",
  "records": "Records",
  "defaultMsg": "Internal Error",
  "password": "Password",
  "alrHaveAcc": "Already have an account?",
  "urPwdMustMatch": "Your password must match...",
  "columnsBaseSearch": "Column Based Search",
  "reorderColumn": "Reorder Columns",
  "value": "Value",
  "filters": "Filters",
  "referenceSource": "Reference Source",
  "structureName": "Structure Name",
  "sourceName": "Source Name",
  "imageUploaded": "Image Uploaded",
  "order": "Order",
  "headerKey": "Header Key",
  "position": "Position",
  "columns": "Columns",
  "Alias": "alias",
  "note": "Note",
  "exportAll": "Export All",
  "image": "Image Upload",
  "algoFusion": "Algo Fusion",
  "provideDetails": "Provide Details",
  "query": "Query",
  "runJobDet": "Run Job Details",
  "refreshPage": "Refresh Page",
  "editUser": "Edit User",
  "reconsStore": "Recons Store",
  "configure": "Configure",
  "oldPasEquNewPassword": "Old and New Password are Same.",
  "failed": "Failed",
  "role": "Role",
  "privileges": "Privileges",
  "approval": "Approval",
  "reconAssignedSucc": "Recon Assigned Successfully",
  "accountSetting": "Account Setting",
  "oldPassword": "Old Password",
  "newPassword": "New Password",
  "changePassword": "Change Password",
  "logout": "Logout",
  "matchCount": "Matched",
  "unMatchCount": "UnMatched",
  "cfMatchCnt": "CF-Match Count",
  "cfUnMatchCnt": "CF-UnMatch Count",
  "reorder": "Reorder",
  "advfilters": "Advance Filter",
  "reports": "Reports",
  "reportName": "Report Name",
  "uploadFeedDef": "Upload FeedDef",
  "sourceSave": "Source Saved successfully",
  "fileUpload": "File Uploaded Successfully",
  "exportReport": "Export Report",
  "datetime": "datetime",
  "customReports": "Custom Reports",
  "sampleFile": "Sample File",
  "cloneMsg": "Are you want to clone source references?",
  "selectSheet": "Select sheetName for the source",
  "invoiceUpload": "Invoice Upload",
  "cloneMsg":"Do you want to clone recon?",
  "setValue":"Set Value",
  "allSheets":"All Sheets",
  "auditlogs":"AuditLogs",
  "previousData":"PreviousData",
  "endDate":"Statement End Date",
  "rollBack":"Roll Back",
  "getReports":"Get Reports",
  "removeColumnOrdering":"Columns Reordering Removed Successfully"
}