MOB TRAN ID,TRAN REMARKS,TRAN ID,TRAN DATE, TRANSACTION TIME,DR BRANCH ID,DEBIT ACCT NUM,CREDIT ACCT NUM,TRAN AMT,TRAN CRNCY,STATUS,CHANNEL ID,LINK_ID,SU Match
MOBB,RRN:MOB_2018072400523969,S4450499,24-07-2018,21:17:45,3053,520291027603471,,11,INR,Y,MBK,,UNMATCHED
MOBB,RRN:MOB_2018072400524168,S4463749,24-07-2018,15:20:49,0075,520101016486281,,500,INR,Y,MBK,,UNMATCHED
MOBB,RRN:MOB_2018072400524209,S4467931,24-07-2018,18:02:13,0620,520441024691402,,291,INR,Y,MBK,,UNMATCHED
MOBB,RRN:MOB_2018072400524260,S4471025,24-07-2018,15:53:59,0202,520101069873581,,1010,INR,Y,MBK,,UNMATCHED
MOBB,RRN:MOB_2018072400524272,S4472504,24-07-2018,15:11:36,0045,520471005446701,,474,INR,Y,MBK,,UNMATCHED
MOBB,RRN:MOB_2018072400524278,S4473240,24-07-2018,20:24:29,1712,565181735211201,,60,INR,Y,MBK,,UNMATCHED
MOBB,RRN:MOB_2018072400524286,S4474261,24-07-2018,20:33:24,0673,520101199893698,,2305,INR,Y,MBK,,UNMATCHED
MOBB,RRN:MOB_2018072400524364,S4485135,24-07-2018,20:33:45,0700,520101005803711,,570,INR,Y,MBK,,UNMATCHED
MOBB,RRN:MOB_2018072400524378,S4487257,24-07-2018,20:36:58,0865,520101080431913,,190,INR,Y,MBK,,UNMATCHED
MOBB,RRN:MOB_2018072400524422,S4492957,24-07-2018,20:33:45,0700,520101005803711,,570,INR,Y,MBK,,UNMATCHED
MOBB,RRN:MOB_2018072400524432,S4494104,24-07-2018,15:51:11,0188,520101204605160,,880,INR,Y,MBK,,UNMATCHED
MOBB,RRN:MOB_2018072400524448,S4495571,24-07-2018,16:58:30,0396,520111028887944,,135,INR,Y,MBK,,UNMATCHED
MOBB,RRN:MOB_2018072400524455,S4495898,24-07-2018,15:51:11,0188,520101204605160,,880,INR,Y,MBK,,UNMATCHED
MOBB,RRN:MOB_2018072400524530,S4503698,24-07-2018,20:33:37,0698,520101210882812,,7470,INR,Y,MBK,,UNMATCHED
MOBB,RRN:MOB_2018072400524551,S4505187,24-07-2018,22:00:22,3251,510101001266704,,3720,INR,Y,MBK,,UNMATCHED
MOBB,RRN:MOB_2018072400524585,S4507581,24-07-2018,15:51:11,0188,520101204605160,,880,INR,Y,MBK,,UNMATCHED
MOBB,RRN:MOB_2018072400524594,S4507997,24-07-2018,15:43:07,0154,510331000092279,,530,INR,Y,MBK,,UNMATCHED
MOBB,RRN:MOB_2018072400524602,S4508539,24-07-2018,22:00:22,3251,510101001266704,,14580,INR,Y,MBK,,UNMATCHED
MOBB,RRN:MOB_2018072400524611,S4509292,24-07-2018,17:13:25,0430,520101046934223,,400,INR,Y,MBK,,UNMATCHED
MOBB,RRN:MOB_2018072400524644,S4512194,24-07-2018,20:31:26,0772,510101000659427,,9,INR,Y,MBK,,UNMATCHED
MOBB,RRN:MOB_2018072400524646,S4512545,24-07-2018,15:52:52,0195,565111000005483,,106,INR,Y,MBK,,UNMATCHED
MOBB,RRN:MOB_2018072400524691,S4515334,24-07-2018,20:21:22,1548,520101051325639,,30,INR,Y,MBK,,UNMATCHED
MOBB,RRN:MOB_2018072400524743,S4519503,24-07-2018,20:25:37,0523,520101244256221,,199,INR,Y,MBK,,UNMATCHED
MOBB,RRN:MOB_2018072400524751,S4520018,24-07-2018,17:17:28,0439,520111028889246,,2950,INR,Y,MBK,,UNMATCHED
MOBB,RRN:MOB_2018072400524826,S4526493,24-07-2018,21:45:35,1515,510101003636002,,1613,INR,Y,MBK,,UNMATCHED
MOBB,RRN:MOB_2018072400524904,S4536033,24-07-2018,15:26:40,0099,520101201079115,,169,INR,Y,MBK,,UNMATCHED
MOBB,RRN:MOB_2018072400524991,S4549734,24-07-2018,15:09:44,0036,520101214802961,,20,INR,Y,MBK,,UNMATCHED
MOBB,RRN:MOB_2018072400525011,S4551389,24-07-2018,21:45:42,1515,520441028505866,,100,INR,Y,MBK,,UNMATCHED
MOBB,RRN:MOB_2018072400525071,S4557263,24-07-2018,17:54:49,0541,520111028935892,,202,INR,Y,MBK,,UNMATCHED
MOBB,RRN:MOB_2018072400525118,S4562546,24-07-2018,21:31:28,0568,520101206100244,,735,INR,Y,MBK,,UNMATCHED
MOBB,RRN:MOB_2018072400525141,S4566129,24-07-2018,22:02:14,3458,510101002373105,,53990,INR,Y,MBK,,UNMATCHED
MOBB,RRN:MOB_2018072400525158,S4568715,24-07-2018,22:02:14,3458,510101002373105,,390,INR,Y,MBK,,UNMATCHED
MOBB,RRN:MOB_2018072400525172,S4570512,24-07-2018,22:02:14,3458,510101002373105,,750,INR,Y,MBK,,UNMATCHED
MOBB,RRN:MOB_2018072400525173,S4570654,24-07-2018,21:49:58,1760,510101002586913,,56120,INR,Y,MBK,,UNMATCHED
MOBB,RRN:MOB_2018072400525237,S4578746,24-07-2018,20:15:50,0715,520111028856925,,518,INR,Y,MBK,,UNMATCHED
MOBB,RRN:MOB_2018072400525374,S4593489,24-07-2018,15:16:31,0063,520101227331938,,297,INR,Y,MBK,,UNMATCHED
MOBB,RRN:MOB_2018072400525391,S4595079,24-07-2018,15:16:31,0063,520101227331938,,1412,INR,Y,MBK,,UNMATCHED
MOBB,RRN:MOB_2018072400525421,S4598284,24-07-2018,21:32:08,3519,520291021569671,,20,INR,Y,MBK,,UNMATCHED
MOBB,RRN:MOB_2018072400525453,S4600342,24-07-2018,16:33:00,0337,520101019882951,,260,INR,Y,MBK,,UNMATCHED
MOBB,RRN:MOB_2018072400525456,S4600375,24-07-2018,20:20:53,1537,520101036958731,,967,INR,Y,MBK,,UNMATCHED
MOBB,RRN:MOB_2018072400525473,S4602531,24-07-2018,20:33:59,1711,520141000195770,,5000,INR,Y,MBK,,UNMATCHED
MOBB,RRN:MOB_2018072400525476,S4602723,24-07-2018,21:08:25,2111,520471003429559,,665,INR,Y,MBK,,UNMATCHED
MOBB,RRN:MOB_2018072400525503,S4604911,24-07-2018,15:49:36,0181,520101235515139,,158,INR,Y,MBK,,UNMATCHED
MOBB,RRN:MOB_2018072400525507,S4605001,24-07-2018,21:07:01,0677,520101205847206,,880,INR,Y,MBK,,UNMATCHED
MOBB,RRN:MOB_2018072400525543,S4607716,24-07-2018,21:07:01,0677,520101205847206,,880,INR,Y,MBK,,UNMATCHED
MOBB,RRN:MOB_2018072400525620,S4614147,24-07-2018,20:13:56,3534,520101248764044,,100,INR,Y,MBK,,UNMATCHED
MOBB,RRN:MOB_2018072400525655,S4617075,24-07-2018,21:13:00,2942,510101006533885,,300,INR,Y,MBK,,UNMATCHED
MOBB,RRN:MOB_2018072400525732,S4623376,24-07-2018,20:13:56,3534,520101248764044,,100,INR,Y,MBK,,UNMATCHED
MOBB,RRN:MOB_2018072400525734,S4623409,24-07-2018,18:03:03,0645,520101214453134,,300,INR,Y,MBK,,UNMATCHED
MOBB,RRN:MOB_2018072400525754,S4624972,24-07-2018,21:09:57,1054,520101216805291,,525,INR,Y,MBK,,UNMATCHED
MOBB,RRN:MOB_2018072400525764,S4625470,24-07-2018,20:13:56,3534,520101248764044,,4293,INR,Y,MBK,,UNMATCHED
MOBB,RRN:MOB_2018072400525827,S4631988,24-07-2018,20:31:52,2113,520101060099417,,430,INR,Y,MBK,,UNMATCHED
MOBB,RRN:MOB_2018072400525897,S4639347,24-07-2018,20:34:28,0746,520101001539023,,658,INR,Y,MBK,,UNMATCHED
MOBB,RRN:MOB_2018072400525913,S4640321,24-07-2018,20:42:03,3424,565181000088990,,1091,INR,Y,MBK,,UNMATCHED
MOBB,RRN:MOB_2018072400525946,S4643495,24-07-2018,20:34:49,2951,520101032569021,,973,INR,Y,MBK,,UNMATCHED
MOBB,RRN:MOB_2018072400525970,S4645654,24-07-2018,20:34:49,2951,520101032569021,,1978,INR,Y,MBK,,UNMATCHED
MOBB,RRN:MOB_2018072400525971,S4645737,24-07-2018,20:15:34,1042,520101000795484,,1251,INR,Y,MBK,,UNMATCHED
MOBB,RRN:MOB_2018072400525998,S4649038,24-07-2018,21:03:18,1885,520101052679493,,1326,INR,Y,MBK,,UNMATCHED
MOBB,RRN:MOB_2018072400526031,S4651381,24-07-2018,17:53:38,0536,520101057805512,,1710,INR,Y,MBK,,UNMATCHED
MOBB,RRN:MOB_2018072400526061,S4654639,24-07-2018,17:00:40,0401,520101046735328,,500,INR,Y,MBK,,UNMATCHED
MOBB,RRN:MOB_2018072400526091,S4658032,24-07-2018,20:32:29,1064,510101004140868,,283,INR,Y,MBK,,UNMATCHED
MOBB,RRN:MOB_2018072400526148,S4664587,24-07-2018,22:00:22,3251,510101001266704,,14580,INR,Y,MBK,,UNMATCHED
MOBB,RRN:MOB_2018072400526196,S4670620,24-07-2018,22:00:22,3251,510101001266704,,3720,INR,Y,MBK,,UNMATCHED
MOBB,RRN:MOB_2018072400526247,S4676932,24-07-2018,21:16:50,3029,520101253973521,,1219,INR,Y,MBK,,UNMATCHED
MOBB,RRN:MOB_2018072400526252,S4677582,24-07-2018,16:47:11,0373,520401000169238,,5030,INR,Y,MBK,,UNMATCHED
MOBB,RRN:MOB_2018072400526287,S4679814,24-07-2018,16:47:11,0373,520401000169238,,390,INR,Y,MBK,,UNMATCHED
MOBB,RRN:MOB_2018072400526444,S4693109,24-07-2018,16:50:11,0380,520101263821494,,54,INR,Y,MBK,,UNMATCHED
MOBB,RRN:MOB_2018072400526452,S4693681,24-07-2018,18:02:29,0622,520361001799570,,600,INR,Y,MBK,,UNMATCHED
MOBB,RRN:MOB_2018072400526587,S4705204,24-07-2018,20:15:34,1042,520101000795484,,1251,INR,Y,MBK,,UNMATCHED
MOBB,RRN:MOB_2018072400526589,S4705396,24-07-2018,21:13:11,1488,520291039174978,,100,INR,Y,MBK,,UNMATCHED
MOBB,RRN:MOB_2018072400526701,S4714558,24-07-2018,20:05:34,1798,520331003327617,,199,INR,Y,MBK,,UNMATCHED
MOBB,RRN:MOB_2018072400526774,S4721039,24-07-2018,20:08:27,2124,520111028811506,,441,INR,Y,MBK,,UNMATCHED
MOBB,RRN:MOB_2018072400526877,S4728874,24-07-2018,20:37:54,1426,520111028646130,,756,INR,Y,MBK,,UNMATCHED
MOBB,RRN:MOB_2018072400527010,S4739853,24-07-2018,15:35:47,0133,520111123540336,,370,INR,Y,MBK,,UNMATCHED
MOBB,RRN:MOB_2018072400527076,S4746517,24-07-2018,21:37:05,0860,520101248370630,,1298.6,INR,Y,MBK,,UNMATCHED
MOBB,RRN:MOB_2018072400527115,S4749388,24-07-2018,21:37:05,0860,520101248370630,,1407.14,INR,Y,MBK,,UNMATCHED
MOBB,RRN:MOB_2018072400527170,S4754545,24-07-2018,16:07:18,0257,520471002618961,,320,INR,Y,MBK,,UNMATCHED
MOBB,RRN:MOB_2018072400527431,S4779224,24-07-2018,17:38:18,0474,520101077656594,,4140,INR,Y,MBK,,UNMATCHED
MOBB,RRN:MOB_2018072400533145,S5300772,24-07-2018,21:13:33,1349,520291039463783,,299,INR,Y,MBK,,UNMATCHED
MOBB,RRN:MOB_2018072400533176,S5302633,24-07-2018,21:25:29,3289,510101002448385,,200,INR,Y,MBK,,UNMATCHED
MOBB,RRN:MOB_2018072400533183,S5302938,24-07-2018,21:18:10,1101,520291019051058,,17,INR,Y,MBK,,UNMATCHED
MOBB,RRN:MOB_2018072400533214,S5304923,24-07-2018,21:22:17,1101,520291019051058,,49,INR,Y,MBK,,UNMATCHED
MOBB,RRN:MOB_2018072400533216,S5304985,24-07-2018,21:28:33,3394,520291006585588,,10,INR,Y,MBK,,UNMATCHED
MOBB,RRN:MOB_2018072400533229,S5305648,24-07-2018,21:41:42,1279,520101232209347,,50,INR,Y,MBK,,UNMATCHED
MOBB,RRN:MOB_2018072400533294,S5309943,24-07-2018,21:30:56,0133,565181735207891,,20,INR,Y,MBK,,UNMATCHED
MOBB,RRN:MOB_2018072400533297,S5310151,24-07-2018,21:31:23,0264,520141001565628,,3931.41,INR,Y,MBK,,UNMATCHED
MOBB,RRN:MOB_2018072400533315,S5311120,24-07-2018,21:33:21,0264,520141001565628,,3931.41,INR,Y,MBK,,UNMATCHED
MOBB,RRN:MOB_2018072400533324,S5311611,24-07-2018,21:48:07,1665,520101259633972,,300,INR,Y,MBK,,UNMATCHED
MOBB,RRN:MOB_2018072400533362,S5313851,24-07-2018,22:00:31,3283,560371000045865,,200,INR,Y,MBK,,UNMATCHED
MOBB,RRN:MOB_2018072400533375,S5314727,24-07-2018,21:41:25,0323,520111029135741,,320,INR,Y,MBK,,UNMATCHED
MOBB,RRN:MOB_2018072400533381,S5315321,24-07-2018,21:42:26,0264,520141001565628,,3931.41,INR,Y,MBK,,UNMATCHED
MOBB,RRN:MOB_2018072400533383,S5315422,24-07-2018,21:42:32,0072,520331004468567,,450,INR,Y,MBK,,UNMATCHED
MOBB,RRN:MOB_2018072400533392,S5315972,24-07-2018,21:43:16,0064,520101227461246,,535,INR,Y,MBK,,UNMATCHED
MOBB,RRN:MOB_2018072400533401,S5316469,24-07-2018,21:44:28,1424,520331002534147,,2450,INR,Y,MBK,,UNMATCHED
MOBB,RRN:MOB_2018072400533409,S5317401,24-07-2018,21:46:25,1424,520331002534147,,1294,INR,Y,MBK,,UNMATCHED
MOBB,RRN:MOB_2018072400533468,S5320936,24-07-2018,21:54:32,2091,520101009238626,,260,INR,Y,MBK,,UNMATCHED
MOBB,RRN:MOB_2018072400533498,S5322215,24-07-2018,21:58:29,0403,520441026984494,,500,INR,Y,MBK,,UNMATCHED
MOBB,RRN:MOB_2018072400533515,S5322653,24-07-2018,21:59:53,0495,520101047219481,,730,INR,Y,MBK,,UNMATCHED
MOBB,RRN:MOB_2018072400533522,S5323200,24-07-2018,22:01:38,0222,520101001622697,,23,INR,Y,MBK,,UNMATCHED
MOBB,RRN:MOB_2018072400533571,S5325977,24-07-2018,22:10:55,0222,520101001617631,,30,INR,Y,MBK,,UNMATCHED
MOBB,RRN:MOB_2018072400533594,S5326971,24-07-2018,22:14:38,1138,520111028676781,,1343,INR,Y,MBK,,UNMATCHED
MOBB,RRN:MOB_2018072400533597,S5327232,24-07-2018,22:15:33,1138,520111028676781,,240,INR,Y,MBK,,UNMATCHED
MOBB,RRN:MOB_2018072400533615,S5327901,24-07-2018,22:18:15,1242,520101212326135,,4757,INR,Y,MBK,,UNMATCHED
MOBB,RRN:MOB_2018072400533616,S5327931,24-07-2018,22:18:19,0222,520101001617631,,30,INR,Y,MBK,,UNMATCHED
MOBB,RRN:MOB_2018072400533619,S5328101,24-07-2018,22:18:57,0495,520101047219481,,730,INR,Y,MBK,,UNMATCHED
MOBB,RRN:MOB_2018072400533623,S5328165,24-07-2018,22:19:15,1378,565181735231681,,642,INR,Y,MBK,,UNMATCHED
MOBB,RRN:MOB_2018072400533647,S5329534,24-07-2018,22:24:25,1926,520291014555153,,240,INR,Y,MBK,,UNMATCHED
MOBB,RRN:MOB_2018072400533769,S5334947,24-07-2018,22:51:49,0619,520101246423702,,13941,INR,Y,MBK,,UNMATCHED
MOBB,RRN:MOB_2018072400533806,S5336407,24-07-2018,06:24:43,1372,520101066564677,,729,INR,Y,MBK,,UNMATCHED
MOBB,RRN:MOB_2018072400533811,S5336558,24-07-2018,06:24:16,0401,520101046735328,,500,INR,Y,MBK,,UNMATCHED
MOBB,RRN:MOB_2018072400533859,S5338553,24-07-2018,06:24:44,1406,510101002190493,,4030,INR,Y,MBK,,UNMATCHED
MOBB,RRN:MOB_2018072400533896,S5340291,24-07-2018,06:24:20,0554,520111001749567,,445,INR,Y,MBK,,UNMATCHED
