Status,Trade Date,Trade Time,Trade Source,Buy/Sell,Far Buy/Sell,Product,CCY Pair,Amount_1,Amount_3,Rate,Rate_3,Spot Rate,Amount_2,Amount_4,Value Date,Value Date_2,Counterparty,Unique Id 1,User ID,Account,Full Name,Fixing Date,Far Fixing Date,Fixing Reference,FEED_FILE_NAME,UNIQUE_SYS_COL,SourcePlatform,CounterPartyShortName,CurrencyPair,CurrencyPari_2,Buy Sell,Rate_2,SOURCE,STATEMENT_DATE,System_Idx,CARRY_FORWARD,Ageing,KPTP_Swap CarryForward,LINK_ID,KPTP_Swap Match
Booked,19-11-2018 00:00:00,07:54:42 GMT,Client,Sell,Buy,Swap,USDZAR,10000.0,10000.0,13.987496,13.989023,13.9905,139874.96,139890.23,19-11-2018 00:00:00,20-11-2018 00:00:00,DB,2288674094,VIKRAM.MAHAJAN,EU0378920,IDFC Bank Limited - G7,,,None,DEUL_191118_002.csv,"2018-11-19 00:00:00-139890.232018-11-20 00:00:0013.989023139874.9613.987496-10000.00=""2288674094""2018-11-19 00:00:0010000.00",,DEUTLON,USD,ZAR,SellBuy,13.987496,DB_Swap,08-03-2018 00:00:00,9528440643298123969,,403,,,UNMATCHED
Booked,19-11-2018 00:00:00,07:54:23 GMT,Client,Sell,Buy,Swap,USDSGD,100000.0,100000.0,1.372594,1.372600,1.37260,137259.4,137260.0,20-11-2018 00:00:00,21-11-2018 00:00:00,DB,2288674093,VIKRAM.MAHAJAN,EU0378920,IDFC Bank Limited - G7,,,None,DEUL_191118_002.csv,"2018-11-19 00:00:00-137260.002018-11-21 00:00:001.372600137259.401.372594-100000.00=""2288674093""2018-11-20 00:00:00100000.00",,DEUTLON,USD,SGD,SellBuy,1.372594,DB_Swap,08-03-2018 00:00:00,13645187888121722010,,403,,,UNMATCHED
Booked,19-11-2018 00:00:00,07:54:06 GMT,Client,Buy,Sell,Swap,NZDUSD,50000.0,50000.0,0.6848626,0.6848700,0.68487,34243.13,34243.5,20-11-2018 00:00:00,21-11-2018 00:00:00,DB,2288674092,VIKRAM.MAHAJAN,EU0378920,IDFC Bank Limited - G7,,,None,DEUL_191118_002.csv,"2018-11-19 00:00:0034243.502018-11-21 00:00:000.6848700-34243.130.684862650000.00=""2288674092""2018-11-20 00:00:00-50000.00",,DEUTLON,NZD,USD,BuySell,0.6848626,DB_Swap,08-03-2018 00:00:00,10979056059876697914,,403,,,UNMATCHED
Booked,19-11-2018 00:00:00,07:53:51 GMT,Client,Sell,Buy,Swap,USDJPY,16000.0,16000.0,112.75373,112.74600,112.746,1804059.0,1803936.0,20-11-2018 00:00:00,21-11-2018 00:00:00,DB,2288674091,VIKRAM.MAHAJAN,EU0378920,IDFC Bank Limited - G7,,,None,DEUL_191118_002.csv,"2018-11-19 00:00:00-18039362018-11-21 00:00:00112.746001804059112.75373-16000.00=""2288674091""2018-11-20 00:00:0016000.00",,DEUTLON,USD,JPY,SellBuy,112.75373,DB_Swap,08-03-2018 00:00:00,11712189330546237527,,403,,,UNMATCHED
Booked,19-11-2018 00:00:00,07:53:25 GMT,Client,Buy,Sell,Swap,GBPUSD,115000.0,115000.0,1.2857658,1.2858174,1.28587,147863.07,147869.0,19-11-2018 00:00:00,20-11-2018 00:00:00,DB,2288674090,VIKRAM.MAHAJAN,EU0378920,IDFC Bank Limited - G7,,,None,DEUL_191118_002.csv,"2018-11-19 00:00:00147869.002018-11-20 00:00:001.2858174-147863.071.2857658115000.00=""2288674090""2018-11-19 00:00:00-115000.00",,DEUTLON,GBP,USD,BuySell,1.2857658,DB_Swap,08-03-2018 00:00:00,11816683305917132368,,403,,,UNMATCHED
Booked,19-11-2018 00:00:00,07:53:13 GMT,Client,Buy,Sell,Swap,EURUSD,400000.0,400000.0,1.1413238,1.1414063,1.14149,456529.52,456562.52,19-11-2018 00:00:00,20-11-2018 00:00:00,DB,2288674089,VIKRAM.MAHAJAN,EU0378920,IDFC Bank Limited - G7,,,None,DEUL_191118_002.csv,"2018-11-19 00:00:00456562.522018-11-20 00:00:001.1414063-456529.521.1413238400000.00=""2288674089""2018-11-19 00:00:00-400000.00",,DEUTLON,EUR,USD,BuySell,1.1413238,DB_Swap,08-03-2018 00:00:00,10894717715259479361,,403,,,UNMATCHED
Booked,19-11-2018 00:00:00,07:53:01 GMT,Client,Sell,Buy,Swap,USDCAD,35000.0,35000.0,1.3163116,1.3162900,1.31629,46070.91,46070.15,19-11-2018 00:00:00,20-11-2018 00:00:00,DB,2288674088,VIKRAM.MAHAJAN,EU0378920,IDFC Bank Limited - G7,,,None,DEUL_191118_002.csv,"2018-11-19 00:00:00-46070.152018-11-20 00:00:001.316290046070.911.3163116-35000.00=""2288674088""2018-11-19 00:00:0035000.00",,DEUTLON,USD,CAD,SellBuy,1.3163116,DB_Swap,08-03-2018 00:00:00,11109246493954006772,,403,,,UNMATCHED
Booked,19-11-2018 00:00:00,07:52:44 GMT,Client,Buy,Sell,Swap,AUDUSD,120000.0,120000.0,0.7316886,0.7317000,0.73170,87802.63,87804.0,20-11-2018 00:00:00,21-11-2018 00:00:00,DB,2288674087,VIKRAM.MAHAJAN,EU0378920,IDFC Bank Limited - G7,,,None,DEUL_191118_002.csv,"2018-11-19 00:00:0087804.002018-11-21 00:00:000.7317000-87802.630.7316886120000.00=""2288674087""2018-11-20 00:00:00-120000.00",,DEUTLON,AUD,USD,BuySell,0.7316886,DB_Swap,08-03-2018 00:00:00,10225676680581216320,,403,,,UNMATCHED
