Transaction Date,Description,Amount,C.D.Falg,Reference No,Value Date,Branch Name
2018-05-30,00030330004897   EOD SWEEP ,31614387.78,D, ,29/05/2018,K G MARG
2018-05-30,NEFT Cr-ICIC0SF0002-ARTHASHASTRA FINTECH PRIVATE LIMITED-PVR LIMITED-20554504111DC,28391.92,C,20554504111DC,30/05/2018,FORT
2018-05-30,NEFT Cr-KKBK0000958-BIG TREE ENTERTAINMENT PRIVATE LIMITED-PVR LIMITED-KKBK181503584890,9029.0,C,KKBK181503584890,30/05/2018,FORT
2018-05-30,NEFT Cr-KKBK0000958-BIG TREE ENTERTAINMENT PRIVATE LIMITED-PVR LIMITED-KKBK181503584910,9074.0,C,KKBK181503584910,30/05/2018,FORT
2018-05-30,NEFT Cr-KKBK0000958-BIG TREE ENTERTAINMENT PRIVATE LIMITED-PVR LIMITED-KKBK181503584887,26883.0,C,KKBK181503584887,30/05/2018,FORT
2018-05-30,NEFT Cr-KKBK0000958-BIG TREE ENTERTAINMENT PRIVATE LIMITED-PVR LIMITED-KKBK181503584902,2303.0,C,KKBK181503584902,30/05/2018,FORT
2018-05-30,NEFT Cr-KKBK0000958-BIG TREE ENTERTAINMENT PRIVATE LIMITED-PVR LIMITED-KKBK181503584873,154680.0,C,KKBK181503584873,30/05/2018,FORT
2018-05-30,NEFT Cr-KKBK0000958-BIG TREE ENTERTAINMENT PRIVATE LIMITED-PVR LIMITED-KKBK181503584834,676320.0,C,KKBK181503584834,30/05/2018,FORT
2018-05-30,NEFT Cr-KKBK0000958-BIG TREE ENTERTAINMENT PRIVATE LIMITED-PVR LIMITED-KKBK181503584793,1127141.0,C,KKBK181503584793,30/05/2018,FORT
2018-05-30,NEFT Cr-KKBK0000958-BIG TREE ENTERTAINMENT PRIVATE LIMITED-PVR LIMITED-KKBK181503584769,7596454.0,C,KKBK181503584769,30/05/2018,FORT
2018-05-30,IMPS-815016965532-PHONEPE PRIVATE LIMI-HDFC-xxxxxxxxxxx0025-PvrcinemasRedemption,94819.45,C,815016965532,30/05/2018,FORT
2018-05-30,NEFT Cr-CITI0000002-ONE97 COMMUNICATIONS LIMITED-PVR LIMITED-CITIN18867156277,1773510.09,C,CITIN18867156277,30/05/2018,FORT
2018-05-30,NEFT Cr-CITI0000002-ONE97 COMMUNICATIONS LIMITED-PVR LIMITED-CITIN18867156359,1632377.95,C,CITIN18867156359,30/05/2018,FORT
2018-05-31,00030330004897   EOD SWEEP ,13130983.41,D, ,30/05/2018,K G MARG
2018-05-31,IMPS-815108083631-PHONEPE PRIVATE LIMI-HDFC-xxxxxxxxxxx0025-PvrcinemasRedemption,98986.56,C,815108083631,31/05/2018,FORT
2018-05-31,NEFT Cr-ICIC0SF0002-ARTHASHASTRA FINTECH PRIVATE LIMITED-PVR LIMITED-20555757581DC,34349.86,C,20555757581DC,31/05/2018,FORT
2018-05-31,NEFT Cr-KKBK0000958-BIG TREE ENTERTAINMENT PRIVATE LIMITED-PVR LIMITED-KKBK181513759241,26894.0,C,KKBK181513759241,31/05/2018,FORT
2018-05-31,NEFT Cr-KKBK0000958-BIG TREE ENTERTAINMENT PRIVATE LIMITED-PVR LIMITED-KKBK181513759192,1191851.0,C,KKBK181513759192,31/05/2018,FORT
2018-05-31,NEFT Cr-KKBK0000958-BIG TREE ENTERTAINMENT PRIVATE LIMITED-PVR LIMITED-KKBK181513759240,733.0,C,KKBK181513759240,31/05/2018,FORT
2018-05-31,NEFT Cr-KKBK0000958-BIG TREE ENTERTAINMENT PRIVATE LIMITED-PVR LIMITED-KKBK181513759242,12201.0,C,KKBK181513759242,31/05/2018,FORT
2018-05-31,NEFT Cr-KKBK0000958-BIG TREE ENTERTAINMENT PRIVATE LIMITED-PVR LIMITED-KKBK181513759231,8516.0,C,KKBK181513759231,31/05/2018,FORT
2018-05-31,NEFT Cr-KKBK0000958-BIG TREE ENTERTAINMENT PRIVATE LIMITED-PVR LIMITED-KKBK181513759195,1509191.0,C,KKBK181513759195,31/05/2018,FORT
2018-05-31,NEFT Cr-KKBK0000958-BIG TREE ENTERTAINMENT PRIVATE LIMITED-PVR LIMITED-KKBK181513759259,183792.0,C,KKBK181513759259,31/05/2018,FORT
2018-05-31,NEFT Cr-KKBK0000958-BIG TREE ENTERTAINMENT PRIVATE LIMITED-PVR LIMITED-KKBK181513759217,9358308.0,C,KKBK181513759217,31/05/2018,FORT
2018-05-31,NEFT Cr-ICIC0000031-ONE 97 COMMUNICATIONS LTD-Pvr Limited-CMS832309773,770.0,C,CMS832309773,31/05/2018,FORT
2018-05-31,NEFT Cr-CITI0000002-ONE97 COMMUNICATIONS LIMITED-PVR LIMITED-CITIN18868579770,1973893.49,C,CITIN18868579770,31/05/2018,FORT
2018-05-31,NEFT Cr-CITI0000002-ONE97 COMMUNICATIONS LIMITED-PVR LIMITED-CITIN18868578151,1703466.23,C,CITIN18868578151,31/05/2018,FORT
2018-05-31,NEFT Cr-ICIC0000031-ONE 97 COMMUNICATIONS LTD-Pvr Limited-CMS832646713,2006.16,C,CMS832646713,31/05/2018,FORT
2018-05-31,00030330004897   EOD SWEEP ,16104958.3,D, ,31/05/2018,K G MARG
