Transaction Date,Description,Amount,C.D.Falg,Reference No,Value Date,Branch Name
2018-05-24,IMPS-814408147546-PHONEPE PRIVATE LIMI-HDFC-xxxxxxxxxxx0025-PvrcinemasRedemption,82187.74,C,814408147546,24/05/2018,FORT
2018-05-24,NEFT Cr-UTIB0000100-AXISINDIA-PVR UPI PAYMENT 24.05.2018-AXTB181440059110,6207.6,C,AXTB181440059110,24/05/2018,FORT
2018-05-24,NEFT Cr-UTIB0000100-AXISINDIA-PVR UPI PAYMENT 24.05.2018-AXTB181440075343,2647.2,C,AXTB181440075343,24/05/2018,FORT
2018-05-24,NEFT Cr-KKBK0000958-BIG TREE ENTERTAINMENT PRIVATE LIMITED-PVR LIMITED-KKBK181442807875,1101155.0,C,KKBK181442807875,24/05/2018,FORT
2018-05-24,NEFT Cr-KKBK0000958-BIG TREE ENTERTAINMENT PRIVATE LIMITED-PVR LIMITED-KKBK181442807909,31459.0,C,KKBK181442807909,24/05/2018,FORT
2018-05-24,NEFT Cr-KKBK0000958-BIG TREE ENTERTAINMENT PRIVATE LIMITED-PVR LIMITED-KKBK181442807891,423.0,C,KKBK181442807891,24/05/2018,FORT
2018-05-24,NEFT Cr-KKBK0000958-BIG TREE ENTERTAINMENT PRIVATE LIMITED-PVR LIMITED-KKBK181442807865,889572.0,C,KKBK181442807865,24/05/2018,FORT
2018-05-24,NEFT Cr-KKBK0000958-BIG TREE ENTERTAINMENT PRIVATE LIMITED-PVR LIMITED-KKBK181442807931,154089.0,C,KKBK181442807931,24/05/2018,FORT
2018-05-24,NEFT Cr-KKBK0000958-BIG TREE ENTERTAINMENT PRIVATE LIMITED-PVR LIMITED-KKBK181442807965,855.0,C,KKBK181442807965,24/05/2018,FORT
2018-05-24,NEFT Cr-KKBK0000958-BIG TREE ENTERTAINMENT PRIVATE LIMITED-PVR LIMITED-KKBK181442807934,7529.0,C,KKBK181442807934,24/05/2018,FORT
2018-05-24,NEFT Cr-KKBK0000958-BIG TREE ENTERTAINMENT PRIVATE LIMITED-PVR LIMITED-KKBK181442807949,6749.0,C,KKBK181442807949,24/05/2018,FORT
2018-05-24,NEFT Cr-AIRP0000001-PVR LIMITED-PVR LTD-A144180001048507,19151.78,C,A144180001048507,24/05/2018,FORT
2018-05-24,NEFT Cr-ICIC0000031-ONE 97 COMMUNICATIONS LTD-Pvr Limited-CMS828017191,834.81,C,CMS828017191,24/05/2018,FORT
2018-05-24,NEFT Cr-KKBK0000958-BIG TREE ENTERTAINMENT PRIVATE LIMITED-PVR LIMITED-KKBK181442807845,7738656.0,C,KKBK181442807845,24/05/2018,FORT
2018-05-24,NEFT Cr-CITI0000002-ONE97 COMMUNICATIONS LIMITED-PVR LIMITED-CITIN18864280595,1497378.49,C,CITIN18864280595,24/05/2018,FORT
2018-05-24,NEFT Cr-CITI0000002-ONE97 COMMUNICATIONS LIMITED-PVR LIMITED-CITIN18864280586,1567411.73,C,CITIN18864280586,24/05/2018,FORT
2018-05-24,NEFT Cr-ICIC0000031-ONE 97 COMMUNICATIONS LTD-Pvr Limited-CMS828401336,1969.31,C,CMS828401336,24/05/2018,FORT
2018-05-24,IMPS-814418420205-ARTHASHASTRA FINTECH-HDFC-xxxxxxxx0433-pvr for sett,99760.19,C,814418420205,24/05/2018,FORT
2018-05-24,IMPS-814418431853-ARTHASHASTRA FINTECH-HDFC-xxxxxxxx0433-pvr for sett,114495.07,C,814418431853,24/05/2018,FORT
2018-05-24,00030330004897   EOD SWEEP ,13322530.92,D, ,24/05/2018,K G MARG
2018-05-25,IMPS-814508398608-PHONEPE PRIVATE LIMI-HDFC-xxxxxxxxxxx0025-PvrcinemasRedemption,68075.65,C,814508398608,25/05/2018,FORT
2018-05-25,NEFT Cr-AIRP0000001-PVR LIMITED-PVR LTD-A145180001043478,35104.06,C,A145180001043478,25/05/2018,FORT
2018-05-25,NEFT Cr-KKBK0000958-CC PVR MERCHANT PAYBALE ACCOUNT-PVR LIMITED-KKBKH18145650681,26310.2,C,KKBKH18145650681,25/05/2018,FORT
2018-05-25,NEFT Cr-KKBK0000958-BIG TREE ENTERTAINMENT PRIVATE LIMITED-PVR LIMITED-KKBK181452949751,12126.0,C,KKBK181452949751,25/05/2018,FORT
2018-05-25,NEFT Cr-KKBK0000958-BIG TREE ENTERTAINMENT PRIVATE LIMITED-PVR LIMITED-KKBK181452949743,1589.0,C,KKBK181452949743,25/05/2018,FORT
2018-05-25,NEFT Cr-KKBK0000958-BIG TREE ENTERTAINMENT PRIVATE LIMITED-PVR LIMITED-KKBK181452949752,13263.0,C,KKBK181452949752,25/05/2018,FORT
2018-05-25,NEFT Cr-KKBK0000958-BIG TREE ENTERTAINMENT PRIVATE LIMITED-PVR LIMITED-KKBK181452949839,1932286.0,C,KKBK181452949839,25/05/2018,FORT
2018-05-25,NEFT Cr-KKBK0000958-BIG TREE ENTERTAINMENT PRIVATE LIMITED-PVR LIMITED-KKBK181452949878,1262912.0,C,KKBK181452949878,25/05/2018,FORT
2018-05-25,NEFT Cr-KKBK0000958-BIG TREE ENTERTAINMENT PRIVATE LIMITED-PVR LIMITED-KKBK181452949745,1344.0,C,KKBK181452949745,25/05/2018,FORT
2018-05-25,NEFT Cr-KKBK0000958-BIG TREE ENTERTAINMENT PRIVATE LIMITED-PVR LIMITED-KKBK181452949782,36616.0,C,KKBK181452949782,25/05/2018,FORT
2018-05-25,NEFT Cr-KKBK0000958-BIG TREE ENTERTAINMENT PRIVATE LIMITED-PVR LIMITED-KKBK181452950924,246054.0,C,KKBK181452950924,25/05/2018,FORT
2018-05-25,NEFT Cr-KKBK0000958-BIG TREE ENTERTAINMENT PRIVATE LIMITED-PVR LIMITED-KKBK181452949853,12610753.0,C,KKBK181452949853,25/05/2018,FORT
2018-05-25,NEFT Cr-CITI0000002-ONE97 COMMUNICATIONS LIMITED-PVR LIMITED-CITIN18864710288,2342200.86,C,CITIN18864710288,25/05/2018,FORT
2018-05-25,NEFT Cr-CITI0000002-ONE97 COMMUNICATIONS LIMITED-PVR LIMITED-CITIN18864711810,2009397.33,C,CITIN18864711810,25/05/2018,FORT
2018-05-25,NEFT Cr-ICIC0000031-ONE 97 COMMUNICATIONS LTD-Pvr Limited-CMS828926456,1094.17,C,CMS828926456,25/05/2018,FORT
2018-05-25,00030330004897   EOD SWEEP ,20599125.27,D, ,25/05/2018,K G MARG
