[
  {
    "name": "UAT Users Pool",
    "users": "prashant.wadekar,sharad.sangam,uzeroone.mudoteen,Savita.Hedulkar,Onkar.Khude,Piyush.Kant,tia.test,bitan.test,uzeroaath.mudoteen,Mehul.Naik,ssopsuser7,ssopsuser6,ssopsuser5,ssopsuser4,ssopsuser3,ssopsuser1,ssopsuser2,ankit.dadia,nihar.dash,Shekhar.Lele,ufourtwo1,Tester3,Test-100001,sandeep.das,security.test1,security.test2,surjit.panigrahi",
    "role": "Reconciler",
    "business_context": "1111303316, 1111296146110, 111123116, 11111913121, 11113043120, 1111297312, 1111305315"
  },
  {
    "name": "Configurer User Pool",
    "users": "configurer1,opsmanager,tia.test,uzerodo.mudoone,uzeroaath.mudoteen,configurer4,configurer2,configurer3,annemuas,Milind.Mungekar,ufourone.mufiveone,ratul.b,sandeep.das,siva.prasad,AlgoTester,uteenone.mufourone",
    "role": "Configurer",
    "business_context": "11111913121, 1111148147117, 1111305315, 11113024111, 11113043118, 11111493114, 11112994113, 1111148147112, 11113014110, 1111296146110, 11113043120, 1111304316, 1111298313, 1111131119, 111123116, 1111297312"
  },
  {
    "name": "CBS Suspense User pool",
    "users": "Manoj.Mhatre,Sunny.Pires,Amit.Raorane,Mehul.Gohi,Devendra.Bagwe,Kinjal.Shah,Sanjay.Lanjekar,Jilani.Shaik,Kalpesh.Manjrekar,Kedar.Desai,Kshitiz.Ahuja,Mahesh.Kolhe,Milind.Pandit,Mitesh.Khopde,Pradip.Shinde,Samiran.Chakrabarty,Santosh.More,Shivendra.Singh,Sugam.Saxena,Varun.Singh,Vipul.Shah,Vishal.Kumar,Hiren.Rawal,Abhishek.Jain,Ananthanarayanan,Anil.Tetgure,Avinash.Anand,Bharat.Patel,Deven.Walavalkar,Jayesh.Patil,Keshav.Ardekar,Mahesh.Nalawade,Manoj.Koli,Sagar.Rane,Shaikh.Zahid,Sreejith.Nair,Vijay.Joga,Yogesh.Ajwani,Yogesh.Rane,Sunil.Dsouza,Anant.Shinde,Nikhil.Sane,Rahul.Nikale,AlgoTester",
    "role": "Reconciler",
    "business_context": "1111131119"
  },
  {
    "name": "Fincon User Pool",
    "users": "Hiren.Rawal,Santosh.Choubey,Jilani.Shaik,Sunil.Dsouza,Devna.Sharma,Lalit.Patel,Sunil.Wavhal,Sunny.Pires,Anant.Shinde,Nikhil.Sane,Rahul.Nikale,Shivshankar.Manchekar",
    "role": "Reconciler",
    "business_context": ""
  },
  {
    "name": "Authorisation Role User Pool",
    "users": "tester2,Hiren.Rawal,Sunny.Pires,Ananthanarayanan,Avinash.Anand,Vijay.Joga,Neeraj.Dubey,manmohan.singh,avinash.saraiya,Mehul.Naik,Sunil.Dsouza,ankit.dadia,Tester3,Nikhil.Sane,Rahul.Nikale",
    "role": "Authorizer",
    "business_context": "11111913121, 1111148147117, 11113043120, 11113043118, 1111148147112, 1111131119, 1111305315, 11111493114, 11112994113, 11113014110, 1111296146110, 11113024111, 1111298313, 1111303316, 111123116, 1111297312"
  },
  {
    "name": "Clearing User Pool",
    "users": "Gaurav.Banga,Hiren.Rawal,Mahesh.Shanmugavel,Sunny.Pires,Gaurav.Navedia,Jilani.Shaik,manmohan.singh,avinash.saraiya,Santosh.Choubey,Sunil.Dsouza,Varun.Singh,Kshitiz.Ahuja,Sugam.Saxena,Shivendra.Singh,Vishal.Kumar,Mahesh.Nalawade,Pradip.Shinde,Vipul.Shah,Kalpesh.Manjrekar,Sagar.Rane,Yogesh.Rane,Rahul.Nikale,Nikhil.Sane,Anant.Shinde,Piyush.Kant,AlgoTester",
    "role": "Reconciler",
    "business_context": "1111297312"
  },
  {
    "name": "Treasury User Pool",
    "users": "Saumitra.Abhinandan,Pratik.Makhija,Gaurav.Banga,Santosh.Choubey,manmohan.singh,nihar.dash,Sunil.Dsouza,ufourone.mufiveone,Hiren.Rawal,Naveen.Namdharani,GAGANDEEP.SANDHU,uzerodo.mudoone,Neeraj.Dubey,Nitin.Karnataki,Amita.Sindhwad,Sunny.Pires,Test-100001,sandeep.das,Anant.Shinde,Nikhil.Sane,Rahul.Nikale,uteenone.mufourone,Shivshankar.Manchekar",
    "role": "Reconciler",
    "business_context": "11113043120, 11113043118"
  },
  {
    "name": "BSMART User Pool",
    "users": "Santosh.Choubey,Sunil.Dsouza,Hiren.Rawal,Sunny.Pires,Anant.Shinde,Nikhil.Sane,Rahul.Nikale",
    "role": "Reconciler",
    "business_context": "11111913121"
  },
  {
    "name": "Department User Pool",
    "users": "Varun.Singh,Kshitiz.Ahuja,Sugam.Saxena,Shivendra.Singh,Vishal.Kumar,Mahesh.Nalawade,Pradip.Shinde,Vipul.Shah,Kalpesh.Manjrekar,Sagar.Rane,Yogesh.Rane,Anil.Tetgure,Pratik.Makhija,Deptuser1,Dept User 2",
    "role": "Dept User",
    "business_context": "1111148147112, 11113043118, 1111131119, 111123116, 11111493114, 11112994113, 11113014110, 1111296146110, 11113043120, 11113024111, 1111148147117, 1111305315, 11111913121, 1111303316, 1111298313, 1111297312"
  },
  {
    "name": "Elec Payments Pool",
    "users": "Bharat.Patel,uzerodo.mudoone,Abhishek.Jain,Sreejith.Nair,Shaikh.Zahid,Yogesh.Ajwani,Jayesh.Patil,Deven.Walavalkar,Manoj.Koli,ufourtwo1,sandeep.das,Anant.Shinde,Piyush.Kant,AlgoTester,ramesh.kotian,Shivshankar.Manchekar",
    "role": "Reconciler",
    "business_context": "111123116"
  },
  {
    "name": "Bulk Payments User Pool",
    "users": "Bharat.Patel,Sunil.Dsouza,Hiren.Rawal,Sunny.Pires,annemuas,Nikhil.Sane,Rahul.Nikale",
    "role": "Reconciler",
    "business_context": "1111305315"
  },
  {
    "name": "BharathBanking User Pool",
    "users": "manmohan.singh,Vijay.Joga,Avinash.Anand,Ananthanarayanan,AlgoTester",
    "role": "Reconciler",
    "business_context": 0
  },
  {
    "name": "TradeFinance User Pool",
    "users": "manmohan.singh,avinash.saraiya,Hiren.Rawal,Santosh.Choubey,Sunny.Pires,Sunil.Dsouza,sandeep.das,Anant.Shinde,Nikhil.Sane,Rahul.Nikale,AlgoTester,Shivshankar.Manchekar",
    "role": "Reconciler",
    "business_context": "1111303316"
  },
  {
    "name": "Retail Assets User Pool",
    "users": "Vijay.Joga,Avinash.Anand,Ananthanarayanan,Anil.Tetgure",
    "role": "Reconciler",
    "business_context": ""
  },
  {
    "name": "CMS Collections User Pool",
    "users": "Mitesh.Khopde,Santosh.More,Kedar.Desai,Keshav.Ardekar,Mahesh.Kolhe,Samiran.Chakrabarty,Milind.Pandit,Anant.Shinde,AlgoTester,Shivshankar.Manchekar",
    "role": "Reconciler",
    "business_context": ""
  },
  {
    "name": "Enquirer Role Pool",
    "users": "tester1",
    "role": "Enquirer",
    "business_context": "11111493114, 11112994113, 1111148147112, 1111296146110, 11113014110, 11113024111, 11113043120, 11113043118, 1111148147117, 11111913121, 1111305315, 1111303316, 1111131119, 111123116, 1111298313, 1111297312"
  }
]