{
  "roles": {
    "admin": {
      "views": [
        "usermanagement",
        "reconassignment",
        "marketplace",
        "configuration",
        "auditlogs"
      ],
      "previleges": [
        "Read",
        "Write"
      ],
      "default": "usermanagement"
    },
    "Reconciler": {
      "views": [
        "dashboard",
        "recons",
        "reconJob",
        "forceMatch",
        "helicalReports",
        "reports"
      ],
      "preveliges ": [
        "read"
      ],
      "default": "dashboard"
    },
    "Configurer": {
      "views": [
        "settings",
        "marketplace"
      ],
      "default": "marketplace"
    }
  },
  "cipher": {
    "AES_KEY": "HjKlEdulcnI#h$ah",
    "IV": "RjiclAt#$fc!wldS"
  },
  "approvalOptions": [
    "Approved",
    "NotApproved"
  ],
  "operationRoles": {
    "Admin": "admin",
    "Operation Manager": "operationUser"
  },
  "actionRules": {
    "Reconcilation": "reconcilation",
    "Authorization": "authorzation"
  }
}