"ACCOUNT_ID","ACCOUNT_NUMBER","ACCOUNT_NAME","ACCOUNT_TYPE","ENTITY_ID","ENTITY_NAME","BUSINESS_AREA","SOURCE_TYPE","ENTITY_TYPE","ENTITY_CODE","SWIFT_BIC_CODE","LOCATION","BANK_BRANCH_CODE","BASE_CURRENCY","TRANSACTION_TYPE","TRANSACTION_SOURCE_CATEGORY","ACCOUNT_RECON_TYPE","OWNER_TYPE","BRANCH_SWIFT_CODE","CREATED_BY","CREATED_DATE","UPDATED_BY","UPDATED_DATE","ACCOUNT_OID","IPADDRESS","RECORD_STATUS","RECORD_END_DATE","RECORD_VERSION","SESSION_ID","ACCOUNT_BUSINESS_CODE","IBAN_NUMBER","RECON_PROCESS_ID","BUSINESS_CONTEXT_ID","ENTITY_RELATIONSHIP_TYPE","VENDOR_CODE","COUNTRY_ID","ASSET_CLASS_ID","BUSINESS_PROCESS_ID","FUNCTIONAL_AREA_ID","GEOGRAPHY_ID","BUSINESS_PROCESS_CODE","COUNTER_PARTY_ID","COUNTER_PARTY_TYPE","COUNTER_PARTY_RLSHP_TYPE","COUNTER_PARTY_SWIFT_CODE","ACCOUNT_STATUS","COUNTER_PARTY_CODE","ACCOUNT_CATEGORY","SOURCE_GL_ACC_NUMBER"
"4209","0000099505102051","Local Outward Guarantee NonFinancial Control A/c","Inter-System",,"","","","Bank","IDFC","","MUMBAI","10205","INR","","Internal","","","","configurer4",21-SEP-15 11.54.54.659000000 PM,"",,4209,"172.18.0.99","ACTIVE",,1,"SQvpWQKJgLsNrj2QwkWClJyvVDxbq8y1hyDP32hv3nDvNyTyyGHl!833808915!1442859529652","","",6,"1111303316","","",1,"1",303,3,1,"","","","","","ACTIVE","","BGL account","0000099505102051"
"4210","0000099510102054","Shipping Guarantee null Orders Control A/c","Inter-System",,"","","","Bank","IDFC","","MUMBAI","10205","INR","","Internal","","","","configurer4",21-SEP-15 11.54.54.664000000 PM,"",,4210,"172.18.0.99","ACTIVE",,1,"SQvpWQKJgLsNrj2QwkWClJyvVDxbq8y1hyDP32hv3nDvNyTyyGHl!833808915!1442859529652","","",6,"1111303316","","",1,"1",303,3,1,"","","","","","ACTIVE","","BGL account","0000099510102054"
"4211","0000099515102050","Stand-by Letter of Credit (SBLC)-Financial Control A/c","Inter-System",,"","","","Bank","IDFC","","MUMBAI","10205","INR","","Internal","","","","configurer4",21-SEP-15 11.54.54.667000000 PM,"",,4211,"172.18.0.99","ACTIVE",,1,"SQvpWQKJgLsNrj2QwkWClJyvVDxbq8y1hyDP32hv3nDvNyTyyGHl!833808915!1442859529652","","",6,"1111303316","","",1,"1",303,3,1,"","","","","","ACTIVE","","BGL account","0000099515102050"
"4212","0000099520102052","Stand-by Letter of Credit (SBLC)-NonFinancial Control A/c","Inter-System",,"","","","Bank","IDFC","","MUMBAI","10205","INR","","Internal","","","","configurer4",21-SEP-15 11.54.54.674000000 PM,"",,4212,"172.18.0.99","ACTIVE",,1,"SQvpWQKJgLsNrj2QwkWClJyvVDxbq8y1hyDP32hv3nDvNyTyyGHl!833808915!1442859529652","","",6,"1111303316","","",1,"1",303,3,1,"","","","","","ACTIVE","","BGL account","0000099520102052"
"4213","0000099525102058","Foreign Import LC Devolved Control A/c","Inter-System",,"","","","Bank","IDFC","","MUMBAI","10205","INR","","Internal","","","","configurer4",21-SEP-15 11.54.54.677000000 PM,"",,4213,"172.18.0.99","ACTIVE",,1,"SQvpWQKJgLsNrj2QwkWClJyvVDxbq8y1hyDP32hv3nDvNyTyyGHl!833808915!1442859529652","","",6,"1111303316","","",1,"1",303,3,1,"","","","","","ACTIVE","","BGL account","0000099525102058"
"4214","0000099530102050","Local Outward LC Devolved Control A/c","Inter-System",,"","","","Bank","IDFC","","MUMBAI","10205","INR","","Internal","","","","configurer4",21-SEP-15 11.54.54.681000000 PM,"",,4214,"172.18.0.99","ACTIVE",,1,"SQvpWQKJgLsNrj2QwkWClJyvVDxbq8y1hyDP32hv3nDvNyTyyGHl!833808915!1442859529652","","",6,"1111303316","","",1,"1",303,3,1,"","","","","","ACTIVE","","BGL account","0000099530102050"
"4215","0000099535102056","Foreign Outward BG Invoked Control A/c","Inter-System",,"","","","Bank","IDFC","","MUMBAI","10205","INR","","Internal","","","","configurer4",21-SEP-15 11.54.54.685000000 PM,"",,4215,"172.18.0.99","ACTIVE",,1,"SQvpWQKJgLsNrj2QwkWClJyvVDxbq8y1hyDP32hv3nDvNyTyyGHl!833808915!1442859529652","","",6,"1111303316","","",1,"1",303,3,1,"","","","","","ACTIVE","","BGL account","0000099535102056"
"4216","0000099540102058","Local Outward BG Invoked Control A/c","Inter-System",,"","","","Bank","IDFC","","MUMBAI","10205","INR","","Internal","","","","configurer4",21-SEP-15 11.54.54.688000000 PM,"",,4216,"172.18.0.99","ACTIVE",,1,"SQvpWQKJgLsNrj2QwkWClJyvVDxbq8y1hyDP32hv3nDvNyTyyGHl!833808915!1442859529652","","",6,"1111303316","","",1,"1",303,3,1,"","","","","","ACTIVE","","BGL account","0000099540102058"
"4217","0000099545102054","Export LC Confirmed Devolved Control A/c","Inter-System",,"","","","Bank","IDFC","","MUMBAI","10205","INR","","Internal","","","","configurer4",21-SEP-15 11.54.54.692000000 PM,"",,4217,"172.18.0.99","ACTIVE",,1,"SQvpWQKJgLsNrj2QwkWClJyvVDxbq8y1hyDP32hv3nDvNyTyyGHl!833808915!1442859529652","","",6,"1111303316","","",1,"1",303,3,1,"","","","","","ACTIVE","","BGL account","0000099545102054"
"4218","0000099550102056","Import Buyers Credit Devolved Control A/c","Inter-System",,"","","","Bank","IDFC","","MUMBAI","10205","INR","","Internal","","","","configurer4",21-SEP-15 11.54.54.696000000 PM,"",,4218,"172.18.0.99","ACTIVE",,1,"SQvpWQKJgLsNrj2QwkWClJyvVDxbq8y1hyDP32hv3nDvNyTyyGHl!833808915!1442859529652","","",6,"1111303316","","",1,"1",303,3,1,"","","","","","ACTIVE","","BGL account","0000099550102056"
"4219","0000099555102052","Buyers Credit Capex Control A/c","Inter-System",,"","","","Bank","IDFC","","MUMBAI","10205","INR","","Internal","","","","configurer4",21-SEP-15 11.54.54.699000000 PM,"",,4219,"172.18.0.99","ACTIVE",,1,"SQvpWQKJgLsNrj2QwkWClJyvVDxbq8y1hyDP32hv3nDvNyTyyGHl!833808915!1442859529652","","",6,"1111303316","","",1,"1",303,3,1,"","","","","","ACTIVE","","BGL account","0000099555102052"
"4220","0000099560102055","LC-Capex Control A/c","Inter-System",,"","","","Bank","IDFC","","MUMBAI","10205","INR","","Internal","","","","configurer4",21-SEP-15 11.54.54.702000000 PM,"",,4220,"172.18.0.99","ACTIVE",,1,"SQvpWQKJgLsNrj2QwkWClJyvVDxbq8y1hyDP32hv3nDvNyTyyGHl!833808915!1442859529652","","",6,"1111303316","","",1,"1",303,3,1,"","","","","","ACTIVE","","BGL account","0000099560102055"
"4221","0000099701102058","Export LC Not Advised Frgn Control A/C","Inter-System",,"","","","Bank","IDFC","","MUMBAI","10205","INR","","Internal","","","","configurer4",21-SEP-15 11.54.54.705000000 PM,"",,4221,"172.18.0.99","ACTIVE",,1,"SQvpWQKJgLsNrj2QwkWClJyvVDxbq8y1hyDP32hv3nDvNyTyyGHl!833808915!1442859529652","","",6,"1111303316","","",1,"1",303,3,1,"","","","","","ACTIVE","","BGL account","0000099701102058"
"4222","0000099702102057","Local Inward LC Not Advised Control A/C","Inter-System",,"","","","Bank","IDFC","","MUMBAI","10205","INR","","Internal","","","","configurer4",21-SEP-15 11.54.54.708000000 PM,"",,4222,"172.18.0.99","ACTIVE",,1,"SQvpWQKJgLsNrj2QwkWClJyvVDxbq8y1hyDP32hv3nDvNyTyyGHl!833808915!1442859529652","","",6,"1111303316","","",1,"1",303,3,1,"","","","","","ACTIVE","","BGL account","0000099702102057"
"4223","0000099703102056","Bill undr Exp LC FRN (EXLC/ENLC) ContA/C","Inter-System",,"","","","Bank","IDFC","","MUMBAI","10205","INR","","Internal","","","","configurer4",21-SEP-15 11.54.54.711000000 PM,"",,4223,"172.18.0.99","ACTIVE",,1,"SQvpWQKJgLsNrj2QwkWClJyvVDxbq8y1hyDP32hv3nDvNyTyyGHl!833808915!1442859529652","","",6,"1111303316","","",1,"1",303,3,1,"","","","","","ACTIVE","","BGL account","0000099703102056"
"4224","0000099704102055","Bill und Loc I/W LC (LILC/LNLC) ContA/C","Inter-System",,"","","","Bank","IDFC","","MUMBAI","10205","INR","","Internal","","","","configurer4",21-SEP-15 11.54.54.715000000 PM,"",,4224,"172.18.0.99","ACTIVE",,1,"SQvpWQKJgLsNrj2QwkWClJyvVDxbq8y1hyDP32hv3nDvNyTyyGHl!833808915!1442859529652","","",6,"1111303316","","",1,"1",303,3,1,"","","","","","ACTIVE","","BGL account","0000099704102055"
"4225","0000099705102054","Export transfer LC Control A/C","Inter-System",,"","","","Bank","IDFC","","MUMBAI","10205","INR","","Internal","","","","configurer4",21-SEP-15 11.54.54.718000000 PM,"",,4225,"172.18.0.99","ACTIVE",,1,"SQvpWQKJgLsNrj2QwkWClJyvVDxbq8y1hyDP32hv3nDvNyTyyGHl!833808915!1442859529652","","",6,"1111303316","","",1,"1",303,3,1,"","","","","","ACTIVE","","BGL account","0000099705102054"
"4226","0000099706102053","Export Coll Bill Foreign Control A/C","Inter-System",,"","","","Bank","IDFC","","MUMBAI","10205","INR","","Internal","","","","configurer4",21-SEP-15 11.54.54.721000000 PM,"",,4226,"172.18.0.99","ACTIVE",,1,"SQvpWQKJgLsNrj2QwkWClJyvVDxbq8y1hyDP32hv3nDvNyTyyGHl!833808915!1442859529652","","",6,"1111303316","","",1,"1",303,3,1,"","","","","","ACTIVE","","BGL account","0000099706102053"
"4227","0000099707102052","Local Outward Coll Bill Control A/C","Inter-System",,"","","","Bank","IDFC","","MUMBAI","10205","INR","","Internal","","","","configurer4",21-SEP-15 11.54.54.725000000 PM,"",,4227,"172.18.0.99","ACTIVE",,1,"SQvpWQKJgLsNrj2QwkWClJyvVDxbq8y1hyDP32hv3nDvNyTyyGHl!833808915!1442859529652","","",6,"1111303316","","",1,"1",303,3,1,"","","","","","ACTIVE","","BGL account","0000099707102052"
"4228","0000099708102051","Bill under Import LC Foreign (IMLC) Control A/C","Inter-System",,"","","","Bank","IDFC","","MUMBAI","10205","INR","","Internal","","","","configurer4",21-SEP-15 11.54.54.728000000 PM,"",,4228,"172.18.0.99","ACTIVE",,1,"SQvpWQKJgLsNrj2QwkWClJyvVDxbq8y1hyDP32hv3nDvNyTyyGHl!833808915!1442859529652","","",6,"1111303316","","",1,"1",303,3,1,"","","","","","ACTIVE","","BGL account","0000099708102051"
"4229","0000099709102050","Bill under Loc O/W LC (LOLC) Control A/C","Inter-System",,"","","","Bank","IDFC","","MUMBAI","10205","INR","","Internal","","","","configurer4",21-SEP-15 11.54.54.732000000 PM,"",,4229,"172.18.0.99","ACTIVE",,1,"SQvpWQKJgLsNrj2QwkWClJyvVDxbq8y1hyDP32hv3nDvNyTyyGHl!833808915!1442859529652","","",6,"1111303316","","",1,"1",303,3,1,"","","","","","ACTIVE","","BGL account","0000099709102050"
"3894","0000099780102043","SDMC Intermediate Account (RTGS)","Suspense",,"","","","Bank","IDFC","","MUMBAI","10204","INR","","Internal","","","","configurer4",21-SEP-15 11.54.53.444000000 PM,"",,3894,"172.18.0.99","ACTIVE",,1,"SQvpWQKJgLsNrj2QwkWClJyvVDxbq8y1hyDP32hv3nDvNyTyyGHl!833808915!1442859529652","","",16,"111123116","","",1,"1",2,3,1,"","","","","","ACTIVE","","BGL account","0000099780102043"
"4230","0000099710102057","Import Collection Bill Control A/C","Inter-System",,"","","","Bank","IDFC","","MUMBAI","10205","INR","","Internal","","","","configurer4",21-SEP-15 11.54.54.736000000 PM,"",,4230,"172.18.0.99","ACTIVE",,1,"SQvpWQKJgLsNrj2QwkWClJyvVDxbq8y1hyDP32hv3nDvNyTyyGHl!833808915!1442859529652","","",6,"1111303316","","",1,"1",303,3,1,"","","","","","ACTIVE","","BGL account","0000099710102057"
"4231","0000099711102057","Local Inward Collection Bill Control A/C","Inter-System",,"","","","Bank","IDFC","","MUMBAI","10205","INR","","Internal","","","","configurer4",21-SEP-15 11.54.54.739000000 PM,"",,4231,"172.18.0.99","ACTIVE",,1,"SQvpWQKJgLsNrj2QwkWClJyvVDxbq8y1hyDP32hv3nDvNyTyyGHl!833808915!1442859529652","","",6,"1111303316","","",1,"1",303,3,1,"","","","","","ACTIVE","","BGL account","0000099711102057"
"4232","0000099712102056","Foreign Inward BG Control A/C","Inter-System",,"","","","Bank","IDFC","","MUMBAI","10205","INR","","Internal","","","","configurer4",21-SEP-15 11.54.54.742000000 PM,"",,4232,"172.18.0.99","ACTIVE",,1,"SQvpWQKJgLsNrj2QwkWClJyvVDxbq8y1hyDP32hv3nDvNyTyyGHl!833808915!1442859529652","","",6,"1111303316","","",1,"1",303,3,1,"","","","","","ACTIVE","","BGL account","0000099712102056"
"4233","0000099713102055","Local Inward BG Control A/C","Inter-System",,"","","","Bank","IDFC","","MUMBAI","10205","INR","","Internal","","","","configurer4",21-SEP-15 11.54.54.745000000 PM,"",,4233,"172.18.0.99","ACTIVE",,1,"SQvpWQKJgLsNrj2QwkWClJyvVDxbq8y1hyDP32hv3nDvNyTyyGHl!833808915!1442859529652","","",6,"1111303316","","",1,"1",303,3,1,"","","","","","ACTIVE","","BGL account","0000099713102055"
"4234","0000099714102054","Local Outward Standby LC Control A/C","Inter-System",,"","","","Bank","IDFC","","MUMBAI","10205","INR","","Internal","","","","configurer4",21-SEP-15 11.54.54.749000000 PM,"",,4234,"172.18.0.99","ACTIVE",,1,"SQvpWQKJgLsNrj2QwkWClJyvVDxbq8y1hyDP32hv3nDvNyTyyGHl!833808915!1442859529652","","",6,"1111303316","","",1,"1",303,3,1,"","","","","","ACTIVE","","BGL account","0000099714102054"
"4235","0000099715102053","Foreign Inward Standby LC Control A/C","Inter-System",,"","","","Bank","IDFC","","MUMBAI","10205","INR","","Internal","","","","configurer4",21-SEP-15 11.54.54.753000000 PM,"",,4235,"172.18.0.99","ACTIVE",,1,"SQvpWQKJgLsNrj2QwkWClJyvVDxbq8y1hyDP32hv3nDvNyTyyGHl!833808915!1442859529652","","",6,"1111303316","","",1,"1",303,3,1,"","","","","","ACTIVE","","BGL account","0000099715102053"
"4236","0000099716102052","Local Inward Standby LC Control A/C","Inter-System",,"","","","Bank","IDFC","","MUMBAI","10205","INR","","Internal","","","","configurer4",21-SEP-15 11.54.54.756000000 PM,"",,4236,"172.18.0.99","ACTIVE",,1,"SQvpWQKJgLsNrj2QwkWClJyvVDxbq8y1hyDP32hv3nDvNyTyyGHl!833808915!1442859529652","","",6,"1111303316","","",1,"1",303,3,1,"","","","","","ACTIVE","","BGL account","0000099716102052"
"4237","0000099717102051","Inward Remittances Control A/C","Inter-System",,"","","","Bank","IDFC","","MUMBAI","10205","INR","","Internal","","","","configurer4",21-SEP-15 11.54.54.759000000 PM,"",,4237,"172.18.0.99","ACTIVE",,1,"SQvpWQKJgLsNrj2QwkWClJyvVDxbq8y1hyDP32hv3nDvNyTyyGHl!833808915!1442859529652","","",6,"1111303316","","",1,"1",303,3,1,"","","","","","ACTIVE","","BGL account","0000099717102051"
"4238","0000099718102050","Outward Remittances Control A/C","Inter-System",,"","","","Bank","IDFC","","MUMBAI","10205","INR","","Internal","","","","configurer4",21-SEP-15 11.54.54.764000000 PM,"",,4238,"172.18.0.99","ACTIVE",,1,"SQvpWQKJgLsNrj2QwkWClJyvVDxbq8y1hyDP32hv3nDvNyTyyGHl!833808915!1442859529652","","",6,"1111303316","","",1,"1",303,3,1,"","","","","","ACTIVE","","BGL account","0000099718102050"
"3933","0000099601102029","Treasury Wash Account","Inter-System",,"","","","Bank","IDFC","","MUMBAI","10202","INR","","Internal","","","","configurer4",21-SEP-15 11.54.53.591000000 PM,"",,3933,"172.18.0.99","ACTIVE",,1,"SQvpWQKJgLsNrj2QwkWClJyvVDxbq8y1hyDP32hv3nDvNyTyyGHl!833808915!1442859529652","","",20,"11113043120","","",1,"1",304,3,1,"","","","","","ACTIVE","","BGL account","0000099601102029"
"4260","0000098135102070","VSMART Receivable Control Account","Inter-System",,"","","","Bank","IDFC","","MUMBAI","10207","INR","","Internal","","","","configurer4",21-SEP-15 11.54.54.842000000 PM,"",,4260,"172.18.0.99","ACTIVE",,1,"SQvpWQKJgLsNrj2QwkWClJyvVDxbq8y1hyDP32hv3nDvNyTyyGHl!833808915!1442859529652","","",21,"11111913121","","",1,"1",191,3,1,"","","","","","ACTIVE","","BGL account","0000098135102070"
"4261","0000098136102079","VSMART Disbursement/ Payment  Control Account","Inter-System",,"","","","Bank","IDFC","","MUMBAI","10207","INR","","Internal","","","","configurer4",21-SEP-15 11.54.54.846000000 PM,"",,4261,"172.18.0.99","ACTIVE",,1,"SQvpWQKJgLsNrj2QwkWClJyvVDxbq8y1hyDP32hv3nDvNyTyyGHl!833808915!1442859529652","","",21,"11111913121","","",1,"1",191,3,1,"","","","","","ACTIVE","","BGL account","0000098136102079"
"4965","0000098189102011","OPEX PAYABLE CONTROL ACCOUNT","Inter-System",,"","","","Bank","IDFC","","MUMBAI","10201","INR","","Internal","","","","configurer2",01-OCT-15 09.52.57.214000000 PM,"",,4965,"172.16.45.233","ACTIVE",,1,"9-IkNaMcGzoOfxjYLOn_NXSJ7L10AKOoe_sqHf09xqAfqWs-RXl0!-1408759828!1443716506396","","",6,"1111148147112","","",1,"1",303,3,1,"","","","","","ACTIVE","","BGL account","0000098189102011"
"4188","0000099400102059","EPC (Export Packing Credit - Rupee) Control A/c","Inter-System",,"","","","Bank","IDFC","","MUMBAI","10205","INR","","Internal","","","","configurer4",21-SEP-15 11.54.54.572000000 PM,"",,4188,"172.18.0.99","ACTIVE",,1,"SQvpWQKJgLsNrj2QwkWClJyvVDxbq8y1hyDP32hv3nDvNyTyyGHl!833808915!1442859529652","","",6,"1111303316","","",1,"1",303,3,1,"","","","","","ACTIVE","","BGL account","0000099400102059"
"4189","0000099405102055","PCFC (Pre-shipment Credit - Foreign Currency) Control A/c","Inter-System",,"","","","Bank","IDFC","","MUMBAI","10205","INR","","Internal","","","","configurer4",21-SEP-15 11.54.54.576000000 PM,"",,4189,"172.18.0.99","ACTIVE",,1,"SQvpWQKJgLsNrj2QwkWClJyvVDxbq8y1hyDP32hv3nDvNyTyyGHl!833808915!1442859529652","","",6,"1111303316","","",1,"1",303,3,1,"","","","","","ACTIVE","","BGL account","0000099405102055"
"4187","0000098175102051","TRADE SUNDRY","Suspense",,"","","","Bank","IDFC","","MUMBAI","10205","INR","","Internal","","","","configurer4",21-SEP-15 11.54.54.568000000 PM,"",,4187,"172.18.0.99","ACTIVE",,1,"SQvpWQKJgLsNrj2QwkWClJyvVDxbq8y1hyDP32hv3nDvNyTyyGHl!833808915!1442859529652","","",6,"1111303316","","",1,"1",303,3,1,"","","","","","ACTIVE","","BGL account","0000098175102051"
"3888","0000099761102047","MDMC NEFT Outward Settlement Account-12","Suspense",,"","","","Bank","IDFC","","MUMBAI","10204","INR","","Internal","","","","configurer4",21-SEP-15 11.54.53.418000000 PM,"",,3888,"172.18.0.99","ACTIVE",,1,"SQvpWQKJgLsNrj2QwkWClJyvVDxbq8y1hyDP32hv3nDvNyTyyGHl!833808915!1442859529652","","",16,"111123116","","",1,"1",2,3,1,"","","","","","ACTIVE","","BGL account","0000099761102047"
"3889","0000099762102046","MDMC NEFT Outward Settlement Account-13","Suspense",,"","","","Bank","IDFC","","MUMBAI","10204","INR","","Internal","","","","configurer4",21-SEP-15 11.54.53.422000000 PM,"",,3889,"172.18.0.99","ACTIVE",,1,"SQvpWQKJgLsNrj2QwkWClJyvVDxbq8y1hyDP32hv3nDvNyTyyGHl!833808915!1442859529652","","",16,"111123116","","",1,"1",2,3,1,"","","","","","ACTIVE","","BGL account","0000099762102046"
"3890","0000099763102045","MDMC NEFT Outward Settlement Account-14","Suspense",,"","","","Bank","IDFC","","MUMBAI","10204","INR","","Internal","","","","configurer4",21-SEP-15 11.54.53.426000000 PM,"",,3890,"172.18.0.99","ACTIVE",,1,"SQvpWQKJgLsNrj2QwkWClJyvVDxbq8y1hyDP32hv3nDvNyTyyGHl!833808915!1442859529652","","",16,"111123116","","",1,"1",2,3,1,"","","","","","ACTIVE","","BGL account","0000099763102045"
"3891","0000099764102044","MDMC NEFT Outward Settlement Account-15","Suspense",,"","","","Bank","IDFC","","MUMBAI","10204","INR","","Internal","","","","configurer4",21-SEP-15 11.54.53.431000000 PM,"",,3891,"172.18.0.99","ACTIVE",,1,"SQvpWQKJgLsNrj2QwkWClJyvVDxbq8y1hyDP32hv3nDvNyTyyGHl!833808915!1442859529652","","",16,"111123116","","",1,"1",2,3,1,"","","","","","ACTIVE","","BGL account","0000099764102044"
"3892","0000098008102042","CMS - NEFT Outward","Suspense",,"","","","Bank","IDFC","","MUMBAI","10204","INR","","Internal","","","","configurer4",21-SEP-15 11.54.53.436000000 PM,"",,3892,"172.18.0.99","ACTIVE",,1,"SQvpWQKJgLsNrj2QwkWClJyvVDxbq8y1hyDP32hv3nDvNyTyyGHl!833808915!1442859529652","","",16,"111123116","","",1,"1",2,3,1,"","","","","","ACTIVE","","BGL account","0000098008102042"
"3895","0000099765102043","MDMC RTGS Outward Settlement Account-1","Suspense",,"","","","Bank","IDFC","","MUMBAI","10204","INR","","Internal","","","","configurer4",21-SEP-15 11.54.53.451000000 PM,"",,3895,"172.18.0.99","ACTIVE",,1,"SQvpWQKJgLsNrj2QwkWClJyvVDxbq8y1hyDP32hv3nDvNyTyyGHl!833808915!1442859529652","","",16,"111123116","","",1,"1",2,3,1,"","","","","","ACTIVE","","BGL account","0000099765102043"
"3896","0000099766102042","MDMC RTGS Outward Settlement Account-2","Suspense",,"","","","Bank","IDFC","","MUMBAI","10204","INR","","Internal","","","","configurer4",21-SEP-15 11.54.53.459000000 PM,"",,3896,"172.18.0.99","ACTIVE",,1,"SQvpWQKJgLsNrj2QwkWClJyvVDxbq8y1hyDP32hv3nDvNyTyyGHl!833808915!1442859529652","","",16,"111123116","","",1,"1",2,3,1,"","","","","","ACTIVE","","BGL account","0000099766102042"
"3897","0000099767102041","MDMC RTGS Outward Settlement Account-3","Suspense",,"","","","Bank","IDFC","","MUMBAI","10204","INR","","Internal","","","","configurer4",21-SEP-15 11.54.53.465000000 PM,"",,3897,"172.18.0.99","ACTIVE",,1,"SQvpWQKJgLsNrj2QwkWClJyvVDxbq8y1hyDP32hv3nDvNyTyyGHl!833808915!1442859529652","","",16,"111123116","","",1,"1",2,3,1,"","","","","","ACTIVE","","BGL account","0000099767102041"
"3898","0000099768102040","MDMC RTGS Outward Settlement Account-4","Suspense",,"","","","Bank","IDFC","","MUMBAI","10204","INR","","Internal","","","","configurer4",21-SEP-15 11.54.53.470000000 PM,"",,3898,"172.18.0.99","ACTIVE",,1,"SQvpWQKJgLsNrj2QwkWClJyvVDxbq8y1hyDP32hv3nDvNyTyyGHl!833808915!1442859529652","","",16,"111123116","","",1,"1",2,3,1,"","","","","","ACTIVE","","BGL account","0000099768102040"
"3899","0000099769102049","MDMC RTGS Outward Settlement Account-5","Suspense",,"","","","Bank","IDFC","","MUMBAI","10204","INR","","Internal","","","","configurer4",21-SEP-15 11.54.53.474000000 PM,"",,3899,"172.18.0.99","ACTIVE",,1,"SQvpWQKJgLsNrj2QwkWClJyvVDxbq8y1hyDP32hv3nDvNyTyyGHl!833808915!1442859529652","","",16,"111123116","","",1,"1",2,3,1,"","","","","","ACTIVE","","BGL account","0000099769102049"
"3900","0000099770102045","MDMC RTGS Outward Settlement Account-6","Suspense",,"","","","Bank","IDFC","","MUMBAI","10204","INR","","Internal","","","","configurer4",21-SEP-15 11.54.53.478000000 PM,"",,3900,"172.18.0.99","ACTIVE",,1,"SQvpWQKJgLsNrj2QwkWClJyvVDxbq8y1hyDP32hv3nDvNyTyyGHl!833808915!1442859529652","","",16,"111123116","","",1,"1",2,3,1,"","","","","","ACTIVE","","BGL account","0000099770"
"3901","0000099771102045","MDMC RTGS Outward Settlement Account-7","Suspense",,"","","","Bank","IDFC","","MUMBAI","10204","INR","","Internal","","","","configurer4",21-SEP-15 11.54.53.482000000 PM,"",,3901,"172.18.0.99","ACTIVE",,1,"SQvpWQKJgLsNrj2QwkWClJyvVDxbq8y1hyDP32hv3nDvNyTyyGHl!833808915!1442859529652","","",16,"111123116","","",1,"1",2,3,1,"","","","","","ACTIVE","","BGL account","0000099771102045"
"3902","0000099772102044","MDMC RTGS Outward Settlement Account-8","Suspense",,"","","","Bank","IDFC","","MUMBAI","10204","INR","","Internal","","","","configurer4",21-SEP-15 11.54.53.488000000 PM,"",,3902,"172.18.0.99","ACTIVE",,1,"SQvpWQKJgLsNrj2QwkWClJyvVDxbq8y1hyDP32hv3nDvNyTyyGHl!833808915!1442859529652","","",16,"111123116","","",1,"1",2,3,1,"","","","","","ACTIVE","","BGL account","0000099772102044"
"3903","0000099773102043","MDMC RTGS Outward Settlement Account-9","Suspense",,"","","","Bank","IDFC","","MUMBAI","10204","INR","","Internal","","","","configurer4",21-SEP-15 11.54.53.495000000 PM,"",,3903,"172.18.0.99","ACTIVE",,1,"SQvpWQKJgLsNrj2QwkWClJyvVDxbq8y1hyDP32hv3nDvNyTyyGHl!833808915!1442859529652","","",16,"111123116","","",1,"1",2,3,1,"","","","","","ACTIVE","","BGL account","0000099773102043"
"3904","0000099774102042","MDMC RTGS Outward Settlement Account-10","Suspense",,"","","","Bank","IDFC","","MUMBAI","10204","INR","","Internal","","","","configurer4",21-SEP-15 11.54.53.499000000 PM,"",,3904,"172.18.0.99","ACTIVE",,1,"SQvpWQKJgLsNrj2QwkWClJyvVDxbq8y1hyDP32hv3nDvNyTyyGHl!833808915!1442859529652","","",16,"111123116","","",1,"1",2,3,1,"","","","","","ACTIVE","","BGL account","0000099774102042"
"3905","0000099775102041","MDMC RTGS Outward Settlement Account-11","Suspense",,"","","","Bank","IDFC","","MUMBAI","10204","INR","","Internal","","","","configurer4",21-SEP-15 11.54.53.502000000 PM,"",,3905,"172.18.0.99","ACTIVE",,1,"SQvpWQKJgLsNrj2QwkWClJyvVDxbq8y1hyDP32hv3nDvNyTyyGHl!833808915!1442859529652","","",16,"111123116","","",1,"1",2,3,1,"","","","","","ACTIVE","","BGL account","0000099775102041"
"3906","0000099776102040","MDMC RTGS Outward Settlement Account-12","Suspense",,"","","","Bank","IDFC","","MUMBAI","10204","INR","","Internal","","","","configurer4",21-SEP-15 11.54.53.507000000 PM,"",,3906,"172.18.0.99","ACTIVE",,1,"SQvpWQKJgLsNrj2QwkWClJyvVDxbq8y1hyDP32hv3nDvNyTyyGHl!833808915!1442859529652","","",16,"111123116","","",1,"1",2,3,1,"","","","","","ACTIVE","","BGL account","0000099776102040"
"3907","0000099777102049","MDMC RTGS Outward Settlement Account-13","Suspense",,"","","","Bank","IDFC","","MUMBAI","10204","INR","","Internal","","","","configurer4",21-SEP-15 11.54.53.512000000 PM,"",,3907,"172.18.0.99","ACTIVE",,1,"SQvpWQKJgLsNrj2QwkWClJyvVDxbq8y1hyDP32hv3nDvNyTyyGHl!833808915!1442859529652","","",16,"111123116","","",1,"1",2,3,1,"","","","","","ACTIVE","","BGL account","0000099777102049"
"3908","0000099778102048","MDMC RTGS Outward Settlement Account-14","Suspense",,"","","","Bank","IDFC","","MUMBAI","10204","INR","","Internal","","","","configurer4",21-SEP-15 11.54.53.515000000 PM,"",,3908,"172.18.0.99","ACTIVE",,1,"SQvpWQKJgLsNrj2QwkWClJyvVDxbq8y1hyDP32hv3nDvNyTyyGHl!833808915!1442859529652","","",16,"111123116","","",1,"1",2,3,1,"","","","","","ACTIVE","","BGL account","0000099778102048"
"3909","0000099779102047","MDMC RTGS Outward Settlement Account-15","Suspense",,"","","","Bank","IDFC","","MUMBAI","10204","INR","","Internal","","","","configurer4",21-SEP-15 11.54.53.518000000 PM,"",,3909,"172.18.0.99","ACTIVE",,1,"SQvpWQKJgLsNrj2QwkWClJyvVDxbq8y1hyDP32hv3nDvNyTyyGHl!833808915!1442859529652","","",16,"111123116","","",1,"1",2,3,1,"","","","","","ACTIVE","","BGL account","0000099779102047"
"3910","0000098007102043","CMS - RTGS Outward","Suspense",,"","","","Bank","IDFC","","MUMBAI","10204","INR","","Internal","","","","configurer4",21-SEP-15 11.54.53.521000000 PM,"",,3910,"172.18.0.99","ACTIVE",,1,"SQvpWQKJgLsNrj2QwkWClJyvVDxbq8y1hyDP32hv3nDvNyTyyGHl!833808915!1442859529652","","",16,"111123116","","",1,"1",2,3,1,"","","","","","ACTIVE","","BGL account","0000098007102043"
"3914","0000099387","CTS Inward Clearing Account","Suspense",,"","","","Bank","IDFC","","MUMBAI","10212","INR","","Internal","","","","configurer4",21-SEP-15 11.54.53.533000000 PM,"",,3914,"172.18.0.99","ACTIVE",,1,"SQvpWQKJgLsNrj2QwkWClJyvVDxbq8y1hyDP32hv3nDvNyTyyGHl!833808915!1442859529652","","",2,"1111297312","","",1,"1",297,3,1,"","","","","","ACTIVE","","BGL account","0000099387"
"3916","0000099389","CTS Inward Clearing Returns Account","Suspense",,"","","","Bank","IDFC","","MUMBAI","10211","INR","","Internal","","","","configurer4",21-SEP-15 11.54.53.539000000 PM,"",,3916,"172.18.0.99","ACTIVE",,1,"SQvpWQKJgLsNrj2QwkWClJyvVDxbq8y1hyDP32hv3nDvNyTyyGHl!833808915!1442859529652","","",2,"1111297312","","",1,"1",297,3,1,"","","","","","ACTIVE","","BGL account","0000099389"
"3927","0000099832102092","CLEARING PAYABLE ACCOUNT","Suspense",,"","","","Bank","IDFC","","MUMBAI","10209","INR","","Internal","","","","configurer4",21-SEP-15 11.54.53.573000000 PM,"",,3927,"172.18.0.99","ACTIVE",,1,"SQvpWQKJgLsNrj2QwkWClJyvVDxbq8y1hyDP32hv3nDvNyTyyGHl!833808915!1442859529652","","",2,"1111297312","","",1,"1",297,3,1,"","","","","","ACTIVE","","BGL account","0000099832102092"
"3928","0000099833102115","CLEARING PAYABLE ACCOUNT","Suspense",,"","","","Bank","IDFC","","MUMBAI","10211","INR","","Internal","","","","configurer4",21-SEP-15 11.54.53.575000000 PM,"",,3928,"172.18.0.99","ACTIVE",,1,"SQvpWQKJgLsNrj2QwkWClJyvVDxbq8y1hyDP32hv3nDvNyTyyGHl!833808915!1442859529652","","",2,"1111297312","","",1,"1",297,3,1,"","","","","","ACTIVE","","BGL account","0000099833102115"
"3929","0000099834102125","CLEARING PAYABLE ACCOUNT","Suspense",,"","","","Bank","IDFC","","MUMBAI","10212","INR","","Internal","","","","configurer4",21-SEP-15 11.54.53.578000000 PM,"",,3929,"172.18.0.99","ACTIVE",,1,"SQvpWQKJgLsNrj2QwkWClJyvVDxbq8y1hyDP32hv3nDvNyTyyGHl!833808915!1442859529652","","",2,"1111297312","","",1,"1",297,3,1,"","","","","","ACTIVE","","BGL account","0000099834102125"
"3930","0000099835102099","CLEARING RECEIVABLE ACCOUNT","Suspense",,"","","","Bank","IDFC","","MUMBAI","10209","INR","","Internal","","","","configurer4",21-SEP-15 11.54.53.582000000 PM,"",,3930,"172.18.0.99","ACTIVE",,1,"SQvpWQKJgLsNrj2QwkWClJyvVDxbq8y1hyDP32hv3nDvNyTyyGHl!833808915!1442859529652","","",2,"1111297312","","",1,"1",297,3,1,"","","","","","ACTIVE","","BGL account","0000099835102099"
"3931","0000099836102112","CLEARING RECEIVABLE ACCOUNT","Suspense",,"","","","Bank","IDFC","","MUMBAI","10211","INR","","Internal","","","","configurer4",21-SEP-15 11.54.53.585000000 PM,"",,3931,"172.18.0.99","ACTIVE",,1,"SQvpWQKJgLsNrj2QwkWClJyvVDxbq8y1hyDP32hv3nDvNyTyyGHl!833808915!1442859529652","","",2,"1111297312","","",1,"1",297,3,1,"","","","","","ACTIVE","","BGL account","0000099836102112"
"3885","0000099758102041","MDMC NEFT Outward Settlement Account-9","Suspense",,"","","","Bank","IDFC","","MUMBAI","10204","INR","","Internal","","","","configurer4",21-SEP-15 11.54.53.403000000 PM,"",,3885,"172.18.0.99","ACTIVE",,1,"SQvpWQKJgLsNrj2QwkWClJyvVDxbq8y1hyDP32hv3nDvNyTyyGHl!833808915!1442859529652","","",16,"111123116","","",1,"1",2,3,1,"","","","","","ACTIVE","","BGL account","0000099758102041"
"3886","0000099759102040","MDMC NEFT Outward Settlement Account-10","Suspense",,"","","","Bank","IDFC","","MUMBAI","10204","INR","","Internal","","","","configurer4",21-SEP-15 11.54.53.406000000 PM,"",,3886,"172.18.0.99","ACTIVE",,1,"SQvpWQKJgLsNrj2QwkWClJyvVDxbq8y1hyDP32hv3nDvNyTyyGHl!833808915!1442859529652","","",16,"111123116","","",1,"1",2,3,1,"","","","","","ACTIVE","","BGL account","0000099759102040"
"3887","0000099760102047","MDMC NEFT Outward Settlement Account-11","Suspense",,"","","","Bank","IDFC","","MUMBAI","10204","INR","","Internal","","","","configurer4",21-SEP-15 11.54.53.414000000 PM,"",,3887,"172.18.0.99","ACTIVE",,1,"SQvpWQKJgLsNrj2QwkWClJyvVDxbq8y1hyDP32hv3nDvNyTyyGHl!833808915!1442859529652","","",16,"111123116","","",1,"1",2,3,1,"","","","","","ACTIVE","","BGL account","0000099760102047"
"4970","0000098006102044","NEFT INWARD RETURN A/C","Suspense",,"","","","Bank","IDFC","","MUMBAI","10204","INR","","Internal","","","","configurer2",07-OCT-15 11.10.10.854000000 AM,"",,4970,"172.16.45.233","ACTIVE",,1,"ScVAt7pfxp-RAtZMTvbgapt0fmGEqoBmtsOHQbg6HHWnfqoN3Ffd!-1743834494!1444194794079","","",16,"111123116","","",1,"1",2,3,1,"","","","","","ACTIVE","","BGL account","0000098006102044"
"3932","0000099837102122","CLEARING RECEIVABLE ACCOUNT","Suspense",,"","","","Bank","IDFC","","MUMBAI","10212","INR","","Internal","","","","configurer4",21-SEP-15 11.54.53.588000000 PM,"",,3932,"172.18.0.99","ACTIVE",,1,"SQvpWQKJgLsNrj2QwkWClJyvVDxbq8y1hyDP32hv3nDvNyTyyGHl!833808915!1442859529652","","",2,"1111297312","","",1,"1",297,3,1,"","","","","","ACTIVE","","BGL account","0000099837102122"
"4971","0000098005102045","RTGS INWARD RETURN A/C","Suspense",,"","","","Bank","IDFC","","MUMBAI","10204","INR","","Internal","","","","configurer2",07-OCT-15 11.10.10.861000000 AM,"",,4971,"172.16.45.233","ACTIVE",,1,"ScVAt7pfxp-RAtZMTvbgapt0fmGEqoBmtsOHQbg6HHWnfqoN3Ffd!-1743834494!1444194794079","","",16,"111123116","","",1,"1",2,3,1,"","","","","","ACTIVE","","BGL account","0000098005102045"
"4060","0000098061","ECS DEBIT RETURN - OUTWARD","Suspense",,"","","","Bank","IDFC","","MUMBAI","20101","INR","","Internal","","","","configurer4",21-SEP-15 11.54.54.056000000 PM,"",,4060,"172.18.0.99","ACTIVE",,1,"SQvpWQKJgLsNrj2QwkWClJyvVDxbq8y1hyDP32hv3nDvNyTyyGHl!833808915!1442859529652","","",3,"1111298313","","",1,"1",298,3,1,"","","","","","ACTIVE","","BGL account","0000098061"
"4100","0000098052","ECS CREDIT RETURN - OUTWARD","Suspense",,"","","","Bank","IDFC","","MUMBAI","10212","INR","","Internal","","","","configurer4",21-SEP-15 11.54.54.216000000 PM,"",,4100,"172.18.0.99","ACTIVE",,1,"SQvpWQKJgLsNrj2QwkWClJyvVDxbq8y1hyDP32hv3nDvNyTyyGHl!833808915!1442859529652","","",3,"1111298313","","",1,"1",298,3,1,"","","","","","ACTIVE","","BGL account","0000098052"
"3934","0000098159102083","R-SYSTEM - COLLECTION CONTROL","Inter-System",,"","","","Bank","IDFC","","MUMBAI","10208","INR","","Internal","","","","configurer4",21-SEP-15 11.54.53.595000000 PM,"",,3934,"172.18.0.99","ACTIVE",,1,"SQvpWQKJgLsNrj2QwkWClJyvVDxbq8y1hyDP32hv3nDvNyTyyGHl!833808915!1442859529652","","",10,"11113014110","","",1,"1",301,4,1,"","","","","","ACTIVE","","BGL account","0000098159102083"
"4039","0000098063","ECS DEBIT SETTLEMENT - OUTWARD","Suspense",,"","","","Bank","IDFC","","MUMBAI","20101","INR","","Internal","","","","configurer4",21-SEP-15 11.54.53.969000000 PM,"",,4039,"172.18.0.99","ACTIVE",,1,"SQvpWQKJgLsNrj2QwkWClJyvVDxbq8y1hyDP32hv3nDvNyTyyGHl!833808915!1442859529652","","",3,"1111298313","","",1,"1",298,3,1,"","","","","","ACTIVE","","BGL account","0000098063"
"3872","0000098151102047","CMS INTERNAL FUND TRANSFER POOL A/C","Suspense",,"","","","Bank","IDFC","","MUMBAI","10204","INR","","Internal","","","","configurer4",21-SEP-15 11.54.53.329000000 PM,"",,3872,"172.18.0.99","ACTIVE",,1,"SQvpWQKJgLsNrj2QwkWClJyvVDxbq8y1hyDP32hv3nDvNyTyyGHl!833808915!1442859529652","","",5,"1111305315","","",1,"1",305,3,1,"","","","","","ACTIVE","","BGL account","0000098151102047"
"3874","0000098149102041","CMS CORRESPONDENT BANK DD PAYABLE ACCOUNT (HDFC)","Non Suspense",,"","","","Bank","IDFC","","MUMBAI","10204","INR","","External","","","","configurer4",21-SEP-15 11.54.53.346000000 PM,"",,3874,"172.18.0.99","ACTIVE",,1,"SQvpWQKJgLsNrj2QwkWClJyvVDxbq8y1hyDP32hv3nDvNyTyyGHl!833808915!1442859529652","","",5,"1111305315","","",1,"1",305,3,1,"","","","","","ACTIVE","","BGL account","0000098149102041"
"3875","0000098020102046","CORRESPONDENT BANK STALE PAYABLE ACCOUNT (HDFC)","Non Suspense",,"","","","Bank","IDFC","","MUMBAI","10204","INR","","Internal","","","","configurer4",21-SEP-15 11.54.53.352000000 PM,"",,3875,"172.18.0.99","ACTIVE",,1,"SQvpWQKJgLsNrj2QwkWClJyvVDxbq8y1hyDP32hv3nDvNyTyyGHl!833808915!1442859529652","","",5,"1111305315","","",1,"1",305,3,1,"","","","","","ACTIVE","","BGL account","0000098020102046"
"3876","0000099781102043","SDMC Intermediate Account (NEFT)","Suspense",,"","","","Bank","IDFC","","MUMBAI","10204","INR","","Internal","","","","configurer4",21-SEP-15 11.54.53.357000000 PM,"",,3876,"172.18.0.99","ACTIVE",,1,"SQvpWQKJgLsNrj2QwkWClJyvVDxbq8y1hyDP32hv3nDvNyTyyGHl!833808915!1442859529652","","",16,"111123116","","",1,"1",2,3,1,"","","","","","ACTIVE","","BGL account","0000099781102043"
"3878","0000099751102048","MDMC NEFT Outward Settlement Account-2","Suspense",,"","","","Bank","IDFC","","MUMBAI","10204","INR","","Internal","","","","configurer4",21-SEP-15 11.54.53.365000000 PM,"",,3878,"172.18.0.99","ACTIVE",,1,"SQvpWQKJgLsNrj2QwkWClJyvVDxbq8y1hyDP32hv3nDvNyTyyGHl!833808915!1442859529652","","",16,"111123116","","",1,"1",2,3,1,"","","","","","ACTIVE","","BGL account","0000099751102048"
"3879","0000099752102047","MDMC NEFT Outward Settlement Account-3","Suspense",,"","","","Bank","IDFC","","MUMBAI","10204","INR","","Internal","","","","configurer4",21-SEP-15 11.54.53.368000000 PM,"",,3879,"172.18.0.99","ACTIVE",,1,"SQvpWQKJgLsNrj2QwkWClJyvVDxbq8y1hyDP32hv3nDvNyTyyGHl!833808915!1442859529652","","",16,"111123116","","",1,"1",2,3,1,"","","","","","ACTIVE","","BGL account","0000099752102047"
"3880","0000099753102046","MDMC NEFT Outward Settlement Account-4","Suspense",,"","","","Bank","IDFC","","MUMBAI","10204","INR","","Internal","","","","configurer4",21-SEP-15 11.54.53.374000000 PM,"",,3880,"172.18.0.99","ACTIVE",,1,"SQvpWQKJgLsNrj2QwkWClJyvVDxbq8y1hyDP32hv3nDvNyTyyGHl!833808915!1442859529652","","",16,"111123116","","",1,"1",2,3,1,"","","","","","ACTIVE","","BGL account","0000099753102046"
"3881","0000099850102044","MDMC NEFT Outward Settlement Account-5","Suspense",,"","","","Bank","IDFC","","MUMBAI","10204","INR","","Internal","","","","configurer4",21-SEP-15 11.54.53.378000000 PM,"",,3881,"172.18.0.99","ACTIVE",,1,"SQvpWQKJgLsNrj2QwkWClJyvVDxbq8y1hyDP32hv3nDvNyTyyGHl!833808915!1442859529652","","",16,"111123116","","",1,"1",2,3,1,"","","","","","ACTIVE","","BGL account","0000099850102044"
"3882","0000099755102044","MDMC NEFT Outward Settlement Account-6","Suspense",,"","","","Bank","IDFC","","MUMBAI","10204","INR","","Internal","","","","configurer4",21-SEP-15 11.54.53.383000000 PM,"",,3882,"172.18.0.99","ACTIVE",,1,"SQvpWQKJgLsNrj2QwkWClJyvVDxbq8y1hyDP32hv3nDvNyTyyGHl!833808915!1442859529652","","",16,"111123116","","",1,"1",2,3,1,"","","","","","ACTIVE","","BGL account","0000099755102044"
"3883","0000099851102044","MDMC NEFT Outward Settlement Account-7","Suspense",,"","","","Bank","IDFC","","MUMBAI","10204","INR","","Internal","","","","configurer4",21-SEP-15 11.54.53.387000000 PM,"",,3883,"172.18.0.99","ACTIVE",,1,"SQvpWQKJgLsNrj2QwkWClJyvVDxbq8y1hyDP32hv3nDvNyTyyGHl!833808915!1442859529652","","",16,"111123116","","",1,"1",2,3,1,"","","","","","ACTIVE","","BGL account","0000099851102044"
"3884","0000099852102043","MDMC NEFT Outward Settlement Account-8","Suspense",,"","","","Bank","IDFC","","MUMBAI","10204","INR","","Internal","","","","configurer4",21-SEP-15 11.54.53.399000000 PM,"",,3884,"172.18.0.99","ACTIVE",,1,"SQvpWQKJgLsNrj2QwkWClJyvVDxbq8y1hyDP32hv3nDvNyTyyGHl!833808915!1442859529652","","",16,"111123116","","",1,"1",2,3,1,"","","","","","ACTIVE","","BGL account","0000099852102043"
"4109","0000098062","ECS CREDIT SETTLEMENT - OUTWARD","Suspense",,"","","","Bank","IDFC","","MUMBAI","41119","INR","","Internal","","","","configurer4",21-SEP-15 11.54.54.246000000 PM,"",,4109,"172.18.0.99","ACTIVE",,1,"SQvpWQKJgLsNrj2QwkWClJyvVDxbq8y1hyDP32hv3nDvNyTyyGHl!833808915!1442859529652","","",3,"1111298313","","",1,"1",298,3,1,"","","","","","ACTIVE","","BGL account","0000098062"
"6100","0000098206102047","RTGS Outward Suspense Account","Suspense",1,"IDFC Bank Limited","","","Bank","IDFC","","","","INR","","Internal","","","","opsmanager",29-JAN-16 10.55.20.691000000 PM,"",,6000,"172.16.45.97","ACTIVE",,1,"I8COFs7bEpNgI-yebZfAZf0Sm638rTc4GcR-gw8Pp0rzI0uvKohw!-684172743!1454082805467","","",19,"1111131119","Owner","",1,"1",1,31,1,"","","","","","ACTIVE","","BGL_ACCOUNT",""
"6101","0000098207102046","NEFT Outward Suspense Account ","Suspense",1,"IDFC Bank Limited","","","Bank","IDFC","","","","INR","","Internal","","","","opsmanager",30-JAN-16 12.18.43.499000000 AM,"",,6001,"172.16.45.97","ACTIVE",,1,"gVuOtlh2IjUmrgKrN5JBTcsvQxJzgwN1lcP03c5AJ6wVNi3KUP1n!-684172743!1454093260918","","",19,"1111131119","Owner","",1,"1",1,31,1,"","","","","","ACTIVE","","BGL_ACCOUNT",""
"6102","0000099382102047","ACH Destination Credit Return Account","Suspense",1,"IDFC Bank Limited","","","Bank","IDFC","","","","INR","","Internal","","","","opsmanager",30-JAN-16 12.20.14.631000000 AM,"",,6002,"172.16.45.97","ACTIVE",,1,"gVuOtlh2IjUmrgKrN5JBTcsvQxJzgwN1lcP03c5AJ6wVNi3KUP1n!-684172743!1454093260918","","",19,"1111131119","Owner","",1,"1",1,31,1,"","","","","","ACTIVE","","BGL_ACCOUNT",""
"4142","0000098054","ECS DEBIT SETTLEMENT - INWARD","Suspense",,"","","","Bank","IDFC","","MUMBAI","10212","INR","","Internal","","","","configurer4",21-SEP-15 11.54.54.374000000 PM,"",,4142,"172.18.0.99","ACTIVE",,1,"SQvpWQKJgLsNrj2QwkWClJyvVDxbq8y1hyDP32hv3nDvNyTyyGHl!833808915!1442859529652","","",3,"1111298313","","",1,"1",298,3,1,"","","","","","ACTIVE","","BGL account","0000098054"
"4153","0000099372","NECS CREDIT SETTLEMENT - INWARD","Suspense",,"","","","Bank","IDFC","","MUMBAI","10201","INR","","Internal","","","","configurer4",21-SEP-15 11.54.54.415000000 PM,"",,4153,"172.18.0.99","ACTIVE",,1,"SQvpWQKJgLsNrj2QwkWClJyvVDxbq8y1hyDP32hv3nDvNyTyyGHl!833808915!1442859529652","","",3,"1111298313","","",1,"1",298,3,1,"","","","","","ACTIVE","","BGL account","0000099372"
"4164","0000098186102014","NECS CREDIT RETURN - OUTWARD","Suspense",,"","","","Bank","IDFC","","MUMBAI","10201","INR","","Internal","","","","configurer4",21-SEP-15 11.54.54.459000000 PM,"",,4164,"172.18.0.99","ACTIVE",,1,"SQvpWQKJgLsNrj2QwkWClJyvVDxbq8y1hyDP32hv3nDvNyTyyGHl!833808915!1442859529652","","",3,"1111298313","","",1,"1",298,3,1,"","","","","","ACTIVE","","BGL account","0000098186102014"
"4186","0000098174102052","TRADE SUSPENSE","Suspense",,"","","","Bank","IDFC","","MUMBAI","10205","INR","","Internal","","","","configurer4",21-SEP-15 11.54.54.564000000 PM,"",,4186,"172.18.0.99","ACTIVE",,1,"SQvpWQKJgLsNrj2QwkWClJyvVDxbq8y1hyDP32hv3nDvNyTyyGHl!833808915!1442859529652","","",6,"1111303316","","",1,"1",303,3,1,"","","","","","ACTIVE","","BGL account","0000098174102052"
"4014","0000098057","ECS CREDIT SETTLEMENT - INWARD","Suspense",,"","","","Bank","IDFC","","MUMBAI","10209","INR","","Internal","","","","configurer4",21-SEP-15 11.54.53.872000000 PM,"",,4014,"172.18.0.99","ACTIVE",,1,"SQvpWQKJgLsNrj2QwkWClJyvVDxbq8y1hyDP32hv3nDvNyTyyGHl!833808915!1442859529652","","",3,"1111298313","","",1,"1",298,3,1,"","","","","","ACTIVE","","BGL account","0000098057"
"4018","0000099370","ECS CREDIT RETURN - INWARD","Suspense",,"","","","Bank","IDFC","","MUMBAI","20101","INR","","Internal","","","","configurer4",21-SEP-15 11.54.53.886000000 PM,"",,4018,"172.18.0.99","ACTIVE",,1,"SQvpWQKJgLsNrj2QwkWClJyvVDxbq8y1hyDP32hv3nDvNyTyyGHl!833808915!1442859529652","","",3,"1111298313","","",1,"1",298,3,1,"","","","","","ACTIVE","","BGL account","0000099370"
"4778","0000099374","NECS CREDIT RETURN? - INWARD","Suspense",,"","","","Bank","IDFC","","MUMBAI","80101","INR","","Internal","","","","configurer2",01-OCT-15 12.36.42.960000000 PM,"",,4778,"172.16.45.233","ACTIVE",,1,"V8IiOQyWxKlFk9_Zh0bxMqpmLi4LX0c3f-j2KMvv89vBifW6CcWI!-1408759828!1443683175574","","",16,"111123116","","",1,"1",2,3,1,"","","","","","ACTIVE","","BGL account","0000099374"
"4875","0000098212","CMS BRANCH POOL ACCOUNT- IDTRF","Suspense",,"","","","Bank","IDFC","","MUMBAI","41105","INR","","Internal","","","","configurer2",01-OCT-15 12.36.43.411000000 PM,"",,4875,"172.16.45.233","ACTIVE",,1,"V8IiOQyWxKlFk9_Zh0bxMqpmLi4LX0c3f-j2KMvv89vBifW6CcWI!-1408759828!1443683175574","","",16,"111123116","","",1,"1",2,3,1,"","","","","","ACTIVE","","BGL account","0000098212"
"4807","0000098218102044","CMS CORR BANK FUNDING A/C - HDFC DD","Non Suspense",,"","","","Bank","IDFC","","MUMBAI","10204","INR","","Internal","","","","configurer2",01-OCT-15 12.36.43.082000000 PM,"",,4807,"172.16.45.233","ACTIVE",,1,"V8IiOQyWxKlFk9_Zh0bxMqpmLi4LX0c3f-j2KMvv89vBifW6CcWI!-1408759828!1443683175574","","",3,"1111298313","","",1,"1",298,3,1,"","","","","","ACTIVE","","BGL account","0000098218102044"
"4808","0000098222102048","CMS CORR BANK FUNDING A/C - SBI DD","Non Suspense",,"","","","Bank","IDFC","","MUMBAI","10204","INR","","Internal","","","","configurer2",01-OCT-15 12.36.43.086000000 PM,"",,4808,"172.16.45.233","ACTIVE",,1,"V8IiOQyWxKlFk9_Zh0bxMqpmLi4LX0c3f-j2KMvv89vBifW6CcWI!-1408759828!1443683175574","","",3,"1111298313","","",1,"1",298,3,1,"","","","","","ACTIVE","","BGL account","0000098222102048"
"4809","0000098226102044","CMS CORR BANK FUNDING A/C - CORP DD","Non Suspense",,"","","","Bank","IDFC","","MUMBAI","10204","INR","","Internal","","","","configurer2",01-OCT-15 12.36.43.090000000 PM,"",,4809,"172.16.45.233","ACTIVE",,1,"V8IiOQyWxKlFk9_Zh0bxMqpmLi4LX0c3f-j2KMvv89vBifW6CcWI!-1408759828!1443683175574","","",3,"1111298313","","",1,"1",298,3,1,"","","","","","ACTIVE","","BGL account","0000098226102044"
"4810","0000098228102042","CMS CORR BANK FUNDING A/C - AXIS DD","Non Suspense",,"","","","Bank","IDFC","","MUMBAI","10204","INR","","Internal","","","","configurer2",01-OCT-15 12.36.43.093000000 PM,"",,4810,"172.16.45.233","ACTIVE",,1,"V8IiOQyWxKlFk9_Zh0bxMqpmLi4LX0c3f-j2KMvv89vBifW6CcWI!-1408759828!1443683175574","","",3,"1111298313","","",1,"1",298,3,1,"","","","","","ACTIVE","","BGL account","0000098228102042"
"4811","0000098139102043","CMS CORR BANK FUNDING A/C - IDBI LCC","Suspense",,"","","","Bank","IDFC","","MUMBAI","10204","INR","","Internal","","","","configurer2",01-OCT-15 12.36.43.097000000 PM,"",,4811,"172.16.45.233","ACTIVE",,1,"V8IiOQyWxKlFk9_Zh0bxMqpmLi4LX0c3f-j2KMvv89vBifW6CcWI!-1408759828!1443683175574","","",3,"1111298313","","",1,"1",298,3,1,"","","","","","ACTIVE","","BGL account","0000098139102043"
"4812","0000098213102049","CMS CORR BANK FUNDING A/C - IDBI UCC","Suspense",,"","","","Bank","IDFC","","MUMBAI","10204","INR","","Internal","","","","configurer2",01-OCT-15 12.36.43.100000000 PM,"",,4812,"172.16.45.233","ACTIVE",,1,"V8IiOQyWxKlFk9_Zh0bxMqpmLi4LX0c3f-j2KMvv89vBifW6CcWI!-1408759828!1443683175574","","",3,"1111298313","","",1,"1",298,3,1,"","","","","","ACTIVE","","BGL account","0000098213102049"
"4813","0000098214102048","CMS CORR BANK FUNDING A/C - IDBI CASH","Suspense",,"","","","Bank","IDFC","","MUMBAI","10204","INR","","Internal","","","","configurer2",01-OCT-15 12.36.43.111000000 PM,"",,4813,"172.16.45.233","ACTIVE",,1,"V8IiOQyWxKlFk9_Zh0bxMqpmLi4LX0c3f-j2KMvv89vBifW6CcWI!-1408759828!1443683175574","","",3,"1111298313","","",1,"1",298,3,1,"","","","","","ACTIVE","","BGL account","0000098214102048"
"4814","0000098215102047","CMS CORR BANK FUNDING A/C - HDFC LCC","Suspense",,"","","","Bank","IDFC","","MUMBAI","10204","INR","","Internal","","","","configurer2",01-OCT-15 12.36.43.115000000 PM,"",,4814,"172.16.45.233","ACTIVE",,1,"V8IiOQyWxKlFk9_Zh0bxMqpmLi4LX0c3f-j2KMvv89vBifW6CcWI!-1408759828!1443683175574","","",3,"1111298313","","",1,"1",298,3,1,"","","","","","ACTIVE","","BGL account","0000098215102047"
"4815","0000098216102046","CMS CORR BANK FUNDING A/C - HDFC UCC","Suspense",,"","","","Bank","IDFC","","MUMBAI","10204","INR","","Internal","","","","configurer2",01-OCT-15 12.36.43.119000000 PM,"",,4815,"172.16.45.233","ACTIVE",,1,"V8IiOQyWxKlFk9_Zh0bxMqpmLi4LX0c3f-j2KMvv89vBifW6CcWI!-1408759828!1443683175574","","",3,"1111298313","","",1,"1",298,3,1,"","","","","","ACTIVE","","BGL account","0000098216102046"
"282","44171","Loans & Advances","TF Natural Account",,"","","","Bank","IDFC","","MUMBAI","","INR","","Internal","","","","configurer2",20-APR-16 07.25.00.736000000 PM,"",,282,"172.16.44.114","ACTIVE",,1,"vkoz83c05PmhaOl7FS7PUJ4RZHXSWm0ZCnFSIqInmRXvtys_wNn5!104517894!1461160474420","","",6,"1111303316","","",1,"1",303,3,1,"","","","","","Active","","Natural account",""
"4816","0000098217102045","CMS CORR BANK FUNDING A/C - HDFC CASH","Suspense",,"","","","Bank","IDFC","","MUMBAI","10204","INR","","Internal","","","","configurer2",01-OCT-15 12.36.43.124000000 PM,"",,4816,"172.16.45.233","ACTIVE",,1,"V8IiOQyWxKlFk9_Zh0bxMqpmLi4LX0c3f-j2KMvv89vBifW6CcWI!-1408759828!1443683175574","","",3,"1111298313","","",1,"1",298,3,1,"","","","","","ACTIVE","","BGL account","0000098217102045"
"4817","0000098219102043","CMS CORR BANK FUNDING A/C - SBI LCC","Suspense",,"","","","Bank","IDFC","","MUMBAI","10204","INR","","Internal","","","","configurer2",01-OCT-15 12.36.43.128000000 PM,"",,4817,"172.16.45.233","ACTIVE",,1,"V8IiOQyWxKlFk9_Zh0bxMqpmLi4LX0c3f-j2KMvv89vBifW6CcWI!-1408759828!1443683175574","","",3,"1111298313","","",1,"1",298,3,1,"","","","","","ACTIVE","","BGL account","0000098219102043"
"4818","0000098220102049","CMS CORR BANK FUNDING A/C - SBI UCC","Suspense",,"","","","Bank","IDFC","","MUMBAI","10204","INR","","Internal","","","","configurer2",01-OCT-15 12.36.43.132000000 PM,"",,4818,"172.16.45.233","ACTIVE",,1,"V8IiOQyWxKlFk9_Zh0bxMqpmLi4LX0c3f-j2KMvv89vBifW6CcWI!-1408759828!1443683175574","","",3,"1111298313","","",1,"1",298,3,1,"","","","","","ACTIVE","","BGL account","0000098220102049"
"4819","0000098221102049","CMS CORR BANK FUNDING A/C - SBI CASH","Suspense",,"","","","Bank","IDFC","","MUMBAI","10204","INR","","Internal","","","","configurer2",01-OCT-15 12.36.43.137000000 PM,"",,4819,"172.16.45.233","ACTIVE",,1,"V8IiOQyWxKlFk9_Zh0bxMqpmLi4LX0c3f-j2KMvv89vBifW6CcWI!-1408759828!1443683175574","","",3,"1111298313","","",1,"1",298,3,1,"","","","","","ACTIVE","","BGL account","0000098221102049"
"4820","0000098223102047","CMS CORR BANK FUNDING A/C - CORP LCC","Suspense",,"","","","Bank","IDFC","","MUMBAI","10204","INR","","Internal","","","","configurer2",01-OCT-15 12.36.43.140000000 PM,"",,4820,"172.16.45.233","ACTIVE",,1,"V8IiOQyWxKlFk9_Zh0bxMqpmLi4LX0c3f-j2KMvv89vBifW6CcWI!-1408759828!1443683175574","","",3,"1111298313","","",1,"1",298,3,1,"","","","","","ACTIVE","","BGL account","0000098223102047"
"4821","0000098224102046","CMS CORR BANK FUNDING A/C - CORP UCC","Suspense",,"","","","Bank","IDFC","","MUMBAI","10204","INR","","Internal","","","","configurer2",01-OCT-15 12.36.43.144000000 PM,"",,4821,"172.16.45.233","ACTIVE",,1,"V8IiOQyWxKlFk9_Zh0bxMqpmLi4LX0c3f-j2KMvv89vBifW6CcWI!-1408759828!1443683175574","","",3,"1111298313","","",1,"1",298,3,1,"","","","","","ACTIVE","","BGL account","0000098224102046"
"4822","0000098225102045","CMS CORR BANK FUNDING A/C - CORP CASH","Suspense",,"","","","Bank","IDFC","","MUMBAI","10204","INR","","Internal","","","","configurer2",01-OCT-15 12.36.43.149000000 PM,"",,4822,"172.16.45.233","ACTIVE",,1,"V8IiOQyWxKlFk9_Zh0bxMqpmLi4LX0c3f-j2KMvv89vBifW6CcWI!-1408759828!1443683175574","","",3,"1111298313","","",1,"1",298,3,1,"","","","","","ACTIVE","","BGL account","0000098225102045"
"4823","0000098227102043","CMS CORR BANK FUNDING A/C - AXIS ECS","Suspense",,"","","","Bank","IDFC","","MUMBAI","10204","INR","","Internal","","","","configurer2",01-OCT-15 12.36.43.154000000 PM,"",,4823,"172.16.45.233","ACTIVE",,1,"V8IiOQyWxKlFk9_Zh0bxMqpmLi4LX0c3f-j2KMvv89vBifW6CcWI!-1408759828!1443683175574","","",3,"1111298313","","",1,"1",298,3,1,"","","","","","ACTIVE","","BGL account","0000098227102043"
"4614","0000098022","CMS UNPAID DD ACCOUNT","Demand Draft",,"","","","Bank","IDFC","","MUMBAI","10204","INR","","External","","","","configurer2",01-OCT-15 12.36.42.179000000 PM,"",,4614,"172.16.45.233","ACTIVE",,1,"V8IiOQyWxKlFk9_Zh0bxMqpmLi4LX0c3f-j2KMvv89vBifW6CcWI!-1408759828!1443683175574","","",5,"1111305315","","",1,"1",305,3,1,"","","","","","ACTIVE","","BGL account","0000098022102045"
"6103","0000099377102011","ACH Destination Credit Account","Suspense",,"","","","Bank","IDFC","","MUMBAI","10201","INR","","Internal","","","","configurer2",18-FEB-16 06.22.21.404000000 PM,"",,6003,"172.16.8.65","ACTIVE",,1,"8dP0bLRhNhrBw7DIxeGVhfJsNu6_Y7cbBfubpotbne5gvcyN_ENu!-1322025299!1455799710817","","",16,"1111131119","","",1,"1",2,3,1,"","","","","","ACTIVE","","BGL Account",""
"6104","0000099377102044","ACH Destination Credit Account","Suspense",,"","","","Bank","IDFC","","MUMBAI","10204","INR","","Internal","","","","configurer2",18-FEB-16 06.22.21.407000000 PM,"",,6004,"172.16.8.65","ACTIVE",,1,"8dP0bLRhNhrBw7DIxeGVhfJsNu6_Y7cbBfubpotbne5gvcyN_ENu!-1322025299!1455799710817","","",16,"1111131119","","",1,"1",2,3,1,"","","","","","ACTIVE","","BGL Account",""
"6105","0000099382102014","ACH Destination Credit Return Account","Suspense",,"","","","Bank","IDFC","","MUMBAI","10201","INR","","Internal","","","","configurer2",18-FEB-16 06.22.21.414000000 PM,"",,6005,"172.16.8.65","ACTIVE",,1,"8dP0bLRhNhrBw7DIxeGVhfJsNu6_Y7cbBfubpotbne5gvcyN_ENu!-1322025299!1455799710817","","",16,"1111131119","","",1,"1",2,3,1,"","","","","","ACTIVE","","BGL Account",""
"6106","0000099378102010","ACH Destination Debit Account","Suspense",,"","","","Bank","IDFC","","MUMBAI","10201","INR","","Internal","","","","configurer2",18-FEB-16 06.22.21.419000000 PM,"",,6006,"172.16.8.65","ACTIVE",,1,"8dP0bLRhNhrBw7DIxeGVhfJsNu6_Y7cbBfubpotbne5gvcyN_ENu!-1322025299!1455799710817","","",16,"1111131119","","",1,"1",2,3,1,"","","","","","ACTIVE","","BGL Account",""
"6107","0000099378102043","ACH Destination Debit Account","Suspense",,"","","","Bank","IDFC","","MUMBAI","10204","INR","","Internal","","","","configurer2",18-FEB-16 06.22.21.423000000 PM,"",,6007,"172.16.8.65","ACTIVE",,1,"8dP0bLRhNhrBw7DIxeGVhfJsNu6_Y7cbBfubpotbne5gvcyN_ENu!-1322025299!1455799710817","","",16,"1111131119","","",1,"1",2,3,1,"","","","","","ACTIVE","","BGL Account",""
"6108","0000099383102013","ACH Destination Debit Return Account","Suspense",,"","","","Bank","IDFC","","MUMBAI","10201","INR","","Internal","","","","configurer2",18-FEB-16 06.22.21.426000000 PM,"",,6008,"172.16.8.65","ACTIVE",,1,"8dP0bLRhNhrBw7DIxeGVhfJsNu6_Y7cbBfubpotbne5gvcyN_ENu!-1322025299!1455799710817","","",16,"1111131119","","",1,"1",2,3,1,"","","","","","ACTIVE","","BGL Account",""
"6109","0000099383102046","ACH Destination Debit Return Account","Suspense",,"","","","Bank","IDFC","","MUMBAI","10204","INR","","Internal","","","","configurer2",18-FEB-16 06.22.21.430000000 PM,"",,6009,"172.16.8.65","ACTIVE",,1,"8dP0bLRhNhrBw7DIxeGVhfJsNu6_Y7cbBfubpotbne5gvcyN_ENu!-1322025299!1455799710817","","",16,"1111131119","","",1,"1",2,3,1,"","","","","","ACTIVE","","BGL Account",""
"6110","0000098367102087","Home Saver DD/PO Pool Account ","Suspense",,"","","","Bank","IDFC","","MUMBAI","","INR","","Internal","","","","configurer2",18-FEB-16 06.22.21.433000000 PM,"",,6010,"172.16.8.65","ACTIVE",,1,"8dP0bLRhNhrBw7DIxeGVhfJsNu6_Y7cbBfubpotbne5gvcyN_ENu!-1322025299!1455799710817","","",16,"1111131119","","",1,"1",2,3,1,"","","","","","ACTIVE","","BGL Account",""
"6111","0000098627102016","Collection Control Account_ Business Bank ","Suspense",,"","","","Bank","IDFC","","MUMBAI","","INR","","Internal","","","","configurer2",18-FEB-16 06.22.21.436000000 PM,"",,6011,"172.16.8.65","ACTIVE",,1,"8dP0bLRhNhrBw7DIxeGVhfJsNu6_Y7cbBfubpotbne5gvcyN_ENu!-1322025299!1455799710817","","",16,"1111131119","","",1,"1",2,3,1,"","","","","","ACTIVE","","BGL Account",""
"6112","0000098628102015","Disbursement Control Account_ Business Ba ","Suspense",,"","","","Bank","IDFC","","MUMBAI","","INR","","Internal","","","","configurer2",18-FEB-16 06.22.21.440000000 PM,"",,6012,"172.16.8.65","ACTIVE",,1,"8dP0bLRhNhrBw7DIxeGVhfJsNu6_Y7cbBfubpotbne5gvcyN_ENu!-1322025299!1455799710817","","",16,"1111131119","","",1,"1",2,3,1,"","","","","","ACTIVE","","BGL Account",""
"6113","0000098639102089","R-SYSTEM - Life Insu Premium Pool A/c ","Suspense",,"","","","Bank","IDFC","","MUMBAI","","INR","","Internal","","","","configurer2",18-FEB-16 06.22.21.443000000 PM,"",,6013,"172.16.8.65","ACTIVE",,1,"8dP0bLRhNhrBw7DIxeGVhfJsNu6_Y7cbBfubpotbne5gvcyN_ENu!-1322025299!1455799710817","","",16,"1111131119","","",1,"1",2,3,1,"","","","","","ACTIVE","","BGL Account",""
"3935","0000098160102080","R-SYSTEM LOAN DISBURSEMENT Control A/c","Inter-System",,"","","","Bank","IDFC","","MUMBAI","10208","INR","","Internal","","","","configurer4",21-SEP-15 11.54.53.598000000 PM,"",,3935,"172.18.0.99","ACTIVE",,1,"SQvpWQKJgLsNrj2QwkWClJyvVDxbq8y1hyDP32hv3nDvNyTyyGHl!833808915!1442859529652","","",10,"11113014110","","",1,"1",301,4,1,"","","","","","ACTIVE","","BGL account","0000098160102080"
"3936","0000098155102087","R-SYSTEM OUTWARD CLEARING","Suspense",,"","","","Bank","IDFC","","MUMBAI","10208","INR","","Internal","","","","configurer4",21-SEP-15 11.54.53.601000000 PM,"",,3936,"172.18.0.99","ACTIVE",,1,"SQvpWQKJgLsNrj2QwkWClJyvVDxbq8y1hyDP32hv3nDvNyTyyGHl!833808915!1442859529652","","",10,"11113014110","","",1,"1",301,4,1,"","","","","","ACTIVE","","BGL account","0000098155102087"
"3937","0000098156102086","R-SYSTEM RTGS INWARD","Suspense",,"","","","Bank","IDFC","","MUMBAI","10208","INR","","Internal","","","","configurer4",21-SEP-15 11.54.53.605000000 PM,"",,3937,"172.18.0.99","ACTIVE",,1,"SQvpWQKJgLsNrj2QwkWClJyvVDxbq8y1hyDP32hv3nDvNyTyyGHl!833808915!1442859529652","","",10,"11113014110","","",1,"1",301,4,1,"","","","","","ACTIVE","","BGL account","0000098156102086"
"3938","0000098157102085","R-SYSTEM NEFT INWARD","Suspense",,"","","","Bank","IDFC","","MUMBAI","10208","INR","","Internal","","","","configurer4",21-SEP-15 11.54.53.608000000 PM,"",,3938,"172.18.0.99","ACTIVE",,1,"SQvpWQKJgLsNrj2QwkWClJyvVDxbq8y1hyDP32hv3nDvNyTyyGHl!833808915!1442859529652","","",10,"11113014110","","",1,"1",301,4,1,"","","","","","ACTIVE","","BGL account","0000098157102085"
"3939","0000098158102084","R-SYSTEM UNPAID DD ACCOUNT","Suspense",,"","","","Bank","IDFC","","MUMBAI","10208","INR","","Internal","","","","configurer4",21-SEP-15 11.54.53.611000000 PM,"",,3939,"172.18.0.99","ACTIVE",,1,"SQvpWQKJgLsNrj2QwkWClJyvVDxbq8y1hyDP32hv3nDvNyTyyGHl!833808915!1442859529652","","",10,"11113014110","","",1,"1",301,4,1,"","","","","","ACTIVE","","BGL account","0000098158102084"
"3940","0000098161102080","R-SYSTEM RTGS OUTWARD","Suspense",,"","","","Bank","IDFC","","MUMBAI","10208","INR","","Internal","","","","configurer4",21-SEP-15 11.54.53.614000000 PM,"",,3940,"172.18.0.99","ACTIVE",,1,"SQvpWQKJgLsNrj2QwkWClJyvVDxbq8y1hyDP32hv3nDvNyTyyGHl!833808915!1442859529652","","",10,"11113014110","","",1,"1",301,4,1,"","","","","","ACTIVE","","BGL account","0000098161102080"
"3941","0000098162102089","R-SYSTEM NEFT OUTWARD","Suspense",,"","","","Bank","IDFC","","MUMBAI","10208","INR","","Internal","","","","configurer4",21-SEP-15 11.54.53.617000000 PM,"",,3941,"172.18.0.99","ACTIVE",,1,"SQvpWQKJgLsNrj2QwkWClJyvVDxbq8y1hyDP32hv3nDvNyTyyGHl!833808915!1442859529652","","",10,"11113014110","","",1,"1",301,4,1,"","","","","","ACTIVE","","BGL account","0000098162102089"
"3942","0000098163102088","R-SYSTEM ECS INWARD","Suspense",,"","","","Bank","IDFC","","MUMBAI","10208","INR","","Internal","","","","configurer4",21-SEP-15 11.54.53.621000000 PM,"",,3942,"172.18.0.99","ACTIVE",,1,"SQvpWQKJgLsNrj2QwkWClJyvVDxbq8y1hyDP32hv3nDvNyTyyGHl!833808915!1442859529652","","",10,"11113014110","","",1,"1",301,4,1,"","","","","","ACTIVE","","BGL account","0000098163102088"
"3943","0000098164102087","R-SYSTEM ACH INWARD","Suspense",,"","","","Bank","IDFC","","MUMBAI","10208","INR","","Internal","","","","configurer4",21-SEP-15 11.54.53.624000000 PM,"",,3943,"172.18.0.99","ACTIVE",,1,"SQvpWQKJgLsNrj2QwkWClJyvVDxbq8y1hyDP32hv3nDvNyTyyGHl!833808915!1442859529652","","",10,"11113014110","","",1,"1",301,4,1,"","","","","","ACTIVE","","BGL account","0000098164102087"
"3944","0000098165102086","R-SYSTEM INWARD CLEARING","Suspense",,"","","","Bank","IDFC","","MUMBAI","10208","INR","","Internal","","","","configurer4",21-SEP-15 11.54.53.628000000 PM,"",,3944,"172.18.0.99","ACTIVE",,1,"SQvpWQKJgLsNrj2QwkWClJyvVDxbq8y1hyDP32hv3nDvNyTyyGHl!833808915!1442859529652","","",10,"11113014110","","",1,"1",301,4,1,"","","","","","ACTIVE","","BGL account","0000098165102086"
"3945","0000099591102082","R-system outward return clearing","Suspense",,"","","","Bank","IDFC","","MUMBAI","10208","INR","","Internal","","","","configurer4",21-SEP-15 11.54.53.632000000 PM,"",,3945,"172.18.0.99","ACTIVE",,1,"SQvpWQKJgLsNrj2QwkWClJyvVDxbq8y1hyDP32hv3nDvNyTyyGHl!833808915!1442859529652","","",10,"11113014110","","",1,"1",301,4,1,"","","","","","ACTIVE","","BGL account","0000099591102082"
"3946","0000098019102040","CORRESPONDENT BANK FUNDING ACCOUNT - PAYMENTS","Non Suspense",,"","","","Bank","IDFC","","MUMBAI","10204","INR","","Internal","","","","configurer4",21-SEP-15 11.54.53.636000000 PM,"",,3946,"172.18.0.99","ACTIVE",,1,"SQvpWQKJgLsNrj2QwkWClJyvVDxbq8y1hyDP32hv3nDvNyTyyGHl!833808915!1442859529652","","",3,"1111298313","","",1,"1",298,3,1,"","","","","","ACTIVE","","BGL account","0000098019102040"
"3965","0000098138","CMS BRANCH POOL ACCOUNT- IDLCC/PDC","Suspense",,"","","","Bank","IDFC","","MUMBAI","10209","INR","","Internal","","","","configurer4",21-SEP-15 11.54.53.697000000 PM,"",,3965,"172.18.0.99","ACTIVE",,1,"SQvpWQKJgLsNrj2QwkWClJyvVDxbq8y1hyDP32hv3nDvNyTyyGHl!833808915!1442859529652","","",3,"1111298313","","",1,"1",298,3,1,"","","","","","ACTIVE","","BGL account","0000098138"
"3969","0000098137102045","CMS CASH COLLECTION  POOL ACCOUNT","Suspense",,"","","","Bank","IDFC","","MUMBAI","10204","INR","","Internal","","","","configurer4",21-SEP-15 11.54.53.709000000 PM,"",,3969,"172.18.0.99","ACTIVE",,1,"SQvpWQKJgLsNrj2QwkWClJyvVDxbq8y1hyDP32hv3nDvNyTyyGHl!833808915!1442859529652","","",3,"1111298313","","",1,"1",298,3,1,"","","","","","ACTIVE","","BGL account","0000098137102045"
"4943","0000099821","Trickle feed CR","Suspense",,"","","","Bank","IDFC","","MUMBAI","41103","INR","","Internal","","","","configurer2",01-OCT-15 12.36.43.681000000 PM,"",,4943,"172.16.45.233","ACTIVE",,1,"V8IiOQyWxKlFk9_Zh0bxMqpmLi4LX0c3f-j2KMvv89vBifW6CcWI!-1408759828!1443683175574","","",16,"111123116","","",1,"1",2,3,1,"","","","","","ACTIVE","","BGL account","0000099821"
"6038","0000098205102048","NACH Credit Suspense Account ","Suspense",,"","","","Bank","IDFC","","MUMBAI","10204","","","Internal","","","","opsmanager",22-JAN-16 03.48.39.132000000 PM,"",,5948,"172.16.45.97","ACTIVE",,1,"e2po1pxCYqKsz0VBWGbgkcxyi5M6CJSzc6KvXPKQ0n5ZEv64IRZj!-1960310529!1453457841218","","",16,"1111131119","","",1,"1",2,3,1,"","","","","","ACTIVE","","BGL account","0000098205"
"6039","0000099897102041","NACH credit settlement Account ","Suspense",,"","","","Bank","IDFC","","MUMBAI","10204","","","Internal","","","","opsmanager",22-JAN-16 03.48.39.135000000 PM,"",,5949,"172.16.45.97","ACTIVE",,1,"e2po1pxCYqKsz0VBWGbgkcxyi5M6CJSzc6KvXPKQ0n5ZEv64IRZj!-1960310529!1453457841218","","",16,"1111131119","","",1,"1",2,3,1,"","","","","","ACTIVE","","BGL account","0000099897102041"
"6042","0000099379102042","ECS Destination Credit Account","Suspense",,"","","","Bank","IDFC","","MUMBAI","10204","","","Internal","","","","opsmanager",22-JAN-16 03.48.39.147000000 PM,"",,5952,"172.16.45.97","ACTIVE",,1,"e2po1pxCYqKsz0VBWGbgkcxyi5M6CJSzc6KvXPKQ0n5ZEv64IRZj!-1960310529!1453457841218","","",16,"1111131119","","",1,"1",2,3,1,"","","","","","ACTIVE","","BGL account","0000099379102042"
"6045","0000099380102048","OLRR Destination Credit Account","Suspense",,"","","","Bank","IDFC","","MUMBAI","10204","","","Internal","","","","opsmanager",22-JAN-16 03.48.39.162000000 PM,"",,5955,"172.16.45.97","ACTIVE",,1,"e2po1pxCYqKsz0VBWGbgkcxyi5M6CJSzc6KvXPKQ0n5ZEv64IRZj!-1960310529!1453457841218","","",16,"1111131119","","",1,"1",2,3,1,"","","","","","ACTIVE","","BGL account","0000099380102048"
"6046","0000099381102048","OLRR Destination Debit Account","Suspense",,"","","","Bank","IDFC","","MUMBAI","10204","","","Internal","","","","opsmanager",22-JAN-16 03.48.39.164000000 PM,"",,5956,"172.16.45.97","ACTIVE",,1,"e2po1pxCYqKsz0VBWGbgkcxyi5M6CJSzc6KvXPKQ0n5ZEv64IRZj!-1960310529!1453457841218","","",16,"1111131119","","",1,"1",2,3,1,"","","","","","ACTIVE","","BGL account","0000099381102048"
"6047","0000098055102046","ECS OLRR (ONLINE RETURN & REJECT) DEBIT","Suspense",,"","","","Bank","IDFC","","MUMBAI","10204","","","Internal","","","","opsmanager",22-JAN-16 03.48.39.167000000 PM,"",,5957,"172.16.45.97","ACTIVE",,1,"e2po1pxCYqKsz0VBWGbgkcxyi5M6CJSzc6KvXPKQ0n5ZEv64IRZj!-1960310529!1453457841218","","",16,"1111131119","","",1,"1",2,3,1,"","","","","","ACTIVE","","BGL account","0000098055"
"6048","0000098058102043","ECS OLRR (ONLINE RETURN & REJECT) CREDIT","Suspense",,"","","","Bank","IDFC","","MUMBAI","10204","","","Internal","","","","opsmanager",22-JAN-16 03.48.39.171000000 PM,"",,5958,"172.16.45.97","ACTIVE",,1,"e2po1pxCYqKsz0VBWGbgkcxyi5M6CJSzc6KvXPKQ0n5ZEv64IRZj!-1960310529!1453457841218","","",16,"1111131119","","",1,"1",2,3,1,"","","","","","ACTIVE","","BGL account","0000098058102043"
"5146","0000098203102040","Cheque Purchase Account ","Suspense",,"","","","Bank","IDFC","","MUMBAI","40101","INR","","Internal","","","","configurer2",04-DEC-15 03.22.38.633000000 PM,"",,5056,"172.16.45.233","ACTIVE",,1,"sPtsaB4xSJsyM8l4Ab5ZPPpEAyPJ_nHG4iJL96-Bk50Iu8t7vPWr!1413770016!1449222741553","","",16,"1111131119","","",1,"1",2,3,1,"","","","","","ACTIVE","","BGL Account","0000098203102040"
"5147","0000098437102044","Other Bank Charges Account ","Suspense",,"","","","Bank","IDFC","","MUMBAI","40101","INR","","Internal","","","","configurer2",04-DEC-15 03.22.38.637000000 PM,"",,5057,"172.16.45.233","ACTIVE",,1,"sPtsaB4xSJsyM8l4Ab5ZPPpEAyPJ_nHG4iJL96-Bk50Iu8t7vPWr!1413770016!1449222741553","","",16,"1111131119","","",1,"1",2,3,1,"","","","","","ACTIVE","","BGL Account","0000098437102044"
"6049","0000098144102046","CMS - VENDOR SUSPENSE ACCOUNT","Suspense",,"","","","Bank","IDFC","","MUMBAI","10204","","","Internal","","","","opsmanager",22-JAN-16 03.48.39.174000000 PM,"",,5959,"172.16.45.97","ACTIVE",,1,"e2po1pxCYqKsz0VBWGbgkcxyi5M6CJSzc6KvXPKQ0n5ZEv64IRZj!-1960310529!1453457841218","","",16,"1111131119","","",1,"1",2,3,1,"","","","","","ACTIVE","","BGL account","0000098144102046"
"5148","0000099898102040","NACH Debit Suspense Account ","Suspense",,"","","","Bank","IDFC","","MUMBAI","40101","INR","","Internal","","","","configurer2",04-DEC-15 03.22.38.640000000 PM,"",,5058,"172.16.45.233","ACTIVE",,1,"sPtsaB4xSJsyM8l4Ab5ZPPpEAyPJ_nHG4iJL96-Bk50Iu8t7vPWr!1413770016!1449222741553","","",16,"1111131119","","",1,"1",2,3,1,"","","","","","ACTIVE","","BGL Account","0000099898102040"
"6051","0000098146102044","CMS CASH DELIVERY PAYABLE ACCOUNT","Suspense",,"","","","Bank","IDFC","","MUMBAI","10204","","","Internal","","","","opsmanager",22-JAN-16 03.48.39.181000000 PM,"",,5961,"172.16.45.97","ACTIVE",,1,"e2po1pxCYqKsz0VBWGbgkcxyi5M6CJSzc6KvXPKQ0n5ZEv64IRZj!-1960310529!1453457841218","","",16,"1111131119","","",1,"1",2,3,1,"","","","","","ACTIVE","","BGL account","0000098146102044"
"5149","0000098141102049","RTGS Inward Suspense Account ","Suspense",,"","","","Bank","IDFC","","MUMBAI","40101","INR","","Internal","","","","configurer2",04-DEC-15 03.22.38.650000000 PM,"",,5059,"172.16.45.233","ACTIVE",,1,"sPtsaB4xSJsyM8l4Ab5ZPPpEAyPJ_nHG4iJL96-Bk50Iu8t7vPWr!1413770016!1449222741553","","",16,"1111131119","","",1,"1",2,3,1,"","","","","","ACTIVE","","BGL Account","0000098141102049"
"5150","0000098142102048","NEFT Inward Suspense Account ","Suspense",,"","","","Bank","IDFC","","MUMBAI","40101","INR","","Internal","","","","configurer2",04-DEC-15 03.22.38.653000000 PM,"",,5060,"172.16.45.233","ACTIVE",,1,"sPtsaB4xSJsyM8l4Ab5ZPPpEAyPJ_nHG4iJL96-Bk50Iu8t7vPWr!1413770016!1449222741553","","",16,"1111131119","","",1,"1",2,3,1,"","","","","","ACTIVE","","BGL Account","0000098142102048"
"5152","0000098201","Control Account ","Suspense",,"","","","Bank","IDFC","","MUMBAI","40101","INR","","Internal","","","","configurer2",04-DEC-15 03.22.38.659000000 PM,"",,5062,"172.16.45.233","ACTIVE",,1,"sPtsaB4xSJsyM8l4Ab5ZPPpEAyPJ_nHG4iJL96-Bk50Iu8t7vPWr!1413770016!1449222741553","","",16,"1111131119","","",1,"1",2,3,1,"","","","","","ACTIVE","","BGL Account","0000098201"
"235","0000099392","Non CTS Inward Clearing Returns Account","Suspense",,"","","","Bank","IDFC","","MUMBAI","10212","INR","","Internal","","","","configurer2",27-OCT-15 04.51.09.565000000 PM,"",,5005,"172.16.45.233","ACTIVE",,1,"-D6pBNow0SMCnUvI1pJa_pjrh9ymv3Ifpqo0iXL9tUqjLKsnFF6A!117345404!1445944678960","","",16,"1111131119","","",1,"1",2,3,1,"","","","","","ACTIVE","","BGL account","0000099392"
"6052","0000098147102043","CMS CASH DELIVERY RECEIVABLE ACCOUNT","Suspense",,"","","","Bank","IDFC","","MUMBAI","10204","","","Internal","","","","opsmanager",22-JAN-16 03.48.39.185000000 PM,"",,5962,"172.16.45.97","ACTIVE",,1,"e2po1pxCYqKsz0VBWGbgkcxyi5M6CJSzc6KvXPKQ0n5ZEv64IRZj!-1960310529!1453457841218","","",16,"1111131119","","",1,"1",2,3,1,"","","","","","ACTIVE","","BGL account","0000098147102043"
"236","0000099394","Outward Clearing-Non-CTS    ","Suspense",,"","","","Bank","IDFC","","MUMBAI","10209","INR","","Internal","","","","configurer2",27-OCT-15 04.51.09.568000000 PM,"",,5006,"172.16.45.233","ACTIVE",,1,"-D6pBNow0SMCnUvI1pJa_pjrh9ymv3Ifpqo0iXL9tUqjLKsnFF6A!117345404!1445944678960","","",16,"1111131119","","",1,"1",2,3,1,"","","","","","ACTIVE","","BGL account","0000099394"
"6054","0000099899102049","NACH CREDIT SETTLEMENT - INWARD","Suspense",,"","","","Bank","IDFC","","MUMBAI","10204","","","Internal","","","","opsmanager",22-JAN-16 03.48.39.192000000 PM,"",,5964,"172.16.45.97","ACTIVE",,1,"e2po1pxCYqKsz0VBWGbgkcxyi5M6CJSzc6KvXPKQ0n5ZEv64IRZj!-1960310529!1453457841218","","",16,"1111131119","","",1,"1",2,3,1,"","","","","","ACTIVE","","BGL account","0000099899102049"
"6055","0000098150102047","CMS E-COLLECTION POOL AC","Suspense",,"","","","Bank","IDFC","","MUMBAI","10204","","","Internal","","","","opsmanager",22-JAN-16 03.48.39.196000000 PM,"",,5965,"172.16.45.97","ACTIVE",,1,"e2po1pxCYqKsz0VBWGbgkcxyi5M6CJSzc6KvXPKQ0n5ZEv64IRZj!-1960310529!1453457841218","","",16,"1111131119","","",1,"1",2,3,1,"","","","","","ACTIVE","","BGL account","0000098150102047"
"6056","0000098204","CMS - Outward Clearing Account","Suspense",,"","","","Bank","IDFC","","MUMBAI","40101","","","Internal","","","","opsmanager",22-JAN-16 03.48.39.199000000 PM,"",,5966,"172.16.45.97","ACTIVE",,1,"e2po1pxCYqKsz0VBWGbgkcxyi5M6CJSzc6KvXPKQ0n5ZEv64IRZj!-1960310529!1453457841218","","",16,"1111131119","","",1,"1",2,3,1,"","","","","","ACTIVE","","BGL account","0000098204"
"4857","0000098211","CMS BRANCH POOL ACCOUNT- IDUCC","Suspense",,"","","","Bank","IDFC","","MUMBAI","41201","INR","","Internal","","","","configurer2",01-OCT-15 12.36.43.329000000 PM,"",,4857,"172.16.45.233","ACTIVE",,1,"V8IiOQyWxKlFk9_Zh0bxMqpmLi4LX0c3f-j2KMvv89vBifW6CcWI!-1408759828!1443683175574","","",16,"111123116","","",1,"1",2,3,1,"","","","","","ACTIVE","","BGL account","0000098211"
"5030","0000099750","Novo Pay Control Account","Inter-System",,"","","","Bank","IDFC","","MUMBAI","41113","INR","","Internal","","","","configurer2",16-NOV-15 06.23.52.418000000 PM,"",,5030,"172.16.45.233","ACTIVE",,1,"H-oQVehth8yOQxzsQ-E9Wzf7LKFNGyiaQRfvvH5z6edHtp9ri07W!1413770016!1447678044269","","",16,"1111131119","","",1,"1",2,3,1,"","","","","","ACTIVE","","BGL account","0000099750"
"5034","0000099438102046","MDMC NEFT Outward Settlement Account-1","Suspense",,"","","","Bank","IDFC","","MUMBAI","10204","INR","","Internal","","","","configurer2",16-NOV-15 06.23.52.434000000 PM,"",,5034,"172.16.45.233","ACTIVE",,1,"H-oQVehth8yOQxzsQ-E9Wzf7LKFNGyiaQRfvvH5z6edHtp9ri07W!1413770016!1447678044269","","",16,"1111131119","","",1,"1",2,3,1,"","","","","","ACTIVE","","BGL account","0000099438102046"
"228","0000098021","DEPOSIT UNDER PROCESS ACCOUNT","Suspense",,"","","","Bank","IDFC","","MUMBAI","10204","INR","","Internal","","","","configurer2",16-OCT-15 08.35.02.206000000 PM,"",,4996,"172.16.45.233","ACTIVE",,1,"0QdxIOJnJ3Hflir17jLZohVWlPPMWxkHmubhzoOZpEW8q0SkUL1V!1221610961!1445006991975","","",16,"1111131119","","",1,"1",2,3,1,"","","","","","ACTIVE","","BGL account","0000098021"
"229","0000099896413514","CBS-Other Source System Technical Contra","Suspense",,"","","","Bank","IDFC","","MUMBAI","10204","INR","","Internal","","","","configurer2",16-OCT-15 08.35.02.209000000 PM,"",,4997,"172.16.45.233","ACTIVE",,1,"0QdxIOJnJ3Hflir17jLZohVWlPPMWxkHmubhzoOZpEW8q0SkUL1V!1221610961!1445006991975","","",16,"1111131119","","",1,"1",2,3,1,"","","","","","ACTIVE","","BGL account","0000099896413514"
"203","0000098002102048","CMS - NEFT INWARD","Suspense",,"","","","Bank","IDFC","","MUMBAI","10204","INR","","Internal","","","","configurer2",16-OCT-15 08.48.32.430000000 PM,"",,4998,"172.16.45.233","ACTIVE",,1,"0QdxIOJnJ3Hflir17jLZohVWlPPMWxkHmubhzoOZpEW8q0SkUL1V!1221610961!1445006991975","","",16,"1111131119","","",1,"1",2,3,1,"","","","","","ACTIVE","","BGL account","0000098002102048"
"204","0000098001102049","CMS - RTGS INWARD","Suspense",,"","","","Bank","IDFC","","MUMBAI","10204","INR","","Internal","","","","configurer2",16-OCT-15 08.48.32.433000000 PM,"",,4999,"172.16.45.233","ACTIVE",,1,"0QdxIOJnJ3Hflir17jLZohVWlPPMWxkHmubhzoOZpEW8q0SkUL1V!1221610961!1445006991975","","",16,"1111131119","","",1,"1",2,3,1,"","","","","","ACTIVE","","BGL account","0000098001102049"
"5145","0000099358102046","DD Account ","Suspense",,"","","","Bank","IDFC","","MUMBAI","40101","INR","","Internal","","","","configurer2",04-DEC-15 03.22.38.630000000 PM,"",,5055,"172.16.45.233","ACTIVE",,1,"sPtsaB4xSJsyM8l4Ab5ZPPpEAyPJ_nHG4iJL96-Bk50Iu8t7vPWr!1413770016!1449222741553","","",16,"1111131119","","",1,"1",2,3,1,"","","","","","ACTIVE","","BGL Account","0000099358102046"
"244","0000099397","Outward Clearing-Non-CTS Return","Suspense",,"","","","Bank","IDFC","","MUMBAI","10212","INR","","Internal","","","","configurer2",27-OCT-15 04.51.09.600000000 PM,"",,5014,"172.16.45.233","ACTIVE",,1,"-D6pBNow0SMCnUvI1pJa_pjrh9ymv3Ifpqo0iXL9tUqjLKsnFF6A!117345404!1445944678960","","",16,"1111131119","","",1,"1",2,3,1,"","","","","","ACTIVE","","BGL account","0000099397"
"231","0000099390","Non CTS Inward Clearing Account","Suspense",,"","","","Bank","IDFC","","MUMBAI","10211","INR","","Internal","","","","configurer2",27-OCT-15 04.51.09.540000000 PM,"",,5001,"172.16.45.233","ACTIVE",,1,"-D6pBNow0SMCnUvI1pJa_pjrh9ymv3Ifpqo0iXL9tUqjLKsnFF6A!117345404!1445944678960","","",16,"1111131119","","",1,"1",2,3,1,"","","","","","ACTIVE","","BGL account","0000099390"
"5174","0000098202","Contra Account ","Suspense",,"","","","Bank","IDFC","","MUMBAI","40101","INR","","Internal","","","","configurer2",04-DEC-15 03.22.38.748000000 PM,"",,5084,"172.16.45.233","ACTIVE",,1,"sPtsaB4xSJsyM8l4Ab5ZPPpEAyPJ_nHG4iJL96-Bk50Iu8t7vPWr!1413770016!1449222741553","","",16,"1111131119","","",1,"1",2,3,1,"","","","","","ACTIVE","","BGL Account","0000098202"
"5175","0000098143","CMS CASH COLLECTIONPOOL ACCOUNT","Suspense",,"","","","Bank","IDFC","","MUMBAI","40101","INR","","Internal","","","","configurer2",04-DEC-15 03.22.38.752000000 PM,"",,5085,"172.16.45.233","ACTIVE",,1,"sPtsaB4xSJsyM8l4Ab5ZPPpEAyPJ_nHG4iJL96-Bk50Iu8t7vPWr!1413770016!1449222741553","","",16,"1111131119","","",1,"1",2,3,1,"","","","","","ACTIVE","","BGL Account","0000098143"
"6075","0000098170102055","TRADE RTGS OUTWARD","Suspense",,"","","","Bank","IDFC","","MUMBAI","10205","","","Internal","","","","opsmanager",22-JAN-16 03.48.39.266000000 PM,"",,5985,"172.16.45.97","ACTIVE",,1,"e2po1pxCYqKsz0VBWGbgkcxyi5M6CJSzc6KvXPKQ0n5ZEv64IRZj!-1960310529!1453457841218","","",16,"1111131119","","",1,"1",2,3,1,"","","","","","ACTIVE","","BGL account","0000098170102055"
"4966","0000098145102045","CMS - Vendor Funding Account-REDIANT ","Suspense",,"","","","Bank","IDFC","","MUMBAI","10204","INR","","Internal","","","","configurer2",01-OCT-15 09.52.57.218000000 PM,"",,4966,"172.16.45.233","ACTIVE",,1,"9-IkNaMcGzoOfxjYLOn_NXSJ7L10AKOoe_sqHf09xqAfqWs-RXl0!-1408759828!1443716506396","","",3,"1111298313","","",1,"1",298,3,1,"","","","","","ACTIVE","","BGL account","0000098145102045"
"4967","0000098229102041","CMS - Vendor Funding Account-CMS INFO","Suspense",,"","","","Bank","IDFC","","MUMBAI","10204","INR","","Internal","","","","configurer2",01-OCT-15 09.52.57.221000000 PM,"",,4967,"172.16.45.233","ACTIVE",,1,"9-IkNaMcGzoOfxjYLOn_NXSJ7L10AKOoe_sqHf09xqAfqWs-RXl0!-1408759828!1443716506396","","",3,"1111298313","","",1,"1",298,3,1,"","","","","","ACTIVE","","BGL account","0000098229102041"
"4968","0000098230102047","CMS - Vendor Funding Account-CHECKMATE","Suspense",,"","","","Bank","IDFC","","MUMBAI","10204","INR","","Internal","","","","configurer2",01-OCT-15 09.52.57.225000000 PM,"",,4968,"172.16.45.233","ACTIVE",,1,"9-IkNaMcGzoOfxjYLOn_NXSJ7L10AKOoe_sqHf09xqAfqWs-RXl0!-1408759828!1443716506396","","",3,"1111298313","","",1,"1",298,3,1,"","","","","","ACTIVE","","BGL account","0000098230102047"
"4969","0000098231102047","CMS - Vendor Funding Account-LOGICASH","Suspense",,"","","","Bank","IDFC","","MUMBAI","10204","INR","","Internal","","","","configurer2",01-OCT-15 09.52.57.228000000 PM,"",,4969,"172.16.45.233","ACTIVE",,1,"9-IkNaMcGzoOfxjYLOn_NXSJ7L10AKOoe_sqHf09xqAfqWs-RXl0!-1408759828!1443716506396","","",3,"1111298313","","",1,"1",298,3,1,"","","","","","ACTIVE","","BGL account","0000098231102047"
"206","0000099822","Trickle feed DR","Suspense",,"","","","Bank","IDFC","","MUMBAI","10204","INR","","Internal","","","","configurer2",16-OCT-15 08.35.02.137000000 PM,"",,4974,"172.16.45.233","ACTIVE",,1,"0QdxIOJnJ3Hflir17jLZohVWlPPMWxkHmubhzoOZpEW8q0SkUL1V!1221610961!1445006991975","","",16,"1111131119","","",1,"1",2,3,1,"","","","","","ACTIVE","","BGL account","0000099822"
"211","0000099393","Outward Clearing-CTS","Suspense",,"","","","Bank","IDFC","","MUMBAI","10204","INR","","Internal","","","","configurer2",16-OCT-15 08.35.02.153000000 PM,"",,4979,"172.16.45.233","ACTIVE",,1,"0QdxIOJnJ3Hflir17jLZohVWlPPMWxkHmubhzoOZpEW8q0SkUL1V!1221610961!1445006991975","","",16,"1111131119","","",1,"1",2,3,1,"","","","","","ACTIVE","","BGL account","0000099393"
"213","0000099396","Outward Clearing-CTS Return","Suspense",,"","","","Bank","IDFC","","MUMBAI","10204","INR","","Internal","","","","configurer2",16-OCT-15 08.35.02.159000000 PM,"",,4981,"172.16.45.233","ACTIVE",,1,"0QdxIOJnJ3Hflir17jLZohVWlPPMWxkHmubhzoOZpEW8q0SkUL1V!1221610961!1445006991975","","",16,"1111131119","","",1,"1",2,3,1,"","","","","","ACTIVE","","BGL account","0000099396"
"217","0000098056","ECS DEBIT RETURN - INWARD","Suspense",,"","","","Bank","IDFC","","MUMBAI","10204","INR","","Internal","","","","configurer2",16-OCT-15 08.35.02.171000000 PM,"",,4985,"172.16.45.233","ACTIVE",,1,"0QdxIOJnJ3Hflir17jLZohVWlPPMWxkHmubhzoOZpEW8q0SkUL1V!1221610961!1445006991975","","",16,"1111131119","","",1,"1",2,3,1,"","","","","","ACTIVE","","BGL account","0000098056"
"4894","0000098166102052","TRADE RTGS NEFT INWARD (Both RTGS null Inward)","Suspense",,"","","","Bank","IDFC","","MUMBAI","10205","INR","","Internal","","","","configurer2",01-OCT-15 12.36.43.492000000 PM,"",,4894,"172.16.45.233","ACTIVE",,1,"V8IiOQyWxKlFk9_Zh0bxMqpmLi4LX0c3f-j2KMvv89vBifW6CcWI!-1408759828!1443683175574","","",16,"111123116","","",1,"1",2,3,1,"","","","","","ACTIVE","","BGL account","0000098166102052"
"5125","80305","Trade Sundry","TF Natural Account",,"","","","Bank","IDFC","","MUMBAI","40101","INR","","Internal","","","","configurer2",19-NOV-15 01.58.23.360000000 PM,"",,5035,"172.16.45.233","ACTIVE",,1,"ajge09y9w14O-uGtke0RVaH_DqHgufVhOHxqeYAcukfVCP_Gr8A-!1413770016!1447921179837","","",6,"1111303316","","",1,"1",303,3,1,"","","","","","ACTIVE","","Natural account","80305"
"5144","90109","Clean bills under confirmed LC","TF Natural Account",,"","","","Bank","IDFC","","MUMBAI","40101","INR","","Internal","","","","configurer2",19-NOV-15 01.58.23.440000000 PM,"",,5054,"172.16.45.233","ACTIVE",,1,"ajge09y9w14O-uGtke0RVaH_DqHgufVhOHxqeYAcukfVCP_Gr8A-!1413770016!1447921179837","","",6,"1111303316","","",1,"1",303,3,1,"","","","","","ACTIVE","","Natural account","90109"
"5127","24203","Discount received in advance","TF Natural Account",,"","","","Bank","IDFC","","MUMBAI","40101","INR","","Internal","","","","configurer2",19-NOV-15 01.58.23.373000000 PM,"",,5037,"172.16.45.233","ACTIVE",,1,"ajge09y9w14O-uGtke0RVaH_DqHgufVhOHxqeYAcukfVCP_Gr8A-!1413770016!1447921179837","","",6,"1111303316","","",1,"1",303,3,1,"","","","","","ACTIVE","","Natural account","24203"
"5128","24204","Guarantee commission received in advance","TF Natural Account",,"","","","Bank","IDFC","","MUMBAI","40101","INR","","Internal","","","","configurer2",19-NOV-15 01.58.23.378000000 PM,"",,5038,"172.16.45.233","ACTIVE",,1,"ajge09y9w14O-uGtke0RVaH_DqHgufVhOHxqeYAcukfVCP_Gr8A-!1413770016!1447921179837","","",6,"1111303316","","",1,"1",303,3,1,"","","","","","ACTIVE","","Natural account","24204"
"5129","24205","LC Commission received in advance","TF Natural Account",,"","","","Bank","IDFC","","MUMBAI","40101","INR","","Internal","","","","configurer2",19-NOV-15 01.58.23.382000000 PM,"",,5039,"172.16.45.233","ACTIVE",,1,"ajge09y9w14O-uGtke0RVaH_DqHgufVhOHxqeYAcukfVCP_Gr8A-!1413770016!1447921179837","","",6,"1111303316","","",1,"1",303,3,1,"","","","","","ACTIVE","","Natural account","24205"
"5130","24901","Margin Money","TF Natural Account",,"","","","Bank","IDFC","","MUMBAI","40101","INR","","Internal","","","","configurer2",19-NOV-15 01.58.23.386000000 PM,"",,5040,"172.16.45.233","ACTIVE",,1,"ajge09y9w14O-uGtke0RVaH_DqHgufVhOHxqeYAcukfVCP_Gr8A-!1413770016!1447921179837","","",6,"1111303316","","",1,"1",303,3,1,"","","","","","ACTIVE","","Natural account","24901"
"5131","25909","Interest suspense","TF Natural Account",,"","","","Bank","IDFC","","MUMBAI","40101","INR","","Internal","","","","configurer2",19-NOV-15 01.58.23.390000000 PM,"",,5041,"172.16.45.233","ACTIVE",,1,"ajge09y9w14O-uGtke0RVaH_DqHgufVhOHxqeYAcukfVCP_Gr8A-!1413770016!1447921179837","","",6,"1111303316","","",1,"1",303,3,1,"","","","","","ACTIVE","","Natural account","25909"
"5132","80304","Trade Suspense","TF Natural Account",,"","","","Bank","IDFC","","MUMBAI","40101","INR","","Internal","","","","configurer2",19-NOV-15 01.58.23.394000000 PM,"",,5042,"172.16.45.233","ACTIVE",,1,"ajge09y9w14O-uGtke0RVaH_DqHgufVhOHxqeYAcukfVCP_Gr8A-!1413770016!1447921179837","","",6,"1111303316","","",1,"1",303,3,1,"","","","","","ACTIVE","","Natural account","80304"
"5133","48103","Interest Accrued on Advances","TF Natural Account",,"","","","Bank","IDFC","","MUMBAI","40101","INR","","Internal","","","","configurer2",19-NOV-15 01.58.23.398000000 PM,"",,5043,"172.16.45.233","ACTIVE",,1,"ajge09y9w14O-uGtke0RVaH_DqHgufVhOHxqeYAcukfVCP_Gr8A-!1413770016!1447921179837","","",6,"1111303316","","",1,"1",303,3,1,"","","","","","ACTIVE","","Natural account","48103"
"5134","48104","Penal Interest accrued on Advances","TF Natural Account",,"","","","Bank","IDFC","","MUMBAI","40101","INR","","Internal","","","","configurer2",19-NOV-15 01.58.23.401000000 PM,"",,5044,"172.16.45.233","ACTIVE",,1,"ajge09y9w14O-uGtke0RVaH_DqHgufVhOHxqeYAcukfVCP_Gr8A-!1413770016!1447921179837","","",6,"1111303316","","",1,"1",303,3,1,"","","","","","ACTIVE","","Natural account","48104"
"284","0000098996102057","Trade Control Account-USD","Inter-System",,"","","","Bank","IDFC","","MUMBAI","10205","INR","","Internal","","","","configurer2",04-JUL-16 06.48.06.597000000 PM,"",,284,"172.16.44.114","ACTIVE",,1,"-7q2A-lsnaG_BpVPzGK4HLMG64gFntCBGIR5qowmgoSiHucODFUE!-1841048307!1467637557612","","",6,"1111303316","","",1,"1",303,3,1,"","","","","","ACTIVE","","BGL Account",""
"285","0000098997102056","Trade Control Account-EUR","Inter-System",,"","","","Bank","IDFC","","MUMBAI","10205","INR","","Internal","","","","configurer2",04-JUL-16 06.48.06.601000000 PM,"",,285,"172.16.44.114","ACTIVE",,1,"-7q2A-lsnaG_BpVPzGK4HLMG64gFntCBGIR5qowmgoSiHucODFUE!-1841048307!1467637557612","","",6,"1111303316","","",1,"1",303,3,1,"","","","","","ACTIVE","","BGL Account",""
"286","0000098998102055","Trade Control Account-GBP ","Inter-System",,"","","","Bank","IDFC","","MUMBAI","10205","INR","","Internal","","","","configurer2",04-JUL-16 06.48.06.604000000 PM,"",,286,"172.16.44.114","ACTIVE",,1,"-7q2A-lsnaG_BpVPzGK4HLMG64gFntCBGIR5qowmgoSiHucODFUE!-1841048307!1467637557612","","",6,"1111303316","","",1,"1",303,3,1,"","","","","","ACTIVE","","BGL Account",""
"5135","48201","Interest Unrealized","TF Natural Account",,"","","","Bank","IDFC","","MUMBAI","40101","INR","","Internal","","","","configurer2",19-NOV-15 01.58.23.405000000 PM,"",,5045,"172.16.45.233","ACTIVE",,1,"ajge09y9w14O-uGtke0RVaH_DqHgufVhOHxqeYAcukfVCP_Gr8A-!1413770016!1447921179837","","",6,"1111303316","","",1,"1",303,3,1,"","","","","","ACTIVE","","Natural account","48201"
"287","0000098999102054","Trade Control Account-JPY","Inter-System",,"","","","Bank","IDFC","","MUMBAI","10205","INR","","Internal","","","","configurer2",04-JUL-16 06.48.06.609000000 PM,"",,287,"172.16.44.114","ACTIVE",,1,"-7q2A-lsnaG_BpVPzGK4HLMG64gFntCBGIR5qowmgoSiHucODFUE!-1841048307!1467637557612","","",6,"1111303316","","",1,"1",303,3,1,"","","","","","ACTIVE","","BGL Account",""
"288","0000099000102053","Trade Control Account-SGD","Inter-System",,"","","","Bank","IDFC","","MUMBAI","10205","INR","","Internal","","","","configurer2",04-JUL-16 06.48.06.615000000 PM,"",,288,"172.16.44.114","ACTIVE",,1,"-7q2A-lsnaG_BpVPzGK4HLMG64gFntCBGIR5qowmgoSiHucODFUE!-1841048307!1467637557612","","",6,"1111303316","","",1,"1",303,3,1,"","","","","","ACTIVE","","BGL Account",""
"5136","48204","Penal Interest unrealized","TF Natural Account",,"","","","Bank","IDFC","","MUMBAI","40101","INR","","Internal","","","","configurer2",19-NOV-15 01.58.23.408000000 PM,"",,5046,"172.16.45.233","ACTIVE",,1,"ajge09y9w14O-uGtke0RVaH_DqHgufVhOHxqeYAcukfVCP_Gr8A-!1413770016!1447921179837","","",6,"1111303316","","",1,"1",303,3,1,"","","","","","ACTIVE","","Natural account","48204"
"5137","49101","Commission Receivable ","TF Natural Account",,"","","","Bank","IDFC","","MUMBAI","40101","INR","","Internal","","","","configurer2",19-NOV-15 01.58.23.415000000 PM,"",,5047,"172.16.45.233","ACTIVE",,1,"ajge09y9w14O-uGtke0RVaH_DqHgufVhOHxqeYAcukfVCP_Gr8A-!1413770016!1447921179837","","",6,"1111303316","","",1,"1",303,3,1,"","","","","","ACTIVE","","Natural account","49101"
"5138","49102","Fees null receivable","TF Natural Account",,"","","","Bank","IDFC","","MUMBAI","40101","INR","","Internal","","","","configurer2",19-NOV-15 01.58.23.418000000 PM,"",,5048,"172.16.45.233","ACTIVE",,1,"ajge09y9w14O-uGtke0RVaH_DqHgufVhOHxqeYAcukfVCP_Gr8A-!1413770016!1447921179837","","",6,"1111303316","","",1,"1",303,3,1,"","","","","","ACTIVE","","Natural account","49102"
"289","0000099001102053","Trade Control Account-HKD","Inter-System",,"","","","Bank","IDFC","","MUMBAI","10205","INR","","Internal","","","","configurer2",04-JUL-16 06.48.06.620000000 PM,"",,289,"172.16.44.114","ACTIVE",,1,"-7q2A-lsnaG_BpVPzGK4HLMG64gFntCBGIR5qowmgoSiHucODFUE!-1841048307!1467637557612","","",6,"1111303316","","",1,"1",303,3,1,"","","","","","ACTIVE","","BGL Account",""
"290","0000099002102052","Trade Control Account-AED","Inter-System",,"","","","Bank","IDFC","","MUMBAI","10205","INR","","Internal","","","","configurer2",04-JUL-16 06.48.06.623000000 PM,"",,290,"172.16.44.114","ACTIVE",,1,"-7q2A-lsnaG_BpVPzGK4HLMG64gFntCBGIR5qowmgoSiHucODFUE!-1841048307!1467637557612","","",6,"1111303316","","",1,"1",303,3,1,"","","","","","ACTIVE","","BGL Account",""
"5139","49807","Reimbursement receivable","TF Natural Account",,"","","","Bank","IDFC","","MUMBAI","40101","INR","","Internal","","","","configurer2",19-NOV-15 01.58.23.422000000 PM,"",,5049,"172.16.45.233","ACTIVE",,1,"ajge09y9w14O-uGtke0RVaH_DqHgufVhOHxqeYAcukfVCP_Gr8A-!1413770016!1447921179837","","",6,"1111303316","","",1,"1",303,3,1,"","","","","","ACTIVE","","Natural account","49807"
"291","0000099003102051","Trade Control Account-AUE","Inter-System",,"","","","Bank","IDFC","","MUMBAI","10205","INR","","Internal","","","","configurer2",04-JUL-16 06.48.06.626000000 PM,"",,291,"172.16.44.114","ACTIVE",,1,"-7q2A-lsnaG_BpVPzGK4HLMG64gFntCBGIR5qowmgoSiHucODFUE!-1841048307!1467637557612","","",6,"1111303316","","",1,"1",303,3,1,"","","","","","ACTIVE","","BGL Account",""
"292","0000099004102050","Trade Control Account-CHF","Inter-System",,"","","","Bank","IDFC","","MUMBAI","10205","INR","","Internal","","","","configurer2",04-JUL-16 06.48.06.630000000 PM,"",,292,"172.16.44.114","ACTIVE",,1,"-7q2A-lsnaG_BpVPzGK4HLMG64gFntCBGIR5qowmgoSiHucODFUE!-1841048307!1467637557612","","",6,"1111303316","","",1,"1",303,3,1,"","","","","","ACTIVE","","BGL Account",""
"293","0000099005102059","Trade Control Account-NZD","Inter-System",,"","","","Bank","IDFC","","MUMBAI","10205","INR","","Internal","","","","configurer2",04-JUL-16 06.48.06.633000000 PM,"",,293,"172.16.44.114","ACTIVE",,1,"-7q2A-lsnaG_BpVPzGK4HLMG64gFntCBGIR5qowmgoSiHucODFUE!-1841048307!1467637557612","","",6,"1111303316","","",1,"1",303,3,1,"","","","","","ACTIVE","","BGL Account",""
"294","0000099006102058","Trade Control Account-INR","Inter-System",,"","","","Bank","IDFC","","MUMBAI","10205","INR","","Internal","","","","configurer2",04-JUL-16 06.48.06.638000000 PM,"",,294,"172.16.44.114","ACTIVE",,1,"-7q2A-lsnaG_BpVPzGK4HLMG64gFntCBGIR5qowmgoSiHucODFUE!-1841048307!1467637557612","","",6,"1111303316","","",1,"1",303,3,1,"","","","","","ACTIVE","","BGL Account",""
"295","0000099028102019","Deposit under process Account - BBNK - Cash","Suspense",,"","","","Bank","IDFC","","MUMBAI","","INR","","Internal","","","","ankit.dadia",21-JUL-16 12.00.15.876000000 PM,"",,295,"172.16.44.221","ACTIVE",,1,"AOgMJSekOgXpnQ7Aofr1fl365i_pM0aJ9e-KIOqYnsP8jIGSewYY!-1841048307!1469082576804","","",16,"1111131119","","",1,"1",2,3,1,"","","","","","Active","","BGL Account",""
"5140","61102","Interest income accrued on advances","TF Natural Account",,"","","","Bank","IDFC","","MUMBAI","40101","INR","","Internal","","","","configurer2",19-NOV-15 01.58.23.425000000 PM,"",,5050,"172.16.45.233","ACTIVE",,1,"ajge09y9w14O-uGtke0RVaH_DqHgufVhOHxqeYAcukfVCP_Gr8A-!1413770016!1447921179837","","",6,"1111303316","","",1,"1",303,3,1,"","","","","","ACTIVE","","Natural account","61102"
"5141","61113","Penal Interest income accrued on advances","TF Natural Account",,"","","","Bank","IDFC","","MUMBAI","40101","INR","","Internal","","","","configurer2",19-NOV-15 01.58.23.428000000 PM,"",,5051,"172.16.45.233","ACTIVE",,1,"ajge09y9w14O-uGtke0RVaH_DqHgufVhOHxqeYAcukfVCP_Gr8A-!1413770016!1447921179837","","",6,"1111303316","","",1,"1",303,3,1,"","","","","","ACTIVE","","Natural account","61113"
"5142","90101","Contingent Asset Accounts","TF Natural Account",,"","","","Bank","IDFC","","MUMBAI","40101","INR","","Internal","","","","configurer2",19-NOV-15 01.58.23.432000000 PM,"",,5052,"172.16.45.233","ACTIVE",,1,"ajge09y9w14O-uGtke0RVaH_DqHgufVhOHxqeYAcukfVCP_Gr8A-!1413770016!1447921179837","","",6,"1111303316","","",1,"1",303,3,1,"","","","","","ACTIVE","","Natural account","90101"
"5143","90108","Acceptances Endorsements Oth Obligations","TF Natural Account",,"","","","Bank","IDFC","","MUMBAI","40101","INR","","Internal","","","","configurer2",19-NOV-15 01.58.23.436000000 PM,"",,5053,"172.16.45.233","ACTIVE",,1,"ajge09y9w14O-uGtke0RVaH_DqHgufVhOHxqeYAcukfVCP_Gr8A-!1413770016!1447921179837","","",6,"1111303316","","",1,"1",303,3,1,"","","","","","ACTIVE","","Natural account","90108"
"5126","24202","Interest received in advance","TF Natural Account",,"","","","Bank","IDFC","","MUMBAI","40101","INR","","Internal","","","","configurer2",19-NOV-15 01.58.23.364000000 PM,"",,5036,"172.16.45.233","ACTIVE",,1,"ajge09y9w14O-uGtke0RVaH_DqHgufVhOHxqeYAcukfVCP_Gr8A-!1413770016!1447921179837","","",6,"1111303316","","",1,"1",303,3,1,"","","","","","ACTIVE","","Natural account","24202"
"283","44252","Loans & Advances - Outside Inida","TF Natural Account",,"","","","Bank","IDFC","","MUMBAI","","INR","","Internal","","","","configurer2",20-APR-16 07.25.00.740000000 PM,"",,283,"172.16.44.114","ACTIVE",,1,"vkoz83c05PmhaOl7FS7PUJ4RZHXSWm0ZCnFSIqInmRXvtys_wNn5!104517894!1461160474420","","",6,"1111303316","","",1,"1",303,3,1,"","","","","","Active","","Natural account",""
"296","0000099029102018","Deposit under process Account - BBNK - Cheque","Suspense",,"","","","Bank","IDFC","","MUMBAI","","INR","","Internal","","","","ankit.dadia",21-JUL-16 12.00.15.880000000 PM,"",,296,"172.16.44.221","ACTIVE",,1,"AOgMJSekOgXpnQ7Aofr1fl365i_pM0aJ9e-KIOqYnsP8jIGSewYY!-1841048307!1469082576804","","",16,"1111131119","","",1,"1",2,3,1,"","","","","","Active","","BGL Account",""
"297","0000099030102014","Deposit under process Account - BBNK - Non IDFC Cheque","Suspense",,"","","","Bank","IDFC","","MUMBAI","","INR","","Internal","","","","ankit.dadia",21-JUL-16 12.00.15.883000000 PM,"",,297,"172.16.44.221","ACTIVE",,1,"AOgMJSekOgXpnQ7Aofr1fl365i_pM0aJ9e-KIOqYnsP8jIGSewYY!-1841048307!1469082576804","","",16,"1111131119","","",1,"1",2,3,1,"","","","","","Active","","BGL Account",""
"298","0000098410102088","Home Saver Collection Control Account","Suspense",,"","","","Bank","IDFC","","MUMBAI","10208","INR","","Internal","","","","Mehul.Naik",01-AUG-16 07.03.15.067000000 PM,"",,298,"172.16.44.221","ACTIVE",,1,"ZIhGR0NikVoWL8FqYwwbLlyZNc7N8iBez4CSRjud3y232m8Yf4Dn!2077856108!1470057890658","","",16,"1111131119","","",1,"1",2,3,1,"","","","","","ACTIVE","","BGL Account",""
"4190","0000099410102058","Export Bill Negotiation Control A/c","Inter-System",,"","","","Bank","IDFC","","MUMBAI","10205","INR","","Internal","","","","configurer4",21-SEP-15 11.54.54.580000000 PM,"",,4190,"172.18.0.99","ACTIVE",,1,"SQvpWQKJgLsNrj2QwkWClJyvVDxbq8y1hyDP32hv3nDvNyTyyGHl!833808915!1442859529652","","",6,"1111303316","","",1,"1",303,3,1,"","","","","","ACTIVE","","BGL account","0000099410102058"
"4191","0000099415102054","Purchase of Export Bills Control A/c","Inter-System",,"","","","Bank","IDFC","","MUMBAI","10205","INR","","Internal","","","","configurer4",21-SEP-15 11.54.54.584000000 PM,"",,4191,"172.18.0.99","ACTIVE",,1,"SQvpWQKJgLsNrj2QwkWClJyvVDxbq8y1hyDP32hv3nDvNyTyyGHl!833808915!1442859529652","","",6,"1111303316","","",1,"1",303,3,1,"","","","","","ACTIVE","","BGL account","0000099415102054"
"4192","0000099420102056","Discounting of Export Bills Control A/c","Inter-System",,"","","","Bank","IDFC","","MUMBAI","10205","INR","","Internal","","","","configurer4",21-SEP-15 11.54.54.588000000 PM,"",,4192,"172.18.0.99","ACTIVE",,1,"SQvpWQKJgLsNrj2QwkWClJyvVDxbq8y1hyDP32hv3nDvNyTyyGHl!833808915!1442859529652","","",6,"1111303316","","",1,"1",303,3,1,"","","","","","ACTIVE","","BGL account","0000099420102056"
"4193","0000099425102052","Rupee Advance against Export Bill - Sent on collection Control A/c","Inter-System",,"","","","Bank","IDFC","","MUMBAI","10205","INR","","Internal","","","","configurer4",21-SEP-15 11.54.54.592000000 PM,"",,4193,"172.18.0.99","ACTIVE",,1,"SQvpWQKJgLsNrj2QwkWClJyvVDxbq8y1hyDP32hv3nDvNyTyyGHl!833808915!1442859529652","","",6,"1111303316","","",1,"1",303,3,1,"","","","","","ACTIVE","","BGL account","0000099425102052"
"4194","0000099430102054","Local LC Bills Discounting Control A/c","Inter-System",,"","","","Bank","IDFC","","MUMBAI","10205","INR","","Internal","","","","configurer4",21-SEP-15 11.54.54.596000000 PM,"",,4194,"172.18.0.99","ACTIVE",,1,"SQvpWQKJgLsNrj2QwkWClJyvVDxbq8y1hyDP32hv3nDvNyTyyGHl!833808915!1442859529652","","",6,"1111303316","","",1,"1",303,3,1,"","","","","","ACTIVE","","BGL account","0000099430102054"
"4195","0000099435102050","Local (Domestic) Collection Bill Discounting  Control A/c","Inter-System",,"","","","Bank","IDFC","","MUMBAI","10205","INR","","Internal","","","","configurer4",21-SEP-15 11.54.54.599000000 PM,"",,4195,"172.18.0.99","ACTIVE",,1,"SQvpWQKJgLsNrj2QwkWClJyvVDxbq8y1hyDP32hv3nDvNyTyyGHl!833808915!1442859529652","","",6,"1111303316","","",1,"1",303,3,1,"","","","","","ACTIVE","","BGL account","0000099435102050"
"4196","0000099440102052","Invoice Financing Control A/c","Inter-System",,"","","","Bank","IDFC","","MUMBAI","10205","INR","","Internal","","","","configurer4",21-SEP-15 11.54.54.602000000 PM,"",,4196,"172.18.0.99","ACTIVE",,1,"SQvpWQKJgLsNrj2QwkWClJyvVDxbq8y1hyDP32hv3nDvNyTyyGHl!833808915!1442859529652","","",6,"1111303316","","",1,"1",303,3,1,"","","","","","ACTIVE","","BGL account","0000099440102052"
"4197","0000099445102058","Dealer Finance  Control A/c","Inter-System",,"","","","Bank","IDFC","","MUMBAI","10205","INR","","Internal","","","","configurer4",21-SEP-15 11.54.54.606000000 PM,"",,4197,"172.18.0.99","ACTIVE",,1,"SQvpWQKJgLsNrj2QwkWClJyvVDxbq8y1hyDP32hv3nDvNyTyyGHl!833808915!1442859529652","","",6,"1111303316","","",1,"1",303,3,1,"","","","","","ACTIVE","","BGL account","0000099445102058"
"4198","0000099450102050","Purchase Order Financing Control A/c","Inter-System",,"","","","Bank","IDFC","","MUMBAI","10205","INR","","Internal","","","","configurer4",21-SEP-15 11.54.54.609000000 PM,"",,4198,"172.18.0.99","ACTIVE",,1,"SQvpWQKJgLsNrj2QwkWClJyvVDxbq8y1hyDP32hv3nDvNyTyyGHl!833808915!1442859529652","","",6,"1111303316","","",1,"1",303,3,1,"","","","","","ACTIVE","","BGL account","0000099450102050"
"4199","0000099455102056","Vendor Finance Control A/c","Inter-System",,"","","","Bank","IDFC","","MUMBAI","10205","INR","","Internal","","","","configurer4",21-SEP-15 11.54.54.613000000 PM,"",,4199,"172.18.0.99","ACTIVE",,1,"SQvpWQKJgLsNrj2QwkWClJyvVDxbq8y1hyDP32hv3nDvNyTyyGHl!833808915!1442859529652","","",6,"1111303316","","",1,"1",303,3,1,"","","","","","ACTIVE","","BGL account","0000099455102056"
"4200","0000099460102059","Foreign Import LC Sight  Control A/c","Inter-System",,"","","","Bank","IDFC","","MUMBAI","10205","INR","","Internal","","","","configurer4",21-SEP-15 11.54.54.617000000 PM,"",,4200,"172.18.0.99","ACTIVE",,1,"SQvpWQKJgLsNrj2QwkWClJyvVDxbq8y1hyDP32hv3nDvNyTyyGHl!833808915!1442859529652","","",6,"1111303316","","",1,"1",303,3,1,"","","","","","ACTIVE","","BGL account","0000099460102059"
"4201","0000099465102055","Foreign Import LC Usance  Control A/c","Inter-System",,"","","","Bank","IDFC","","MUMBAI","10205","INR","","Internal","","","","configurer4",21-SEP-15 11.54.54.621000000 PM,"",,4201,"172.18.0.99","ACTIVE",,1,"SQvpWQKJgLsNrj2QwkWClJyvVDxbq8y1hyDP32hv3nDvNyTyyGHl!833808915!1442859529652","","",6,"1111303316","","",1,"1",303,3,1,"","","","","","ACTIVE","","BGL account","0000099465102055"
"4202","0000099470102057","Buyers Credit Control A/c","Inter-System",,"","","","Bank","IDFC","","MUMBAI","10205","INR","","Internal","","","","configurer4",21-SEP-15 11.54.54.625000000 PM,"",,4202,"172.18.0.99","ACTIVE",,1,"SQvpWQKJgLsNrj2QwkWClJyvVDxbq8y1hyDP32hv3nDvNyTyyGHl!833808915!1442859529652","","",6,"1111303316","","",1,"1",303,3,1,"","","","","","ACTIVE","","BGL account","0000099470102057"
"4203","0000099475102053","Local Outward LC Sight  Control A/c","Inter-System",,"","","","Bank","IDFC","","MUMBAI","10205","INR","","Internal","","","","configurer4",21-SEP-15 11.54.54.629000000 PM,"",,4203,"172.18.0.99","ACTIVE",,1,"SQvpWQKJgLsNrj2QwkWClJyvVDxbq8y1hyDP32hv3nDvNyTyyGHl!833808915!1442859529652","","",6,"1111303316","","",1,"1",303,3,1,"","","","","","ACTIVE","","BGL account","0000099475102053"
"4204","0000099480102055","Local Outward LC Usance  Control A/c","Inter-System",,"","","","Bank","IDFC","","MUMBAI","10205","INR","","Internal","","","","configurer4",21-SEP-15 11.54.54.632000000 PM,"",,4204,"172.18.0.99","ACTIVE",,1,"SQvpWQKJgLsNrj2QwkWClJyvVDxbq8y1hyDP32hv3nDvNyTyyGHl!833808915!1442859529652","","",6,"1111303316","","",1,"1",303,3,1,"","","","","","ACTIVE","","BGL account","0000099480102055"
"4205","0000099485102051","Export LC Confirmation Control A/c","Inter-System",,"","","","Bank","IDFC","","MUMBAI","10205","INR","","Internal","","","","configurer4",21-SEP-15 11.54.54.640000000 PM,"",,4205,"172.18.0.99","ACTIVE",,1,"SQvpWQKJgLsNrj2QwkWClJyvVDxbq8y1hyDP32hv3nDvNyTyyGHl!833808915!1442859529652","","",6,"1111303316","","",1,"1",303,3,1,"","","","","","ACTIVE","","BGL account","0000099485102051"
"4206","0000099490102053","Foreign Outward Guarantee Financial Control A/c","Inter-System",,"","","","Bank","IDFC","","MUMBAI","10205","INR","","Internal","","","","configurer4",21-SEP-15 11.54.54.645000000 PM,"",,4206,"172.18.0.99","ACTIVE",,1,"SQvpWQKJgLsNrj2QwkWClJyvVDxbq8y1hyDP32hv3nDvNyTyyGHl!833808915!1442859529652","","",6,"1111303316","","",1,"1",303,3,1,"","","","","","ACTIVE","","BGL account","0000099490102053"
"4207","0000099495102059","Foreign Outward Guarantee NonFinancial Control A/c","Inter-System",,"","","","Bank","IDFC","","MUMBAI","10205","INR","","Internal","","","","configurer4",21-SEP-15 11.54.54.649000000 PM,"",,4207,"172.18.0.99","ACTIVE",,1,"SQvpWQKJgLsNrj2QwkWClJyvVDxbq8y1hyDP32hv3nDvNyTyyGHl!833808915!1442859529652","","",6,"1111303316","","",1,"1",303,3,1,"","","","","","ACTIVE","","BGL account","0000099495102059"
"4208","0000099500102055","Local Outward Guarantee Financial Control A/c","Inter-System",,"","","","Bank","IDFC","","MUMBAI","10205","INR","","Internal","","","","configurer4",21-SEP-15 11.54.54.654000000 PM,"",,4208,"172.18.0.99","ACTIVE",,1,"SQvpWQKJgLsNrj2QwkWClJyvVDxbq8y1hyDP32hv3nDvNyTyyGHl!833808915!1442859529652","","",6,"1111303316","","",1,"1",303,3,1,"","","","","","ACTIVE","","BGL account","0000099500102055"
