,STATE NAME,STATEMENT DATE,TAX,CHARGE,TRANSACTION COUNT,SOURCE
0,Delhi,20171013,9029.88,44166.0,17,RSYS
1,Gujarat,20171013,1800.0,10000.0,2,RSYS
2,Karnataka,20171013,1080.0,6000.0,1,RSYS
3,Maharashtra,20171013,13006.86,72245.0,14,RSYS
4,Tamil Nadu,20171013,4781.28,26563.0,11,RSYS
5,Telangana,20171013,359.64,1998.0,2,RSYS
