,customerid,accountid,chargecode,transactionvolume,transactionamount,transactioncostamount Charge Fee,transactiondate,transactionuid,sourceBranch,sourceState,destinationBranch,destinationState,customerExempt,accountExempt,chargeExempt,branchExempt,transactionExempt,Tax Amount,relatedEntity,standardFee,reversalTransactionFlag,gstn,chargeInclusiveOfTax,sourceSystem,GST Only YN,GST Service Code,GST Charge Code Description,Originaltransactionuid,referencedata2,referencedata3,referencedata5,referencedata6,referencedata7,referencenumber02,referencenumber01,userdfield1 ,userdfield2 ,igstamount,cgstamount,sgstamount,CGST %,SGST %,IGST %,SACCode
0,32175,IWRM401011705593,CCGST,1,10030.0,4816.41,20171013121000,IWRM401011705593CRE001,40101,27,40101,32,N,N,N,N,N,866.95,N,0,N,,N,MTF,Y,GSTSC,GST on FCY Conversion,,N,,,,,,,,,866.95,0.0,0.0,0,0,18,9971
1,1000068358,OWRM210011711766,CCGST,1,46550.0,750.0,20171013121000,OWRM210011711766CRE001,21001,6,20101,5,N,N,N,N,N,135.0,N,0,N,05AAJCS7372M1ZR,N,MTF,Y,GSTSC,Commission Income(OUTWARD Remittance Commision),,N,,,,,,,,,135.0,0.0,0.0,0,0,18,9971
2,1000068358,OWRM210011711766,CCGST,1,46550.0,500.0,20171013121000,OWRM210011711766CRE001,21001,6,20101,5,N,N,N,N,N,90.0,N,0,N,05AAJCS7372M1ZR,N,MTF,Y,GSTSC,Recovery of Swift Charges,,N,,,,,,,,,90.0,0.0,0.0,0,0,18,9971
3,1000068358,LOLC210011701533,CCGST,1,2830902.0,500.0,20171013121000,LOLC210011701533POC012,21001,6,20101,5,N,N,N,N,N,90.0,N,0,N,05AAJCS7372M1ZR,N,MTF,Y,GSTSC,Commission Income(Inland Retirement Commission),,N,,,,,,,,,90.0,0.0,0.0,0,0,18,9971
4,1000068358,LOLC210011701534,CCGST,1,2100618.0,500.0,20171013121000,LOLC210011701534POC008,21001,6,20101,5,N,N,N,N,N,90.0,N,0,N,05AAJCS7372M1ZR,N,MTF,Y,GSTSC,Commission Income(Inland Retirement Commission),,N,,,,,,,,,90.0,0.0,0.0,0,0,18,9971
5,1000068358,OWRM210011711766,CCGST,1,46550.0,7525.75,20171013121000,OWRM210011711766CRE001,21001,6,20101,5,N,N,N,N,N,1354.64,N,0,N,05AAJCS7372M1ZR,N,MTF,Y,GSTSC,GST on FCY Conversion,,N,,,,,,,,,1354.64,0.0,0.0,0,0,18,9971
6,1000069088,OWRM210011711731,CCGST,1,7290.0,750.0,20171013121000,OWRM210011711731CRE001,21001,6,20101,6,N,N,N,N,N,135.0,N,0,N,06AABCA3456E2Z2,N,MTF,Y,GSTSC,Commission Income(OUTWARD Remittance Commision),,N,,,,,,,,,0.0,67.5,67.5,9,9,0,9971
7,1000069088,OWRM210011711733,CCGST,1,43650.0,750.0,20171013121000,OWRM210011711733CRE001,21001,6,20101,6,N,N,N,N,N,135.0,N,0,N,06AABCA3456E2Z2,N,MTF,Y,GSTSC,Commission Income(OUTWARD Remittance Commision),,N,,,,,,,,,0.0,67.5,67.5,9,9,0,9971
8,1000069088,OWRM210011711735,CCGST,1,132346.75,750.0,20171013121000,OWRM210011711735CRE001,21001,6,20101,6,N,N,N,N,N,135.0,N,0,N,06AABCA3456E2Z2,N,MTF,Y,GSTSC,Commission Income(OUTWARD Remittance Commision),,N,,,,,,,,,0.0,67.5,67.5,9,9,0,9971
9,1000069088,OWRM210011711734,CCGST,1,1995.0,750.0,20171013121000,OWRM210011711734CRE001,21001,6,20101,6,N,N,N,N,N,135.0,N,0,N,06AABCA3456E2Z2,N,MTF,Y,GSTSC,Commission Income(OUTWARD Remittance Commision),,N,,,,,,,,,0.0,67.5,67.5,9,9,0,9971
10,1000069088,OWRM210011711731,CCGST,1,7290.0,500.0,20171013121000,OWRM210011711731CRE001,21001,6,20101,6,N,N,N,N,N,90.0,N,0,N,06AABCA3456E2Z2,N,MTF,Y,GSTSC,Recovery of Swift Charges,,N,,,,,,,,,0.0,45.0,45.0,9,9,0,9971
11,1000069088,OWRM210011711733,CCGST,1,43650.0,500.0,20171013121000,OWRM210011711733CRE001,21001,6,20101,6,N,N,N,N,N,90.0,N,0,N,06AABCA3456E2Z2,N,MTF,Y,GSTSC,Recovery of Swift Charges,,N,,,,,,,,,0.0,45.0,45.0,9,9,0,9971
12,1000069088,OWRM210011711735,CCGST,1,132346.75,500.0,20171013121000,OWRM210011711735CRE001,21001,6,20101,6,N,N,N,N,N,90.0,N,0,N,06AABCA3456E2Z2,N,MTF,Y,GSTSC,Recovery of Swift Charges,,N,,,,,,,,,0.0,45.0,45.0,9,9,0,9971
13,1000069088,OWRM210011711734,CCGST,1,1995.0,500.0,20171013121000,OWRM210011711734CRE001,21001,6,20101,6,N,N,N,N,N,90.0,N,0,N,06AABCA3456E2Z2,N,MTF,Y,GSTSC,Recovery of Swift Charges,,N,,,,,,,,,0.0,45.0,45.0,9,9,0,9971
14,1000069088,OWRM210011711731,CCGST,1,7290.0,2865.97,20171013121000,OWRM210011711731CRE001,21001,6,20101,6,N,N,N,N,N,515.88,N,0,N,06AABCA3456E2Z2,N,MTF,Y,GSTSC,GST on FCY Conversion,,N,,,,,,,,,0.0,257.94,257.94,9,9,0,9971
15,1000069088,OWRM210011711733,CCGST,1,43650.0,7333.32,20171013121000,OWRM210011711733CRE001,21001,6,20101,6,N,N,N,N,N,1320.0,N,0,N,06AABCA3456E2Z2,N,MTF,Y,GSTSC,GST on FCY Conversion,,N,,,,,,,,,0.0,660.0,660.0,9,9,0,9971
16,1000069088,OWRM210011711735,CCGST,1,132346.75,13090.63,20171013121000,OWRM210011711735CRE001,21001,6,20101,6,N,N,N,N,N,2356.32,N,0,N,06AABCA3456E2Z2,N,MTF,Y,GSTSC,GST on FCY Conversion,,N,,,,,,,,,0.0,1178.16,1178.16,9,9,0,9971
17,1000069088,OWRM210011711734,CCGST,1,1995.0,1265.88,20171013121000,OWRM210011711734CRE001,21001,6,20101,6,N,N,N,N,N,227.86,N,0,N,06AABCA3456E2Z2,N,MTF,Y,GSTSC,GST on FCY Conversion,,N,,,,,,,,,0.0,113.93,113.93,9,9,0,9971
18,32179,IWRM401011705327,CCGST,1,110.0,250.0,20171013121000,IWRM401011705327CRE001,40101,27,40101,27,N,N,N,N,N,45.0,N,0,N,,N,MTF,Y,GSTSC,GST on FCY Conversion,,N,,,,,,,,,0.0,22.5,22.5,9,9,0,9971
19,32179,IWRM401011705592,CCGST,1,7520388.0,60000.0,20171013121000,IWRM401011705592CRE001,40101,27,40101,27,N,N,N,N,N,10800.0,N,0,N,,N,MTF,Y,GSTSC,GST on FCY Conversion,,N,,,,,,,,,0.0,5400.0,5400.0,9,9,0,9971
20,1000070082,LOLC601011701113,CCGST,1,13982514.0,2000.0,20171013121000,LOLC601011701113POC077,60101,19,60101,19,N,N,N,N,N,360.0,N,0,N,19AABCP5762E2ZB,N,MTF,Y,GSTSC,Commission Income (Discrepancy Charges),,N,,,,,,,,,0.0,180.0,180.0,9,9,0,9971
21,1000002421,LOLC802011601210,CCGST,1,941556.0,1000.0,20171013121000,LOLC802011601210POC020,80201,36,80201,36,N,N,N,N,N,180.0,N,0,N,36AADCC7989C1ZE,N,MTF,Y,GSTSC,Commission Income(Inland Retirement Commission),,N,,,,,,,,,0.0,90.0,90.0,9,9,0,9971
22,1000002421,LOLC802011700292,CCGST,1,1303656.0,1000.0,20171013121000,LOLC802011700292POC010,80201,36,80201,36,N,N,N,N,N,180.0,N,0,N,36AADCC7989C1ZE,N,MTF,Y,GSTSC,Commission Income(Inland Retirement Commission),,N,,,,,,,,,0.0,90.0,90.0,9,9,0,9971
23,1000060165,LOBG801011600031,CCGST,1,190219.1,190219.1,20171013121000,LOBG801011600031PCH007,80101,33,40101,33,N,N,N,N,N,34239.44,N,0,N,,N,MTF,Y,GSTSC,Periodic Out Guar Com (Quaterly) Non Finance (Non Fund),,N,,,,,,,,,0.0,17119.72,17119.72,9,9,0,9971
24,1000080035,ENLC801511700088,CCGST,1,111536.25,300.0,20171013121000,ENLC801511700088POD001,80151,29,80151,29,N,N,N,N,N,54.0,N,0,N,29AAACT5131A1ZT,N,MTF,Y,GSTSC,Commission Income (Bank Realisaion cetificate Charge),,N,,,,,,,,,0.0,27.0,27.0,9,9,0,9971
25,1000079416,IBYB801511701904,CCGST,1,44007.5,500.0,20171013121000,IBYB801511701904PAY001,80151,29,80151,29,N,N,N,N,N,90.0,N,0,N,29AAACW8310Q1ZQ,N,MTF,Y,GSTSC,Recovery of Swift Charges,,N,,,,,,,,,0.0,45.0,45.0,9,9,0,9971
26,1000079416,IBYB801511701904,CCGST,1,44007.5,7351.14,20171013121000,IBYB801511701904PAY001,80151,29,80151,29,N,N,N,N,N,1323.2,N,0,N,29AAACW8310Q1ZQ,N,MTF,Y,GSTSC,GST on FCY Conversion,,N,,,,,,,,,0.0,661.6,661.6,9,9,0,9971
27,1000023521,IMLC201011702003,CCGST,1,18550000.0,73605.48,20171013121000,IMLC201011702003ISS001,20101,7,20101,9,N,N,N,N,N,13248.99,N,0,N,09AAAAK0203G1Z9,N,MTF,Y,GSTSC,Commission Income(ILC Commitment Commission),,N,,,,,,,,,13248.99,0.0,0.0,0,0,18,9971
28,1000023521,IMLC201011702003,CCGST,1,18550000.0,110408.22,20171013121000,IMLC201011702003ISS001,20101,7,20101,9,N,N,N,N,N,19873.48,N,0,N,09AAAAK0203G1Z9,N,MTF,Y,GSTSC,Commission Income(Issue Usance Comm  (30 to 90 Days),,N,,,,,,,,,19873.48,0.0,0.0,0,0,18,9971
29,1000204166,IMCB210011701456,CCGST,1,203600.0,500.0,20171013121000,IMCB210011701456PAY001,21001,6,20101,27,N,N,N,N,N,90.0,N,0,N,27AAMCA3250H1ZQ,N,MTF,Y,GSTSC,Commission Income (Import Bills - Direct Collections),,N,,,,,,,,,90.0,0.0,0.0,0,0,18,9971
30,1000204166,IBYB210011702221,CCGST,1,219691.51,6047.92,20171013121000,IBYB210011702221CRE001,21001,6,20101,27,N,N,N,N,N,1088.63,N,0,N,27AAMCA3250H1ZQ,N,MTF,Y,GSTSC,Buyers credit commission,,N,,,,,,,,,1088.63,0.0,0.0,0,0,18,9971
31,1000204166,IMCB210011701456,CCGST,1,203600.0,17722.8,20171013121000,IMCB210011701456PAY001,21001,6,20101,27,N,N,N,N,N,3190.1,N,0,N,27AAMCA3250H1ZQ,N,MTF,Y,GSTSC,GST on FCY Conversion,,N,,,,,,,,,3190.1,0.0,0.0,0,0,18,9971
32,1000135009,EXCB201011701883,CCGST,1,19656.0,500.0,20171013121000,EXCB201011701883PAY001,20101,7,20101,9,N,N,N,N,N,90.0,N,0,N,09AAACD3641D1ZZ,N,MTF,Y,GSTSC,Commission Income (Bank Realisaion cetificate Charge),,N,,,,,,,,,90.0,0.0,0.0,0,0,18,9971
33,1000135009,EXCB201011701886,CCGST,1,38500.8,500.0,20171013121000,EXCB201011701886PAY001,20101,7,20101,9,N,N,N,N,N,90.0,N,0,N,09AAACD3641D1ZZ,N,MTF,Y,GSTSC,Commission Income (Bank Realisaion cetificate Charge),,N,,,,,,,,,90.0,0.0,0.0,0,0,18,9971
34,1000242147,IBYB401011701323,CCGST,1,304721.55,300.0,20171013121000,IBYB401011701323PAY001,40101,27,40101,27,N,N,N,N,N,54.0,N,0,N,27AAACA4410D1ZE,N,MTF,Y,GSTSC,Recovery of Swift Charges,,N,,,,,,,,,0.0,27.0,27.0,9,9,0,9971
35,1000242147,IBYB401011701323,CCGST,1,304721.55,24340.89,20171013121000,IBYB401011701323PAY001,40101,27,40101,27,N,N,N,N,N,4381.36,N,0,N,27AAACA4410D1ZE,N,MTF,Y,GSTSC,GST on FCY Conversion,,N,,,,,,,,,0.0,2190.68,2190.68,9,9,0,9971
36,1000140949,IBYB401011702275,CCGST,1,60355.3,5981.51,20171013121000,IBYB401011702275CRE001,40101,27,40101,27,N,N,N,N,N,1076.68,N,0,N,27AABCC4077F1ZS,N,MTF,Y,GSTSC,Buyers credit commission,,N,,,,,,,,,0.0,538.34,538.34,9,9,0,9971
37,1000140949,IBYB401011702275,CCGST,1,60355.3,750.0,20171013121000,IBYB401011702275CRE001,40101,27,40101,27,N,N,N,N,N,135.0,N,0,N,27AABCC4077F1ZS,N,MTF,Y,GSTSC,Recovery of Swift Charges,,N,,,,,,,,,0.0,67.5,67.5,9,9,0,9971
38,1000208489,IWRM201011705572,CCGST,1,10925.4,100.0,20171013121000,IWRM201011705572CRE001,20101,7,20101,7,N,N,N,N,N,18.0,N,0,N,07AAACJ7650E3ZN,N,MTF,Y,GSTSC,Commission Income(Inward Remittance Commision),,N,,,,,,,,,0.0,9.0,9.0,9,9,0,9971
39,1000208489,IWRM201011705550,CCGST,1,58536.91,100.0,20171013121000,IWRM201011705550CRE001,20101,7,20101,7,N,N,N,N,N,18.0,N,0,N,07AAACJ7650E3ZN,N,MTF,Y,GSTSC,Commission Income(Inward Remittance Commision),,N,,,,,,,,,0.0,9.0,9.0,9,9,0,9971
40,1000208489,IWRM201011705414,CCGST,1,12662.0,100.0,20171013121000,IWRM201011705414CRE001,20101,7,20101,7,N,N,N,N,N,18.0,N,0,N,07AAACJ7650E3ZN,N,MTF,Y,GSTSC,Commission Income(Inward Remittance Commision),,N,,,,,,,,,0.0,9.0,9.0,9,9,0,9971
41,1000208489,EXCB201011701907,CCGST,1,86615.7,500.0,20171013121000,EXCB201011701907CRE001,20101,7,20101,7,N,N,N,N,N,90.0,N,0,N,07AAACJ7650E3ZN,N,MTF,Y,GSTSC,Commission Income (Export Bills on Collections),,N,,,,,,,,,0.0,45.0,45.0,9,9,0,9971
42,1000208489,EXCB201011701759,CCGST,1,75207.15,500.0,20171013121000,EXCB201011701759CRE001,20101,7,20101,7,N,N,N,N,N,90.0,N,0,N,07AAACJ7650E3ZN,N,MTF,Y,GSTSC,Commission Income (Export Bills on Collections),,N,,,,,,,,,0.0,45.0,45.0,9,9,0,9971
43,1000208489,IWRM201011705572,CCGST,1,10925.4,4041.47,20171013121000,IWRM201011705572CRE001,20101,7,20101,7,N,N,N,N,N,727.46,N,0,N,07AAACJ7650E3ZN,N,MTF,Y,GSTSC,GST on FCY Conversion,,N,,,,,,,,,0.0,363.73,363.73,9,9,0,9971
44,1000208489,IWRM201011705550,CCGST,1,58536.91,8986.85,20171013121000,IWRM201011705550CRE001,20101,7,20101,7,N,N,N,N,N,1617.64,N,0,N,07AAACJ7650E3ZN,N,MTF,Y,GSTSC,GST on FCY Conversion,,N,,,,,,,,,0.0,808.82,808.82,9,9,0,9971
45,1000208489,IWRM201011705414,CCGST,1,12662.0,5353.98,20171013121000,IWRM201011705414CRE001,20101,7,20101,7,N,N,N,N,N,963.72,N,0,N,07AAACJ7650E3ZN,N,MTF,Y,GSTSC,GST on FCY Conversion,,N,,,,,,,,,0.0,481.86,481.86,9,9,0,9971
46,1000305244,LILC403011700354,CCGST,1,5000000.0,500.0,20171013121000,LILC403011700354ADV001,40301,24,40301,24,N,N,N,N,N,90.0,N,0,N,,N,MTF,Y,GSTSC,Commission Income(Export LC Advising commission),,N,,,,,,,,,0.0,45.0,45.0,9,9,0,9971
47,1000305244,LILC403011700355,CCGST,1,20000000.0,500.0,20171013121000,LILC403011700355ADV001,40301,24,40301,24,N,N,N,N,N,90.0,N,0,N,,N,MTF,Y,GSTSC,Commission Income(Export LC Advising commission),,N,,,,,,,,,0.0,45.0,45.0,9,9,0,9971
48,1000213829,IMLC801011701945,CCGST,1,11919040.0,2974965.9,20171013121000,IMLC801011701945ISS001,80101,33,80101,33,N,N,N,N,N,535493.86,N,0,N,,N,MTF,Y,GSTSC,Commission Income(ILC Commitment Commission),,N,,,,,,,,,0.0,267746.93,267746.93,9,9,0,9971
49,1000213829,IMLC801011701945,CCGST,1,11919040.0,1673418.32,20171013121000,IMLC801011701945ISS001,80101,33,80101,33,N,N,N,N,N,301215.3,N,0,N,,N,MTF,Y,GSTSC,Commission Income(Issue Usance Comm  (30 to 90 Days),,N,,,,,,,,,0.0,150607.65,150607.65,9,9,0,9971
50,1000213829,IMLC801011701945,CCGST,1,11919040.0,1500.0,20171013121000,IMLC801011701945ISS001,80101,33,80101,33,N,N,N,N,N,270.0,N,0,N,,N,MTF,Y,GSTSC,Recovery of Swift Charges,,N,,,,,,,,,0.0,135.0,135.0,9,9,0,9971
51,1000206980,IBYB201011701440,CCGST,1,533437.8,500.0,20171013121000,IBYB201011701440PAY001,20101,7,20101,6,N,N,N,N,N,90.0,N,0,N,06AAACV2674G1ZD,N,MTF,Y,GSTSC,Recovery of Swift Charges,,N,,,,,,,,,90.0,0.0,0.0,0,0,18,9971
52,1000206980,OWRB201011700739,CCGST,1,637339.85,500.0,20171013121000,OWRB201011700739CRE001,20101,7,20101,6,N,N,N,N,N,90.0,N,0,N,06AAACV2674G1ZD,N,MTF,Y,GSTSC,Recovery of Swift Charges,,N,,,,,,,,,90.0,0.0,0.0,0,0,18,9971
53,1000206980,IBYB201011701440,CCGST,1,533437.8,38867.65,20171013121000,IBYB201011701440PAY001,20101,7,20101,6,N,N,N,N,N,6996.18,N,0,N,06AAACV2674G1ZD,N,MTF,Y,GSTSC,GST on FCY Conversion,,N,,,,,,,,,6996.18,0.0,0.0,0,0,18,9971
54,1000206980,OWRB201011700739,CCGST,1,637339.85,46335.82,20171013121000,OWRB201011700739CRE001,20101,7,20101,6,N,N,N,N,N,8340.45,N,0,N,06AAACV2674G1ZD,N,MTF,Y,GSTSC,GST on FCY Conversion,,N,,,,,,,,,8340.45,0.0,0.0,0,0,18,9971
55,1000277179,IMLC601011701995,CCGST,1,871250.0,24704.33,20171013121000,IMLC601011701995ISS001,60101,19,60101,19,N,N,N,N,N,4446.78,N,0,N,19AADCS7272A1ZE,N,MTF,Y,GSTSC,Commission Income(ILC Commitment Commission),,N,,,,,,,,,0.0,2223.39,2223.39,9,9,0,9971
56,1000277179,IMLC601011701995,CCGST,1,871250.0,500.0,20171013121000,IMLC601011701995ISS001,60101,19,60101,19,N,N,N,N,N,90.0,N,0,N,19AADCS7272A1ZE,N,MTF,Y,GSTSC,Recovery of Swift Charges,,N,,,,,,,,,0.0,45.0,45.0,9,9,0,9971
57,1000277179,IMLC601011701995,CCGST,1,871250.0,74112.99,20171013121000,IMLC601011701995ISS001,60101,19,60101,19,N,N,N,N,N,13340.34,N,0,N,19AADCS7272A1ZE,N,MTF,Y,GSTSC,Commission Income(Issue Usance Comm (>90 Days),,N,,,,,,,,,0.0,6670.17,6670.17,9,9,0,9971
58,1000288148,OWRM801021711574,CCGST,1,15.0,250.0,20171013121000,OWRM801021711574MCH001,80102,33,80102,33,N,N,N,N,N,45.0,N,0,N,33AACCT6700H1ZN,N,MTF,Y,GSTSC,GST on FCY Conversion,,N,,,,,,,,,0.0,22.5,22.5,9,9,0,9971
59,1000060085,LOBG401011700653,CCGST,1,340.4,340.4,20171013121000,LOBG401011700653PCH002,40101,27,40101,33,N,N,N,N,N,61.27,N,0,N,33AABCL5967D1ZL,N,MTF,Y,GSTSC,Periodic Out BG Com (Quarterly) - Non Financial (Non Fund),,N,,,,,,,,,61.27,0.0,0.0,0,0,18,9971
60,1000334004,IMLC401011702005,CCGST,1,36000.0,2000.0,20171013121000,IMLC401011702005ISS001,40101,27,40101,27,N,N,N,N,N,360.0,N,0,N,27AAFCC9473R1ZP,N,MTF,Y,GSTSC,Commission Income(ILC Commitment Commission),,N,,,,,,,,,0.0,180.0,180.0,9,9,0,9971
61,1000334004,IMLC401011701999,CCGST,1,62106.0,2553.19,20171013121000,IMLC401011701999ISS001,40101,27,40101,27,N,N,N,N,N,459.58,N,0,N,27AAFCC9473R1ZP,N,MTF,Y,GSTSC,Commission Income(ILC Commitment Commission),,N,,,,,,,,,0.0,229.79,229.79,9,9,0,9971
62,1000334004,IMLC401011701999,CCGST,1,62106.0,2000.0,20171013121000,IMLC401011701999ISS001,40101,27,40101,27,N,N,N,N,N,360.0,N,0,N,27AAFCC9473R1ZP,N,MTF,Y,GSTSC,Commission Income (Issue Com (Sight / Usance upto 30 days),,N,,,,,,,,,0.0,180.0,180.0,9,9,0,9971
63,1000334004,IMLC401011702005,CCGST,1,36000.0,1500.0,20171013121000,IMLC401011702005ISS001,40101,27,40101,27,N,N,N,N,N,270.0,N,0,N,27AAFCC9473R1ZP,N,MTF,Y,GSTSC,Recovery of Swift Charges,,N,,,,,,,,,0.0,135.0,135.0,9,9,0,9971
64,1000334004,IMLC401011701999,CCGST,1,62106.0,1500.0,20171013121000,IMLC401011701999ISS001,40101,27,40101,27,N,N,N,N,N,270.0,N,0,N,27AAFCC9473R1ZP,N,MTF,Y,GSTSC,Recovery of Swift Charges,,N,,,,,,,,,0.0,135.0,135.0,9,9,0,9971
65,1000334004,LOLC401011701581,CCGST,1,1165105.31,1000.0,20171013121000,LOLC401011701581POC011,40101,27,40101,27,N,N,N,N,N,180.0,N,0,N,27AAFCC9473R1ZP,N,MTF,Y,GSTSC,Commission Income(Inland Retirement Commission),,N,,,,,,,,,0.0,90.0,90.0,9,9,0,9971
66,1000414345,OWRM401021711737,CCGST,1,639.6,500.0,20171013121000,OWRM401021711737CRE001,40102,27,40102,27,N,N,N,N,N,90.0,N,0,N,27AAACP2446G1ZL,N,MTF,Y,GSTSC,Commission Income(OUTWARD Remittance Commision),,N,,,,,,,,,0.0,45.0,45.0,9,9,0,9971
67,1000414345,OWRM401021711737,CCGST,1,639.6,421.5,20171013121000,OWRM401021711737CRE001,40102,27,40102,27,N,N,N,N,N,75.88,N,0,N,27AAACP2446G1ZL,N,MTF,Y,GSTSC,GST on FCY Conversion,,N,,,,,,,,,0.0,37.94,37.94,9,9,0,9971
68,1000004789,OWRM401011711714,CCGST,1,457835.0,1000.0,20171013121000,OWRM401011711714CRE001,40101,27,40101,27,N,N,N,N,N,180.0,N,0,N,27AAACT0054A1Z1,N,MTF,Y,GSTSC,Commission Income(OUTWARD Remittance Commision),,N,,,,,,,,,0.0,90.0,90.0,9,9,0,9971
69,1000004789,OWRM401011711714,CCGST,1,457835.0,500.0,20171013121000,OWRM401011711714CRE001,40101,27,40101,27,N,N,N,N,N,90.0,N,0,N,27AAACT0054A1Z1,N,MTF,Y,GSTSC,Recovery of Swift Charges,,N,,,,,,,,,0.0,45.0,45.0,9,9,0,9971
70,1000004789,IBYB401011700623,CCGST,1,3635754.25,500.0,20171013121000,IBYB401011700623PAY001,40101,27,40101,27,N,N,N,N,N,90.0,N,0,N,27AAACT0054A1Z1,N,MTF,Y,GSTSC,Recovery of Swift Charges,,N,,,,,,,,,0.0,45.0,45.0,9,9,0,9971
71,1000004789,OWRM401011711714,CCGST,1,457835.0,34199.76,20171013121000,OWRM401011711714CRE001,40101,27,40101,27,N,N,N,N,N,6155.96,N,0,N,27AAACT0054A1Z1,N,MTF,Y,GSTSC,GST on FCY Conversion,,N,,,,,,,,,0.0,3077.98,3077.98,9,9,0,9971
72,1000004789,IBYB401011700623,CCGST,1,3635754.25,60000.0,20171013121000,IBYB401011700623PAY001,40101,27,40101,27,N,N,N,N,N,10800.0,N,0,N,27AAACT0054A1Z1,N,MTF,Y,GSTSC,GST on FCY Conversion,,N,,,,,,,,,0.0,5400.0,5400.0,9,9,0,9971
73,1000621634,OWRM201011711762,CCGST,1,1700.0,500.0,20171013121000,OWRM201011711762CRE001,20101,7,20101,7,N,N,N,N,N,90.0,N,0,N,,N,MTF,Y,GSTSC,Commission Income(OUTWARD Remittance Commision),,N,,,,,,,,,0.0,45.0,45.0,9,9,0,9971
74,1000621634,OWRM201011711762,CCGST,1,1700.0,1051.99,20171013121000,OWRM201011711762CRE001,20101,7,20101,7,N,N,N,N,N,189.36,N,0,N,,N,MTF,Y,GSTSC,GST on FCY Conversion,,N,,,,,,,,,0.0,94.68,94.68,9,9,0,9971
75,1000026849,IMLC401011701760,CCGST,1,0.0,250.0,20171013121000,IMLC401011701760AMD001,40101,27,40101,27,N,N,N,N,N,45.0,N,0,N,27AAACN4412E1ZX,N,MTF,Y,GSTSC,Recovery of Swift Charges,,N,,,,,,,,,0.0,22.5,22.5,9,9,0,9971
76,1000026849,IMLC401011701760,CCGST,1,0.0,1000.0,20171013121000,IMLC401011701760AMD001,40101,27,40101,27,N,N,N,N,N,180.0,N,0,N,27AAACN4412E1ZX,N,MTF,Y,GSTSC,LC AMENDMENT COMMISSION,,N,,,,,,,,,0.0,90.0,90.0,9,9,0,9971
77,1000556888,OWRM801511711740,CCGST,1,110.0,500.0,20171013121000,OWRM801511711740CRE001,80151,29,80151,29,N,N,N,N,N,90.0,N,0,N,,N,MTF,Y,GSTSC,Commission Income(OUTWARD Remittance Commision),,N,,,,,,,,,0.0,45.0,45.0,9,9,0,9971
78,1000556888,OWRM801511711740,CCGST,1,110.0,250.0,20171013121000,OWRM801511711740CRE001,80151,29,80151,29,N,N,N,N,N,45.0,N,0,N,,N,MTF,Y,GSTSC,GST on FCY Conversion,,N,,,,,,,,,0.0,22.5,22.5,9,9,0,9971
79,1000792292,EXCB201011701784,CCGST,1,169812.4,300.0,20171013121000,EXCB201011701784PAY001,20101,7,20101,7,N,N,N,N,N,54.0,N,0,N,07AABCD6520C1Z7,N,MTF,Y,GSTSC,Commission Income (Bank Realisaion cetificate Charge),,N,,,,,,,,,0.0,27.0,27.0,9,9,0,9971
80,1000792292,EXCB201011701605,CCGST,1,1076565.0,300.0,20171013121000,EXCB201011701605PAY001,20101,7,20101,7,N,N,N,N,N,54.0,N,0,N,07AABCD6520C1Z7,N,MTF,Y,GSTSC,Commission Income (Bank Realisaion cetificate Charge),,N,,,,,,,,,0.0,27.0,27.0,9,9,0,9971
81,1000669257,OWRM801511711748,CCGST,1,2500.0,500.0,20171013121000,OWRM801511711748CRE001,80151,29,80151,29,N,N,N,N,N,90.0,N,0,N,,N,MTF,Y,GSTSC,Commission Income(OUTWARD Remittance Commision),,N,,,,,,,,,0.0,45.0,45.0,9,9,0,9971
82,1000669257,OWRM801511711741,CCGST,1,500.0,500.0,20171013121000,OWRM801511711741CRE001,80151,29,80151,29,N,N,N,N,N,90.0,N,0,N,,N,MTF,Y,GSTSC,Commission Income(OUTWARD Remittance Commision),,N,,,,,,,,,0.0,45.0,45.0,9,9,0,9971
83,1000669257,OWRM801511711742,CCGST,1,3000.0,500.0,20171013121000,OWRM801511711742CRE001,80151,29,80151,29,N,N,N,N,N,90.0,N,0,N,,N,MTF,Y,GSTSC,Commission Income(OUTWARD Remittance Commision),,N,,,,,,,,,0.0,45.0,45.0,9,9,0,9971
84,1000669257,OWRM801511711743,CCGST,1,1407.6,500.0,20171013121000,OWRM801511711743CRE001,80151,29,80151,29,N,N,N,N,N,90.0,N,0,N,,N,MTF,Y,GSTSC,Commission Income(OUTWARD Remittance Commision),,N,,,,,,,,,0.0,45.0,45.0,9,9,0,9971
85,1000669257,OWRM801511711745,CCGST,1,1631.8,500.0,20171013121000,OWRM801511711745CRE001,80151,29,80151,29,N,N,N,N,N,90.0,N,0,N,,N,MTF,Y,GSTSC,Commission Income(OUTWARD Remittance Commision),,N,,,,,,,,,0.0,45.0,45.0,9,9,0,9971
86,1000669257,OWRM801511711748,CCGST,1,2500.0,1313.0,20171013121000,OWRM801511711748CRE001,80151,29,80151,29,N,N,N,N,N,236.34,N,0,N,,N,MTF,Y,GSTSC,GST on FCY Conversion,,N,,,,,,,,,0.0,118.17,118.17,9,9,0,9971
87,1000669257,OWRM801511711663,CCGST,1,15.0,250.0,20171013121000,OWRM801511711663MCH001,80151,29,80151,29,N,N,N,N,N,45.0,N,0,N,,N,MTF,Y,GSTSC,GST on FCY Conversion,,N,,,,,,,,,0.0,22.5,22.5,9,9,0,9971
88,1000669257,OWRM801511711741,CCGST,1,500.0,384.35,20171013121000,OWRM801511711741CRE001,80151,29,80151,29,N,N,N,N,N,69.18,N,0,N,,N,MTF,Y,GSTSC,GST on FCY Conversion,,N,,,,,,,,,0.0,34.59,34.59,9,9,0,9971
89,1000669257,OWRM801511711742,CCGST,1,3000.0,1653.05,20171013121000,OWRM801511711742CRE001,80151,29,80151,29,N,N,N,N,N,297.54,N,0,N,,N,MTF,Y,GSTSC,GST on FCY Conversion,,N,,,,,,,,,0.0,148.77,148.77,9,9,0,9971
90,1000669257,OWRM801511711743,CCGST,1,1407.6,1041.01,20171013121000,OWRM801511711743CRE001,80151,29,80151,29,N,N,N,N,N,187.38,N,0,N,,N,MTF,Y,GSTSC,GST on FCY Conversion,,N,,,,,,,,,0.0,93.69,93.69,9,9,0,9971
91,1000669257,OWRM801511711745,CCGST,1,1631.8,1127.18,20171013121000,OWRM801511711745CRE001,80151,29,80151,29,N,N,N,N,N,202.9,N,0,N,,N,MTF,Y,GSTSC,GST on FCY Conversion,,N,,,,,,,,,0.0,101.45,101.45,9,9,0,9971
92,1000765111,OWRM801011711707,CCGST,1,28613.54,500.0,20171013121000,OWRM801011711707CRE001,80101,33,80101,33,N,N,N,N,N,90.0,N,0,N,33AABCR0347P1ZA,N,MTF,Y,GSTSC,Commission Income(OUTWARD Remittance Commision),,N,,,,,,,,,0.0,45.0,45.0,9,9,0,9971
93,1000765111,OWRM801011711707,CCGST,1,28613.54,6344.66,20171013121000,OWRM801011711707CRE001,80101,33,80101,33,N,N,N,N,N,1142.04,N,0,N,33AABCR0347P1ZA,N,MTF,Y,GSTSC,GST on FCY Conversion,,N,,,,,,,,,0.0,571.02,571.02,9,9,0,9971
94,1000368352,LILC401011700318,CCGST,1,1508335.0,250.0,20171013121000,LILC401011700318DPR001,40101,27,40101,27,N,N,N,N,N,45.0,N,0,N,27AABCV9515F1Z8,N,MTF,Y,GSTSC,Recovery of Courier charges - local,,N,,,,,,,,,0.0,22.5,22.5,9,9,0,9971
95,1001039155,IBYB403011702234,CCGST,1,175576.58,38180.45,20171013121000,IBYB403011702234CRE001,40301,24,40301,24,N,N,N,N,N,6872.48,N,0,N,24AABCA2804L1Z0,N,MTF,Y,GSTSC,Buyers credit commission,,N,,,,,,,,,0.0,3436.24,3436.24,9,9,0,9971
96,1001039155,IBYB403011702234,CCGST,1,175576.58,750.0,20171013121000,IBYB403011702234CRE001,40301,24,40301,24,N,N,N,N,N,135.0,N,0,N,24AABCA2804L1Z0,N,MTF,Y,GSTSC,Recovery of Swift Charges,,N,,,,,,,,,0.0,67.5,67.5,9,9,0,9971
97,1001039155,LOLC403011700885,CCGST,1,0.0,2000.0,20171013121000,LOLC403011700885MCH004,40301,24,40301,29,N,N,N,N,N,360.0,N,0,N,29AABCA2804L1ZQ,N,MTF,Y,GSTSC,Commission Income(Issue Usance Comm  (30 to 90 Days),,N,,,,,,,,,360.0,0.0,0.0,0,0,18,9971
98,1001088681,OWRM201511711667,CCGST,1,4130.5,500.0,20171013121000,OWRM201511711667CRE001,20151,9,20102,9,N,N,N,N,N,90.0,N,0,N,09AAACQ2953R1ZR,N,MTF,Y,GSTSC,Commission Income(OUTWARD Remittance Commision),,N,,,,,,,,,0.0,45.0,45.0,9,9,0,9971
99,1001088681,OWRM201511711678,CCGST,1,1911.2,500.0,20171013121000,OWRM201511711678CRE001,20151,9,20102,9,N,N,N,N,N,90.0,N,0,N,09AAACQ2953R1ZR,N,MTF,Y,GSTSC,Commission Income(OUTWARD Remittance Commision),,N,,,,,,,,,0.0,45.0,45.0,9,9,0,9971
100,1001088681,OWRM201511711667,CCGST,1,4130.5,2093.96,20171013121000,OWRM201511711667CRE001,20151,9,20102,9,N,N,N,N,N,376.92,N,0,N,09AAACQ2953R1ZR,N,MTF,Y,GSTSC,GST on FCY Conversion,,N,,,,,,,,,0.0,188.46,188.46,9,9,0,9971
101,1001088681,OWRM201511711678,CCGST,1,1911.2,1237.53,20171013121000,OWRM201511711678CRE001,20151,9,20102,9,N,N,N,N,N,222.76,N,0,N,09AAACQ2953R1ZR,N,MTF,Y,GSTSC,GST on FCY Conversion,,N,,,,,,,,,0.0,111.38,111.38,9,9,0,9971
102,1001080126,OWRM201011711674,CCGST,1,1906.6,500.0,20171013121000,OWRM201011711674CRE001,20101,7,20101,7,N,N,N,N,N,90.0,N,0,N,,N,MTF,Y,GSTSC,Commission Income(OUTWARD Remittance Commision),,N,,,,,,,,,0.0,45.0,45.0,9,9,0,9971
103,1001080126,OWRM201011711674,CCGST,1,1906.6,1137.95,20171013121000,OWRM201011711674CRE001,20101,7,20101,7,N,N,N,N,N,204.84,N,0,N,,N,MTF,Y,GSTSC,GST on FCY Conversion,,N,,,,,,,,,0.0,102.42,102.42,9,9,0,9971
104,1001086978,OWRM201011711650,CCGST,1,1100.5,500.0,20171013121000,OWRM201011711650CRE001,20101,7,20101,7,N,N,N,N,N,90.0,N,0,N,,N,MTF,Y,GSTSC,Commission Income(OUTWARD Remittance Commision),,N,,,,,,,,,0.0,45.0,45.0,9,9,0,9971
105,1001086978,OWRM201011711650,CCGST,1,1100.5,716.65,20171013121000,OWRM201011711650CRE001,20101,7,20101,7,N,N,N,N,N,129.0,N,0,N,,N,MTF,Y,GSTSC,GST on FCY Conversion,,N,,,,,,,,,0.0,64.5,64.5,9,9,0,9971
106,1000536781,OWRM401031711730,CCGST,1,12790.54,500.0,20171013121000,OWRM401031711730CRE001,40103,27,40101,27,N,N,N,N,N,90.0,N,0,N,,N,MTF,Y,GSTSC,Commission Income(OUTWARD Remittance Commision),,N,,,,,,,,,0.0,45.0,45.0,9,9,0,9971
107,1000536781,OWRM401031711729,CCGST,1,3077.17,500.0,20171013121000,OWRM401031711729CRE001,40103,27,40101,27,N,N,N,N,N,90.0,N,0,N,,N,MTF,Y,GSTSC,Commission Income(OUTWARD Remittance Commision),,N,,,,,,,,,0.0,45.0,45.0,9,9,0,9971
108,1000536781,OWRM401031711730,CCGST,1,12790.54,3569.73,20171013121000,OWRM401031711730CRE001,40103,27,40101,27,N,N,N,N,N,642.56,N,0,N,,N,MTF,Y,GSTSC,GST on FCY Conversion,,N,,,,,,,,,0.0,321.28,321.28,9,9,0,9971
109,1000536781,OWRM401031711729,CCGST,1,3077.17,1238.52,20171013121000,OWRM401031711729CRE001,40103,27,40101,27,N,N,N,N,N,222.94,N,0,N,,N,MTF,Y,GSTSC,GST on FCY Conversion,,N,,,,,,,,,0.0,111.47,111.47,9,9,0,9971
110,1000355183,LILC801511600183,CCGST,1,0.0,1000.0,20171013121000,LILC801511600183MCH003,80151,29,80151,29,N,N,N,N,N,180.0,N,0,N,29AABCI8601B1ZW,N,MTF,Y,GSTSC,Commission Income - (Outward Bills Under Inland LC),,N,,,,,,,,,0.0,90.0,90.0,9,9,0,9971
111,1001053158,OWRM401031711657,CCGST,1,3557.0,500.0,20171013121000,OWRM401031711657CRE001,40103,27,40103,27,N,N,N,N,N,90.0,N,0,N,,N,MTF,Y,GSTSC,Commission Income(OUTWARD Remittance Commision),,N,,,,,,,,,0.0,45.0,45.0,9,9,0,9971
112,1001053158,OWRM401031711738,CCGST,1,495.0,500.0,20171013121000,OWRM401031711738CRE001,40103,27,40103,27,N,N,N,N,N,90.0,N,0,N,,N,MTF,Y,GSTSC,Commission Income(OUTWARD Remittance Commision),,N,,,,,,,,,0.0,45.0,45.0,9,9,0,9971
113,1001053158,OWRM401031711755,CCGST,1,622.8,500.0,20171013121000,OWRM401031711755CRE001,40103,27,40103,27,N,N,N,N,N,90.0,N,0,N,,N,MTF,Y,GSTSC,Commission Income(OUTWARD Remittance Commision),,N,,,,,,,,,0.0,45.0,45.0,9,9,0,9971
114,1001053158,OWRM401031711756,CCGST,1,1370.0,500.0,20171013121000,OWRM401031711756CRE001,40103,27,40103,27,N,N,N,N,N,90.0,N,0,N,,N,MTF,Y,GSTSC,Commission Income(OUTWARD Remittance Commision),,N,,,,,,,,,0.0,45.0,45.0,9,9,0,9971
115,1001053158,EXCB401031701941,CCGST,1,3160.0,500.0,20171013121000,EXCB401031701941PAY001,40103,27,40103,27,N,N,N,N,N,90.0,N,0,N,,N,MTF,Y,GSTSC,Commission Income (Handling GR of bills),,N,,,,,,,,,0.0,45.0,45.0,9,9,0,9971
116,1001053158,OWRM401031711657,CCGST,1,3557.0,1658.87,20171013121000,OWRM401031711657CRE001,40103,27,40103,27,N,N,N,N,N,298.6,N,0,N,,N,MTF,Y,GSTSC,GST on FCY Conversion,,N,,,,,,,,,0.0,149.3,149.3,9,9,0,9971
117,1001053158,OWRM401031711738,CCGST,1,495.0,322.69,20171013121000,OWRM401031711738CRE001,40103,27,40103,27,N,N,N,N,N,58.08,N,0,N,,N,MTF,Y,GSTSC,GST on FCY Conversion,,N,,,,,,,,,0.0,29.04,29.04,9,9,0,9971
118,1001053158,IWRM401031705575,CCGST,1,185.26,250.0,20171013121000,IWRM401031705575CRE001,40103,27,40103,27,N,N,N,N,N,45.0,N,0,N,,N,MTF,Y,GSTSC,GST on FCY Conversion,,N,,,,,,,,,0.0,22.5,22.5,9,9,0,9971
119,1001053158,OWRM401031711755,CCGST,1,622.8,406.0,20171013121000,OWRM401031711755CRE001,40103,27,40103,27,N,N,N,N,N,73.08,N,0,N,,N,MTF,Y,GSTSC,GST on FCY Conversion,,N,,,,,,,,,0.0,36.54,36.54,9,9,0,9971
120,1001053158,OWRM401031711756,CCGST,1,1370.0,893.1,20171013121000,OWRM401031711756CRE001,40103,27,40103,27,N,N,N,N,N,160.76,N,0,N,,N,MTF,Y,GSTSC,GST on FCY Conversion,,N,,,,,,,,,0.0,80.38,80.38,9,9,0,9971
121,1000855573,IWRM403011705573,CCGST,1,865.0,556.8,20171013121000,IWRM403011705573CRE001,40301,24,40301,24,N,N,N,N,N,100.22,N,0,N,,N,MTF,Y,GSTSC,GST on FCY Conversion,,N,,,,,,,,,0.0,50.11,50.11,9,9,0,9971
122,1001042839,EXCB801511701491,CCGST,1,12198.0,500.0,20171013121000,EXCB801511701491PAY001,80151,29,80151,29,N,N,N,N,N,90.0,N,0,N,29AAEFP4691C1Z4,N,MTF,Y,GSTSC,Commission Income (Handling GR of bills),,N,,,,,,,,,0.0,45.0,45.0,9,9,0,9971
123,1000624657,FOSL210011700103,CCGST,1,250000.0,4118.73,20171013121000,FOSL210011700103ISS001,21001,6,21001,6,N,N,N,N,N,741.38,N,0,N,06AABCI2726B2Z5,N,MTF,Y,GSTSC,Commission Income(Stand By Lc issue Comm- 100% cash margin),,N,,,,,,,,,0.0,370.69,370.69,9,9,0,9971
124,1000624657,FOSL210011700104,CCGST,1,250000.0,4118.73,20171013121000,FOSL210011700104ISS001,21001,6,21001,6,N,N,N,N,N,741.38,N,0,N,06AABCI2726B2Z5,N,MTF,Y,GSTSC,Commission Income(Stand By Lc issue Comm- 100% cash margin),,N,,,,,,,,,0.0,370.69,370.69,9,9,0,9971
125,1000624657,FOSL210011700103,CCGST,1,250000.0,1200.0,20171013121000,FOSL210011700103ISS001,21001,6,21001,6,N,N,N,N,N,216.0,N,0,N,06AABCI2726B2Z5,N,MTF,Y,GSTSC,Recovery of Swift Charges,,N,,,,,,,,,0.0,108.0,108.0,9,9,0,9971
126,1000624657,FOSL210011700104,CCGST,1,250000.0,1200.0,20171013121000,FOSL210011700104ISS001,21001,6,21001,6,N,N,N,N,N,216.0,N,0,N,06AABCI2726B2Z5,N,MTF,Y,GSTSC,Recovery of Swift Charges,,N,,,,,,,,,0.0,108.0,108.0,9,9,0,9971
127,1000624657,IMLC210011701971,CCGST,1,4958167.5,188362.02,20171013121000,IMLC210011701971ISS001,21001,6,21001,6,N,N,N,N,N,33905.16,N,0,N,06AABCI2726B2Z5,N,MTF,Y,GSTSC,Commission Income(ILC Commitment Commission),,N,,,,,,,,,0.0,16952.58,16952.58,9,9,0,9971
128,1000624657,IMLC210011701971,CCGST,1,4958167.5,62787.34,20171013121000,IMLC210011701971ISS001,21001,6,21001,6,N,N,N,N,N,11301.72,N,0,N,06AABCI2726B2Z5,N,MTF,Y,GSTSC,Commission Income (Issue Com (Sight / Usance upto 30 days),,N,,,,,,,,,0.0,5650.86,5650.86,9,9,0,9971
129,1000624657,IMLC210011701971,CCGST,1,4958167.5,1200.0,20171013121000,IMLC210011701971ISS001,21001,6,21001,6,N,N,N,N,N,216.0,N,0,N,06AABCI2726B2Z5,N,MTF,Y,GSTSC,Recovery of Swift Charges,,N,,,,,,,,,0.0,108.0,108.0,9,9,0,9971
130,1000354962,EXCB201011701942,CCGST,1,57820.0,1500.0,20171013121000,EXCB201011701942CRE001,20101,7,21001,6,N,N,N,N,N,270.0,N,0,N,,N,MTF,Y,GSTSC,Commission Income (Export Bills on Collections),,N,,,,,,,,,270.0,0.0,0.0,0,0,18,9971
131,1000354962,EXCB201011701940,CCGST,1,39191.36,1500.0,20171013121000,EXCB201011701940CRE001,20101,7,21001,7,N,N,N,N,N,270.0,N,0,N,07AABCT9862B2Z9,N,MTF,Y,GSTSC,Commission Income (Export Bills on Collections),,N,,,,,,,,,0.0,135.0,135.0,9,9,0,9971
132,1000354962,EXCB201011701942,CCGST,1,57820.0,750.0,20171013121000,EXCB201011701942CRE001,20101,7,21001,6,N,N,N,N,N,135.0,N,0,N,,N,MTF,Y,GSTSC,Recovery of Courier charges - international,,N,,,,,,,,,135.0,0.0,0.0,0,0,18,9971
133,1000354962,EXCB201011701940,CCGST,1,39191.36,750.0,20171013121000,EXCB201011701940CRE001,20101,7,21001,7,N,N,N,N,N,135.0,N,0,N,07AABCT9862B2Z9,N,MTF,Y,GSTSC,Recovery of Courier charges - international,,N,,,,,,,,,0.0,67.5,67.5,9,9,0,9971
134,1000631472,IMLC201011701997,CCGST,1,41200.0,2480.12,20171013121000,IMLC201011701997ISS001,20101,7,20101,7,N,N,N,N,N,446.42,N,0,N,07AABPH6373C1Z1,N,MTF,Y,GSTSC,Commission Income(ILC Commitment Commission),,N,,,,,,,,,0.0,223.21,223.21,9,9,0,9971
135,1000631472,IMLC201011701997,CCGST,1,41200.0,3629.45,20171013121000,IMLC201011701997ISS001,20101,7,20101,7,N,N,N,N,N,653.3,N,0,N,07AABPH6373C1Z1,N,MTF,Y,GSTSC,Commission Income(Issue Usance Comm  (30 to 90 Days),,N,,,,,,,,,0.0,326.65,326.65,9,9,0,9971
136,1000066156,IWRM401011705538,CCGST,1,2083.33,998.96,20171013121000,IWRM401011705538CRE001,40101,27,40101,27,N,N,N,N,N,179.82,N,0,N,,N,MTF,Y,GSTSC,GST on FCY Conversion,,N,,,,,,,,,0.0,89.91,89.91,9,9,0,9971
137,1000452392,IMCB401011702239,CCGST,1,178946.63,700.0,20171013121000,IMCB401011702239PAY001,40101,27,40101,27,N,N,N,N,N,126.0,N,0,N,,N,MTF,Y,GSTSC,Commission Income (Import Bills - Direct Collections),,N,,,,,,,,,0.0,63.0,63.0,9,9,0,9971
138,1000452392,IMCB401011702211,CCGST,1,79488.75,700.0,20171013121000,IMCB401011702211PAY001,40101,27,40101,27,N,N,N,N,N,126.0,N,0,N,,N,MTF,Y,GSTSC,Commission Income (Import Bills - Direct Collections),,N,,,,,,,,,0.0,63.0,63.0,9,9,0,9971
139,1000452392,IMCB401011702239,CCGST,1,178946.63,16124.37,20171013121000,IMCB401011702239PAY001,40101,27,40101,27,N,N,N,N,N,2902.38,N,0,N,,N,MTF,Y,GSTSC,GST on FCY Conversion,,N,,,,,,,,,0.0,1451.19,1451.19,9,9,0,9971
140,1000452392,IMCB401011702211,CCGST,1,79488.75,9663.59,20171013121000,IMCB401011702211PAY001,40101,27,40101,27,N,N,N,N,N,1739.44,N,0,N,,N,MTF,Y,GSTSC,GST on FCY Conversion,,N,,,,,,,,,0.0,869.72,869.72,9,9,0,9971
141,1000730574,IWRM801021705407,CCGST,1,3274.5,1316.17,20171013121000,IWRM801021705407CRE001,80102,33,80102,33,N,N,N,N,N,236.92,N,0,N,33ACIFS9711L1ZQ,N,MTF,Y,GSTSC,GST on FCY Conversion,,N,,,,,,,,,0.0,118.46,118.46,9,9,0,9971
142,1000350242,LOBG401011701120,CCGST,1,13124.91,13124.91,20171013121000,LOBG401011701120PCH001,40101,27,40101,27,N,N,N,N,N,2362.48,N,0,N,27AAACS9939D1Z4,N,MTF,Y,GSTSC,Periodic Out BG Com (Quarterly) - Non Financial (Non Fund),,N,,,,,,,,,0.0,1181.24,1181.24,9,9,0,9971
143,1000350242,LOBG401011701116,CCGST,1,12148.17,12148.17,20171013121000,LOBG401011701116PCH001,40101,27,40101,27,N,N,N,N,N,2186.68,N,0,N,27AAACS9939D1Z4,N,MTF,Y,GSTSC,Periodic Out BG Com (Quarterly) - Non Financial (Non Fund),,N,,,,,,,,,0.0,1093.34,1093.34,9,9,0,9971
144,1000350242,LOBG401011701119,CCGST,1,12974.55,12974.55,20171013121000,LOBG401011701119PCH001,40101,27,40101,27,N,N,N,N,N,2335.42,N,0,N,27AAACS9939D1Z4,N,MTF,Y,GSTSC,Periodic Out BG Com (Quarterly) - Non Financial (Non Fund),,N,,,,,,,,,0.0,1167.71,1167.71,9,9,0,9971
145,1000780854,IWRM801511705563,CCGST,1,21991.0,5925.24,20171013121000,IWRM801511705563CRE001,80151,29,80151,29,N,N,N,N,N,1066.54,N,0,N,,N,MTF,Y,GSTSC,GST on FCY Conversion,,N,,,,,,,,,0.0,533.27,533.27,9,9,0,9971
146,1000003638,IBYB401011700604,CCGST,1,6915865.37,500.0,20171013121000,IBYB401011700604PAY001,40101,27,40101,27,N,N,N,N,N,90.0,N,0,N,27AAACJ8109N1Z8,N,MTF,Y,GSTSC,Recovery of Swift Charges,,N,,,,,,,,,0.0,45.0,45.0,9,9,0,9971
147,1000003638,IBYB401011700604,CCGST,1,6915865.37,60000.0,20171013121000,IBYB401011700604PAY001,40101,27,40101,27,N,N,N,N,N,10800.0,N,0,N,27AAACJ8109N1Z8,N,MTF,Y,GSTSC,GST on FCY Conversion,,N,,,,,,,,,0.0,5400.0,5400.0,9,9,0,9971
148,1012408599,OWRM401011711715,CCGST,1,11542.5,500.0,20171013121000,OWRM401011711715CRE001,40101,27,40101,27,N,N,N,N,N,90.0,N,0,N,27AAACL4936H1ZG,N,MTF,Y,GSTSC,Commission Income(OUTWARD Remittance Commision),,N,,,,,,,,,0.0,45.0,45.0,9,9,0,9971
149,1012408599,IMCB401011702241,CCGST,1,13686.75,500.0,20171013121000,IMCB401011702241PAY001,40101,27,40101,27,N,N,N,N,N,90.0,N,0,N,27AAACL4936H1ZG,N,MTF,Y,GSTSC,Commission Income (Import Bills - Direct Collections),,N,,,,,,,,,0.0,45.0,45.0,9,9,0,9971
150,1012408599,IMCB401011701745,CCGST,1,19656.0,500.0,20171013121000,IMCB401011701745PAY001,40101,27,40101,27,N,N,N,N,N,90.0,N,0,N,27AAACL4936H1ZG,N,MTF,Y,GSTSC,Commission Income (Import Bills - Direct Collections),,N,,,,,,,,,0.0,45.0,45.0,9,9,0,9971
151,1012408599,IMCB401011701694,CCGST,1,12428.0,500.0,20171013121000,IMCB401011701694PAY001,40101,27,40101,27,N,N,N,N,N,90.0,N,0,N,27AAACL4936H1ZG,N,MTF,Y,GSTSC,Commission Income (Import Bills - Direct Collections),,N,,,,,,,,,0.0,45.0,45.0,9,9,0,9971
152,1012408599,IMCB401011701717,CCGST,1,24320.0,500.0,20171013121000,IMCB401011701717PAY001,40101,27,40101,27,N,N,N,N,N,90.0,N,0,N,27AAACL4936H1ZG,N,MTF,Y,GSTSC,Commission Income (Import Bills - Direct Collections),,N,,,,,,,,,0.0,45.0,45.0,9,9,0,9971
153,1012408599,IBYB401011702255,CCGST,1,80719.14,12221.72,20171013121000,IBYB401011702255CRE001,40101,27,40101,27,N,N,N,N,N,2199.9,N,0,N,27AAACL4936H1ZG,N,MTF,Y,GSTSC,Buyers credit commission,,N,,,,,,,,,0.0,1099.95,1099.95,9,9,0,9971
154,1012408599,IMCB401011702241,CCGST,1,13686.75,500.0,20171013121000,IMCB401011702241PAY001,40101,27,40101,27,N,N,N,N,N,90.0,N,0,N,27AAACL4936H1ZG,N,MTF,Y,GSTSC,Recovery of Swift Charges,,N,,,,,,,,,0.0,45.0,45.0,9,9,0,9971
155,1012408599,IMCB401011701745,CCGST,1,19656.0,500.0,20171013121000,IMCB401011701745PAY001,40101,27,40101,27,N,N,N,N,N,90.0,N,0,N,27AAACL4936H1ZG,N,MTF,Y,GSTSC,Recovery of Swift Charges,,N,,,,,,,,,0.0,45.0,45.0,9,9,0,9971
156,1012408599,OWRM401011711715,CCGST,1,11542.5,500.0,20171013121000,OWRM401011711715CRE001,40101,27,40101,27,N,N,N,N,N,90.0,N,0,N,27AAACL4936H1ZG,N,MTF,Y,GSTSC,Recovery of Swift Charges,,N,,,,,,,,,0.0,45.0,45.0,9,9,0,9971
157,1012408599,IMCB401011701694,CCGST,1,12428.0,500.0,20171013121000,IMCB401011701694PAY001,40101,27,40101,27,N,N,N,N,N,90.0,N,0,N,27AAACL4936H1ZG,N,MTF,Y,GSTSC,Recovery of Swift Charges,,N,,,,,,,,,0.0,45.0,45.0,9,9,0,9971
158,1012408599,IMCB401011701717,CCGST,1,24320.0,500.0,20171013121000,IMCB401011701717PAY001,40101,27,40101,27,N,N,N,N,N,90.0,N,0,N,27AAACL4936H1ZG,N,MTF,Y,GSTSC,Recovery of Swift Charges,,N,,,,,,,,,0.0,45.0,45.0,9,9,0,9971
159,1012408599,IBYB401011702255,CCGST,1,80719.14,500.0,20171013121000,IBYB401011702255CRE001,40101,27,40101,27,N,N,N,N,N,90.0,N,0,N,27AAACL4936H1ZG,N,MTF,Y,GSTSC,Recovery of Swift Charges,,N,,,,,,,,,0.0,45.0,45.0,9,9,0,9971
160,1012408599,IMLC401011702000,CCGST,1,22260.0,2000.0,20171013121000,IMLC401011702000ISS001,40101,27,40101,27,N,N,N,N,N,360.0,N,0,N,27AAACL4936H1ZG,N,MTF,Y,GSTSC,Commission Income(ILC Commitment Commission),,N,,,,,,,,,0.0,180.0,180.0,9,9,0,9971
161,1012408599,IMLC401011702000,CCGST,1,22260.0,2000.0,20171013121000,IMLC401011702000ISS001,40101,27,40101,27,N,N,N,N,N,360.0,N,0,N,27AAACL4936H1ZG,N,MTF,Y,GSTSC,Commission Income(Issue Usance Comm  (30 to 90 Days),,N,,,,,,,,,0.0,180.0,180.0,9,9,0,9971
162,1012408599,IMLC401011702000,CCGST,1,22260.0,500.0,20171013121000,IMLC401011702000ISS001,40101,27,40101,27,N,N,N,N,N,90.0,N,0,N,27AAACL4936H1ZG,N,MTF,Y,GSTSC,Recovery of Swift Charges,,N,,,,,,,,,0.0,45.0,45.0,9,9,0,9971
163,1012408599,IMCB401011702241,CCGST,1,13686.75,4943.4,20171013121000,IMCB401011702241PAY001,40101,27,40101,27,N,N,N,N,N,889.82,N,0,N,27AAACL4936H1ZG,N,MTF,Y,GSTSC,GST on FCY Conversion,,N,,,,,,,,,0.0,444.91,444.91,9,9,0,9971
164,1012408599,OWRM401011711715,CCGST,1,11542.5,4247.27,20171013121000,OWRM401011711715CRE001,40101,27,40101,27,N,N,N,N,N,764.5,N,0,N,27AAACL4936H1ZG,N,MTF,Y,GSTSC,GST on FCY Conversion,,N,,,,,,,,,0.0,382.25,382.25,9,9,0,9971
165,1011470591,IWRM403011705561,CCGST,1,4000.0,1794.2,20171013121000,IWRM403011705561CRE001,40301,24,40301,24,N,N,N,N,N,322.96,N,0,N,24AAWCS3746G1ZX,N,MTF,Y,GSTSC,GST on FCY Conversion,,N,,,,,,,,,0.0,161.48,161.48,9,9,0,9971
166,1011740923,OWRM801511711750,CCGST,1,44622.0,500.0,20171013121000,OWRM801511711750CRE001,80151,29,80151,29,N,N,N,N,N,90.0,N,0,N,,N,MTF,Y,GSTSC,Commission Income(OUTWARD Remittance Commision),,N,,,,,,,,,0.0,45.0,45.0,9,9,0,9971
167,1011740923,OWRM801511711750,CCGST,1,44622.0,7400.88,20171013121000,OWRM801511711750CRE001,80151,29,80151,29,N,N,N,N,N,1332.16,N,0,N,,N,MTF,Y,GSTSC,GST on FCY Conversion,,N,,,,,,,,,0.0,666.08,666.08,9,9,0,9971
168,1000874787,LOBG401011700094,CCGST,1,26662.02,26662.02,20171013121000,LOBG401011700094PCH003,40101,27,40101,27,N,N,N,N,N,4799.16,N,0,N,27AAACS9939D1Z4,N,MTF,Y,GSTSC,Periodic Out BG Com (Quaterly) - Financial (Non Fund),,N,,,,,,,,,0.0,2399.58,2399.58,9,9,0,9971
169,1000874787,LOBG401011700095,CCGST,1,1022.13,1022.13,20171013121000,LOBG401011700095PCH002,40101,27,40101,27,N,N,N,N,N,183.98,N,0,N,27AAACS9939D1Z4,N,MTF,Y,GSTSC,Periodic Out BG Com (Quaterly) - Financial (Non Fund),,N,,,,,,,,,0.0,91.99,91.99,9,9,0,9971
170,1000874787,LOBG401011700096,CCGST,1,5500.02,5500.02,20171013121000,LOBG401011700096PCH003,40101,27,40101,27,N,N,N,N,N,990.0,N,0,N,27AAACS9939D1Z4,N,MTF,Y,GSTSC,Periodic Out BG Com (Quarterly) - Non Financial (Non Fund),,N,,,,,,,,,0.0,495.0,495.0,9,9,0,9971
171,1012103358,IBYB802011702232,CCGST,1,60306.54,8854.2,20171013121000,IBYB802011702232CRE001,80201,36,80201,36,N,N,N,N,N,1593.76,N,0,N,36AAGCG4427Q1Z3,N,MTF,Y,GSTSC,Buyers credit commission,,N,,,,,,,,,0.0,796.88,796.88,9,9,0,9971
172,1012103358,IBYB802011702233,CCGST,1,9279291.04,980213.24,20171013121000,IBYB802011702233CRE001,80201,36,80201,36,N,N,N,N,N,176438.38,N,0,N,36AAGCG4427Q1Z3,N,MTF,Y,GSTSC,Buyers credit commission,,N,,,,,,,,,0.0,88219.19,88219.19,9,9,0,9971
173,1012103358,IBYB802011702232,CCGST,1,60306.54,750.0,20171013121000,IBYB802011702232CRE001,80201,36,80201,36,N,N,N,N,N,135.0,N,0,N,36AAGCG4427Q1Z3,N,MTF,Y,GSTSC,Recovery of Swift Charges,,N,,,,,,,,,0.0,67.5,67.5,9,9,0,9971
174,1012103358,IBYB802011702233,CCGST,1,9279291.04,750.0,20171013121000,IBYB802011702233CRE001,80201,36,80201,36,N,N,N,N,N,135.0,N,0,N,36AAGCG4427Q1Z3,N,MTF,Y,GSTSC,Recovery of Swift Charges,,N,,,,,,,,,0.0,67.5,67.5,9,9,0,9971
175,1012103358,IMLC802011700984,CCGST,1,8811832.04,750.0,20171013121000,IMLC802011700984POC034,80201,36,80201,37,N,N,N,N,N,135.0,N,0,N,37AAGCG4427Q1Z1,N,MTF,Y,GSTSC,Recovery of Swift Charges,,N,,,,,,,,,135.0,0.0,0.0,0,0,18,9971
176,1012103358,IMLC802011700984,CCGST,1,57169.44,750.0,20171013121000,IMLC802011700984POC035,80201,36,80201,37,N,N,N,N,N,135.0,N,0,N,37AAGCG4427Q1Z1,N,MTF,Y,GSTSC,Recovery of Swift Charges,,N,,,,,,,,,135.0,0.0,0.0,0,0,18,9971
177,1012103358,IMLC802011700984,CCGST,1,8811832.04,2000.0,20171013121000,IMLC802011700984POC034,80201,36,80201,37,N,N,N,N,N,360.0,N,0,N,37AAGCG4427Q1Z1,N,MTF,Y,GSTSC,Commission Income(LC Retirement Fx through bank),,N,,,,,,,,,360.0,0.0,0.0,0,0,18,9971
178,1012103358,IMLC802011700984,CCGST,1,57169.44,2000.0,20171013121000,IMLC802011700984POC035,80201,36,80201,37,N,N,N,N,N,360.0,N,0,N,37AAGCG4427Q1Z1,N,MTF,Y,GSTSC,Commission Income(LC Retirement Fx through bank),,N,,,,,,,,,360.0,0.0,0.0,0,0,18,9971
179,1012103358,IMLC802011700984,CCGST,1,8811832.04,6408.05,20171013121000,IMLC802011700984POC034,80201,36,80201,37,N,N,N,N,N,1153.45,N,0,N,37AAGCG4427Q1Z1,N,MTF,Y,GSTSC,GST on FCY Conversion,,N,,,,,,,,,1153.45,0.0,0.0,0,0,18,9971
180,1012103358,IMLC802011700984,CCGST,1,57169.44,250.0,20171013121000,IMLC802011700984POC035,80201,36,80201,37,N,N,N,N,N,45.0,N,0,N,37AAGCG4427Q1Z1,N,MTF,Y,GSTSC,GST on FCY Conversion,,N,,,,,,,,,45.0,0.0,0.0,0,0,18,9971
181,1014001456,OWRM210011711753,CCGST,1,4162.01,200.0,20171013121000,OWRM210011711753CRE001,21001,6,21001,6,N,N,N,N,N,36.0,N,0,N,06AAQFG4530R1ZS,N,MTF,Y,GSTSC,Commission Income(OUTWARD Remittance Commision),,N,,,,,,,,,0.0,18.0,18.0,9,9,0,9971
182,1014001456,OWRM210011711751,CCGST,1,4626.91,200.0,20171013121000,OWRM210011711751CRE001,21001,6,21001,6,N,N,N,N,N,36.0,N,0,N,06AAQFG4530R1ZS,N,MTF,Y,GSTSC,Commission Income(OUTWARD Remittance Commision),,N,,,,,,,,,0.0,18.0,18.0,9,9,0,9971
183,1014001456,OWRM210011711752,CCGST,1,6674.46,200.0,20171013121000,OWRM210011711752CRE001,21001,6,21001,6,N,N,N,N,N,36.0,N,0,N,06AAQFG4530R1ZS,N,MTF,Y,GSTSC,Commission Income(OUTWARD Remittance Commision),,N,,,,,,,,,0.0,18.0,18.0,9,9,0,9971
184,1014001456,OWRM210011711753,CCGST,1,4162.01,1850.05,20171013121000,OWRM210011711753CRE001,21001,6,21001,6,N,N,N,N,N,333.0,N,0,N,06AAQFG4530R1ZS,N,MTF,Y,GSTSC,GST on FCY Conversion,,N,,,,,,,,,0.0,166.5,166.5,9,9,0,9971
185,1014001456,OWRM210011711751,CCGST,1,4626.91,2000.85,20171013121000,OWRM210011711751CRE001,21001,6,21001,6,N,N,N,N,N,360.16,N,0,N,06AAQFG4530R1ZS,N,MTF,Y,GSTSC,GST on FCY Conversion,,N,,,,,,,,,0.0,180.08,180.08,9,9,0,9971
186,1014001456,OWRM210011711752,CCGST,1,6674.46,2665.03,20171013121000,OWRM210011711752CRE001,21001,6,21001,6,N,N,N,N,N,479.7,N,0,N,06AAQFG4530R1ZS,N,MTF,Y,GSTSC,GST on FCY Conversion,,N,,,,,,,,,0.0,239.85,239.85,9,9,0,9971
187,1014321364,OWRM201511711736,CCGST,1,10832.2,500.0,20171013121000,OWRM201511711736CRE001,20151,9,21001,7,N,N,N,N,N,90.0,N,0,N,,N,MTF,Y,GSTSC,Commission Income(OUTWARD Remittance Commision),,N,,,,,,,,,90.0,0.0,0.0,0,0,18,9971
188,1014321364,OWRM201511711736,CCGST,1,10832.2,4028.05,20171013121000,OWRM201511711736CRE001,20151,9,21001,7,N,N,N,N,N,725.05,N,0,N,,N,MTF,Y,GSTSC,GST on FCY Conversion,,N,,,,,,,,,725.05,0.0,0.0,0,0,18,9971
189,1011533519,EXCB801011701909,CCGST,1,22261.2,300.0,20171013121000,EXCB801011701909PAY001,80101,33,80101,33,N,N,N,N,N,54.0,N,0,N,33AAFCA9813P1ZA,N,MTF,Y,GSTSC,Commission Income (Bank Realisaion cetificate Charge),,N,,,,,,,,,0.0,27.0,27.0,9,9,0,9971
190,1011533519,EXCB801011701909,CCGST,1,22261.2,5924.7,20171013121000,EXCB801011701909PAY001,80101,33,80101,33,N,N,N,N,N,1066.44,N,0,N,33AAFCA9813P1ZA,N,MTF,Y,GSTSC,GST on FCY Conversion,,N,,,,,,,,,0.0,533.22,533.22,9,9,0,9971
191,1012736766,OWRM401061711468,CCGST,1,0.0,250.0,20171013121000,OWRM401061711468MCH001,40106,27,40106,27,N,N,N,N,N,45.0,N,0,N,,N,MTF,Y,GSTSC,GST on FCY Conversion,,N,,,,,,,,,0.0,22.5,22.5,9,9,0,9971
192,1012069382,IMCB401061702261,CCGST,1,30962.25,250.0,20171013121000,IMCB401061702261PAY001,40106,27,40101,27,N,N,N,N,N,45.0,N,0,N,,N,MTF,Y,GSTSC,Commission Income (Import Bills - Direct Collections),,N,,,,,,,,,0.0,22.5,22.5,9,9,0,9971
193,1012069382,IMCB401061702262,CCGST,1,60934.5,250.0,20171013121000,IMCB401061702262PAY001,40106,27,40101,27,N,N,N,N,N,45.0,N,0,N,,N,MTF,Y,GSTSC,Commission Income (Import Bills - Direct Collections),,N,,,,,,,,,0.0,22.5,22.5,9,9,0,9971
194,1012069382,IMCB401061702259,CCGST,1,29947.5,250.0,20171013121000,IMCB401061702259PAY001,40106,27,40101,27,N,N,N,N,N,45.0,N,0,N,,N,MTF,Y,GSTSC,Commission Income (Import Bills - Direct Collections),,N,,,,,,,,,0.0,22.5,22.5,9,9,0,9971
195,1012069382,IMCB401061702279,CCGST,1,57915.0,250.0,20171013121000,IMCB401061702279PAY001,40106,27,40101,27,N,N,N,N,N,45.0,N,0,N,,N,MTF,Y,GSTSC,Commission Income (Import Bills - Direct Collections),,N,,,,,,,,,0.0,22.5,22.5,9,9,0,9971
196,1012069382,IMCB401061702258,CCGST,1,30962.25,250.0,20171013121000,IMCB401061702258PAY001,40106,27,40101,27,N,N,N,N,N,45.0,N,0,N,,N,MTF,Y,GSTSC,Commission Income (Import Bills - Direct Collections),,N,,,,,,,,,0.0,22.5,22.5,9,9,0,9971
197,1012069382,IMCB401061702261,CCGST,1,30962.25,6529.89,20171013121000,IMCB401061702261PAY001,40106,27,40101,27,N,N,N,N,N,1175.38,N,0,N,,N,MTF,Y,GSTSC,GST on FCY Conversion,,N,,,,,,,,,0.0,587.69,587.69,9,9,0,9971
198,1012069382,IMCB401061702262,CCGST,1,60934.5,8494.87,20171013121000,IMCB401061702262PAY001,40106,27,40101,27,N,N,N,N,N,1529.08,N,0,N,,N,MTF,Y,GSTSC,GST on FCY Conversion,,N,,,,,,,,,0.0,764.54,764.54,9,9,0,9971
199,1012069382,IMCB401061702259,CCGST,1,29947.5,6463.36,20171013121000,IMCB401061702259PAY001,40106,27,40101,27,N,N,N,N,N,1163.4,N,0,N,,N,MTF,Y,GSTSC,GST on FCY Conversion,,N,,,,,,,,,0.0,581.7,581.7,9,9,0,9971
200,1012069382,IMCB401061702279,CCGST,1,57915.0,8296.91,20171013121000,IMCB401061702279PAY001,40106,27,40101,27,N,N,N,N,N,1493.44,N,0,N,,N,MTF,Y,GSTSC,GST on FCY Conversion,,N,,,,,,,,,0.0,746.72,746.72,9,9,0,9971
201,1012069382,IMCB401061702258,CCGST,1,30962.25,6529.89,20171013121000,IMCB401061702258PAY001,40106,27,40101,27,N,N,N,N,N,1175.38,N,0,N,,N,MTF,Y,GSTSC,GST on FCY Conversion,,N,,,,,,,,,0.0,587.69,587.69,9,9,0,9971
202,1003120986,LOBG201011600641,CCGST,1,0.0,84999.96,20171013121000,LOBG201011600641AMD001,20101,7,20101,7,N,N,N,N,N,15300.0,N,0,N,,N,MTF,Y,GSTSC,Commission Income(Amd Out Gua- (Non fund) Financial - Expiry,,N,,,,,,,,,0.0,7650.0,7650.0,9,9,0,9971
203,1013939084,OWRM201511711739,CCGST,1,63018.0,500.0,20171013121000,OWRM201511711739CRE001,20151,9,20102,7,N,N,N,N,N,90.0,N,0,N,07AAACB3913C1ZB,N,MTF,Y,GSTSC,Commission Income(OUTWARD Remittance Commision),,N,,,,,,,,,90.0,0.0,0.0,0,0,18,9971
204,1013939084,OWRM201511711739,CCGST,1,63018.0,4163.6,20171013121000,OWRM201511711739CRE001,20151,9,20102,7,N,N,N,N,N,749.45,N,0,N,07AAACB3913C1ZB,N,MTF,Y,GSTSC,Commission Income(Comm in Lieu of Excng),,N,,,,,,,,,749.45,0.0,0.0,0,0,18,9971
205,1013925118,OWRM201511711760,CCGST,1,6020.0,150.0,20171013121000,OWRM201511711760CRE001,20151,9,21001,9,N,N,N,N,N,27.0,N,0,N,09AAACF2674C1ZV,N,MTF,Y,GSTSC,Commission Income(OUTWARD Remittance Commision),,N,,,,,,,,,0.0,13.5,13.5,9,9,0,9971
206,1013925118,OWRM201511711759,CCGST,1,30000.0,150.0,20171013121000,OWRM201511711759CRE001,20151,9,21001,9,N,N,N,N,N,27.0,N,0,N,09AAACF2674C1ZV,N,MTF,Y,GSTSC,Commission Income(OUTWARD Remittance Commision),,N,,,,,,,,,0.0,13.5,13.5,9,9,0,9971
207,1013925118,OWRM201511711760,CCGST,1,6020.0,2454.09,20171013121000,OWRM201511711760CRE001,20151,9,21001,9,N,N,N,N,N,441.74,N,0,N,09AAACF2674C1ZV,N,MTF,Y,GSTSC,GST on FCY Conversion,,N,,,,,,,,,0.0,220.87,220.87,9,9,0,9971
208,1013925118,OWRM201511711759,CCGST,1,30000.0,6447.6,20171013121000,OWRM201511711759CRE001,20151,9,21001,9,N,N,N,N,N,1160.56,N,0,N,09AAACF2674C1ZV,N,MTF,Y,GSTSC,GST on FCY Conversion,,N,,,,,,,,,0.0,580.28,580.28,9,9,0,9971
209,1012182229,EXLC413511700212,CCGST,1,89105.19,750.0,20171013121000,EXLC413511700212DPR009,41351,27,41351,27,N,N,N,N,N,135.0,N,0,N,27AAACZ1758R1ZJ,N,MTF,Y,GSTSC,Commission Income (EXP COL Nego/Scrutiny / Examination Docs),,N,,,,,,,,,0.0,67.5,67.5,9,9,0,9971
210,1012182229,EXLC413511700212,CCGST,1,144044.97,750.0,20171013121000,EXLC413511700212DPR008,41351,27,41351,27,N,N,N,N,N,135.0,N,0,N,27AAACZ1758R1ZJ,N,MTF,Y,GSTSC,Commission Income (EXP COL Nego/Scrutiny / Examination Docs),,N,,,,,,,,,0.0,67.5,67.5,9,9,0,9971
211,1012182229,EXLC413511700107,CCGST,1,4158.47,750.0,20171013121000,EXLC413511700107DPR023,41351,27,41351,27,N,N,N,N,N,135.0,N,0,N,27AAACZ1758R1ZJ,N,MTF,Y,GSTSC,Commission Income (EXP COL Nego/Scrutiny / Examination Docs),,N,,,,,,,,,0.0,67.5,67.5,9,9,0,9971
212,1012182229,EXLC413511700212,CCGST,1,89105.19,250.0,20171013121000,EXLC413511700212DPR009,41351,27,41351,27,N,N,N,N,N,45.0,N,0,N,27AAACZ1758R1ZJ,N,MTF,Y,GSTSC,Recovery of Courier charges - international,,N,,,,,,,,,0.0,22.5,22.5,9,9,0,9971
213,1012182229,EXLC413511700212,CCGST,1,144044.97,250.0,20171013121000,EXLC413511700212DPR008,41351,27,41351,27,N,N,N,N,N,45.0,N,0,N,27AAACZ1758R1ZJ,N,MTF,Y,GSTSC,Recovery of Courier charges - international,,N,,,,,,,,,0.0,22.5,22.5,9,9,0,9971
214,1012182229,EXLC413511700107,CCGST,1,4158.47,250.0,20171013121000,EXLC413511700107DPR023,41351,27,41351,27,N,N,N,N,N,45.0,N,0,N,27AAACZ1758R1ZJ,N,MTF,Y,GSTSC,Recovery of Courier charges - international,,N,,,,,,,,,0.0,22.5,22.5,9,9,0,9971
215,1000871005,LOLC201011701311,CCGST,1,1577802.0,2000.0,20171013121000,LOLC201011701311POC018,20101,7,20101,7,N,N,N,N,N,360.0,N,0,N,07AABCA4304K1ZZ,N,MTF,Y,GSTSC,Commission Income (Discrepancy Charges),,N,,,,,,,,,0.0,180.0,180.0,9,9,0,9971
216,1000871005,LOLC201011701311,CCGST,1,1577802.0,1500.0,20171013121000,LOLC201011701311POC018,20101,7,20101,7,N,N,N,N,N,270.0,N,0,N,07AABCA4304K1ZZ,N,MTF,Y,GSTSC,Commission Income(Inland Retirement Commission),,N,,,,,,,,,0.0,135.0,135.0,9,9,0,9971
217,1000275252,OWRM801511711744,CCGST,1,640.0,500.0,20171013121000,OWRM801511711744CRE001,80151,29,80151,29,N,N,N,N,N,90.0,N,0,N,29AATFA9794N1Z3,N,MTF,Y,GSTSC,Commission Income(OUTWARD Remittance Commision),,N,,,,,,,,,0.0,45.0,45.0,9,9,0,9971
218,1000275252,OWRM801511711744,CCGST,1,640.0,416.9,20171013121000,OWRM801511711744CRE001,80151,29,80151,29,N,N,N,N,N,75.04,N,0,N,29AATFA9794N1Z3,N,MTF,Y,GSTSC,GST on FCY Conversion,,N,,,,,,,,,0.0,37.52,37.52,9,9,0,9971
219,1012952472,IWRM201011705528,CCGST,1,426.1,272.49,20171013121000,IWRM201011705528CRE001,20101,7,20101,7,N,N,N,N,N,49.04,N,0,N,,N,MTF,Y,GSTSC,GST on FCY Conversion,,N,,,,,,,,,0.0,24.52,24.52,9,9,0,9971
220,1000942422,OWRM401021711754,CCGST,1,2050.0,500.0,20171013121000,OWRM401021711754CRE001,40102,27,40102,27,N,N,N,N,N,90.0,N,0,N,,N,MTF,Y,GSTSC,Commission Income(OUTWARD Remittance Commision),,N,,,,,,,,,0.0,45.0,45.0,9,9,0,9971
221,1000942422,OWRM401021711754,CCGST,1,2050.0,1166.76,20171013121000,OWRM401021711754CRE001,40102,27,40102,27,N,N,N,N,N,210.02,N,0,N,,N,MTF,Y,GSTSC,GST on FCY Conversion,,N,,,,,,,,,0.0,105.01,105.01,9,9,0,9971
222,1013520053,OWRM201511711690,CCGST,1,485.25,500.0,20171013121000,OWRM201511711690CRE001,20151,9,20101,7,N,N,N,N,N,90.0,N,0,N,,N,MTF,Y,GSTSC,Commission Income(OUTWARD Remittance Commision),,N,,,,,,,,,90.0,0.0,0.0,0,0,18,9971
223,1013520053,OWRM201511711690,CCGST,1,485.25,316.72,20171013121000,OWRM201511711690CRE001,20151,9,20101,7,N,N,N,N,N,57.01,N,0,N,,N,MTF,Y,GSTSC,GST on FCY Conversion,,N,,,,,,,,,57.01,0.0,0.0,0,0,18,9971
224,1001066463,IWRM801021705566,CCGST,1,99935.0,10975.79,20171013121000,IWRM801021705566CRE001,80102,33,80102,33,N,N,N,N,N,1975.64,N,0,N,,N,MTF,Y,GSTSC,GST on FCY Conversion,,N,,,,,,,,,0.0,987.82,987.82,9,9,0,9971
225,1013424214,IBYB801011702271,CCGST,1,65689.38,6510.15,20171013121000,IBYB801011702271CRE001,80101,33,80101,33,N,N,N,N,N,1171.82,N,0,N,33AAFCP7979M1ZM,N,MTF,Y,GSTSC,Buyers credit commission,,N,,,,,,,,,0.0,585.91,585.91,9,9,0,9971
226,1013424214,IBYB801011702271,CCGST,1,65689.38,750.0,20171013121000,IBYB801011702271CRE001,80101,33,80101,33,N,N,N,N,N,135.0,N,0,N,33AAFCP7979M1ZM,N,MTF,Y,GSTSC,Recovery of Swift Charges,,N,,,,,,,,,0.0,67.5,67.5,9,9,0,9971
227,1000368920,EXCB401011701944,CCGST,1,5000.0,1000.0,20171013121000,EXCB401011701944CRE001,40101,27,40101,27,N,N,N,N,N,180.0,N,0,N,27AAAFJ2161R1Z2,N,MTF,Y,GSTSC,Commission Income (Export Bills on Collections),,N,,,,,,,,,0.0,90.0,90.0,9,9,0,9971
228,1000368920,EXCB401011701944,CCGST,1,5000.0,300.0,20171013121000,EXCB401011701944CRE001,40101,27,40101,27,N,N,N,N,N,54.0,N,0,N,27AAAFJ2161R1Z2,N,MTF,Y,GSTSC,Recovery of Courier charges - international,,N,,,,,,,,,0.0,27.0,27.0,9,9,0,9971
229,1000210567,IMLC210011701051,CCGST,1,22558.5,750.0,20171013121000,IMLC210011701051POC005,21001,6,20101,7,N,N,N,N,N,135.0,N,0,N,07AADCM0815B1Z4,N,MTF,Y,GSTSC,Recovery of Swift Charges,,N,,,,,,,,,135.0,0.0,0.0,0,0,18,9971
230,1000210567,IMLC210011701051,CCGST,1,22558.5,2000.0,20171013121000,IMLC210011701051POC005,21001,6,20101,7,N,N,N,N,N,360.0,N,0,N,07AADCM0815B1Z4,N,MTF,Y,GSTSC,Commission Income(LC Retirement Fx through bank),,N,,,,,,,,,360.0,0.0,0.0,0,0,18,9971
231,1000210567,IMLC210011701051,CCGST,1,22558.5,6233.85,20171013121000,IMLC210011701051POC005,21001,6,20101,7,N,N,N,N,N,1122.09,N,0,N,07AADCM0815B1Z4,N,MTF,Y,GSTSC,GST on FCY Conversion,,N,,,,,,,,,1122.09,0.0,0.0,0,0,18,9971
232,1013302921,OWRM801511711694,CCGST,1,6820.6,500.0,20171013121000,OWRM801511711694CRE001,80151,29,80151,29,N,N,N,N,N,90.0,N,0,N,29AAECC2577P1ZZ,N,MTF,Y,GSTSC,Commission Income(OUTWARD Remittance Commision),,N,,,,,,,,,0.0,45.0,45.0,9,9,0,9971
233,1013302921,OWRM801511711696,CCGST,1,25332.5,500.0,20171013121000,OWRM801511711696CRE001,80151,29,80151,29,N,N,N,N,N,90.0,N,0,N,29AAECC2577P1ZZ,N,MTF,Y,GSTSC,Commission Income(OUTWARD Remittance Commision),,N,,,,,,,,,0.0,45.0,45.0,9,9,0,9971
234,1013302921,OWRM801511711693,CCGST,1,452.8,500.0,20171013121000,OWRM801511711693CRE001,80151,29,80151,29,N,N,N,N,N,90.0,N,0,N,29AAECC2577P1ZZ,N,MTF,Y,GSTSC,Commission Income(OUTWARD Remittance Commision),,N,,,,,,,,,0.0,45.0,45.0,9,9,0,9971
235,1013302921,OWRM801511711697,CCGST,1,39052.0,500.0,20171013121000,OWRM801511711697CRE001,80151,29,80151,29,N,N,N,N,N,90.0,N,0,N,29AAECC2577P1ZZ,N,MTF,Y,GSTSC,Commission Income(OUTWARD Remittance Commision),,N,,,,,,,,,0.0,45.0,45.0,9,9,0,9971
236,1013302921,OWRM801511711694,CCGST,1,6820.6,2775.69,20171013121000,OWRM801511711694CRE001,80151,29,80151,29,N,N,N,N,N,499.62,N,0,N,29AAECC2577P1ZZ,N,MTF,Y,GSTSC,GST on FCY Conversion,,N,,,,,,,,,0.0,249.81,249.81,9,9,0,9971
237,1013302921,OWRM801511711696,CCGST,1,25332.5,6190.44,20171013121000,OWRM801511711696CRE001,80151,29,80151,29,N,N,N,N,N,1114.28,N,0,N,29AAECC2577P1ZZ,N,MTF,Y,GSTSC,GST on FCY Conversion,,N,,,,,,,,,0.0,557.14,557.14,9,9,0,9971
238,1013302921,OWRM801511711693,CCGST,1,452.8,302.15,20171013121000,OWRM801511711693CRE001,80151,29,80151,29,N,N,N,N,N,54.38,N,0,N,29AAECC2577P1ZZ,N,MTF,Y,GSTSC,GST on FCY Conversion,,N,,,,,,,,,0.0,27.19,27.19,9,9,0,9971
239,1013302921,OWRM801511711697,CCGST,1,39052.0,7105.94,20171013121000,OWRM801511711697CRE001,80151,29,80151,29,N,N,N,N,N,1279.06,N,0,N,29AAECC2577P1ZZ,N,MTF,Y,GSTSC,GST on FCY Conversion,,N,,,,,,,,,0.0,639.53,639.53,9,9,0,9971
240,1011437474,IWRM801511704939,CCGST,1,2025.0,1154.68,20171013121000,IWRM801511704939CRE001,80151,29,80151,29,N,N,N,N,N,207.84,N,0,N,,N,MTF,Y,GSTSC,GST on FCY Conversion,,N,,,,,,,,,0.0,103.92,103.92,9,9,0,9971
241,1011437474,IWRM801511705553,CCGST,1,1740.0,1062.54,20171013121000,IWRM801511705553CRE001,80151,29,80151,29,N,N,N,N,N,191.26,N,0,N,,N,MTF,Y,GSTSC,GST on FCY Conversion,,N,,,,,,,,,0.0,95.63,95.63,9,9,0,9971
242,1012313322,IBYB401011700580,CCGST,1,0.0,390813.46,20171013121000,IBYB401011700580MAC003,40101,27,40101,27,N,N,N,N,N,70346.42,N,0,N,27AANCA8628G1ZB,N,MTF,Y,GSTSC,Buyers credit comission,,N,,,,,,,,,0.0,35173.21,35173.21,9,9,0,9971
243,1012306370,EXCB403011701949,CCGST,1,33459.5,1500.0,20171013121000,EXCB403011701949CRE001,40301,24,40301,24,N,N,N,N,N,270.0,N,0,N,24AACCS1262K1ZH,N,MTF,Y,GSTSC,Commission Income (Export Bills on Collections),,N,,,,,,,,,0.0,135.0,135.0,9,9,0,9971
244,1012306370,EXCB403011701950,CCGST,1,44430.0,1500.0,20171013121000,EXCB403011701950CRE001,40301,24,40301,24,N,N,N,N,N,270.0,N,0,N,24AACCS1262K1ZH,N,MTF,Y,GSTSC,Commission Income (Export Bills on Collections),,N,,,,,,,,,0.0,135.0,135.0,9,9,0,9971
245,1012306370,EXCB403011701953,CCGST,1,45890.0,1500.0,20171013121000,EXCB403011701953CRE001,40301,24,40301,24,N,N,N,N,N,270.0,N,0,N,24AACCS1262K1ZH,N,MTF,Y,GSTSC,Commission Income (Export Bills on Collections),,N,,,,,,,,,0.0,135.0,135.0,9,9,0,9971
246,1012617456,OWRM401061711469,CCGST,1,0.0,250.0,20171013121000,OWRM401061711469MCH001,40106,27,40106,27,N,N,N,N,N,45.0,N,0,N,,N,MTF,Y,GSTSC,GST on FCY Conversion,,N,,,,,,,,,0.0,22.5,22.5,9,9,0,9971
247,1015537361,OWRM401061711749,CCGST,1,47189.04,250.0,20171013121000,OWRM401061711749CRE001,40106,27,40106,27,N,N,N,N,N,45.0,N,0,N,27AAOFB8082H1Z1,N,MTF,Y,GSTSC,Commission Income(OUTWARD Remittance Commision),,N,,,,,,,,,0.0,22.5,22.5,9,9,0,9971
248,1015537361,OWRM401061711749,CCGST,1,47189.04,7566.34,20171013121000,OWRM401061711749CRE001,40106,27,40106,27,N,N,N,N,N,1361.94,N,0,N,27AAOFB8082H1Z1,N,MTF,Y,GSTSC,GST on FCY Conversion,,N,,,,,,,,,0.0,680.97,680.97,9,9,0,9971
249,1000140767,IMCB403011702163,CCGST,1,2683836.28,1000.0,20171013121000,IMCB403011702163PAY001,40301,24,40301,24,N,N,N,N,N,180.0,N,0,N,24AABCA8056G1ZV,N,MTF,Y,GSTSC,Commission Income (Import Bills - Direct Collections),,N,,,,,,,,,0.0,90.0,90.0,9,9,0,9971
250,1000140767,IMCB403011702163,CCGST,1,2683836.28,500.0,20171013121000,IMCB403011702163PAY001,40301,24,40301,24,N,N,N,N,N,90.0,N,0,N,24AABCA8056G1ZV,N,MTF,Y,GSTSC,Recovery of Swift Charges,,N,,,,,,,,,0.0,45.0,45.0,9,9,0,9971
251,1017979793,OWRM201511711725,CCGST,1,39679.2,500.0,20171013121000,OWRM201511711725CRE001,20151,9,20102,9,N,N,N,N,N,90.0,N,0,N,09AAACO1387P1ZV,N,MTF,Y,GSTSC,Commission Income(OUTWARD Remittance Commision),,N,,,,,,,,,0.0,45.0,45.0,9,9,0,9971
252,1017979793,OWRM201511711725,CCGST,1,39679.2,7554.5,20171013121000,OWRM201511711725CRE001,20151,9,20102,9,N,N,N,N,N,1359.82,N,0,N,09AAACO1387P1ZV,N,MTF,Y,GSTSC,GST on FCY Conversion,,N,,,,,,,,,0.0,679.91,679.91,9,9,0,9971
253,1015399409,IWRM801011705423,CCGST,1,960.2,750.0,20171013121000,IWRM801011705423CRE001,80101,33,80101,33,N,N,N,N,N,135.0,N,0,N,33AAACA5174G1ZO,N,MTF,Y,GSTSC,Commission Income(Inward Remittance Commision),,N,,,,,,,,,0.0,67.5,67.5,9,9,0,9971
254,1015399409,OWRM801011711764,CCGST,1,4000.0,750.0,20171013121000,OWRM801011711764CRE001,80101,33,80101,33,N,N,N,N,N,135.0,N,0,N,33AAACA5174G1ZO,N,MTF,Y,GSTSC,Commission Income(OUTWARD Remittance Commision),,N,,,,,,,,,0.0,67.5,67.5,9,9,0,9971
255,1015399409,OWRM801011711764,CCGST,1,4000.0,500.0,20171013121000,OWRM801011711764CRE001,80101,33,80101,33,N,N,N,N,N,90.0,N,0,N,33AAACA5174G1ZO,N,MTF,Y,GSTSC,Recovery of Swift Charges,,N,,,,,,,,,0.0,45.0,45.0,9,9,0,9971
256,1015399409,OWRM801011711764,CCGST,1,4000.0,1799.0,20171013121000,OWRM801011711764CRE001,80101,33,80101,33,N,N,N,N,N,323.82,N,0,N,33AAACA5174G1ZO,N,MTF,Y,GSTSC,GST on FCY Conversion,,N,,,,,,,,,0.0,161.91,161.91,9,9,0,9971
257,1015399409,IWRM801011705423,CCGST,1,960.2,622.59,20171013121000,IWRM801011705423CRE001,80101,33,80101,33,N,N,N,N,N,112.06,N,0,N,33AAACA5174G1ZO,N,MTF,Y,GSTSC,GST on FCY Conversion,,N,,,,,,,,,0.0,56.03,56.03,9,9,0,9971
258,1017630958,IWRM201511705562,CCGST,1,3245.0,1547.49,20171013121000,IWRM201511705562CRE001,20151,9,20151,9,N,N,N,N,N,278.54,N,0,N,,N,MTF,Y,GSTSC,GST on FCY Conversion,,N,,,,,,,,,0.0,139.27,139.27,9,9,0,9971
259,1012309508,IWRM801511705576,CCGST,1,37996.0,6945.8,20171013121000,IWRM801511705576CRE001,80151,29,80151,29,N,N,N,N,N,1250.24,N,0,N,29AAJCS3966P1ZB,N,MTF,Y,GSTSC,GST on FCY Conversion,,N,,,,,,,,,0.0,625.12,625.12,9,9,0,9971
260,1013427667,IBYB601011701330,CCGST,1,495309.21,750.0,20171013121000,IBYB601011701330PAY001,60101,19,60101,19,N,N,N,N,N,135.0,N,0,N,19AABCG1428Q2Z8,N,MTF,Y,GSTSC,Recovery of Swift Charges,,N,,,,,,,,,0.0,67.5,67.5,9,9,0,9971
261,1013427667,IBYB601011701330,CCGST,1,495309.21,36645.57,20171013121000,IBYB601011701330PAY001,60101,19,60101,19,N,N,N,N,N,6596.2,N,0,N,19AABCG1428Q2Z8,N,MTF,Y,GSTSC,GST on FCY Conversion,,N,,,,,,,,,0.0,3298.1,3298.1,9,9,0,9971
262,1015398100,IBYB201011701340,CCGST,1,321563.66,750.0,20171013121000,IBYB201011701340PAY001,20101,7,20101,7,N,N,N,N,N,135.0,N,0,N,07AAACP5222C1ZZ,N,MTF,Y,GSTSC,Recovery of Swift Charges,,N,,,,,,,,,0.0,67.5,67.5,9,9,0,9971
263,1015398100,IBYB201011701340,CCGST,1,321563.66,25368.68,20171013121000,IBYB201011701340PAY001,20101,7,20101,7,N,N,N,N,N,4566.36,N,0,N,07AAACP5222C1ZZ,N,MTF,Y,GSTSC,GST on FCY Conversion,,N,,,,,,,,,0.0,2283.18,2283.18,9,9,0,9971
264,1017590232,IMLC201011701768,CCGST,1,2340721.46,500.0,20171013121000,IMLC201011701768AMD002,20101,7,40101,33,N,N,N,N,N,90.0,N,0,N,33AACCS7101B1Z3,N,MTF,Y,GSTSC,Recovery of Swift Charges,,N,,,,,,,,,90.0,0.0,0.0,0,0,18,9971
265,1017590232,IMLC201011701768,CCGST,1,2340721.46,112044.99,20171013121000,IMLC201011701768AMD002,20101,7,40101,33,N,N,N,N,N,20168.1,N,0,N,33AACCS7101B1Z3,N,MTF,Y,GSTSC,Commission Income(ILC AMEND Commitment commission- Amt Incr),,N,,,,,,,,,20168.1,0.0,0.0,0,0,18,9971
266,1017590232,IMLC201011701768,CCGST,1,2340721.46,35569.84,20171013121000,IMLC201011701768AMD002,20101,7,40101,33,N,N,N,N,N,6402.57,N,0,N,33AACCS7101B1Z3,N,MTF,Y,GSTSC,LC AMENDMENT COMMISSION,,N,,,,,,,,,6402.57,0.0,0.0,0,0,18,9971
267,1017516292,IWRM801021705510,CCGST,1,865.0,553.17,20171013121000,IWRM801021705510CRE001,80102,33,80102,33,N,N,N,N,N,99.58,N,0,N,,N,MTF,Y,GSTSC,GST on FCY Conversion,,N,,,,,,,,,0.0,49.79,49.79,9,9,0,9971
268,1015393510,IMCB201011702152,CCGST,1,68851.2,500.0,20171013121000,IMCB201011702152PAY001,20101,7,20101,32,N,N,N,N,N,90.0,N,0,N,32AAICS5393P1ZO,N,MTF,Y,GSTSC,Commission Income (Import Bills - Direct Collections),,N,,,,,,,,,90.0,0.0,0.0,0,0,18,9971
269,1018523333,IWRM210011705420,CCGST,1,7810.0,1000.0,20171013121000,IWRM210011705420CRE001,21001,6,21001,7,N,N,N,N,N,180.0,N,0,N,07AABFF1998F1ZD,N,MTF,Y,GSTSC,Commission Income(Inward Remittance Commision),,N,,,,,,,,,180.0,0.0,0.0,0,0,18,9971
270,1018523333,IWRM210011705420,CCGST,1,7810.0,3032.2,20171013121000,IWRM210011705420CRE001,21001,6,21001,7,N,N,N,N,N,545.8,N,0,N,07AABFF1998F1ZD,N,MTF,Y,GSTSC,GST on FCY Conversion,,N,,,,,,,,,545.8,0.0,0.0,0,0,18,9971
271,1019012044,IWRM210011705532,CCGST,1,6000.0,2442.8,20171013121000,IWRM210011705532CRE001,21001,6,21001,6,N,N,N,N,N,439.7,N,0,N,,N,MTF,Y,GSTSC,GST on FCY Conversion,,N,,,,,,,,,0.0,219.85,219.85,9,9,0,9971
272,1018380654,IBYB601011702238,CCGST,1,1168466.41,77200.58,20171013121000,IBYB601011702238CRE001,60101,19,60101,19,N,N,N,N,N,13896.1,N,0,N,19AAACH7475H1Z9,N,MTF,Y,GSTSC,Buyers credit commission,,N,,,,,,,,,0.0,6948.05,6948.05,9,9,0,9971
273,1018380654,IBYB601011702238,CCGST,1,1168466.41,500.0,20171013121000,IBYB601011702238CRE001,60101,19,60101,19,N,N,N,N,N,90.0,N,0,N,19AAACH7475H1Z9,N,MTF,Y,GSTSC,Recovery of Swift Charges,,N,,,,,,,,,0.0,45.0,45.0,9,9,0,9971
274,1018197228,OWRM801511711422,CCGST,1,20850.0,500.0,20171013121000,OWRM801511711422CRE001,80151,29,80151,29,N,N,N,N,N,90.0,N,0,N,29AAACJ3638A1ZV,N,MTF,Y,GSTSC,Commission Income(OUTWARD Remittance Commision),,N,,,,,,,,,0.0,45.0,45.0,9,9,0,9971
275,1018197228,OWRM801511711422,CCGST,1,20850.0,5854.42,20171013121000,OWRM801511711422CRE001,80151,29,80151,29,N,N,N,N,N,1053.8,N,0,N,29AAACJ3638A1ZV,N,MTF,Y,GSTSC,GST on FCY Conversion,,N,,,,,,,,,0.0,526.9,526.9,9,9,0,9971
276,1020578219,OWRM403011711758,CCGST,1,2752.5,500.0,20171013121000,OWRM403011711758CRE001,40301,24,40301,24,N,N,N,N,N,90.0,N,0,N,24AAACZ9563A1ZD,N,MTF,Y,GSTSC,Commission Income(OUTWARD Remittance Commision),,N,,,,,,,,,0.0,45.0,45.0,9,9,0,9971
277,1020578219,OWRM403011711758,CCGST,1,2752.5,1397.73,20171013121000,OWRM403011711758CRE001,40301,24,40301,24,N,N,N,N,N,251.6,N,0,N,24AAACZ9563A1ZD,N,MTF,Y,GSTSC,GST on FCY Conversion,,N,,,,,,,,,0.0,125.8,125.8,9,9,0,9971
278,1019757292,IWRM801511705560,CCGST,1,7260.0,2849.34,20171013121000,IWRM801511705560CRE001,80151,29,80151,29,N,N,N,N,N,512.88,N,0,N,,N,MTF,Y,GSTSC,GST on FCY Conversion,,N,,,,,,,,,0.0,256.44,256.44,9,9,0,9971
279,1016876085,OWRM210011711698,CCGST,1,234621.75,750.0,20171013121000,OWRM210011711698CRE001,21001,6,21001,36,N,N,N,N,N,135.0,N,0,N,,N,MTF,Y,GSTSC,Commission Income(OUTWARD Remittance Commision),,N,,,,,,,,,135.0,0.0,0.0,0,0,18,9971
280,1016876085,OWRM210011711700,CCGST,1,21891.67,750.0,20171013121000,OWRM210011711700CRE001,21001,6,21001,36,N,N,N,N,N,135.0,N,0,N,,N,MTF,Y,GSTSC,Commission Income(OUTWARD Remittance Commision),,N,,,,,,,,,135.0,0.0,0.0,0,0,18,9971
281,1016876085,OWRM210011711698,CCGST,1,234621.75,19770.36,20171013121000,OWRM210011711698CRE001,21001,6,21001,36,N,N,N,N,N,3558.66,N,0,N,,N,MTF,Y,GSTSC,GST on FCY Conversion,,N,,,,,,,,,3558.66,0.0,0.0,0,0,18,9971
282,1016876085,OWRM210011711700,CCGST,1,21891.67,5924.82,20171013121000,OWRM210011711700CRE001,21001,6,21001,36,N,N,N,N,N,1066.47,N,0,N,,N,MTF,Y,GSTSC,GST on FCY Conversion,,N,,,,,,,,,1066.47,0.0,0.0,0,0,18,9971
283,1017138693,EXCB401011701789,CCGST,1,39423.75,300.0,20171013121000,EXCB401011701789PAY001,40101,27,40101,27,N,N,N,N,N,54.0,N,0,N,27AAOCA5466H1ZA,N,MTF,Y,GSTSC,Commission Income (Handling GR of bills),,N,,,,,,,,,0.0,27.0,27.0,9,9,0,9971
284,1017138693,EXCB401011701789,CCGST,1,39423.75,7056.05,20171013121000,EXCB401011701789PAY001,40101,27,40101,27,N,N,N,N,N,1270.08,N,0,N,27AAOCA5466H1ZA,N,MTF,Y,GSTSC,GST on FCY Conversion,,N,,,,,,,,,0.0,635.04,635.04,9,9,0,9971
285,1017127046,OWRM201011711683,CCGST,1,5600.0,909.16,20171013121000,OWRM201011711683CRE001,20101,7,20101,7,N,N,N,N,N,163.64,N,0,N,07AABCR8616F2ZD,N,MTF,Y,GSTSC,Commission Income(OUTWARD Remittance Commision),,N,,,,,,,,,0.0,81.82,81.82,9,9,0,9971
286,1017127046,OWRM201011711484,CCGST,1,8333.0,1352.86,20171013121000,OWRM201011711484CRE001,20101,7,20101,7,N,N,N,N,N,243.52,N,0,N,07AABCR8616F2ZD,N,MTF,Y,GSTSC,Commission Income(OUTWARD Remittance Commision),,N,,,,,,,,,0.0,121.76,121.76,9,9,0,9971
287,1017127046,OWRM201011711685,CCGST,1,6933.0,1125.57,20171013121000,OWRM201011711685CRE001,20101,7,20101,7,N,N,N,N,N,202.6,N,0,N,07AABCR8616F2ZD,N,MTF,Y,GSTSC,Commission Income(OUTWARD Remittance Commision),,N,,,,,,,,,0.0,101.3,101.3,9,9,0,9971
288,1017127046,OWRM201011711684,CCGST,1,5333.0,865.81,20171013121000,OWRM201011711684CRE001,20101,7,20101,7,N,N,N,N,N,155.84,N,0,N,07AABCR8616F2ZD,N,MTF,Y,GSTSC,Commission Income(OUTWARD Remittance Commision),,N,,,,,,,,,0.0,77.92,77.92,9,9,0,9971
289,1017127046,OWRM201011711683,CCGST,1,5600.0,750.0,20171013121000,OWRM201011711683CRE001,20101,7,20101,7,N,N,N,N,N,135.0,N,0,N,07AABCR8616F2ZD,N,MTF,Y,GSTSC,Recovery of Swift Charges,,N,,,,,,,,,0.0,67.5,67.5,9,9,0,9971
290,1017127046,OWRM201011711484,CCGST,1,8333.0,750.0,20171013121000,OWRM201011711484CRE001,20101,7,20101,7,N,N,N,N,N,135.0,N,0,N,07AABCR8616F2ZD,N,MTF,Y,GSTSC,Recovery of Swift Charges,,N,,,,,,,,,0.0,67.5,67.5,9,9,0,9971
291,1017127046,OWRM201011711685,CCGST,1,6933.0,750.0,20171013121000,OWRM201011711685CRE001,20101,7,20101,7,N,N,N,N,N,135.0,N,0,N,07AABCR8616F2ZD,N,MTF,Y,GSTSC,Recovery of Swift Charges,,N,,,,,,,,,0.0,67.5,67.5,9,9,0,9971
292,1017127046,OWRM201011711684,CCGST,1,5333.0,750.0,20171013121000,OWRM201011711684CRE001,20101,7,20101,7,N,N,N,N,N,135.0,N,0,N,07AABCR8616F2ZD,N,MTF,Y,GSTSC,Recovery of Swift Charges,,N,,,,,,,,,0.0,67.5,67.5,9,9,0,9971
293,1017127046,OWRM201011711683,CCGST,1,5600.0,2318.32,20171013121000,OWRM201011711683CRE001,20101,7,20101,7,N,N,N,N,N,417.3,N,0,N,07AABCR8616F2ZD,N,MTF,Y,GSTSC,GST on FCY Conversion,,N,,,,,,,,,0.0,208.65,208.65,9,9,0,9971
294,1017127046,OWRM201011711484,CCGST,1,8333.0,3205.73,20171013121000,OWRM201011711484CRE001,20101,7,20101,7,N,N,N,N,N,577.04,N,0,N,07AABCR8616F2ZD,N,MTF,Y,GSTSC,GST on FCY Conversion,,N,,,,,,,,,0.0,288.52,288.52,9,9,0,9971
295,1017127046,OWRM201011711685,CCGST,1,6933.0,2751.15,20171013121000,OWRM201011711685CRE001,20101,7,20101,7,N,N,N,N,N,495.2,N,0,N,07AABCR8616F2ZD,N,MTF,Y,GSTSC,GST on FCY Conversion,,N,,,,,,,,,0.0,247.6,247.6,9,9,0,9971
296,1017127046,OWRM201011711684,CCGST,1,5333.0,2231.63,20171013121000,OWRM201011711684CRE001,20101,7,20101,7,N,N,N,N,N,401.7,N,0,N,07AABCR8616F2ZD,N,MTF,Y,GSTSC,GST on FCY Conversion,,N,,,,,,,,,0.0,200.85,200.85,9,9,0,9971
297,1000159847,LILC201011700321,CCGST,1,378052.0,500.0,20171013121000,LILC201011700321DPR001,20101,7,20101,7,N,N,N,N,N,90.0,N,0,N,,N,MTF,Y,GSTSC,Commission Income - (Outward Bills Under Inland LC),,N,,,,,,,,,0.0,45.0,45.0,9,9,0,9971
298,1000159847,LILC201011700321,CCGST,1,378052.0,150.0,20171013121000,LILC201011700321DPR001,20101,7,20101,7,N,N,N,N,N,27.0,N,0,N,,N,MTF,Y,GSTSC,Recovery of Courier charges - local,,N,,,,,,,,,0.0,13.5,13.5,9,9,0,9971
299,1017984534,OWRM401061711633,CCGST,1,14279.9,500.0,20171013121000,OWRM401061711633CRE001,40106,27,40106,27,N,N,N,N,N,90.0,N,0,N,27AAOFA8134B1ZL,N,MTF,Y,GSTSC,Commission Income(OUTWARD Remittance Commision),,N,,,,,,,,,0.0,45.0,45.0,9,9,0,9971
300,1017984534,OWRM401061711633,CCGST,1,14279.9,5166.67,20171013121000,OWRM401061711633CRE001,40106,27,40106,27,N,N,N,N,N,930.0,N,0,N,27AAOFA8134B1ZL,N,MTF,Y,GSTSC,GST on FCY Conversion,,N,,,,,,,,,0.0,465.0,465.0,9,9,0,9971
301,1022480427,OWRM413511711313,CCGST,1,400736.1,600.0,20171013121000,OWRM413511711313CRE001,41351,27,41351,27,N,N,N,N,N,108.0,N,0,N,27AABCN5774G1Z9,N,MTF,Y,GSTSC,Commission Income(OUTWARD Remittance Commision),,N,,,,,,,,,0.0,54.0,54.0,9,9,0,9971
302,1022480427,OWRM413511711313,CCGST,1,400736.1,400.0,20171013121000,OWRM413511711313CRE001,41351,27,41351,27,N,N,N,N,N,72.0,N,0,N,27AABCN5774G1Z9,N,MTF,Y,GSTSC,Recovery of Swift Charges,,N,,,,,,,,,0.0,36.0,36.0,9,9,0,9971
303,1022480427,OWRM413511711313,CCGST,1,400736.1,35348.66,20171013121000,OWRM413511711313CRE001,41351,27,41351,27,N,N,N,N,N,6362.76,N,0,N,27AABCN5774G1Z9,N,MTF,Y,GSTSC,GST on FCY Conversion,,N,,,,,,,,,0.0,3181.38,3181.38,9,9,0,9971
304,1022480427,OWRM413511711599,CCGST,1,30.0,250.0,20171013121000,OWRM413511711599MCH001,41351,27,41351,27,N,N,N,N,N,45.0,N,0,N,27AABCN5774G1Z9,N,MTF,Y,GSTSC,GST on FCY Conversion,,N,,,,,,,,,0.0,22.5,22.5,9,9,0,9971
305,1023118748,IWRM801511705500,CCGST,1,3515.8,1634.72,20171013121000,IWRM801511705500CRE001,80151,29,80151,29,N,N,N,N,N,294.24,N,0,N,,N,MTF,Y,GSTSC,GST on FCY Conversion,,N,,,,,,,,,0.0,147.12,147.12,9,9,0,9971
306,1022275893,LILC801021700353,CCGST,1,16959043.0,500.0,20171013121000,LILC801021700353ADV001,80102,33,80102,33,N,N,N,N,N,90.0,N,0,N,33AACFW1330K1ZF,N,MTF,Y,GSTSC,Commission Income(Export LC Advising commission),,N,,,,,,,,,0.0,45.0,45.0,9,9,0,9971
307,1023113295,IWRM201011705551,CCGST,1,21934.0,6176.42,20171013121000,IWRM201011705551CRE001,20101,7,20101,7,N,N,N,N,N,1111.76,N,0,N,,N,MTF,Y,GSTSC,GST on FCY Conversion,,N,,,,,,,,,0.0,555.88,555.88,9,9,0,9971
308,1025026105,OWRM401011711771,CCGST,1,24663.0,100.0,20171013121000,OWRM401011711771CRE001,40101,27,40101,32,N,N,N,N,N,18.0,N,0,N,,N,MTF,Y,GSTSC,Commission Income(OUTWARD Remittance Commision),,N,,,,,,,,,18.0,0.0,0.0,0,0,18,9971
309,1025026105,OWRM401011711771,CCGST,1,24663.0,2699.94,20171013121000,OWRM401011711771CRE001,40101,27,40101,32,N,N,N,N,N,485.99,N,0,N,,N,MTF,Y,GSTSC,GST on FCY Conversion,,N,,,,,,,,,485.99,0.0,0.0,0,0,18,9971
310,1000395535,OWRM801021711774,CCGST,1,1500.0,988.5,20171013121000,OWRM801021711774CRE001,80102,33,80102,33,N,N,N,N,N,177.94,N,0,N,,N,MTF,Y,GSTSC,GST on FCY Conversion,,N,,,,,,,,,0.0,88.97,88.97,9,9,0,9971
311,1020641738,IWRM801021705437,CCGST,1,4211.32,1846.57,20171013121000,IWRM801021705437CRE001,80102,33,80102,33,N,N,N,N,N,332.38,N,0,N,,N,MTF,Y,GSTSC,GST on FCY Conversion,,N,,,,,,,,,0.0,166.19,166.19,9,9,0,9971
312,1016078564,OWRM802011711687,CCGST,1,100000.0,1500.0,20171013121000,OWRM802011711687CRE001,80201,36,80201,36,N,N,N,N,N,270.0,N,0,N,36AAKCM8767B1Z5,N,MTF,Y,GSTSC,Commission Income(OUTWARD Remittance Commision),,N,,,,,,,,,0.0,135.0,135.0,9,9,0,9971
313,1016078564,OWRM802011711687,CCGST,1,100000.0,500.0,20171013121000,OWRM802011711687CRE001,80201,36,80201,36,N,N,N,N,N,90.0,N,0,N,36AAKCM8767B1Z5,N,MTF,Y,GSTSC,Recovery of Swift Charges,,N,,,,,,,,,0.0,45.0,45.0,9,9,0,9971
314,1016078564,OWRM802011711687,CCGST,1,100000.0,10992.0,20171013121000,OWRM802011711687CRE001,80201,36,80201,36,N,N,N,N,N,1978.56,N,0,N,36AAKCM8767B1Z5,N,MTF,Y,GSTSC,GST on FCY Conversion,,N,,,,,,,,,0.0,989.28,989.28,9,9,0,9971
315,1016809541,OWRM201511711497,CCGST,1,15.0,250.0,20171013121000,OWRM201511711497MCH001,20151,9,20102,9,N,N,N,N,N,45.0,N,0,N,,N,MTF,Y,GSTSC,GST on FCY Conversion,,N,,,,,,,,,0.0,22.5,22.5,9,9,0,9971
316,1025025747,OWRM401011711772,CCGST,1,31818.0,100.0,20171013121000,OWRM401011711772CRE001,40101,27,40101,27,N,N,N,N,N,18.0,N,0,N,,N,MTF,Y,GSTSC,Commission Income(OUTWARD Remittance Commision),,N,,,,,,,,,0.0,9.0,9.0,9,9,0,9971
317,1025025747,OWRM401011711772,CCGST,1,31818.0,3346.12,20171013121000,OWRM401011711772CRE001,40101,27,40101,27,N,N,N,N,N,602.3,N,0,N,,N,MTF,Y,GSTSC,GST on FCY Conversion,,N,,,,,,,,,0.0,301.15,301.15,9,9,0,9971
318,1012614035,IWRM201511705459,CCGST,1,13485.0,4853.63,20171013121000,IWRM201511705459CRE001,20151,9,20151,9,N,N,N,N,N,873.66,N,0,N,,N,MTF,Y,GSTSC,GST on FCY Conversion,,N,,,,,,,,,0.0,436.83,436.83,9,9,0,9971
319,1021019147,IWRM201511705514,CCGST,1,3200.0,1523.2,20171013121000,IWRM201511705514CRE001,20151,9,20151,9,N,N,N,N,N,274.18,N,0,N,09AAGCD2667R1ZV,N,MTF,Y,GSTSC,GST on FCY Conversion,,N,,,,,,,,,0.0,137.09,137.09,9,9,0,9971
320,1025023375,OWRM401011711769,CCGST,1,19525.0,225.0,20171013121000,OWRM401011711769CRE001,40101,27,40101,27,N,N,N,N,N,40.5,N,0,N,,N,MTF,Y,GSTSC,Outward Remittance BMF Commission,,N,,,,,,,,,0.0,20.25,20.25,9,9,0,9971
321,1025023375,OWRM401011711769,CCGST,1,19525.0,5481.18,20171013121000,OWRM401011711769CRE001,40101,27,40101,27,N,N,N,N,N,986.62,N,0,N,,N,MTF,Y,GSTSC,GST on FCY Conversion,,N,,,,,,,,,0.0,493.31,493.31,9,9,0,9971
322,1024887655,OWRM401011711631,CCGST,1,1230.0,100.0,20171013121000,OWRM401011711631CRE001,40101,27,40101,27,N,N,N,N,N,18.0,N,0,N,,N,MTF,Y,GSTSC,Commission Income(OUTWARD Remittance Commision),,N,,,,,,,,,0.0,9.0,9.0,9,9,0,9971
323,1024887655,OWRM401011711631,CCGST,1,1230.0,951.04,20171013121000,OWRM401011711631CRE001,40101,27,40101,27,N,N,N,N,N,171.18,N,0,N,,N,MTF,Y,GSTSC,GST on FCY Conversion,,N,,,,,,,,,0.0,85.59,85.59,9,9,0,9971
324,1021131793,IWRM401011705496,CCGST,1,56160.0,8150.96,20171013121000,IWRM401011705496CRE001,40101,27,40101,27,N,N,N,N,N,1467.18,N,0,N,27AABCO4798B1ZC,N,MTF,Y,GSTSC,GST on FCY Conversion,,N,,,,,,,,,0.0,733.59,733.59,9,9,0,9971
325,1021131793,IWRM401011705516,CCGST,1,8964.0,3413.75,20171013121000,IWRM401011705516CRE001,40101,27,40101,27,N,N,N,N,N,614.48,N,0,N,27AABCO4798B1ZC,N,MTF,Y,GSTSC,GST on FCY Conversion,,N,,,,,,,,,0.0,307.24,307.24,9,9,0,9971
326,1021131793,IWRM401011705494,CCGST,1,150000.0,14251.5,20171013121000,IWRM401011705494CRE001,40101,27,40101,27,N,N,N,N,N,2565.28,N,0,N,27AABCO4798B1ZC,N,MTF,Y,GSTSC,GST on FCY Conversion,,N,,,,,,,,,0.0,1282.64,1282.64,9,9,0,9971
327,1024906985,OWRM401031711747,CCGST,1,5010.0,225.0,20171013121000,OWRM401031711747CRE001,40103,27,40103,27,N,N,N,N,N,40.5,N,0,N,,N,MTF,Y,GSTSC,Outward Remittance BMF Commission,,N,,,,,,,,,0.0,20.25,20.25,9,9,0,9971
328,1024906985,OWRM401031711747,CCGST,1,5010.0,2142.78,20171013121000,OWRM401031711747CRE001,40103,27,40103,27,N,N,N,N,N,385.7,N,0,N,,N,MTF,Y,GSTSC,GST on FCY Conversion,,N,,,,,,,,,0.0,192.85,192.85,9,9,0,9971
329,NONBANKCUST,IWRM401011705578,CCGST,1,36000.0,150.0,20171013121000,IWRM401011705578CRE001,40101,27,40101,27,N,N,N,N,N,27.0,N,0,N,,N,MTF,Y,GSTSC,Commission Income(Inward Remittance Commision),,N,,,,,,,,,0.0,13.5,13.5,9,9,0,9971
330,NONBANKCUST,IMLC802011700984,CCGST,1,8811832.04,6476.0,20171013121000,IMLC802011700984POC034,80201,36,80201,37,N,N,N,N,N,1165.68,N,0,N,,N,MTF,Y,GSTSC,Commission Income (Discrepancy Charges),,N,,,,,,,,,1165.68,0.0,0.0,0,0,18,9971
331,NONBANKCUST,IMLC802011700984,CCGST,1,57169.44,6476.0,20171013121000,IMLC802011700984POC035,80201,36,80201,37,N,N,N,N,N,1165.68,N,0,N,,N,MTF,Y,GSTSC,Commission Income (Discrepancy Charges),,N,,,,,,,,,1165.68,0.0,0.0,0,0,18,9971
332,NONBANKCUST,LOLC802011601210,CCGST,1,941556.0,2000.0,20171013121000,LOLC802011601210POC020,80201,36,80201,36,N,N,N,N,N,360.0,N,0,N,,N,MTF,Y,GSTSC,Commission Income (Discrepancy Charges),,N,,,,,,,,,0.0,180.0,180.0,9,9,0,9971
333,NONBANKCUST,LOLC802011700292,CCGST,1,1303656.0,2000.0,20171013121000,LOLC802011700292POC010,80201,36,80201,36,N,N,N,N,N,360.0,N,0,N,,N,MTF,Y,GSTSC,Commission Income (Discrepancy Charges),,N,,,,,,,,,0.0,180.0,180.0,9,9,0,9971
