Sl No.,Sender_IFSC,Sender_Name,Sender_A/C Number,Beneficiary Details,Unnamed: 5,Unnamed: 6,Txn Ref,Batch Time,Amount,STB,Failed,LINK_ID,CBS Match
1.0,HDFC0000240,EAZYDINER PVT LTD,50200023010992,STCB0000065,Radha Regent Eazysave  CHEN,81030100000866,N165190851016350,800.0,14854.0,--,--,11355203794801893821,MATCHED
2.0,HSBC0110002,GRANT THORNTON INDIA LLP,051-702819-001,STCB0000065,RADHA REGENT HOTELS PVT LTD,81030100000866,HSBCN19165648050,800.0,108000.0,--,--,13698594393073091981,MATCHED
3.0,HDFC0000240,IIFL SPECIAL OPPORTUNITIES FUND,00600340083554,STCB0000065,SASIKALA ESTATES P,82030100000023,N165190851008662,800.0,381677.0,--,--,13128651526215595417,MATCHED
4.0,UTIB0000248,SAMRIDDHI PETRO PRODUCTS P LTD,100012910127,STCB0000065,SAMRIDDHI PETRO PRODUCTS P LTD,81030100004503,AXMA191657692011,900.0,41163.25,--,--,10428290842807857986,MATCHED
5.0,HDFC0000001,CHANDRA SEKHAR SANGISETTY,05121050158154,STCB0000065,Deeraj v,80310100004864,N165190851127287,1030.0,49000.0,--,--,11793663899880081716,MATCHED
6.0,HDFC0000240,HDFC BANK,50200011300992,STCB0000065,RADHA REGENT HOTELS PVT LTD,81030100000866,N165190851109819,1030.0,83762.37,--,--,9325031537598314830,MATCHED
7.0,HDFC0000240,HDFC BANK,50200011300992,STCB0000065,RADHA REGENT HOTELS PVT LTD,81030100000866,N165190851103168,1030.0,53786.47,--,--,11143385979705337403,MATCHED
8.0,SCBL0036001,AMERICAN EXPRESS BAN,52205862671,STCB0000065,AGS CINEMAS PRIVATE LIMITED,81030100001422,SIN01083R9514793,1030.0,107.19,--,--,12032509677347354434,MATCHED
9.0,HDFC0000240,HDFC BANK,50200011300992,STCB0000065,RADHA REGENT HOTELS PVT LTD,81030100000866,N165190851129204,1030.0,106588.66,--,--,13278115830806432037,MATCHED
10.0,SCBL0036001,AMERICAN EXPRESS BAN,52205862671,STCB0000065,RADHA REGENT HOTELS PVT LTD.,81030100000866,SIN01083R9514713,1030.0,76364.38,--,--,11793064967860269359,MATCHED
11.0,HDFC0000240,HDFC BANK,50200011300992,STCB0000065,SAMRIDDHI PETROPRODUCTS PRIVATE LIMITED,81030100004503,N165190851130815,1100.0,4520.31,--,--,12185704331695472172,MATCHED
12.0,HDFC0000240,HDFC BANK,50200011300992,STCB0000065,SAMRIDDHI PETROPRODUCTS PRIVATE LIMITED,81030100004503,N165190851137437,1100.0,9710.0,--,--,9961287303209822486,MATCHED
13.0,HDFC0000240,HDFC BANK,50200011300992,STCB0000065,SAMRIDDHI PETROPRODUCTS PRIVATE LIMITED,81030100004503,N165190851143063,1100.0,34282.54,--,--,11717892503040844357,MATCHED
14.0,HDFC0000240,HDFC BANK,50200011300992,STCB0000065,RADHA REGENT HOTELS PVT LTD,81030100000866,N165190851154907,1100.0,127273.52,--,--,10798650521126893926,MATCHED
15.0,HDFC0000240,HDFC BANK,50200011300992,STCB0000065,SAMRIDDHI PETROPRODUCTS PRIVATE LIMITED,81030100004503,N165190851150024,1100.0,10950.0,--,--,13598277243183257364,MATCHED
16.0,IDFB0010204,APOLLO HOSPITALS ENTERPRISE LTD,00000010001167884,STCB0000065,PRAKASH NARAYANAN,80110100001699,IDFBH19165143453,1100.0,7800.0,--,--,10610449361483856501,MATCHED
17.0,CITI0000002,ONE97 COMMUNICATIONS LIMITED,0344350221,STCB0000065,SAMRIDDHI PETROPRODUCTS PRIVATE LIMITED,81030100004503,CITIN19987125674,1130.0,8098.0,--,--,12338999484641249089,MATCHED
18.0,CITI0000002,ONE97 COMMUNICATIONS LIMITED,0344350221,STCB0000065,SAMRIDDHI PETROPRODUCTS PRIVATE LIMITED,81030100004503,CITIN19987129612,1130.0,10172.0,--,--,9519713873243073222,MATCHED
19.0,CITI0000002,ONE97 COMMUNICATIONS LIMITED,0344350221,STCB0000065,SAMRIDDHI PETROPRODUCTS PRIVATE LIMITED,81030100004503,CITIN19987129188,1130.0,210.0,--,--,11901298517253439123,MATCHED
20.0,HDFC0000240,THE TATA POWER COMPANY LTD 763,00600110000763,STCB0000065,DEEPAK XEROX   STATIONERS,82030100002120,N165190851187087,1200.0,8773.12,--,--,11409524979510567182,MATCHED
21.0,ICIC0SF0002,WELCOME FOREX PRIVATE LIMITED,602205047052,STCB0000065,WELCOME FOREX PVT LTD,81030100003741,21295148671DC,1230.0,150000.0,--,--,10950149067986057192,MATCHED
22.0,IBKL0000004,FINANCIAL BENCHMARK INDIA PRIVATE,0452102000010575,STCB0000065,FOREX  ASSOCIATION OF INDIA,80110100001579,IBKL190614400993,1300.0,129600.0,--,--,10198916559239675083,MATCHED
23.0,ANDB0002443,CHIRAQDEHELI MOHAMMED ABDUL RASHEED,244310100014675,STCB0000065,DILSHAD BEGUM,80410100004661,ANDBN19235390704,1300.0,10000.0,--,--,11349899752070118203,MATCHED
24.0,IBKL0NEFT01,CHANDRA ENTERPRISES,0907102000067014,STCB0000065,CHANDRA ENTERPRISES,20022019000217,190614I219193837,1330.0,3600000.0,--,--,13610338696767843904,MATCHED
25.0,IBKL0NEFT01,GYANGURU ENTERPRISES,0907102000064275,STCB0000065,GYANGURU ENTERPRISES,80230100001099,190614I219197907,1330.0,1200000.0,--,--,9945431463414049478,MATCHED
26.0,ICIC0SF0002,VARUN KUMAR T,180401510998,STCB0000065,VARUN KUMAR T,80210100002662,1731010664,1400.0,650.0,--,--,12199687661773278215,MATCHED
27.0,KKBK0000958,BIG TREE ENTERTAINMENT PRIVATE LIMITED,2607060807,STCB0000065,AGS CINEMAS PVT LTD,81030100001960,KKBK191659014615,1430.0,117683.0,--,--,11826781380400641866,MATCHED
28.0,KKBK0000958,BIG TREE ENTERTAINMENT PRIVATE LIMITED,2607060807,STCB0000065,AGS CINEMAS PVT LTD,81030100001422,KKBK191659014618,1430.0,121532.0,--,--,12680813376810861211,MATCHED
29.0,KKBK0000958,BIG TREE ENTERTAINMENT PRIVATE LIMITED,2607060807,STCB0000065,AGS CINEMAS PVT LTD,81030100001422,KKBK191659014627,1430.0,78370.0,--,--,11317244793439145701,MATCHED
30.0,KKBK0000958,BIG TREE ENTERTAINMENT PRIVATE LIMITED,2607060807,STCB0000065,AGS CINEMAS PVT LTD,81030100001614,KKBK191659014629,1430.0,72641.0,--,--,13026596203868309574,MATCHED
31.0,KKBK0000958,BIG TREE ENTERTAINMENT PRIVATE LIMITED,2607060807,STCB0000065,AGS CINEMAS PVT LTD,81030100001422,KKBK191659014874,1430.0,8470.0,--,--,13404031728655062963,MATCHED
32.0,KKBK0000958,BIG TREE ENTERTAINMENT PRIVATE LIMITED,2607060807,STCB0000065,AGS CINEMAS PVT LTD,81030100001422,KKBK191659014879,1430.0,2952.0,--,--,11868224819305392584,MATCHED
33.0,KKBK0000958,BIG TREE ENTERTAINMENT PRIVATE LIMITED,2607060807,STCB0000065,AGS CINEMAS PVT LTD,81030100001422,KKBK191659014917,1430.0,3909.0,--,--,10506294422713348809,MATCHED
34.0,KKBK0000958,BIG TREE ENTERTAINMENT PRIVATE LIMITED,2607060807,STCB0000065,AGS CINEMAS PVT LTD,81030100001422,KKBK191659014882,1430.0,3982.0,--,--,12706424507633163852,MATCHED
35.0,HDFC0000240,PAYU PAYMENTS PVT LTD,50200018553226,STCB0000065,AGS CINEMAS PVT LTD,81030100001422,N165190851402194,1500.0,15811.35,--,--,11830696655489330799,MATCHED
36.0,CITI0000002,ONE97 COMMUNICATIONS LIMITED,0344350221,STCB0000065,AGS CINEMAS PRIVATE LTD,81030100001422,CITIN19987334352,1600.0,16931.99,--,--,13432010818522108915,MATCHED
37.0,HDFC0000240,MAKEMYTRIP INDIA P LTD 1,00030330000956,STCB0000065,RADHA REGENT HOTELS PVT LTD,81030100000866,N165190851520793,1600.0,21116.0,--,--,9776559199054273708,MATCHED
38.0,HDFC0000240,IBIBO GROUP PVT LTD 5345,50200004685345,STCB0000065,RADHA REGENT HOTELS PVT LTD,81030100000866,N165190851535411,1600.0,5746.0,--,--,10354861502326255670,MATCHED
39.0,KVBL0001248,simats,1248155000058310,STCB0000065,Radha Regent Hotels Pvt Ltd,81030100000866,N165190010147354,1630.0,177904.0,--,--,11609724153984383471,MATCHED
40.0,ICIC0000031,ONE 97 COMMUNICATIONS LTD,0104SLNEFTPL,STCB0000065,SAMRIDDHI PETROPRODUCTS PRIVATE LIMITED,81030100004503,CMS1148655963,1630.0,300.0,--,--,13352156529661665242,MATCHED
41.0,ICIC0000031,ONE 97 COMMUNICATIONS LTD,0104SLNEFTPL,STCB0000065,SAMRIDDHI PETROPRODUCTS PRIVATE LIMITED,81030100004503,CMS1148655962,1630.0,11793.74,--,--,13099940141517784922,MATCHED
42.0,HSBC0400002,TELEPERFORMANCE GLOBAL SERVICES PRI,002-049799-001,STCB0000065,RADHA REGENT HOTELS,81030100000866,HSBCN19165695091,1700.0,15120.0,--,--,11451235333070640205,MATCHED
43.0,CORP0000202,PRISM FEEDS INDIA PRIVATE LIMITED,020200401150002,STCB0000065,S E AGRO PVT LTD,81030100003947,000119965283,1700.0,2154947.0,--,--,13163792076161028263,MATCHED
44.0,CITI0100000,ICICI PRUDENTIAL MF EQUITY DIV AC,0591193856,STCB0000065,U V RAMANAMURTHY,80310100002528,CITIN19987380955,1730.0,1510.45,--,--,13213266562436517203,MATCHED
45.0,BKID0000200,SAMRIDDHI PETROPRODUCTS PVT LTD,564727110000095,STCB0000065,Samriddhi Petro Products Pvt  Ltd,81030100004503,BKIDN19165752802,1730.0,950000.0,--,--,12263900334505212822,MATCHED
46.0,BKID0000200,SAMRIDDHI PETROPRODUCTS PVT LTD,869920110001018,STCB0000065,Samriddhi Petro Products Pvt  Ltd,81030100004503,BKIDN19165752483,1730.0,900000.0,--,--,12835050798046924496,MATCHED
47.0,PUNB0497800,NAANDI  FOUNDATION,4978000100004278,STCB0000065,RADHA REGENT HOTELS PVT LTD,81030100000866,PUNBH19165328770,1730.0,11219.0,--,--,10196828045623177688,MATCHED
48.0,UTIB0002958,ARUNAGIRI V,916010068042728,STCB0000065,radha regent,81030100000866,AXMB191657946004,1800.0,8990.0,--,--,9990089084287874637,MATCHED
49.0,HDFC0000240,SRF LIMITED SALARY,05720310002683,STCB0000065,RADHA REGENT HOTELS PRIVATE LIMITED,81030100000866,N165190851758597,1800.0,7033.88,--,--,11937920559772081808,MATCHED
50.0,YESB0000001,DIVINE ENTERPRISES,041984600000192,STCB0000065,SAMRIDDHI PETRO PRODUCTS PVT LTD,81030100004503,N165190248402073,1800.0,50000.0,--,--,9676211335366479388,MATCHED
51.0,KVBL0002101,DIVINE ENTERPRISES,2105115000004309,STCB0000065,Samriddhi Petro Products Pvt Ltd,81030100004503,N165190010150113,1800.0,87000.0,--,--,10874326105376518851,MATCHED
52.0,ICIC0000031,ONE 97 COMMUNICATIONS LTD,0104SLNEFTPL,STCB0000065,AGS CINEMAS PRIVATE LTD,81030100001422,CMS1148958882,1900.0,240.66,--,--,9344730595598315942,MATCHED
