Unnamed: 0,   ,ACCT_NO,SOL_ID,TRAN_CRNCY_CODE,TRAN_DATE,TRAN_ID,TRAN_PARTICULAR,TRAN_AMT,PART_TRAN_TYPE,DEL_FLG,TRAN_AMT_1,REF_NUMBER,LINK_ID,RBU Match
0,1,10200001182550,2550,INR,2019-06-14,     DG10,NEFT/SIN01083R9514793/AMERICAN EXPRESS BAN,107.19,D,N,-107.19,SIN01083R9514793,13395247777894861472,MATCHED
1,2,10200001182550,2550,INR,2019-06-14,     DG56,NEFT/CITIN19987129188/ONE97 COMMUNICATIONS LIMITED,210.0,D,N,-210.0,CITIN19987129188,11120992932376285610,MATCHED
2,3,10200001182550,2550,INR,2019-06-14,    DG255,NEFT/CMS1148958882/ONE 97 COMMUNICATIONS LTD,240.66,D,N,-240.66,CMS1148958882,13107252304363081135,MATCHED
3,4,10200001182550,2550,INR,2019-06-14,    DG193,NEFT/CMS1148655963/ONE 97 COMMUNICATIONS LTD,300.0,D,N,-300.0,CMS1148655963,10272413210442118371,MATCHED
4,5,10200001182550,2550,INR,2019-06-14,    DG109,NEFT/1731010664/VARUN KUMAR T,650.0,D,N,-650.0,1731010664,10050542015806961577,MATCHED
6,7,10200001182550,2550,INR,2019-06-14,    DG218,NEFT/CITIN19987380955/ICICI PRUDENTIAL MF EQUITY D,1510.45,D,N,-1510.45,CITIN19987380955,13348906285642144253,MATCHED
8,9,10200001182550,2550,INR,2019-06-14,    DG124,NEFT/KKBK191659014879/BIG TREE ENTERTAINMENT PRIVA,2952.0,D,N,-2952.0,KKBK191659014879,10501377380088581093,MATCHED
12,13,10200001182550,2550,INR,2019-06-14,    DG126,NEFT/KKBK191659014917/BIG TREE ENTERTAINMENT PRIVA,3909.0,D,N,-3909.0,KKBK191659014917,9792365313298388824,MATCHED
13,14,10200001182550,2550,INR,2019-06-14,    DG123,NEFT/KKBK191659014882/BIG TREE ENTERTAINMENT PRIVA,3982.0,D,N,-3982.0,KKBK191659014882,11272314956110351862,MATCHED
15,16,10200001182550,2550,INR,2019-06-14,     DG28,NEFT/N165190851130815/HDFC BANK,4520.31,D,N,-4520.31,N165190851130815,9694264342103217161,MATCHED
16,17,10200001182550,2550,INR,2019-06-14,    DG181,NEFT/N165190851535411/IBIBO GROUP PVT LTD 5345,5746.0,D,N,-5746.0,N165190851535411,9779080023139088988,MATCHED
19,20,10200001182550,2550,INR,2019-06-14,    DG234,NEFT/N165190851758597/SRF LIMITED SALARY,7033.88,D,N,-7033.88,N165190851758597,9528001310769649446,MATCHED
20,21,10200001182550,2550,INR,2019-06-14,     DG32,NEFT/IDFBH19165143453/APOLLO HOSPITALS ENTERPRISE,7800.0,D,N,-7800.0,IDFBH19165143453,9356347982093772198,MATCHED
22,23,10200001182550,2550,INR,2019-06-14,     DG57,NEFT/CITIN19987125674/ONE97 COMMUNICATIONS LIMITED,8098.0,D,N,-8098.0,CITIN19987125674,9241141882177007516,MATCHED
23,24,10200001182550,2550,INR,2019-06-14,    DG125,NEFT/KKBK191659014874/BIG TREE ENTERTAINMENT PRIVA,8470.0,D,N,-8470.0,KKBK191659014874,9251060181995850088,MATCHED
24,25,10200001182550,2550,INR,2019-06-14,     DG71,NEFT/N165190851187087/THE TATA POWER COMPANY LTD 7,8773.12,D,N,-8773.12,N165190851187087,13540146420963039003,MATCHED
25,26,10200001182550,2550,INR,2019-06-14,    DG230,NEFT/AXMB191657946004/ARUNAGIRI V,8990.0,D,N,-8990.0,AXMB191657946004,9882485845910188043,MATCHED
26,27,10200001182550,2550,INR,2019-06-14,     DG27,NEFT/N165190851137437/HDFC BANK,9710.0,D,N,-9710.0,N165190851137437,11293689141149093066,MATCHED
28,29,10200001182550,2550,INR,2019-06-14,     DG91,NEFT/ANDBN19235390704/CHIRAQDEHELI MOHAMMED ABDUL,10000.0,D,N,-10000.0,ANDBN19235390704,10805651133171686959,MATCHED
29,30,10200001182550,2550,INR,2019-06-14,     DG55,NEFT/CITIN19987129612/ONE97 COMMUNICATIONS LIMITED,10172.0,D,N,-10172.0,CITIN19987129612,9681814641919726797,MATCHED
30,31,10200001182550,2550,INR,2019-06-14,     DG42,NEFT/N165190851150024/HDFC BANK,10950.0,D,N,-10950.0,N165190851150024,10152747778092827994,MATCHED
32,33,10200001182550,2550,INR,2019-06-14,    DG219,NEFT/PUNBH19165328770/NAANDI  FOUNDATION,11219.0,D,N,-11219.0,PUNBH19165328770,11425643470397583817,MATCHED
33,34,10200001182550,2550,INR,2019-06-14,    DG192,NEFT/CMS1148655962/ONE 97 COMMUNICATIONS LTD,11793.74,D,N,-11793.74,CMS1148655962,10335111537390149718,MATCHED
34,35,10200001182550,2550,INR,2019-06-14,      DG2,NEFT/N165190851016350/EAZYDINER PVT LTD,14854.0,D,N,-14854.0,N165190851016350,10272568127972917179,MATCHED
36,37,10200001182550,2550,INR,2019-06-14,    DG199,NEFT/HSBCN19165695091/TELEPERFORMANCE GLOBAL SERVI,15120.0,D,N,-15120.0,HSBCN19165695091,9385910756593709793,MATCHED
37,38,10200001182550,2550,INR,2019-06-14,    DG140,NEFT/N165190851402194/PAYU PAYMENTS PVT LTD,15811.35,D,N,-15811.35,N165190851402194,12655282933284053299,MATCHED
38,39,10200001182550,2550,INR,2019-06-14,    DG178,NEFT/CITIN19987334352/ONE97 COMMUNICATIONS LIMITED,16931.99,D,N,-16931.99,CITIN19987334352,10336632962791197959,MATCHED
41,42,10200001182550,2550,INR,2019-06-14,    DG177,NEFT/N165190851520793/MAKEMYTRIP INDIA P LTD 1,21116.0,D,N,-21116.0,N165190851520793,13071703484760801290,MATCHED
49,50,10200001182550,2550,INR,2019-06-14,     DG29,NEFT/N165190851143063/HDFC BANK,34282.54,D,N,-34282.54,N165190851143063,13652226767060580668,MATCHED
51,52,10200001182550,2550,INR,2019-06-14,      DG7,NEFT/AXMA191657692011/SAMRIDDHI PETRO PRODUCTS P L,41163.25,D,N,-41163.25,AXMA191657692011,11227682074920192152,MATCHED
52,53,10200001182550,2550,INR,2019-06-14,     DG17,NEFT/N165190851127287/CHANDRA SEKHAR SANGISETTY,49000.0,D,N,-49000.0,N165190851127287,12338384419066056571,MATCHED
53,54,10200001182550,2550,INR,2019-06-14,    DG238,NEFT/N165190248402073/DIVINE ENTERPRISES,50000.0,D,N,-50000.0,N165190248402073,13752449103680664242,MATCHED
54,55,10200001182550,2550,INR,2019-06-14,     DG12,NEFT/N165190851103168/HDFC BANK,53786.47,D,N,-53786.47,N165190851103168,12970335845586346341,MATCHED
62,63,10200001182550,2550,INR,2019-06-14,    DG120,NEFT/KKBK191659014629/BIG TREE ENTERTAINMENT PRIVA,72641.0,D,N,-72641.0,KKBK191659014629,13576410034686864821,MATCHED
64,65,10200001182550,2550,INR,2019-06-14,     DG11,NEFT/SIN01083R9514713/AMERICAN EXPRESS BAN,76364.38,D,N,-76364.38,SIN01083R9514713,11445873476863323184,MATCHED
65,66,10200001182550,2550,INR,2019-06-14,    DG122,NEFT/KKBK191659014627/BIG TREE ENTERTAINMENT PRIVA,78370.0,D,N,-78370.0,KKBK191659014627,10119107657538029838,MATCHED
66,67,10200001182550,2550,INR,2019-06-14,     DG16,NEFT/N165190851109819/HDFC BANK,83762.37,D,N,-83762.37,N165190851109819,11782093282823181778,MATCHED
69,70,10200001182550,2550,INR,2019-06-14,    DG235,NEFT/N165190010150113/DIVINE ENTERPRISES,87000.0,D,N,-87000.0,N165190010150113,12851937746328718338,MATCHED
71,72,10200001182550,2550,INR,2019-06-14,     DG21,NEFT/N165190851129204/HDFC BANK,106588.66,D,N,-106588.66,N165190851129204,11668905402867082503,MATCHED
72,73,10200001182550,2550,INR,2019-06-14,      DG3,NEFT/HSBCN19165648050/GRANT THORNTON INDIA LLP,108000.0,D,N,-108000.0,HSBCN19165648050,12676027833300034369,MATCHED
73,74,10200001182550,2550,INR,2019-06-14,    DG119,NEFT/KKBK191659014615/BIG TREE ENTERTAINMENT PRIVA,117683.0,D,N,-117683.0,KKBK191659014615,11581398698497127545,MATCHED
75,76,10200001182550,2550,INR,2019-06-14,    DG121,NEFT/KKBK191659014618/BIG TREE ENTERTAINMENT PRIVA,121532.0,D,N,-121532.0,KKBK191659014618,12716620211232463882,MATCHED
78,79,10200001182550,2550,INR,2019-06-14,     DG41,NEFT/N165190851154907/HDFC BANK,127273.52,D,N,-127273.52,N165190851154907,12008341857887483503,MATCHED
80,81,10200001182550,2550,INR,2019-06-14,     DG92,NEFT/IBKL190614400993/FINANCIAL BENCHMARK INDIA PR,129600.0,D,N,-129600.0,IBKL190614400993,10251648928200751433,MATCHED
84,85,10200001182550,2550,INR,2019-06-14,     DG84,NEFT/21295148671DC/WELCOME FOREX PRIVATE LIMITED,150000.0,D,N,-150000.0,21295148671DC,9706500126664889214,MATCHED
85,86,10200001182550,2550,INR,2019-06-14,    DG188,NEFT/N165190010147354/SIMATS,177904.0,D,N,-177904.0,N165190010147354,10971351185003625065,MATCHED
97,98,10200001182550,2550,INR,2019-06-14,      DG1,NEFT/N165190851008662/IIFL SPECIAL OPPORTUNITIES F,381677.0,D,N,-381677.0,N165190851008662,11496572553533933781,MATCHED
116,117,10200001182550,2550,INR,2019-06-14,    DG216,NEFT/BKIDN19165752483/SAMRIDDHI PETROPRODUCTS PVT,900000.0,D,N,-900000.0,BKIDN19165752483,11594633684170136189,MATCHED
117,118,10200001182550,2550,INR,2019-06-14,    DG217,NEFT/BKIDN19165752802/SAMRIDDHI PETROPRODUCTS PVT,950000.0,D,N,-950000.0,BKIDN19165752802,12262388583613143250,MATCHED
120,121,10200001182550,2550,INR,2019-06-14,    DG104,NEFT/190614I219197907/GYANGURU ENTERPRISES,1200000.0,D,N,-1200000.0,190614I219197907,9981638295003681056,MATCHED
125,126,10200001182550,2550,INR,2019-06-14,    DG207,NEFT/000119965283/PRISM FEEDS INDIA PRIVATE LIMITE,2154947.0,D,N,-2154947.0,000119965283,11191979133331851546,MATCHED
130,131,10200001182550,2550,INR,2019-06-14,    DG101,NEFT/190614I219193837/CHANDRA ENTERPRISES,3600000.0,D,N,-3600000.0,190614I219193837,11424112363779178719,MATCHED
