Sl No.,Sender_IFSC,Sender_Name,Sender_A/C Number,Beneficiary Details,Unnamed: 5,Unnamed: 6,Txn Ref,Batch Time,Amount,STB,Failed,LINK_ID,cbs Match
1.0,HDFC0000240,EAZYDINER PVT LTD,50200023010992,STCB0000065,Radha Regent Eazysave  CHEN,81030100000866,N165190851016350,800.0,14854.0,--,--,10272568127972917179,MATCHED
2.0,HSBC0110002,GRANT THORNTON INDIA LLP,051-702819-001,STCB0000065,RADHA REGENT HOTELS PVT LTD,81030100000866,HSBCN19165648050,800.0,108000.0,--,--,12676027833300034369,MATCHED
3.0,HDFC0000240,IIFL SPECIAL OPPORTUNITIES FUND,00600340083554,STCB0000065,SASIKALA ESTATES P,82030100000023,N165190851008662,800.0,381677.0,--,--,11496572553533933781,MATCHED
4.0,UTIB0000248,SAMRIDDHI PETRO PRODUCTS P LTD,100012910127,STCB0000065,SAMRIDDHI PETRO PRODUCTS P LTD,81030100004503,AXMA191657692011,900.0,41163.25,--,--,11227682074920192152,MATCHED
5.0,HDFC0000001,CHANDRA SEKHAR SANGISETTY,05121050158154,STCB0000065,Deeraj v,80310100004864,N165190851127287,1030.0,49000.0,--,--,12338384419066056571,MATCHED
6.0,HDFC0000240,HDFC BANK,50200011300992,STCB0000065,RADHA REGENT HOTELS PVT LTD,81030100000866,N165190851109819,1030.0,83762.37,--,--,11782093282823181778,MATCHED
7.0,HDFC0000240,HDFC BANK,50200011300992,STCB0000065,RADHA REGENT HOTELS PVT LTD,81030100000866,N165190851103168,1030.0,53786.47,--,--,12970335845586346341,MATCHED
8.0,SCBL0036001,AMERICAN EXPRESS BAN,52205862671,STCB0000065,AGS CINEMAS PRIVATE LIMITED,81030100001422,SIN01083R9514793,1030.0,107.19,--,--,13395247777894861472,MATCHED
9.0,HDFC0000240,HDFC BANK,50200011300992,STCB0000065,RADHA REGENT HOTELS PVT LTD,81030100000866,N165190851129204,1030.0,106588.66,--,--,11668905402867082503,MATCHED
10.0,SCBL0036001,AMERICAN EXPRESS BAN,52205862671,STCB0000065,RADHA REGENT HOTELS PVT LTD.,81030100000866,SIN01083R9514713,1030.0,76364.38,--,--,11445873476863323184,MATCHED
11.0,HDFC0000240,HDFC BANK,50200011300992,STCB0000065,SAMRIDDHI PETROPRODUCTS PRIVATE LIMITED,81030100004503,N165190851130815,1100.0,4520.31,--,--,9694264342103217161,MATCHED
12.0,HDFC0000240,HDFC BANK,50200011300992,STCB0000065,SAMRIDDHI PETROPRODUCTS PRIVATE LIMITED,81030100004503,N165190851137437,1100.0,9710.0,--,--,11293689141149093066,MATCHED
13.0,HDFC0000240,HDFC BANK,50200011300992,STCB0000065,SAMRIDDHI PETROPRODUCTS PRIVATE LIMITED,81030100004503,N165190851143063,1100.0,34282.54,--,--,13652226767060580668,MATCHED
14.0,HDFC0000240,HDFC BANK,50200011300992,STCB0000065,RADHA REGENT HOTELS PVT LTD,81030100000866,N165190851154907,1100.0,127273.52,--,--,12008341857887483503,MATCHED
15.0,HDFC0000240,HDFC BANK,50200011300992,STCB0000065,SAMRIDDHI PETROPRODUCTS PRIVATE LIMITED,81030100004503,N165190851150024,1100.0,10950.0,--,--,10152747778092827994,MATCHED
16.0,IDFB0010204,APOLLO HOSPITALS ENTERPRISE LTD,00000010001167884,STCB0000065,PRAKASH NARAYANAN,80110100001699,IDFBH19165143453,1100.0,7800.0,--,--,9356347982093772198,MATCHED
17.0,CITI0000002,ONE97 COMMUNICATIONS LIMITED,0344350221,STCB0000065,SAMRIDDHI PETROPRODUCTS PRIVATE LIMITED,81030100004503,CITIN19987125674,1130.0,8098.0,--,--,9241141882177007516,MATCHED
18.0,CITI0000002,ONE97 COMMUNICATIONS LIMITED,0344350221,STCB0000065,SAMRIDDHI PETROPRODUCTS PRIVATE LIMITED,81030100004503,CITIN19987129612,1130.0,10172.0,--,--,9681814641919726797,MATCHED
19.0,CITI0000002,ONE97 COMMUNICATIONS LIMITED,0344350221,STCB0000065,SAMRIDDHI PETROPRODUCTS PRIVATE LIMITED,81030100004503,CITIN19987129188,1130.0,210.0,--,--,11120992932376285610,MATCHED
20.0,HDFC0000240,THE TATA POWER COMPANY LTD 763,00600110000763,STCB0000065,DEEPAK XEROX   STATIONERS,82030100002120,N165190851187087,1200.0,8773.12,--,--,13540146420963039003,MATCHED
21.0,ICIC0SF0002,WELCOME FOREX PRIVATE LIMITED,602205047052,STCB0000065,WELCOME FOREX PVT LTD,81030100003741,21295148671DC,1230.0,150000.0,--,--,9706500126664889214,MATCHED
22.0,IBKL0000004,FINANCIAL BENCHMARK INDIA PRIVATE,0452102000010575,STCB0000065,FOREX  ASSOCIATION OF INDIA,80110100001579,IBKL190614400993,1300.0,129600.0,--,--,10251648928200751433,MATCHED
23.0,ANDB0002443,CHIRAQDEHELI MOHAMMED ABDUL RASHEED,244310100014675,STCB0000065,DILSHAD BEGUM,80410100004661,ANDBN19235390704,1300.0,10000.0,--,--,10805651133171686959,MATCHED
24.0,IBKL0NEFT01,CHANDRA ENTERPRISES,0907102000067014,STCB0000065,CHANDRA ENTERPRISES,20022019000217,190614I219193837,1330.0,3600000.0,--,--,11424112363779178719,MATCHED
25.0,IBKL0NEFT01,GYANGURU ENTERPRISES,0907102000064275,STCB0000065,GYANGURU ENTERPRISES,80230100001099,190614I219197907,1330.0,1200000.0,--,--,9981638295003681056,MATCHED
26.0,ICIC0SF0002,VARUN KUMAR T,180401510998,STCB0000065,VARUN KUMAR T,80210100002662,1731010664,1400.0,650.0,--,--,10050542015806961577,MATCHED
27.0,KKBK0000958,BIG TREE ENTERTAINMENT PRIVATE LIMITED,2607060807,STCB0000065,AGS CINEMAS PVT LTD,81030100001960,KKBK191659014615,1430.0,117683.0,--,--,11581398698497127545,MATCHED
28.0,KKBK0000958,BIG TREE ENTERTAINMENT PRIVATE LIMITED,2607060807,STCB0000065,AGS CINEMAS PVT LTD,81030100001422,KKBK191659014618,1430.0,121532.0,--,--,12716620211232463882,MATCHED
29.0,KKBK0000958,BIG TREE ENTERTAINMENT PRIVATE LIMITED,2607060807,STCB0000065,AGS CINEMAS PVT LTD,81030100001422,KKBK191659014627,1430.0,78370.0,--,--,10119107657538029838,MATCHED
30.0,KKBK0000958,BIG TREE ENTERTAINMENT PRIVATE LIMITED,2607060807,STCB0000065,AGS CINEMAS PVT LTD,81030100001614,KKBK191659014629,1430.0,72641.0,--,--,13576410034686864821,MATCHED
31.0,KKBK0000958,BIG TREE ENTERTAINMENT PRIVATE LIMITED,2607060807,STCB0000065,AGS CINEMAS PVT LTD,81030100001422,KKBK191659014874,1430.0,8470.0,--,--,9251060181995850088,MATCHED
32.0,KKBK0000958,BIG TREE ENTERTAINMENT PRIVATE LIMITED,2607060807,STCB0000065,AGS CINEMAS PVT LTD,81030100001422,KKBK191659014879,1430.0,2952.0,--,--,10501377380088581093,MATCHED
33.0,KKBK0000958,BIG TREE ENTERTAINMENT PRIVATE LIMITED,2607060807,STCB0000065,AGS CINEMAS PVT LTD,81030100001422,KKBK191659014917,1430.0,3909.0,--,--,9792365313298388824,MATCHED
34.0,KKBK0000958,BIG TREE ENTERTAINMENT PRIVATE LIMITED,2607060807,STCB0000065,AGS CINEMAS PVT LTD,81030100001422,KKBK191659014882,1430.0,3982.0,--,--,11272314956110351862,MATCHED
35.0,HDFC0000240,PAYU PAYMENTS PVT LTD,50200018553226,STCB0000065,AGS CINEMAS PVT LTD,81030100001422,N165190851402194,1500.0,15811.35,--,--,12655282933284053299,MATCHED
36.0,CITI0000002,ONE97 COMMUNICATIONS LIMITED,0344350221,STCB0000065,AGS CINEMAS PRIVATE LTD,81030100001422,CITIN19987334352,1600.0,16931.99,--,--,10336632962791197959,MATCHED
37.0,HDFC0000240,MAKEMYTRIP INDIA P LTD 1,00030330000956,STCB0000065,RADHA REGENT HOTELS PVT LTD,81030100000866,N165190851520793,1600.0,21116.0,--,--,13071703484760801290,MATCHED
38.0,HDFC0000240,IBIBO GROUP PVT LTD 5345,50200004685345,STCB0000065,RADHA REGENT HOTELS PVT LTD,81030100000866,N165190851535411,1600.0,5746.0,--,--,9779080023139088988,MATCHED
39.0,KVBL0001248,simats,1248155000058310,STCB0000065,Radha Regent Hotels Pvt Ltd,81030100000866,N165190010147354,1630.0,177904.0,--,--,10971351185003625065,MATCHED
40.0,ICIC0000031,ONE 97 COMMUNICATIONS LTD,0104SLNEFTPL,STCB0000065,SAMRIDDHI PETROPRODUCTS PRIVATE LIMITED,81030100004503,CMS1148655963,1630.0,300.0,--,--,10272413210442118371,MATCHED
41.0,ICIC0000031,ONE 97 COMMUNICATIONS LTD,0104SLNEFTPL,STCB0000065,SAMRIDDHI PETROPRODUCTS PRIVATE LIMITED,81030100004503,CMS1148655962,1630.0,11793.74,--,--,10335111537390149718,MATCHED
42.0,HSBC0400002,TELEPERFORMANCE GLOBAL SERVICES PRI,002-049799-001,STCB0000065,RADHA REGENT HOTELS,81030100000866,HSBCN19165695091,1700.0,15120.0,--,--,9385910756593709793,MATCHED
43.0,CORP0000202,PRISM FEEDS INDIA PRIVATE LIMITED,020200401150002,STCB0000065,S E AGRO PVT LTD,81030100003947,000119965283,1700.0,2154947.0,--,--,11191979133331851546,MATCHED
44.0,CITI0100000,ICICI PRUDENTIAL MF EQUITY DIV AC,0591193856,STCB0000065,U V RAMANAMURTHY,80310100002528,CITIN19987380955,1730.0,1510.45,--,--,13348906285642144253,MATCHED
45.0,BKID0000200,SAMRIDDHI PETROPRODUCTS PVT LTD,564727110000095,STCB0000065,Samriddhi Petro Products Pvt  Ltd,81030100004503,BKIDN19165752802,1730.0,950000.0,--,--,12262388583613143250,MATCHED
46.0,BKID0000200,SAMRIDDHI PETROPRODUCTS PVT LTD,869920110001018,STCB0000065,Samriddhi Petro Products Pvt  Ltd,81030100004503,BKIDN19165752483,1730.0,900000.0,--,--,11594633684170136189,MATCHED
47.0,PUNB0497800,NAANDI  FOUNDATION,4978000100004278,STCB0000065,RADHA REGENT HOTELS PVT LTD,81030100000866,PUNBH19165328770,1730.0,11219.0,--,--,11425643470397583817,MATCHED
48.0,UTIB0002958,ARUNAGIRI V,916010068042728,STCB0000065,radha regent,81030100000866,AXMB191657946004,1800.0,8990.0,--,--,9882485845910188043,MATCHED
49.0,HDFC0000240,SRF LIMITED SALARY,05720310002683,STCB0000065,RADHA REGENT HOTELS PRIVATE LIMITED,81030100000866,N165190851758597,1800.0,7033.88,--,--,9528001310769649446,MATCHED
50.0,YESB0000001,DIVINE ENTERPRISES,041984600000192,STCB0000065,SAMRIDDHI PETRO PRODUCTS PVT LTD,81030100004503,N165190248402073,1800.0,50000.0,--,--,13752449103680664242,MATCHED
51.0,KVBL0002101,DIVINE ENTERPRISES,2105115000004309,STCB0000065,Samriddhi Petro Products Pvt Ltd,81030100004503,N165190010150113,1800.0,87000.0,--,--,12851937746328718338,MATCHED
52.0,ICIC0000031,ONE 97 COMMUNICATIONS LTD,0104SLNEFTPL,STCB0000065,AGS CINEMAS PRIVATE LTD,81030100001422,CMS1148958882,1900.0,240.66,--,--,13107252304363081135,MATCHED
