HD|20171015011018|20171015011018|
1000003865|FRTL001428|CCGST|1|590000|500000|20170930010924|BFE/1718/0037|41101|60||60|N|N|N|N|N|90000|N|0||27AAGCM3818B1ZQ|N|BSM|Y|GSTSC|Charge for GST Computation|BFE/1718/0037|N|||||||||0|45000|45000|9|9||009971
1000004575|NGUA000190|CCGST|1|96160|81492|20171008121000|BIV/1718/1538|41101|60||60|N|N|N|N|N|14668|N|0||27AAACS7018R1ZT|N|BSM|Y|GSTSC|Charge for GST Computation|BIV/1718/1538|N|||||||||0|7334|7334|9|9||
1000004575|NGUA000189|CCGST|1|322731|273501|20171008121000|BIV/1718/1537|41101|60||60|N|N|N|N|N|49230|N|0||27AAACS7018R1ZT|N|BSM|Y|GSTSC|Charge for GST Computation|BIV/1718/1537|N|||||||||0|24615|24615|9|9||
1000004575|NGUA000188|CCGST|1|651174|551842|20171008121000|BIV/1718/1536|41101|60||60|N|N|N|N|N|99332|N|0||27AAACS7018R1ZT|N|BSM|Y|GSTSC|Charge for GST Computation|BIV/1718/1536|N|||||||||0|49666|49666|9|9||
1000003865|FRTL001428|CCGST|1|590000|500000|20170930010924|BFE/1718/0038|41101|60||60|N|N|N|N|N|90000|N|0||27AAGCM3818B1ZQ|N|BSM|Y|GSTSC|Charge for GST Computation|BFE/1718/0038|N|||||||||0|45000|45000|9|9||009971
TR|20171015011018|20171015011018|5|