Name,MibName,OID,Scalar,Polling,Trap,TableName,Group,Metric,Value Map,Units,Value Type,Graph Type,Description,Alert Threshold,Graph Name,Graph Math,Formatter
ciscoEnvMonTemperatureStatusDescr,CISCO-ENVMON-MIB,1.3.6.1.4.1.9.9.13.1.3.1.2,0,1,,Temparature,Sensor,Name,,celsius,Tags,graph,,,Temperature,mean,prettyPrint
ciscoEnvMonTemperatureStatusValue,CISCO-ENVMON-MIB,1.3.6.1.4.1.9.9.13.1.3.1.3,0,1,,Temparature,Sensor,Value,,celsius,Value,singlestat,,,,mean,prettyPrint
ciscoEnvMonSupplyStatusDescr,CISCO-ENVMON-MIB,1.3.6.1.4.1.9.9.13.1.5.1.2,0,1,,Power,Sensor,Name,,,Tags,singlestat,,,Power,mean,prettyPrint
ciscoEnvMonSupplyState,CISCO-ENVMON-MIB,1.3.6.1.4.1.9.9.13.1.5.1.3,0,1,,Power,Sensor,Value,"{""1"": 1, ""2"": 2, ""3"": 3, ""4"": 4, ""5"": 0, ""6"": 0}",,State,singlestat,,,,mean,prettyPrint
ciscoEnvMonFanStatusDescr,CISCO-ENVMON-MIB,1.3.6.1.4.1.9.9.13.1.4.1.2,0,1,,Fan,Sensor,Name,,,Tags,singlestat,,,Fan,mean,prettyPrint
ciscoEnvMonFanState,CISCO-ENVMON-MIB,1.3.6.1.4.1.9.9.13.1.4.1.3,0,1,,Fan,Sensor,Value,"{""1"": 1, ""2"": 2, ""3"": 3, ""4"": 4, ""5"": 0, ""6"": 0}",,State,singlestat,,,,mean,prettyPrint
