Name,MibName,OID,Scalar,Polling,Trap,TableName,Group,Metric,ValueMapper,Formatter
ifNumber,IF-MIB,1.3.6.1.2.1.2.1,1,0,0,,BasicInfo,Interface Count,,convertToInt
ifIndex,IF-MIB,1.3.6.1.2.1.2.2.1.1,0,0,0,Interfaces,Interface,Index,,DisplayString
ifDescr,IF-MIB,1.3.6.1.2.1.2.2.1.2,0,1,0,Interfaces,Interface,Description,,DisplayString
ifType,IF-MIB,1.3.6.1.2.1.2.2.1.3,0,0,0,Interfaces,Interface,Type,,convertToInt
ifMtu,IF-MIB,1.3.6.1.2.1.2.2.1.4,0,0,0,Interfaces,Interface,MTU,,convertToInt
ifSpeed,IF-MIB,1.3.6.1.2.1.2.2.1.5,0,0,0,Interfaces,Interface,Speed,,convertToInt
ifPhysAddress,IF-MIB,1.3.6.1.2.1.2.2.1.6,0,0,0,Interfaces,Interface,MacAddress,,prettyPrint
ifAdminStatus,IF-MIB,1.3.6.1.2.1.2.2.1.7,0,1,0,Interfaces,Interface,AdminStatus,,convertToInt
ifOperStatus,IF-MIB,1.3.6.1.2.1.2.2.1.8,0,1,0,Interfaces,Interface,OperationalStatus,,convertToInt
ifLastChange,IF-MIB,1.3.6.1.2.1.2.2.1.9,0,0,0,Interfaces,Interface,LastChange,,convertToInt
ifInOctets,IF-MIB,1.3.6.1.2.1.2.2.1.10,0,1,0,Interfaces,Interface,InboundOctets,,convertToInt
ifInUcastPkts,IF-MIB,1.3.6.1.2.1.2.2.1.11,0,1,0,Interfaces,Interface,InboundUnicastPkts,,convertToInt
ifInDiscards,IF-MIB,1.3.6.1.2.1.2.2.1.13,0,1,0,Interfaces,Interface,InboundDiscards,,convertToInt
ifInErrors,IF-MIB,1.3.6.1.2.1.2.2.1.14,0,1,0,Interfaces,Interface,InboundErrors,,convertToInt
ifInUnknownProtos,IF-MIB,1.3.6.1.2.1.2.2.1.15,0,1,0,Interfaces,Interface,InboundUnknownProtocols,,convertToInt
ifOutOctets,IF-MIB,1.3.6.1.2.1.2.2.1.16,0,1,0,Interfaces,Interface,OutboundOctets,,convertToInt
ifOutUcastPkts,IF-MIB,1.3.6.1.2.1.2.2.1.17,0,1,0,Interfaces,Interface,OutboundUnicastPkts,,convertToInt
ifOutDiscards,IF-MIB,1.3.6.1.2.1.2.2.1.19,0,1,0,Interfaces,Interface,OutboundDiscards,,convertToInt
ifOutErrors,IF-MIB,1.3.6.1.2.1.2.2.1.20,0,1,0,Interfaces,Interface,OutboundErrors,,convertToInt
ifName,IF-MIB,1.3.6.1.2.1.31.1.1.1.1,0,0,0,Interfaces,Interface,Name,,DisplayString
ifInMulticastPkts,IF-MIB,1.3.6.1.2.1.31.1.1.1.2,0,1,0,Interfaces,Interface,InboundMulticastPackets,,convertToInt
ifInBroadcastPkts,IF-MIB,1.3.6.1.2.1.31.1.1.1.3,0,1,0,Interfaces,Interface,InboundBroadcastPkts,,convertToInt
ifOutMulticastPkts,IF-MIB,1.3.6.1.2.1.31.1.1.1.4,0,1,0,Interfaces,Interface,OutboundMulticastPkts,,convertToInt
ifOutBroadcastPkts,IF-MIB,1.3.6.1.2.1.31.1.1.1.5,0,1,0,Interfaces,Interface,OutBroadcastPkts,,convertToInt
ifLinkUpDownTrapEnable,IF-MIB,1.3.6.1.2.1.31.1.1.1.14,0,0,0,Interfaces,Interface,LinkUpDownTrapEnable,,convertToInt
ifHighSpeed,IF-MIB,1.3.6.1.2.1.31.1.1.1.15,0,0,0,Interfaces,Interface,HighSpeed,,convertToInt
ifPromiscuousMode,IF-MIB,1.3.6.1.2.1.31.1.1.1.16,0,0,0,Interfaces,Interface,PromiscuousMode,,convertToInt
ifConnectorPresent,IF-MIB,1.3.6.1.2.1.31.1.1.1.17,0,0,0,Interfaces,Interface,ConnectorPresent,,convertToInt
ifAlias,IF-MIB,1.3.6.1.2.1.31.1.1.1.18,0,0,0,Interfaces,Interface,Alias,,DisplayString
ifCounterDiscontinuityTime,IF-MIB,1.3.6.1.2.1.31.1.1.1.19,0,0,0,Interfaces,Interface,CounterDiscontinuityTime,,convertToInt
linkDown,IF-MIB,1.3.6.1.6.3.1.1.5.3,0,0,1,,,,,
linkUp,IF-MIB,1.3.6.1.6.3.1.1.5.4,0,0,1,,,,,
