Name,MibName,OID,Scalar,Polling,Trap,TableName,Group,Metric,ValueMapper,Formatter
ipAdEntAddr,IP-MIB,1.3.6.1.2.1.4.20.1.1,0,0,0,IpAdEntry,Interface,IpAddress,,prettyPrint
ipAdEntIfIndex,IP-MIB,1.3.6.1.2.1.4.20.1.2,0,0,0,IpAdEntry,Interface,Index,,DisplayString
ipInReceives,IP-MIB,1.3.6.1.2.1.4.3,0,1,0,IpTable,IP,InboundRecivedPkts,,convertToInt
ipInHdrErrors,IP-MIB,1.3.6.1.2.1.4.4,0,1,0,IpTable,IP,InboundUnknownIpHeaderPkts,,convertToInt
ipInAddrErrors,IP-MIB,1.3.6.1.2.1.4.5,0,1,0,IpTable,IP,InboundInvalidIpDiscardPkts,,convertToInt
ipForwDatagrams,IP-MIB,1.3.6.1.2.1.4.6,0,1,0,IpTable,IP,InboundForwardedPkts,,convertToInt
ipInUnknownProtos,IP-MIB,1.3.6.1.2.1.4.7,0,1,0,IpTable,IP,InboundUnknowProtocolPkts,,convertToInt
ipInDiscards,IP-MIB,1.3.6.1.2.1.4.8,0,1,0,IpTable,IP,InboundDiscardPkts,,convertToInt
ipInDelivers,IP-MIB,1.3.6.1.2.1.4.9,0,1,0,IpTable,IP,InboundDeliveredPkts,,convertToInt
ipOutRequests,IP-MIB,1.3.6.1.2.1.4.10,0,1,0,IpTable,IP,OutboundRecivedPkts,,convertToInt
ipOutDiscards,IP-MIB,1.3.6.1.2.1.4.11,0,1,0,IpTable,IP,OutboundDiscardPkts,,convertToInt
ipOutNoRoutes,IP-MIB,1.3.6.1.2.1.4.12,0,1,0,IpTable,IP,OutboundNoRoutePkts,,convertToInt
ipReasmReqds,IP-MIB,1.3.6.1.2.1.4.14,0,1,0,IpTable,IP,ReassembledIpFragmentRequests,,convertToInt
ipReasmOKs,IP-MIB,1.3.6.1.2.1.4.15,0,1,0,IpTable,IP,ReassembledIpFragmentSuccess,,convertToInt
ipReasmFails,IP-MIB,1.3.6.1.2.1.4.16,0,1,0,IpTable,IP,ReassembledIpFragmentFailed,,convertToInt
ipFragOKs,IP-MIB,1.3.6.1.2.1.4.17,0,1,0,IpTable,IP,IpFragmentedPkts,,convertToInt
ipFragFails,IP-MIB,1.3.6.1.2.1.4.18,0,1,0,IpTable,IP,IpFragmentedPktsFailed,,convertToInt
ipFragCreates,IP-MIB,1.3.6.1.2.1.4.19,0,1,0,IpTable,IP,IpFragmentedPktsCreated,,convertToInt
ipNetToMediaIfIndex,IP-MIB,1.3.6.1.2.1.4.22.1.1,0,0,0,IpNetToMedia,Neighbors,Index,,convertToInt
ipNetToMediaPhysAddress,IP-MIB,1.3.6.1.2.1.4.22.1.2,0,0,0,IpNetToMedia,Neighbors,MacAddress,,prettyPrint
ipNetToMediaNetAddress,IP-MIB,1.3.6.1.2.1.4.22.1.3,0,0,0,IpNetToMedia,Neighbors,IpAddress,,prettyPrint
ipNetToMediaType,IP-MIB,1.3.6.1.2.1.4.22.1.4,0,0,0,IpNetToMedia,Neighbors,Type,,convertToInt
