Name,MibName,OID,Scalar,Polling,Trap,TableName,Group,Metric,ValueMapper,Formatter
lldpRemManAddrIfId,LLDP-MIB,1.0.8802.1.1.2.1.4.2.1.4,0,0,0,LldpChassis,Neighbors,lldpChassisIndex,,DisplayString
lldpRemChassisId,LLDP-MIB,1.0.8802.1.1.2.1.4.1.1.5,0,0,0,Lldp,Neighbors,MacAddress,,prettyPrint
lldpRemPortId,LLDP-MIB,1.0.8802.1.1.2.1.4.1.1.7,0,0,0,Lldp,Neighbors,Port,,prettyPrint
lldpRemPortDesc,LLDP-MIB,1.0.8802.1.1.2.1.4.1.1.8,0,0,0,Lldp,Neighbors,PortId,,prettyPrint
lldpRemSysName,LLDP-MIB,1.0.8802.1.1.2.1.4.1.1.9,0,0,0,Lldp,Neighbors,Name,,prettyPrint
lldpRemSysDesc,LLDP-MIB,1.0.8802.1.1.2.1.4.1.1.10,0,0,0,Lldp,Neighbors,Description,,prettyPrint
