AMOUNT,Ageing,BEN_NAME,CARRY_FORWARD,CHANNEL ID,CORE TRAN ID / PART TRAN SERIAL NUMBER ,CREDIT_ACCT_NUMBER,CUST_TYPE,DEBIT_ACCT_NUMBER,DERIVED_REQ_ID1,DERIVED_REQ_ID2,DER_REQ_ID,FEBA CarryForward,FEBA Match,FEBA TRAN ID,FEED_FILE_NAME,FINCORE CarryForward,FINCORE Match,LINK_ID,MERCHANT_ID,NAME,OLT CarryForward,OLT Match,OTC,REQUIRED_ID,REQ_DATE,REQ_ID,SOURCE,STATEMENT_DATE,STATUS,System_Idx,TRAN CURRENCY,TRAN PARTICULARS,TRAN PARTICULARS2,TRAN REMARKS,TRAN TIME,TRAN_CRNCY_CODE,TRAN_DATE,TRAN_DESC,TRAN_ID,TRAN_TIME,TRAN_TYPE,Tolerance DifferenceFEBAAMOUNT,Tolerance DifferenceFINCOREAMOUNT,ToleranceMatchFEBAAMOUNT,ToleranceMatchFINCOREAMOUNT,USER_ID,VALUE_DATE,date
2500.0,101,,,EBK,S9597977/1,22013825100701.0,,520101256959427.0,9597977,70720198858488.0,,,UNMATCHED,S9597977,TRAN_RECON_FINCORE_REGEN_value_20190708.txt,,,,,SUND-CR-VAT COLLECTIONS E-PAYMENT,,UNMATCHED,,,,,FINCORE,07-07-2019 00:00:00,Y,11770898355108262170,INR,STATE TAX PAYMENT-CIN:0707201900016,m316,REF NO :RS070720198858488,13:43:52,,08-07-2019 00:00:00,,,,,,,,,,07-07-2019 00:00:00,
200.0,101,,,EBK,S9326080/1,22013825100701.0,,510101003091030.0,9326080,70720198854545.0,,,UNMATCHED,S9326080,TRAN_RECON_FINCORE_REGEN_value_20190708.txt,,,,,SUND-CR-VAT COLLECTIONS E-PAYMENT,,UNMATCHED,,,,,FINCORE,07-07-2019 00:00:00,Y,12552722282656595798,INR,STATE TAX PAYMENT-CIN:0707201900001,,REF NO :CS070720198854545,10:18:17,,08-07-2019 00:00:00,,,,,,,,,,07-07-2019 00:00:00,
2500.0,101,,,EBK,S9601346/1,22013825100701.0,,520101256959427.0,9601346,70720198858528.0,,,UNMATCHED,S9601346,TRAN_RECON_FINCORE_REGEN_value_20190708.txt,,,,,SUND-CR-VAT COLLECTIONS E-PAYMENT,,UNMATCHED,,,,,FINCORE,07-07-2019 00:00:00,Y,9886604207790019169,INR,STATE TAX PAYMENT-CIN:0707201900017,d043 pt,REF NO :RS070720198858528,13:43:52,,08-07-2019 00:00:00,,,,,,,,,,07-07-2019 00:00:00,
8171.0,101,,,EBK,S9703547/1,209013881120101.0,,560101000005660.0,9703547,676140.0,,,UNMATCHED,S9703547,TRAN_RECON_FINCORE_REGEN_value_20190708.txt,,,,,SUND-CR-INTERNET-OLT-DIRECT TAX PAYMENT,,UNMATCHED,,,,,FINCORE,07-07-2019 00:00:00,Y,9687921593443112918,INR,DIRECT TAX PAYMENT-CIN:03502180707201901009,,REF NO :CD07072019676140,15:20:07,,08-07-2019 00:00:00,,,,,,,,,,07-07-2019 00:00:00,
834369.0,101,,,EBK,S9703555/1,209013881120101.0,,560101000005660.0,9703555,676141.0,,,UNMATCHED,S9703555,TRAN_RECON_FINCORE_REGEN_value_20190708.txt,,,,,SUND-CR-INTERNET-OLT-DIRECT TAX PAYMENT,,UNMATCHED,,,,,FINCORE,07-07-2019 00:00:00,Y,11444240859720063075,INR,DIRECT TAX PAYMENT-CIN:03502180707201901010,,REF NO :CD07072019676141,15:20:07,,08-07-2019 00:00:00,,,,,,,,,,07-07-2019 00:00:00,
181884.0,101,,,EBK,S9703563/1,209013881120101.0,,560101000005660.0,9703563,676142.0,,,UNMATCHED,S9703563,TRAN_RECON_FINCORE_REGEN_value_20190708.txt,,,,,SUND-CR-INTERNET-OLT-DIRECT TAX PAYMENT,,UNMATCHED,,,,,FINCORE,07-07-2019 00:00:00,Y,9703325401948587927,INR,DIRECT TAX PAYMENT-CIN:03502180707201901011,,REF NO :CD07072019676142,15:20:07,,08-07-2019 00:00:00,,,,,,,,,,07-07-2019 00:00:00,
45655.0,101,,,EBK,S9703573/1,209013881120101.0,,560101000005660.0,9703573,676143.0,,,UNMATCHED,S9703573,TRAN_RECON_FINCORE_REGEN_value_20190708.txt,,,,,SUND-CR-INTERNET-OLT-DIRECT TAX PAYMENT,,UNMATCHED,,,,,FINCORE,07-07-2019 00:00:00,Y,12833893427770993520,INR,DIRECT TAX PAYMENT-CIN:03502180707201901012,,REF NO :CD07072019676143,15:20:07,,08-07-2019 00:00:00,,,,,,,,,,07-07-2019 00:00:00,
138164.0,101,,,EBK,S9703577/1,209013881120101.0,,560101000005660.0,9703577,676144.0,,,UNMATCHED,S9703577,TRAN_RECON_FINCORE_REGEN_value_20190708.txt,,,,,SUND-CR-INTERNET-OLT-DIRECT TAX PAYMENT,,UNMATCHED,,,,,FINCORE,07-07-2019 00:00:00,Y,11996407141088604431,INR,DIRECT TAX PAYMENT-CIN:03502180707201901013,,REF NO :CD07072019676144,15:20:07,,08-07-2019 00:00:00,,,,,,,,,,07-07-2019 00:00:00,
4301.0,101,,,EBK,S9703581/1,209013881120101.0,,560101000005660.0,9703581,676145.0,,,UNMATCHED,S9703581,TRAN_RECON_FINCORE_REGEN_value_20190708.txt,,,,,SUND-CR-INTERNET-OLT-DIRECT TAX PAYMENT,,UNMATCHED,,,,,FINCORE,07-07-2019 00:00:00,Y,10067998812626186425,INR,DIRECT TAX PAYMENT-CIN:03502180707201901014,,REF NO :CD07072019676145,15:20:07,,08-07-2019 00:00:00,,,,,,,,,,07-07-2019 00:00:00,
772110.0,101,,,EBK,S9703584/1,209013881120101.0,,560101000005660.0,9703584,676146.0,,,UNMATCHED,S9703584,TRAN_RECON_FINCORE_REGEN_value_20190708.txt,,,,,SUND-CR-INTERNET-OLT-DIRECT TAX PAYMENT,,UNMATCHED,,,,,FINCORE,07-07-2019 00:00:00,Y,12997128729044096040,INR,DIRECT TAX PAYMENT-CIN:03502180707201901015,,REF NO :CD07072019676146,15:20:07,,08-07-2019 00:00:00,,,,,,,,,,07-07-2019 00:00:00,
90585.0,101,,,EBK,S9703590/1,209013881120101.0,,560101000005660.0,9703590,676147.0,,,UNMATCHED,S9703590,TRAN_RECON_FINCORE_REGEN_value_20190708.txt,,,,,SUND-CR-INTERNET-OLT-DIRECT TAX PAYMENT,,UNMATCHED,,,,,FINCORE,07-07-2019 00:00:00,Y,10314163674063529719,INR,DIRECT TAX PAYMENT-CIN:03502180707201901016,,REF NO :CD07072019676147,15:20:07,,08-07-2019 00:00:00,,,,,,,,,,07-07-2019 00:00:00,
800.0,101,,,EBK,S9706348/1,22013825100701.0,,510101006168433.0,9706348,70720198859837.0,,,UNMATCHED,S9706348,TRAN_RECON_FINCORE_REGEN_value_20190708.txt,,,,,SUND-CR-VAT COLLECTIONS E-PAYMENT,,UNMATCHED,,,,,FINCORE,07-07-2019 00:00:00,Y,9972278825548513509,INR,STATE TAX PAYMENT-CIN:0707201900020,,REF NO :CS070720198859837,15:18:31,,08-07-2019 00:00:00,,,,,,,,,,07-07-2019 00:00:00,
1400.0,101,,,EBK,S9917266/1,22013825100701.0,,520471001923890.0,9917266,70720198862337.0,,,UNMATCHED,S9917266,TRAN_RECON_FINCORE_REGEN_value_20190708.txt,,,,,SUND-CR-VAT COLLECTIONS E-PAYMENT,,UNMATCHED,,,,,FINCORE,07-07-2019 00:00:00,Y,13515772886439652169,INR,STATE TAX PAYMENT-CIN:0707201900031,PT MR June 19,REF NO :RS070720198862337,18:34:20,,08-07-2019 00:00:00,,,,,,,,,,07-07-2019 00:00:00,
8150.0,101,,,EBK,S9205635/1,520441023449040.0,,520101030243714.0,9205635,802.0,,,UNMATCHED,S9205635,TRAN_RECON_FINCORE_REGEN_value_20190708.txt,,,,,MOHAN M,,UNMATCHED,,,,,FINCORE,07-07-2019 00:00:00,Y,9658098973024399437,INR,FUND TRANSFER TO 117500101049518,lawnmover service,CN070720190802,09:53:01,,08-07-2019 00:00:00,,,,,,,,,,07-07-2019 00:00:00,
2400.0,101,,,EBK,S9425222/1,22013825100701.0,,520101056035213.0,9425222,70720198855930.0,,,UNMATCHED,S9425222,TRAN_RECON_FINCORE_REGEN_value_20190708.txt,,,,,SUND-CR-VAT COLLECTIONS E-PAYMENT,,UNMATCHED,,,,,FINCORE,07-07-2019 00:00:00,Y,11866036409445346894,INR,STATE TAX PAYMENT-CIN:0707201900005,Sri PT,REF NO :RS070720198855930,11:31:05,,08-07-2019 00:00:00,,,,,,,,,,07-07-2019 00:00:00,
1560.0,101,,,EBK,S9428546/1,52013825100701.0,,510101004605003.0,9428546,70720198855916.0,,,UNMATCHED,S9428546,TRAN_RECON_FINCORE_REGEN_value_20190708.txt,,,,,SUND-CR-VAT COLLECTIONS E-PAYMENT,,UNMATCHED,,,,,FINCORE,07-07-2019 00:00:00,Y,12806244840268790114,INR,STATE TAX PAYMENT-CIN:03500010707190005,p tax,REF NO :CS070720198855916,11:32:56,,08-07-2019 00:00:00,,,,,,,,,,07-07-2019 00:00:00,
800.0,101,,,EBK,S9608483/1,22013825100701.0,,510101003407542.0,9608483,70720198858585.0,,,UNMATCHED,S9608483,TRAN_RECON_FINCORE_REGEN_value_20190708.txt,,,,,SUND-CR-VAT COLLECTIONS E-PAYMENT,,UNMATCHED,,,,,FINCORE,07-07-2019 00:00:00,Y,11075016769750530280,INR,STATE TAX PAYMENT-CIN:0707201900018,,REF NO :CS070720198858585,13:54:08,,08-07-2019 00:00:00,,,,,,,,,,07-07-2019 00:00:00,
2500.0,101,,,EBK,S9713290/1,22013825100701.0,,520101256959427.0,9713290,70720198859945.0,,,UNMATCHED,S9713290,TRAN_RECON_FINCORE_REGEN_value_20190708.txt,,,,,SUND-CR-VAT COLLECTIONS E-PAYMENT,,UNMATCHED,,,,,FINCORE,07-07-2019 00:00:00,Y,9236378511406732136,INR,STATE TAX PAYMENT-CIN:0707201900021,p136,REF NO :RS070720198859945,15:30:42,,08-07-2019 00:00:00,,,,,,,,,,07-07-2019 00:00:00,
1000.0,101,,,EBK,S9717664/1,524013825100701.0,,510101000680035.0,9717664,70720198859924.0,,,UNMATCHED,S9717664,TRAN_RECON_FINCORE_REGEN_value_20190708.txt,,,,,SUND-CR-VAT COLLECTIONS E-PAYMENT,,UNMATCHED,,,,,FINCORE,07-07-2019 00:00:00,Y,11921665133657642500,INR,STATE TAX PAYMENT-CIN:03505560707201900002,,REF NO :CS070720198859924,15:37:36,,08-07-2019 00:00:00,,,,,,,,,,07-07-2019 00:00:00,
2500.0,101,,,EBK,S9718789/1,22013825100701.0,,520101256959427.0,9718789,70720198860003.0,,,UNMATCHED,S9718789,TRAN_RECON_FINCORE_REGEN_value_20190708.txt,,,,,SUND-CR-VAT COLLECTIONS E-PAYMENT,,UNMATCHED,,,,,FINCORE,07-07-2019 00:00:00,Y,11835533010643785581,INR,STATE TAX PAYMENT-CIN:0707201900022,p188,REF NO :RS070720198860003,15:30:42,,08-07-2019 00:00:00,,,,,,,,,,07-07-2019 00:00:00,
2500.0,101,,,EBK,S9725535/1,22013825100701.0,,520101256959427.0,9725535,70720198860074.0,,,UNMATCHED,S9725535,TRAN_RECON_FINCORE_REGEN_value_20190708.txt,,,,,SUND-CR-VAT COLLECTIONS E-PAYMENT,,UNMATCHED,,,,,FINCORE,07-07-2019 00:00:00,Y,12178264714283241555,INR,STATE TAX PAYMENT-CIN:0707201900023,p125,REF NO :RS070720198860074,15:43:50,,08-07-2019 00:00:00,,,,,,,,,,07-07-2019 00:00:00,
1200.0,101,,,EBK,S9830434/1,22013825100701.0,,510101004543237.0,9830434,70720198861132.0,,,UNMATCHED,S9830434,TRAN_RECON_FINCORE_REGEN_value_20190708.txt,,,,,SUND-CR-VAT COLLECTIONS E-PAYMENT,,UNMATCHED,,,,,FINCORE,07-07-2019 00:00:00,Y,10387736628494238271,INR,STATE TAX PAYMENT-CIN:0707201900028,,REF NO :CS070720198861132,17:25:32,,08-07-2019 00:00:00,,,,,,,,,,07-07-2019 00:00:00,
600.0,101,,,EBK,S9837126/1,22013825100701.0,,510101001928693.0,9837126,70720198861357.0,,,UNMATCHED,S9837126,TRAN_RECON_FINCORE_REGEN_value_20190708.txt,,,,,SUND-CR-VAT COLLECTIONS E-PAYMENT,,UNMATCHED,,,,,FINCORE,07-07-2019 00:00:00,Y,11894108560521261362,INR,STATE TAX PAYMENT-CIN:0707201900029,PT - June 2019,REF NO :CS070720198861357,17:28:46,,08-07-2019 00:00:00,,,,,,,,,,07-07-2019 00:00:00,
1000.0,101,,,EBK,S9948706/1,520101199724136.0,,520451007241971.0,9948706,1847.0,,,UNMATCHED,S9948706,TRAN_RECON_FINCORE_REGEN_value_20190708.txt,,,,,RAGHAVENDRA G R,,UNMATCHED,,,,,FINCORE,07-07-2019 00:00:00,Y,11550403277646868653,INR,FUND TRANSFER TO 064100101003478,To raghu,CN070720191847,19:00:58,,08-07-2019 00:00:00,,,,,,,,,,07-07-2019 00:00:00,
2500.0,101,,,EBK,S9542381/1,22013825100701.0,,520101256959427.0,9542381,70720198857653.0,,,UNMATCHED,S9542381,TRAN_RECON_FINCORE_REGEN_value_20190708.txt,,,,,SUND-CR-VAT COLLECTIONS E-PAYMENT,,UNMATCHED,,,,,FINCORE,07-07-2019 00:00:00,Y,11551979989182580279,INR,STATE TAX PAYMENT-CIN:0707201900010,m253,REF NO :RS070720198857653,12:53:17,,08-07-2019 00:00:00,,,,,,,,,,07-07-2019 00:00:00,
2800.0,101,,,EBK,S9734728/1,22013825100701.0,,565181000109882.0,9734728,70720198860152.0,,,UNMATCHED,S9734728,TRAN_RECON_FINCORE_REGEN_value_20190708.txt,,,,,SUND-CR-VAT COLLECTIONS E-PAYMENT,,UNMATCHED,,,,,FINCORE,07-07-2019 00:00:00,Y,10919352155580853150,INR,STATE TAX PAYMENT-CIN:0707201900024,Bgk staf june 19 prof tax,REF NO :RS070720198860152,15:45:23,,08-07-2019 00:00:00,,,,,,,,,,07-07-2019 00:00:00,
200.0,101,,,EBK,S9849492/1,22013825100701.0,,520141000506407.0,9849492,70720198861471.0,,,UNMATCHED,S9849492,TRAN_RECON_FINCORE_REGEN_value_20190708.txt,,,,,SUND-CR-VAT COLLECTIONS E-PAYMENT,,UNMATCHED,,,,,FINCORE,07-07-2019 00:00:00,Y,12270838586802570816,INR,STATE TAX PAYMENT-CIN:0707201900030,pt june pymnt,REF NO :RS070720198861471,17:38:57,,08-07-2019 00:00:00,,,,,,,,,,07-07-2019 00:00:00,
20.0,101,,,EBK,S9550256/1,52013825100701.0,,520101050080111.0,9550256,70720198857767.0,,,UNMATCHED,S9550256,TRAN_RECON_FINCORE_REGEN_value_20190708.txt,,,,,SUND-CR-VAT COLLECTIONS E-PAYMENT,,UNMATCHED,,,,,FINCORE,07-07-2019 00:00:00,Y,9268916990521686880,INR,STATE TAX PAYMENT-CIN:03500010707190007,,REF NO :RS070720198857767,13:10:54,,08-07-2019 00:00:00,,,,,,,,,,07-07-2019 00:00:00,
1103.0,101,,,EBK,S9552323/1,22013825100701.0,,520101058650519.0,9552323,70720198857804.0,,,UNMATCHED,S9552323,TRAN_RECON_FINCORE_REGEN_value_20190708.txt,,,,,SUND-CR-VAT COLLECTIONS E-PAYMENT,,UNMATCHED,,,,,FINCORE,07-07-2019 00:00:00,Y,13130875756429718390,INR,STATE TAX PAYMENT-CIN:0707201900011,mayur polyplast,REF NO :RS070720198857804,13:10:00,,08-07-2019 00:00:00,,,,,,,,,,07-07-2019 00:00:00,
2200.0,101,,,EBK,S9552494/1,22013825100701.0,,510101004507532.0,9552494,70720198857742.0,,,UNMATCHED,S9552494,TRAN_RECON_FINCORE_REGEN_value_20190708.txt,,,,,SUND-CR-VAT COLLECTIONS E-PAYMENT,,UNMATCHED,,,,,FINCORE,07-07-2019 00:00:00,Y,13722533336795828926,INR,STATE TAX PAYMENT-CIN:0707201900012,,REF NO :CS070720198857742,13:10:23,,08-07-2019 00:00:00,,,,,,,,,,07-07-2019 00:00:00,
2500.0,101,,,EBK,S9552836/1,22013825100701.0,,520101256959427.0,9552836,70720198857821.0,,,UNMATCHED,S9552836,TRAN_RECON_FINCORE_REGEN_value_20190708.txt,,,,,SUND-CR-VAT COLLECTIONS E-PAYMENT,,UNMATCHED,,,,,FINCORE,07-07-2019 00:00:00,Y,11004671193271306267,INR,STATE TAX PAYMENT-CIN:0707201900013,a061,REF NO :RS070720198857821,13:09:54,,08-07-2019 00:00:00,,,,,,,,,,07-07-2019 00:00:00,
1800.0,101,,,EBK,S9384832/1,22013825100701.0,,510101004125737.0,9384832,70720198855171.0,,,UNMATCHED,S9384832,TRAN_RECON_FINCORE_REGEN_value_20190708.txt,,,,,SUND-CR-VAT COLLECTIONS E-PAYMENT,,UNMATCHED,,,,,FINCORE,07-07-2019 00:00:00,Y,12312333225897084222,INR,STATE TAX PAYMENT-CIN:0707201900002,PT FOR MONTH OF JUNE 2019,REF NO :CS070720198855171,10:52:58,,08-07-2019 00:00:00,,,,,,,,,,07-07-2019 00:00:00,
2500.0,101,,,EBK,S9471505/1,22013825100701.0,,510101003271373.0,9471505,70720198856566.0,,,UNMATCHED,S9471505,TRAN_RECON_FINCORE_REGEN_value_20190708.txt,,,,,SUND-CR-VAT COLLECTIONS E-PAYMENT,,UNMATCHED,,,,,FINCORE,07-07-2019 00:00:00,Y,10794359750715669327,INR,STATE TAX PAYMENT-CIN:0707201900006,,REF NO :RS070720198856566,12:01:11,,08-07-2019 00:00:00,,,,,,,,,,07-07-2019 00:00:00,
3400.0,101,,,EBK,S9391834/1,22013825100701.0,,520101067036054.0,9391834,70720198855340.0,,,UNMATCHED,S9391834,TRAN_RECON_FINCORE_REGEN_value_20190708.txt,,,,,SUND-CR-VAT COLLECTIONS E-PAYMENT,,UNMATCHED,,,,,FINCORE,07-07-2019 00:00:00,Y,10938846114782017686,INR,STATE TAX PAYMENT-CIN:0707201900003,HSPL PT June,REF NO :RS070720198855340,11:17:57,,08-07-2019 00:00:00,,,,,,,,,,07-07-2019 00:00:00,
800.0,101,,,EBK,S9562351/1,22013825100701.0,,520101042025237.0,9562351,70720198857949.0,,,UNMATCHED,S9562351,TRAN_RECON_FINCORE_REGEN_value_20190708.txt,,,,,SUND-CR-VAT COLLECTIONS E-PAYMENT,,UNMATCHED,,,,,FINCORE,07-07-2019 00:00:00,Y,12687990755444648851,INR,STATE TAX PAYMENT-CIN:0707201900014,Vanmark PT June 2019,REF NO :RS070720198857949,13:20:01,,08-07-2019 00:00:00,,,,,,,,,,07-07-2019 00:00:00,
32339.0,101,,,EBK,S9982949/1,209013881120101.0,,510101003396151.0,9982949,8809389.0,,,UNMATCHED,S9982949,TRAN_RECON_FINCORE_REGEN_value_20190708.txt,,,,,SUND-CR-INTERNET-OLT-DIRECT TAX PAYMENT,,UNMATCHED,,,,,FINCORE,07-07-2019 00:00:00,Y,13610919474033432564,INR,DIRECT TAX PAYMENT-CIN:03502180707201901704,TDS on Rent for June 2019,REF NO :CD050720198809389,19:25:54,,08-07-2019 00:00:00,,,,,32339.0,,,,,07-07-2019 00:00:00,
1400.0,101,,,EBK,S9397395/1,22013825100701.0,,565181000034920.0,9397395,70720198855424.0,,,UNMATCHED,S9397395,TRAN_RECON_FINCORE_REGEN_value_20190708.txt,,,,,SUND-CR-VAT COLLECTIONS E-PAYMENT,,UNMATCHED,,,,,FINCORE,07-07-2019 00:00:00,Y,10070219905292565369,INR,STATE TAX PAYMENT-CIN:0707201900004,p tax thyavanige,REF NO :RS070720198855424,11:17:41,,08-07-2019 00:00:00,,,,,,,,,,07-07-2019 00:00:00,
1400.0,101,,,EBK,S9481195/1,524013825100701.0,,510101001622330.0,9481195,70720198856661.0,,,UNMATCHED,S9481195,TRAN_RECON_FINCORE_REGEN_value_20190708.txt,,,,,SUND-CR-VAT COLLECTIONS E-PAYMENT,,UNMATCHED,,,,,FINCORE,07-07-2019 00:00:00,Y,9642373636609848599,INR,STATE TAX PAYMENT-CIN:03505560707201900001,state prof tax june 19,REF NO :CS070720198856661,12:17:44,,08-07-2019 00:00:00,,,,,,,,,,07-07-2019 00:00:00,
300.0,101,,,EBK,S9485064/1,52013825100701.0,,520101199857845.0,9485064,70720198856758.0,,,UNMATCHED,S9485064,TRAN_RECON_FINCORE_REGEN_value_20190708.txt,,,,,SUND-CR-VAT COLLECTIONS E-PAYMENT,,UNMATCHED,,,,,FINCORE,07-07-2019 00:00:00,Y,9816433146852508191,INR,STATE TAX PAYMENT-CIN:03500010707190006,P TAX,REF NO :RS070720198856758,12:15:16,,08-07-2019 00:00:00,,,,,,,,,,07-07-2019 00:00:00,
1000.0,101,,,EBK,S9488251/1,22013825100701.0,,520111028735435.0,9488251,70720198856810.0,,,UNMATCHED,S9488251,TRAN_RECON_FINCORE_REGEN_value_20190708.txt,,,,,SUND-CR-VAT COLLECTIONS E-PAYMENT,,UNMATCHED,,,,,FINCORE,07-07-2019 00:00:00,Y,11871533430163038611,INR,STATE TAX PAYMENT-CIN:0707201900007,,REF NO :RS070720198856810,12:14:30,,08-07-2019 00:00:00,,,,,,,,,,07-07-2019 00:00:00,
4080.0,101,,,EBK,S9173340/1,52013825100701.0,,510101004605968.0,9173340,70720198853105.0,,,UNMATCHED,S9173340,TRAN_RECON_FINCORE_REGEN_value_20190708.txt,,,,,SUND-CR-VAT COLLECTIONS E-PAYMENT,,UNMATCHED,,,,,FINCORE,07-07-2019 00:00:00,Y,11346023392520203125,INR,STATE TAX PAYMENT-CIN:03500010707190001,ptax june 2019,REF NO :CS070720198853105,10:14:33,,08-07-2019 00:00:00,,,,,,,,,,07-07-2019 00:00:00,
600.0,101,,,EBK,S9317637/1,52013825100701.0,,510101002500840.0,9317637,70720198854442.0,,,UNMATCHED,S9317637,TRAN_RECON_FINCORE_REGEN_value_20190708.txt,,,,,SUND-CR-VAT COLLECTIONS E-PAYMENT,,UNMATCHED,,,,,FINCORE,07-07-2019 00:00:00,Y,13507888831672594746,INR,STATE TAX PAYMENT-CIN:03500010707190002,,REF NO :CS070720198854442,10:28:09,,08-07-2019 00:00:00,,,,,,,,,,07-07-2019 00:00:00,
1560.0,101,,,EBK,S9409457/1,52013825100701.0,,520101240955923.0,9409457,70720198855681.0,,,UNMATCHED,S9409457,TRAN_RECON_FINCORE_REGEN_value_20190708.txt,,,,,SUND-CR-VAT COLLECTIONS E-PAYMENT,,UNMATCHED,,,,,FINCORE,07-07-2019 00:00:00,Y,11337037139092171809,INR,STATE TAX PAYMENT-CIN:03500010707190004,,REF NO :RS070720198855681,11:18:49,,08-07-2019 00:00:00,,,,,,,,,,07-07-2019 00:00:00,
400.0,101,,,EBK,S9791419/1,22013825100701.0,,510101002832983.0,9791419,70720198860832.0,,,UNMATCHED,S9791419,TRAN_RECON_FINCORE_REGEN_value_20190708.txt,,,,,SUND-CR-VAT COLLECTIONS E-PAYMENT,,UNMATCHED,,,,,FINCORE,07-07-2019 00:00:00,Y,13179456453310399133,INR,STATE TAX PAYMENT-CIN:0707201900025,,REF NO :RS070720198860832,16:44:35,,08-07-2019 00:00:00,,,,,,,,,,07-07-2019 00:00:00,
300.0,101,,,EBK,S9322680/1,52013825100701.0,,510101002500840.0,9322680,70720198854496.0,,,UNMATCHED,S9322680,TRAN_RECON_FINCORE_REGEN_value_20190708.txt,,,,,SUND-CR-VAT COLLECTIONS E-PAYMENT,,UNMATCHED,,,,,FINCORE,07-07-2019 00:00:00,Y,10626822344819252792,INR,STATE TAX PAYMENT-CIN:03500010707190003,,REF NO :CS070720198854496,10:28:09,,08-07-2019 00:00:00,,,,,,,,,,07-07-2019 00:00:00,
2500.0,101,,,EBK,S9507414/1,22013825100701.0,,520101256959427.0,9507414,70720198857086.0,,,UNMATCHED,S9507414,TRAN_RECON_FINCORE_REGEN_value_20190708.txt,,,,,SUND-CR-VAT COLLECTIONS E-PAYMENT,,UNMATCHED,,,,,FINCORE,07-07-2019 00:00:00,Y,10180881924272008500,INR,STATE TAX PAYMENT-CIN:0707201900008,a079  pt,REF NO :RS070720198857086,12:37:10,,08-07-2019 00:00:00,,,,,,,,,,07-07-2019 00:00:00,
1000.0,101,,,EBK,S9509006/1,22013825100701.0,,510101001321500.0,9509006,70720198857022.0,,,UNMATCHED,S9509006,TRAN_RECON_FINCORE_REGEN_value_20190708.txt,,,,,SUND-CR-VAT COLLECTIONS E-PAYMENT,,UNMATCHED,,,,,FINCORE,07-07-2019 00:00:00,Y,9730406482542501256,INR,STATE TAX PAYMENT-CIN:0707201900009,PROFESSIONAL TAX,REF NO :CS070720198857022,12:30:34,,08-07-2019 00:00:00,,,,,,,,,,07-07-2019 00:00:00,
2500.0,101,,,EBK,S9590402/1,22013825100701.0,,520101256959427.0,9590402,70720198858379.0,,,UNMATCHED,S9590402,TRAN_RECON_FINCORE_REGEN_value_20190708.txt,,,,,SUND-CR-VAT COLLECTIONS E-PAYMENT,,UNMATCHED,,,,,FINCORE,07-07-2019 00:00:00,Y,10783118084669666446,INR,STATE TAX PAYMENT-CIN:0707201900015,d041,REF NO :RS070720198858379,13:43:52,,08-07-2019 00:00:00,,,,,,,,,,07-07-2019 00:00:00,
800.0,101,,,EBK,S9694309/1,22013825100701.0,,510101006168433.0,9694309,70720198855816.0,,,UNMATCHED,S9694309,TRAN_RECON_FINCORE_REGEN_value_20190708.txt,,,,,SUND-CR-VAT COLLECTIONS E-PAYMENT,,UNMATCHED,,,,,FINCORE,07-07-2019 00:00:00,Y,9451228809967042454,INR,STATE TAX PAYMENT-CIN:0707201900019,,REF NO :CS070720198855816,15:07:01,,08-07-2019 00:00:00,,,,,,,,,,07-07-2019 00:00:00,
1000.0,101,,,EBK,S9795179/1,22013825100701.0,,510101006072797.0,9795179,70720198860641.0,,,UNMATCHED,S9795179,TRAN_RECON_FINCORE_REGEN_value_20190708.txt,,,,,SUND-CR-VAT COLLECTIONS E-PAYMENT,,UNMATCHED,,,,,FINCORE,07-07-2019 00:00:00,Y,9823726185977196795,INR,STATE TAX PAYMENT-CIN:0707201900026,,REF NO :CS070720198860641,16:53:51,,08-07-2019 00:00:00,,,,,,,,,,07-07-2019 00:00:00,
1421.0,101,,,EBK,S9795607/1,22013825100701.0,,520471001923890.0,9795607,70720198860888.0,,,UNMATCHED,S9795607,TRAN_RECON_FINCORE_REGEN_value_20190708.txt,,,,,SUND-CR-VAT COLLECTIONS E-PAYMENT,,UNMATCHED,,,,,FINCORE,07-07-2019 00:00:00,Y,10788172567776504705,INR,STATE TAX PAYMENT-CIN:0707201900027,PT MR BRANCH MAY 19,REF NO :RS070720198860888,16:54:44,,08-07-2019 00:00:00,,,,,,,,,,07-07-2019 00:00:00,
20.0,101,,,EBK,S29087/1,52013825100701.0,,520111001746606.0,S29087,70720198863535.0,,,UNMATCHED,S29087,TRAN_RECON_FINCORE_REGEN_value_20190708.txt,,,,,SUND-CR-VAT COLLECTIONS E-PAYMENT,,UNMATCHED,,,,,FINCORE,07-07-2019 00:00:00,Y,9538290556539541766,INR,STATE TAX PAYMENT-CIN:03500010707190008,,REF NO :RS070720198863535,19:54:41,,08-07-2019 00:00:00,,,,,,,,,,07-07-2019 00:00:00,
600.0,101,,,EBK,S30442/1,22013825100701.0,,560131000051514.0,S30442,70720198863550.0,,,UNMATCHED,S30442,TRAN_RECON_FINCORE_REGEN_value_20190708.txt,,,,,SUND-CR-VAT COLLECTIONS E-PAYMENT,,UNMATCHED,,,,,FINCORE,07-07-2019 00:00:00,Y,9481859173133616619,INR,STATE TAX PAYMENT-CIN:0707201900033,pt of june 2019,REF NO :CS070720198863550,20:02:30,,08-07-2019 00:00:00,,,,,,,,,,07-07-2019 00:00:00,
800.0,101,,,EBK,S101099/1,22013825100701.0,,510101000091013.0,S101099,70720198864286.0,,,UNMATCHED,S101099,TRAN_RECON_FINCORE_REGEN_value_20190708.txt,,,,,SUND-CR-VAT COLLECTIONS E-PAYMENT,,UNMATCHED,,,,,FINCORE,07-07-2019 00:00:00,Y,12863825669133224545,INR,STATE TAX PAYMENT-CIN:0707201900035,,REF NO :CS070720198864286,20:52:24,,08-07-2019 00:00:00,,,,,,,,,,07-07-2019 00:00:00,
300.0,101,,,EBK,S176364/1,52013825100701.0,,520101248706884.0,S176364,70720198865442.0,,,UNMATCHED,S176364,TRAN_RECON_FINCORE_REGEN_value_20190708.txt,,,,,SUND-CR-VAT COLLECTIONS E-PAYMENT,,UNMATCHED,,,,,FINCORE,07-07-2019 00:00:00,Y,11134850545062984334,INR,STATE TAX PAYMENT-CIN:03500010707190010,RATAN DUTTA PTAX 19-20,REF NO :RS070720198865442,22:30:44,,08-07-2019 00:00:00,,,,,,,,,,07-07-2019 00:00:00,
4000.0,101,,,EBK,S44089/1,22013825100701.0,,510101006226182.0,S44089,50720198798178.0,,,UNMATCHED,S44089,TRAN_RECON_FINCORE_REGEN_value_20190708.txt,,,,,SUND-CR-VAT COLLECTIONS E-PAYMENT,,UNMATCHED,,,,,FINCORE,07-07-2019 00:00:00,Y,11647846183431483809,INR,STATE TAX PAYMENT-CIN:0707201900034,PT JUN19 BLR,REF NO :CS050720198798178,20:07:50,,08-07-2019 00:00:00,,,,,,,,,,07-07-2019 00:00:00,
12949.0,101,,,EBK,S116512/1,520441000102907.0,,510101000145441.0,S116512,2059.0,,,UNMATCHED,S116512,TRAN_RECON_FINCORE_REGEN_value_20190708.txt,,,,,LALTU MANDAL,,UNMATCHED,,,,,FINCORE,07-07-2019 00:00:00,Y,12585016325454036407,INR,FUND TRANSFER TO 104800101007254,SALARYJUNE19LALTUMONDAL,CN070720192059,21:07:16,,08-07-2019 00:00:00,,,,,,,,,,07-07-2019 00:00:00,
14261.0,101,,,EBK,S116751/1,520441000112090.0,,510101000145441.0,S116751,2059.0,,,UNMATCHED,S116751,TRAN_RECON_FINCORE_REGEN_value_20190708.txt,,,,,HASEM CHOWDHURY,,UNMATCHED,,,,,FINCORE,07-07-2019 00:00:00,Y,12804614299357491248,INR,FUND TRANSFER TO 104800101008370,SALARYJUNE19HASEMCHOWDHURY,CN070720192059,21:07:16,,08-07-2019 00:00:00,,,,,,,,,,07-07-2019 00:00:00,
5067.0,101,,,EBK,S116847/1,520441000112031.0,,510101000145441.0,S116847,2059.0,,,UNMATCHED,S116847,TRAN_RECON_FINCORE_REGEN_value_20190708.txt,,,,,SUKUR SEKH,,UNMATCHED,,,,,FINCORE,07-07-2019 00:00:00,Y,10658317675007356888,INR,FUND TRANSFER TO 104800101008363,SALARYJUNE19SHUKUERSEKH,CN070720192059,21:07:16,,08-07-2019 00:00:00,,,,,,,,,,07-07-2019 00:00:00,
13277.0,101,,,EBK,S116887/1,520441000120603.0,,510101000145441.0,S116887,2059.0,,,UNMATCHED,S116887,TRAN_RECON_FINCORE_REGEN_value_20190708.txt,,,,,SK JABER ALI,,UNMATCHED,,,,,FINCORE,07-07-2019 00:00:00,Y,9818426600515722429,INR,FUND TRANSFER TO 104800101009290,SALARYJUNE19SKJABERALI,CN070720192059,21:07:16,,08-07-2019 00:00:00,,,,,,,,,,07-07-2019 00:00:00,
15263.0,101,,,EBK,S116913/1,520291000206178.0,,510101000145441.0,S116913,2059.0,,,UNMATCHED,S116913,TRAN_RECON_FINCORE_REGEN_value_20190708.txt,,,,,MOKARIM SEKH,,UNMATCHED,,,,,FINCORE,07-07-2019 00:00:00,Y,11417451049576615301,INR,FUND TRANSFER TO 104800101005366,SALARYJUNE19MOKARIMSEKH,CN070720192059,21:07:16,,08-07-2019 00:00:00,,,,,,,,,,07-07-2019 00:00:00,
20.0,101,,,EBK,S187866/1,52013825100701.0,,520101050080111.0,S187866,70720198865669.0,,,UNMATCHED,S187866,TRAN_RECON_FINCORE_REGEN_value_20190708.txt,,,,,SUND-CR-VAT COLLECTIONS E-PAYMENT,,UNMATCHED,,,,,FINCORE,07-07-2019 00:00:00,Y,9390795974283597987,INR,STATE TAX PAYMENT-CIN:03500010707190011,,REF NO :RS070720198865669,22:55:48,,08-07-2019 00:00:00,,,,,,,,,,07-07-2019 00:00:00,
39764.0,101,,,EBK,M172/1,560631000368750.0,,520291014325549.0,M172,8806415.0,,,UNMATCHED,M172,TRAN_RECON_FINCORE_REGEN_value_20190708.txt,,,11194398754130010423,,JISHU JANA,,UNMATCHED,,,,,FINCORE,07-07-2019 00:00:00,Y,10089199794223548950,INR,Loan Account Payments For : 560631000368750,,CN070720198806415,10:52:45,,08-07-2019 00:00:00,,,,,19882.0,,,,,07-07-2019 00:00:00,
17468.0,101,,,EBK,S119237/1,520291000206550.0,,510101000145441.0,S119237,2101.0,,,UNMATCHED,S119237,TRAN_RECON_FINCORE_REGEN_value_20190708.txt,,,,,RAJU S K,,UNMATCHED,,,,,FINCORE,07-07-2019 00:00:00,Y,13470009404035719505,INR,FUND TRANSFER TO 104800101005405,SALARYJUNE19SEKHRAJU,CN070720192101,21:07:16,,08-07-2019 00:00:00,,,,,,,,,,07-07-2019 00:00:00,
15223.0,101,,,EBK,S119331/1,520441000100319.0,,510101000145441.0,S119331,2101.0,,,UNMATCHED,S119331,TRAN_RECON_FINCORE_REGEN_value_20190708.txt,,,,,RAJIB SK,,UNMATCHED,,,,,FINCORE,07-07-2019 00:00:00,Y,10794632252628239730,INR,FUND TRANSFER TO 104800101006928,SALARYJUNE19RAJIBSEKH,CN070720192101,21:07:16,,08-07-2019 00:00:00,,,,,,,,,,07-07-2019 00:00:00,
11157.0,101,,,EBK,S119368/1,520441000131001.0,,510101000145441.0,S119368,2101.0,,,UNMATCHED,S119368,TRAN_RECON_FINCORE_REGEN_value_20190708.txt,,,,,RABIUL SEKH,,UNMATCHED,,,,,FINCORE,07-07-2019 00:00:00,Y,11803960305854034495,INR,FUND TRANSFER TO 104800101011479,SALARYJUNE19RABIULSEKH,CN070720192101,21:07:16,,08-07-2019 00:00:00,,,,,,,,,,07-07-2019 00:00:00,
14919.0,101,,,EBK,S119437/1,520441000134663.0,,510101000145441.0,S119437,2101.0,,,UNMATCHED,S119437,TRAN_RECON_FINCORE_REGEN_value_20190708.txt,,,,,PROBITRO DHARA,,UNMATCHED,,,,,FINCORE,07-07-2019 00:00:00,Y,12752484812139735346,INR,FUND TRANSFER TO 104800101011997,SALARYJUNE19PROBITRADHARA,CN070720192101,21:07:16,,08-07-2019 00:00:00,,,,,,,,,,07-07-2019 00:00:00,
12739.0,101,,,EBK,S119459/1,520441000128809.0,,510101000145441.0,S119459,2101.0,,,UNMATCHED,S119459,TRAN_RECON_FINCORE_REGEN_value_20190708.txt,,,,,DALIM SK,,UNMATCHED,,,,,FINCORE,07-07-2019 00:00:00,Y,11468974328867772646,INR,FUND TRANSFER TO 104800101011233,SALARYJUNE19SKDALIM,CN070720192101,21:07:16,,08-07-2019 00:00:00,,,,,,,,,,07-07-2019 00:00:00,
4387.0,101,,,EBK,S119466/1,520291000205678.0,,510101000145441.0,S119466,2101.0,,,UNMATCHED,S119466,TRAN_RECON_FINCORE_REGEN_value_20190708.txt,,,,,LALAN S K,,UNMATCHED,,,,,FINCORE,07-07-2019 00:00:00,Y,9650088254789027688,INR,FUND TRANSFER TO 104800101005307,SALARYJUNE19LALANSEKH,CN070720192101,21:07:16,,08-07-2019 00:00:00,,,,,,,,,,07-07-2019 00:00:00,
13520.0,101,,,EBK,S121704/1,520291000206402.0,,510101000145441.0,S121704,2104.0,,,UNMATCHED,S121704,TRAN_RECON_FINCORE_REGEN_value_20190708.txt,,,,,SALAUDDIN SARKAR,,UNMATCHED,,,,,FINCORE,07-07-2019 00:00:00,Y,10493813200829349073,INR,FUND TRANSFER TO 104800101005390,SALARYJUNE19SALAUDDINSARKAR,CN070720192104,21:32:14,,08-07-2019 00:00:00,,,,,,,,,,07-07-2019 00:00:00,
13687.0,101,,,EBK,S121711/1,520291000206275.0,,510101000145441.0,S121711,2104.0,,,UNMATCHED,S121711,TRAN_RECON_FINCORE_REGEN_value_20190708.txt,,,,,SK SAHIDUL HAQUE,,UNMATCHED,,,,,FINCORE,07-07-2019 00:00:00,Y,11843206489025281621,INR,FUND TRANSFER TO 104800101005376,SALARYJUNE19SKSAHIDULHAQUE,CN070720192104,21:32:14,,08-07-2019 00:00:00,,,,,,,,,,07-07-2019 00:00:00,
14441.0,101,,,EBK,S121734/1,520291000206461.0,,510101000145441.0,S121734,2104.0,,,UNMATCHED,S121734,TRAN_RECON_FINCORE_REGEN_value_20190708.txt,,,,,SEKENDAR SEKH,,UNMATCHED,,,,,FINCORE,07-07-2019 00:00:00,Y,12924204948064601944,INR,FUND TRANSFER TO 104800101005396,SALARYJUNE19SEKENDARSK,CN070720192104,21:32:14,,08-07-2019 00:00:00,,,,,,,,,,07-07-2019 00:00:00,
17383.0,101,,,EBK,S121746/1,520441000103628.0,,510101000145441.0,S121746,2104.0,,,UNMATCHED,S121746,TRAN_RECON_FINCORE_REGEN_value_20190708.txt,,,,,RABIUL MALLICK,,UNMATCHED,,,,,FINCORE,07-07-2019 00:00:00,Y,13540656748227319901,INR,FUND TRANSFER TO 104800101007364,SALARYJUNE19RABIULMALLICK,CN070720192104,21:32:14,,08-07-2019 00:00:00,,,,,,,,,,07-07-2019 00:00:00,
19769.0,101,,,EBK,S121752/1,520101003029510.0,,510101000145441.0,S121752,2104.0,,,UNMATCHED,S121752,TRAN_RECON_FINCORE_REGEN_value_20190708.txt,,,,,SHUKLAL SEKH,,UNMATCHED,,,,,FINCORE,07-07-2019 00:00:00,Y,9513582305263951243,INR,FUND TRANSFER TO 104800101005297,SALARYJUNE19SHUKULALSEKH,CN070720192104,21:32:14,,08-07-2019 00:00:00,,,,,,,,,,07-07-2019 00:00:00,
11618.0,101,,,EBK,S121784/1,520291000206070.0,,510101000145441.0,S121784,2104.0,,,UNMATCHED,S121784,TRAN_RECON_FINCORE_REGEN_value_20190708.txt,,,,,IBADAT SEKH,,UNMATCHED,,,,,FINCORE,07-07-2019 00:00:00,Y,10018842061268238934,INR,FUND TRANSFER TO 104800101005356,SALARYJUNE19IBADATSEKH,CN070720192104,21:32:14,,08-07-2019 00:00:00,,,,,,,,,,07-07-2019 00:00:00,
15683.0,101,,,EBK,S121904/1,520291000206194.0,,510101000145441.0,S121904,2104.0,,,UNMATCHED,S121904,TRAN_RECON_FINCORE_REGEN_value_20190708.txt,,,,,KERIM SEKH,,UNMATCHED,,,,,FINCORE,07-07-2019 00:00:00,Y,9235011072951049591,INR,FUND TRANSFER TO 104800101005368,SALARYJUNE19KERIMSEKH,CN070720192104,21:32:14,,08-07-2019 00:00:00,,,,,,,,,,07-07-2019 00:00:00,
15983.0,101,,,EBK,S121926/1,520441000112112.0,,510101000145441.0,S121926,2104.0,,,UNMATCHED,S121926,TRAN_RECON_FINCORE_REGEN_value_20190708.txt,,,,,IBRAHIM SK,,UNMATCHED,,,,,FINCORE,07-07-2019 00:00:00,Y,10091014382323421324,INR,FUND TRANSFER TO 104800101008372,SALARYJUNE19IBRAHIMSK,CN070720192104,21:32:14,,08-07-2019 00:00:00,,,,,,,,,,07-07-2019 00:00:00,
13538.0,101,,,EBK,S124028/1,520441000127071.0,,510101000145441.0,S124028,2106.0,,,UNMATCHED,S124028,TRAN_RECON_FINCORE_REGEN_value_20190708.txt,,,,,RAJIBKANTI DAS,,UNMATCHED,,,,,FINCORE,07-07-2019 00:00:00,Y,13724614690740925343,INR,FUND TRANSFER TO 104800101011053,SALARYJUNE19RAJIBKANTIDAS,CN070720192106,21:32:14,,08-07-2019 00:00:00,,,,,,,,,,07-07-2019 00:00:00,
12799.0,101,,,EBK,S124035/1,520441000104977.0,,510101000145441.0,S124035,2106.0,,,UNMATCHED,S124035,TRAN_RECON_FINCORE_REGEN_value_20190708.txt,,,,,SAHIDUL SK,,UNMATCHED,,,,,FINCORE,07-07-2019 00:00:00,Y,13680844957749031046,INR,FUND TRANSFER TO 104800101007513,SALARYJUNE19SKSAHIDUL,CN070720192106,21:32:14,,08-07-2019 00:00:00,,,,,,,,,,07-07-2019 00:00:00,
23634.0,101,,,EBK,S124052/1,520291000205635.0,,510101000145441.0,S124052,2106.0,,,UNMATCHED,S124052,TRAN_RECON_FINCORE_REGEN_value_20190708.txt,,,,,ABBAS UDDIN SEKH,,UNMATCHED,,,,,FINCORE,07-07-2019 00:00:00,Y,10592757777249011040,INR,FUND TRANSFER TO 104800101005292,SALARYJUNE19ABBASUDDINSK,CN070720192106,21:32:14,,08-07-2019 00:00:00,,,,,,,,,,07-07-2019 00:00:00,
13320.0,101,,,EBK,S124063/1,520291000208715.0,,510101000145441.0,S124063,2106.0,,,UNMATCHED,S124063,TRAN_RECON_FINCORE_REGEN_value_20190708.txt,,,,,HOSSAIN MOLLA,,UNMATCHED,,,,,FINCORE,07-07-2019 00:00:00,Y,11929448395959517799,INR,FUND TRANSFER TO 104800101005772,SALARYJUNE19HOSSAINMOLLA,CN070720192106,21:32:14,,08-07-2019 00:00:00,,,,,,,,,,07-07-2019 00:00:00,
11718.0,101,,,EBK,S124149/1,520441000100343.0,,510101000145441.0,S124149,2106.0,,,UNMATCHED,S124149,TRAN_RECON_FINCORE_REGEN_value_20190708.txt,,,,,LAKSHMI M,,UNMATCHED,,,,,FINCORE,07-07-2019 00:00:00,Y,9326794335013466039,INR,FUND TRANSFER TO 104800101006931,SALARYJUNE19MLAKSHMI,CN070720192106,21:32:14,,08-07-2019 00:00:00,,,,,,,,,,07-07-2019 00:00:00,
13473.0,101,,,EBK,S124165/1,520291000206798.0,,510101000145441.0,S124165,2106.0,,,UNMATCHED,S124165,TRAN_RECON_FINCORE_REGEN_value_20190708.txt,,,,,D YEGAVALLI,,UNMATCHED,,,,,FINCORE,07-07-2019 00:00:00,Y,9625826171385597543,INR,FUND TRANSFER TO 104800101005479,SALARYJUNE19DEGAVALLI,CN070720192106,21:32:14,,08-07-2019 00:00:00,,,,,,,,,,07-07-2019 00:00:00,
42000.0,101,,,EBK,M1059/1,560631000145281.0,,520101012446455.0,M1059,8815639.0,,,UNMATCHED,M1059,TRAN_RECON_FINCORE_REGEN_value_20190708.txt,,,9388321930973357392,,C S ABUTHAHIR,,UNMATCHED,,,,,FINCORE,07-07-2019 00:00:00,Y,13278364598616558533,INR,Loan Account Payments For : 560631000145281,,CN070720198815639,08:12:59,,08-07-2019 00:00:00,,,,,21000.0,,,,,07-07-2019 00:00:00,
20.0,101,,,EBK,S200569/1,52013825100701.0,,520101252935655.0,S200569,70720198865985.0,,,UNMATCHED,S200569,TRAN_RECON_FINCORE_REGEN_value_20190708.txt,,,,,SUND-CR-VAT COLLECTIONS E-PAYMENT,,UNMATCHED,,,,,FINCORE,07-07-2019 00:00:00,Y,12624108010672805785,INR,STATE TAX PAYMENT-CIN:03500010707190012,Amiyo Panskura Friend Land Details,REF NO :RS070720198865985,23:40:22,,08-07-2019 00:00:00,,,,,,,,,,07-07-2019 00:00:00,
440.0,101,,,EBK,S94238/1,52013825100701.0,,520101252137661.0,S94238,70720198864231.0,,,UNMATCHED,S94238,TRAN_RECON_FINCORE_REGEN_value_20190708.txt,,,,,SUND-CR-VAT COLLECTIONS E-PAYMENT,,UNMATCHED,,,,,FINCORE,07-07-2019 00:00:00,Y,13179754773366411603,INR,STATE TAX PAYMENT-CIN:03500010707190009,,REF NO :RS070720198864231,20:43:59,,08-07-2019 00:00:00,,,,,,,,,,07-07-2019 00:00:00,
600.0,101,,,EBK,S132704/1,22013825100701.0,,510101001971262.0,S132704,70720198864690.0,,,UNMATCHED,S132704,TRAN_RECON_FINCORE_REGEN_value_20190708.txt,,,,,SUND-CR-VAT COLLECTIONS E-PAYMENT,,UNMATCHED,,,,,FINCORE,07-07-2019 00:00:00,Y,11902125095740363369,INR,STATE TAX PAYMENT-CIN:0707201900036,TO PROF TAX PAYMENT FTM OF JUNE 2019.,REF NO :CS070720198864690,21:33:02,,08-07-2019 00:00:00,,,,,,,,,,07-07-2019 00:00:00,
3800.0,101,,,EBK,S1046/1,22013825100701.0,,510101001402802.0,S1046,70720198863233.0,,,UNMATCHED,S1046,TRAN_RECON_FINCORE_REGEN_value_20190708.txt,,,,,SUND-CR-VAT COLLECTIONS E-PAYMENT,,UNMATCHED,,,,,FINCORE,07-07-2019 00:00:00,Y,9747658930265695088,INR,STATE TAX PAYMENT-CIN:0707201900032,,REF NO :CS070720198863233,19:43:50,,08-07-2019 00:00:00,,,,,,,,,,07-07-2019 00:00:00,
1000.0,101,IMPS-RAGHUGR,,,,64100101003478.0,Retail,520451007241971.0,,,8862718,,,,FEBA_T.csv,,UNMATCHED,,,,,UNMATCHED,,,43653.7830787037,8862718.0,FEBA,07-07-2019 00:00:00,SUC,10177847626061168771,,,,,,INR,43653.7830902778,Quick Payment,8813497.0,43653.0,QPT,,,,,2014890130.2014890130,,
8150.0,101,IMPS-MOHAN LAWNMOVER,,,,117500101049518.0,Retail,520101030243714.0,,,8853339,,,,FEBA_T.csv,,UNMATCHED,,,,,UNMATCHED,,,43653.3353703704,8853339.0,FEBA,07-07-2019 00:00:00,SUC,13038104546384368248,,,,,,INR,43653.3353819444,Quick Payment,8804942.0,43653.0,QPT,,,,,2005028148.2005028148,,
4000.0,101,Credit Card Payments,,,,341013833100101.0,Retail,520301001694132.0,,,8859831,,,,FEBA_T.csv,,UNMATCHED,,,,,UNMATCHED,,,43653.6322685185,8859831.0,FEBA,07-07-2019 00:00:00,SUC,9392617708457200772,,,,,,INR,43653.6323032407,Credit Card Payment,8810830.0,43653.6322685185,CCP,,,,,2025392747.2025392747,,
2353.0,101,Credit Card Payments,,,,57013833100101.0,Retail,520101256752806.0,,,8854105,,,,FEBA_T.csv,,UNMATCHED,,,,,UNMATCHED,,,43653.3925231481,8854105.0,FEBA,07-07-2019 00:00:00,SUC,12893086892011366914,,,,,,INR,43653.3925578704,Credit Card Payment,8805608.0,43653.3925231481,CCP,,,,,2025095828.2025095828,,
30826.0,101,Credit Card Payments,,,,837013833100101.0,Retail,520101048294655.0,,,8853285,,,,FEBA_T.csv,,UNMATCHED,,,,,UNMATCHED,,,43653.3311574074,8853285.0,FEBA,07-07-2019 00:00:00,SUC,9741246840626111769,,,,,,INR,43653.3311689815,Credit Card Payment,8804895.0,43653.3311574074,CCP,,,,,2008259082.2008259082,,
77040.0,101,Credit Card Payments,,,,1102013833100101.0,Retail,520471001357291.0,,,8862799,,,,FEBA_T.csv,,UNMATCHED,,,,,UNMATCHED,,,43653.7886226852,8862799.0,FEBA,07-07-2019 00:00:00,SUC,11369983662065036776,,,,,,INR,43653.7886458333,Credit Card Payment,8813598.0,43653.7886226852,CCP,,,,,2002683449.2002683449,,
15610.56,101,Credit Card Payments,,,,371013833100101.0,Retail,520462000563034.0,,,8853597,,,,FEBA_T.csv,,UNMATCHED,,,,,UNMATCHED,,,43653.3573726852,8853597.0,FEBA,07-07-2019 00:00:00,SUC,9892963163949464735,,,,,,INR,43653.3573958333,Credit Card Payment,8805166.0,43653.3573726852,CCP,,,,,2026418031.2026418031,,
3000.0,101,Credit Card Payments,,,,124013833100101.0,Retail,520141000079525.0,,,8856868,,,,FEBA_T.csv,,UNMATCHED,,,,,UNMATCHED,,,43653.509050925895,8856868.0,FEBA,07-07-2019 00:00:00,SUC,12306705195408343063,,,,,,INR,43653.509178240696,Credit Card Payment,8808145.0,43653.509050925895,CCP,,,,,2000901138.2000901138,,
4413.0,101,Credit Card Payments,,,,663013833100101.0,Retail,520101250998194.0,,,8859857,,,,FEBA_T.csv,,UNMATCHED,,,,,UNMATCHED,,,43653.6344791667,8859857.0,FEBA,07-07-2019 00:00:00,SUC,10018711772924443070,,,,,,INR,43653.6344907407,Credit Card Payment,8810856.0,43653.6344791667,CCP,,,,,2023544415.2023544415,,
24061.2,101,Credit Card Payments,,,,767013833100101.0,Retail,520471000383981.0,,,8861802,,,,FEBA_T.csv,,UNMATCHED,,,,,UNMATCHED,,,43653.7432060185,8861802.0,FEBA,07-07-2019 00:00:00,SUC,10690602794677027701,,,,,,INR,43653.7432175926,Credit Card Payment,8812690.0,43653.7432060185,CCP,,,,,2000891922.2000891922,,
2000.0,101,Credit Card Payments,,,,78013833100101.0,Retail,520471006088523.0,,,8855609,,,,FEBA_T.csv,,UNMATCHED,,,,,UNMATCHED,,,43653.4642824074,8855609.0,FEBA,07-07-2019 00:00:00,SUC,10954401016208165826,,,,,,INR,43653.4643055556,Credit Card Payment,8806986.0,43653.4642824074,CCP,,,,,2020471553.2020471553,,
33926.0,101,Credit Card Payments,,,,698013833100101.0,Retail,520101208587450.0,,,8853592,,,,FEBA_T.csv,,UNMATCHED,,,,,UNMATCHED,,,43653.3567592593,8853592.0,FEBA,07-07-2019 00:00:00,SUC,9413081847642969084,,,,,,INR,43653.3567708333,Credit Card Payment,8805156.0,43653.3567592593,CCP,,,,,2018114363.2018114363,,
10304.0,101,Credit Card Payments,,,,2123013833100101.0,Retail,520101018629871.0,,,8863437,,,,FEBA_T.csv,,UNMATCHED,,,,,UNMATCHED,,,43653.8199189815,8863437.0,FEBA,07-07-2019 00:00:00,SUC,11502901270636372486,,,,,,INR,43653.8199305556,Credit Card Payment,8814172.0,43653.8199189815,CCP,,,,,2002963795.2002963795,,
3228.0,101,Credit Card Payments,,,,262013833100101.0,Retail,520101237094793.0,,,8854935,,,,FEBA_T.csv,,UNMATCHED,,,,,UNMATCHED,,,43653.4359606481,8854935.0,FEBA,07-07-2019 00:00:00,SUC,10921905433124656334,,,,,,INR,43653.4360069444,Credit Card Payment,8806345.0,43653.4359606481,CCP,,,,,2021839438.2021839438,,
271.0,101,Credit Card Payments,,,,592013833100101.0,Retail,520461000009559.0,,,8855300,,,,FEBA_T.csv,,UNMATCHED,,,,,UNMATCHED,,,43653.4514699074,8855300.0,FEBA,07-07-2019 00:00:00,SUC,12895804409666446746,,,,,,INR,43653.4515046296,Credit Card Payment,8806687.0,43653.4514699074,CCP,,,,,2005725667.2005725667,,
18951.0,101,Credit Card Payments,,,,197013833100101.0,Retail,520101038696335.0,,,8863676,,,,FEBA_T.csv,,UNMATCHED,,,,,UNMATCHED,,,43653.8320138889,8863676.0,FEBA,07-07-2019 00:00:00,SUC,9244513575349316724,,,,,,INR,43653.832025463,Credit Card Payment,8814412.0,43653.8320138889,CCP,,,,,2006152709.2006152709,,
2884.0,101,Credit Card Payments,,,,713013833100101.0,Retail,520101079483123.0,,,8858613,,,,FEBA_T.csv,,UNMATCHED,,,,,UNMATCHED,,,43653.5718402778,8858613.0,FEBA,07-07-2019 00:00:00,SUC,11414193180196485959,,,,,,INR,43653.571863425896,Credit Card Payment,8809737.0,43653.5718402778,CCP,,,,,2013813304.2013813304,,
1500.0,101,Credit Card Payments,,,,735013833100101.0,Retail,520101247854782.0,,,8858985,,,,FEBA_T.csv,,UNMATCHED,,,,,UNMATCHED,,,43653.589108796295,8858985.0,FEBA,07-07-2019 00:00:00,SUC,13799803865237881994,,,,,,INR,43653.5891203704,Credit Card Payment,8810084.0,43653.589108796295,CCP,,,,,2023699400.2023699400,,
387.0,101,Credit Card Payments,,,,537013833100101.0,Retail,520101020893732.0,,,8862519,,,,FEBA_T.csv,,UNMATCHED,,,,,UNMATCHED,,,43653.7759375,8862519.0,FEBA,07-07-2019 00:00:00,SUC,9379614487547091892,,,,,,INR,43653.7759606481,Credit Card Payment,8813352.0,43653.7759375,CCP,,,,,2003395829.2003395829,,
1920.0,101,Credit Card Payments,,,,1509013833100101.0,Retail,520101036861274.0,,,8853193,,,,FEBA_T.csv,,UNMATCHED,,,,,UNMATCHED,,,43653.3193171296,8853193.0,FEBA,07-07-2019 00:00:00,SUC,11802930907305487701,,,,,,INR,43653.3193287037,Credit Card Payment,8804815.0,43653.3193171296,CCP,,,,,2006237633.2006237633,,
2901.0,101,Credit Card Payments,,,,2098013833100101.0,Retail,520121000976470.0,,,8865169,,,,FEBA_T.csv,,UNMATCHED,,,,,UNMATCHED,,,43653.915150463,8865169.0,FEBA,07-07-2019 00:00:00,SUC,12799710142995685432,,,,,,INR,43653.9151736111,Credit Card Payment,8815756.0,43653.915150463,CCP,,,,,2012475017.2012475017,,
37773.94,101,Credit Card Payments,,,,522013833100101.0,Retail,565181735200374.0,,,8857572,,,,FEBA_T.csv,,UNMATCHED,,,,,UNMATCHED,,,43653.5311111111,8857572.0,FEBA,07-07-2019 00:00:00,SUC,10389240000138665278,,,,,,INR,43653.5311574074,Credit Card Payment,8808750.0,43653.5311111111,CCP,,,,,2012045265.2012045265,,
5000.0,101,Credit Card Payments,,,,522013833100101.0,Retail,520111123495586.0,,,8857605,,,,FEBA_T.csv,,UNMATCHED,,,,,UNMATCHED,,,43653.5321643519,8857605.0,FEBA,07-07-2019 00:00:00,SUC,11108307616819914338,,,,,,INR,43653.532175925895,Credit Card Payment,8808774.0,43653.5321643519,CCP,,,,,2012045265.2012045265,,
7908.0,101,Credit Card Payments,,,,49013833100101.0,Retail,520101016384128.0,,,8854510,,,,FEBA_T.csv,,UNMATCHED,,,,,UNMATCHED,,,43653.4164814815,8854510.0,FEBA,07-07-2019 00:00:00,SUC,12423616466413583176,,,,,,INR,43653.4165162037,Credit Card Payment,8805966.0,43653.4164814815,CCP,,,,,2002575392.2002575392,,
20000.0,101,Credit Card Payments,,,,1617013833100101.0,Retail,565181000038527.0,,,8855194,,,,FEBA_T.csv,,UNMATCHED,,,,,UNMATCHED,,,43653.4465972222,8855194.0,FEBA,07-07-2019 00:00:00,SUC,13387172841701005124,,,,,,INR,43653.4466203704,Credit Card Payment,8806593.0,43653.4465972222,CCP,,,,,2006404503.2006404503,,
13081.0,101,Credit Card Payments,,,,5013833100101.0,Retail,520101256795661.0,,,8853176,,,,FEBA_T.csv,,UNMATCHED,,,,,UNMATCHED,,,43653.318449074104,8853176.0,FEBA,07-07-2019 00:00:00,SUC,10077561454445145603,,,,,,INR,43653.3184837963,Credit Card Payment,8804808.0,43653.318449074104,CCP,,,,,2025121197.2025121197,,
3200.0,101,Credit Card Payments,,,,1812013833100101.0,Retail,520301001680492.0,,,8860028,,,,FEBA_T.csv,,UNMATCHED,,,,,UNMATCHED,,,43653.6444791667,8860028.0,FEBA,07-07-2019 00:00:00,SUC,12537492656833607523,,,,,,INR,43653.6444907407,Credit Card Payment,8811029.0,43653.6444791667,CCP,,,,,2010024806.2010024806,,
9750.39,101,Credit Card Payments,,,,507013833100101.0,Retail,520101078205936.0,,,8853338,,,,FEBA_T.csv,,UNMATCHED,,,,,UNMATCHED,,,43653.3356018519,8853338.0,FEBA,07-07-2019 00:00:00,SUC,9864416063270559556,,,,,,INR,43653.3356134259,Credit Card Payment,8804945.0,43653.3356018519,CCP,,,,,2013595361.2013595361,,
21000.0,101,C S ABUTHA,,,,560631000145281.0,Retail,520101012446455.0,,,8865048,,,,FEBA_T.csv,,UNMATCHED,9388321930973357392,,,,UNMATCHED,,,43653.905,8865048.0,FEBA,07-07-2019 00:00:00,SUC,11580269945148415657,,,,,,INR,43653.9050462963,Loan Account Payment,8815639.0,43654.0,LAP,,21000.0,,,2001961290.2001961290,,
19882.0,101,JISHU JANA,,,,560631000368750.0,Retail,520291014325549.0,,,8855011,,,,FEBA_T.csv,,UNMATCHED,11194398754130010423,,,,UNMATCHED,,,43653.439583333304,8855011.0,FEBA,07-07-2019 00:00:00,SUC,9313414656189235191,,,,,,INR,43653.4396412037,Loan Account Payment,8806415.0,43654.0,LAP,,19882.0,,,2010413193.2010413193,,
600.0,101,Karnataka Tax Payment,,,,22013825100701.0,Corporate,510101001971262.0,,,8864690,,,,FEBA_T.csv,,UNMATCHED,,,,,UNMATCHED,,,43653.886921296296,8864690.0,FEBA,07-07-2019 00:00:00,SUC,11433771911383621960,,,,,,INR,43653.8869328704,Tax Payment,8815349.0,43653.0,TXP,,,,,CB3123.CB3123TDS1,,
1000.0,101,Karnataka Tax Payment,,,,22013825100701.0,Retail,520111028735435.0,,,8856810,,,,FEBA_T.csv,,UNMATCHED,,,,,UNMATCHED,,,43653.5066319444,8856810.0,FEBA,07-07-2019 00:00:00,SUC,11420934440685458249,,,,,,INR,43653.5066435185,Tax Payment,8808079.0,43653.0,TXP,,,,,2009759824.2009759824,,
1800.0,101,Karnataka Tax Payment,,,,22013825100701.0,Corporate,510101004125737.0,,,8855171,,,,FEBA_T.csv,,UNMATCHED,,,,,UNMATCHED,,,43653.4491666667,8855171.0,FEBA,07-07-2019 00:00:00,SUC,11439002746674057600,,,,,,INR,43653.4491782407,Tax Payment,8806661.0,43653.0,TXP,,,,,CB0092.CB0092TDS2,,
2400.0,101,Karnataka Tax Payment,,,,22013825100701.0,Retail,520101056035213.0,,,8855930,,,,FEBA_T.csv,,UNMATCHED,,,,,UNMATCHED,,,43653.4748032407,8855930.0,FEBA,07-07-2019 00:00:00,SUC,11831399141664750243,,,,,,INR,43653.4748032407,Tax Payment,8807270.0,43653.0,TXP,,,,,2009788079.2009788079,,
600.0,101,Karnataka Tax Payment,,,,22013825100701.0,Corporate,510101001928693.0,,,8861357,,,,FEBA_T.csv,,UNMATCHED,,,,,UNMATCHED,,,43653.720115740696,8861357.0,FEBA,07-07-2019 00:00:00,SUC,11586803475387215250,,,,,,INR,43653.7201273148,Tax Payment,8812266.0,43653.0,TXP,,,,,1000310089.1000310089,,
20.0,101,West Bengal Tax Payment,,,,52013825100701.0,Retail,520101050080111.0,,,8865669,,,,FEBA_T.csv,,UNMATCHED,,,,,UNMATCHED,,,43653.9503819444,8865669.0,FEBA,07-07-2019 00:00:00,SUC,13809075615122194340,,,,,,INR,43653.9503935185,Tax Payment,8816206.0,43653.0,TXP,,,,,2008581012.2008581012,,
1000.0,101,Karnataka Tax Payment,,,,22013825100701.0,Corporate,510101001321500.0,,,8857022,,,,FEBA_T.csv,,UNMATCHED,,,,,UNMATCHED,,,43653.5166087963,8857022.0,FEBA,07-07-2019 00:00:00,SUC,10654957211272422325,,,,,,INR,43653.5166203704,Tax Payment,8808336.0,43653.0,TXP,,,,,CB1763.CB1763TDS1,,
800.0,101,Karnataka Tax Payment,,,,22013825100701.0,Corporate,510101003407542.0,,,8858585,,,,FEBA_T.csv,,UNMATCHED,,,,,UNMATCHED,,,43653.571678240696,8858585.0,FEBA,07-07-2019 00:00:00,SUC,13419945984678918624,,,,,,INR,43653.5716898148,Tax Payment,8809733.0,43653.0,TXP,,,,,CB3230.CB3230TDS1,,
300.0,101,West Bengal Tax Payment,,,,52013825100701.0,Retail,520101199857845.0,,,8856758,,,,FEBA_T.csv,,UNMATCHED,,,,,UNMATCHED,,,43653.504340277796,8856758.0,FEBA,07-07-2019 00:00:00,SUC,9998145624249624967,,,,,,INR,43653.5043518519,Tax Payment,8808039.0,43653.0,TXP,,,,,2014300129.2014300129,,
1560.0,101,West Bengal Tax Payment,,,,52013825100701.0,Corporate,510101004605003.0,,,8855916,,,,FEBA_T.csv,,UNMATCHED,,,,,UNMATCHED,,,43653.4773148148,8855916.0,FEBA,07-07-2019 00:00:00,SUC,9546899196436852914,,,,,,INR,43653.477337963,Tax Payment,8807308.0,43653.0,TXP,,,,,CB1045.CB1045TDS2,,
800.0,101,Karnataka Tax Payment,,,,22013825100701.0,Corporate,510101000091013.0,,,8864286,,,,FEBA_T.csv,,UNMATCHED,,,,,UNMATCHED,,,43653.8640740741,8864286.0,FEBA,07-07-2019 00:00:00,SUC,12884601642034819451,,,,,,INR,43653.8640856482,Tax Payment,8814974.0,43653.0,TXP,,,,,CB3212.CB3212TDS1,,
1560.0,101,West Bengal Tax Payment,,,,52013825100701.0,Retail,520101240955923.0,,,8855681,,,,FEBA_T.csv,,UNMATCHED,,,,,UNMATCHED,,,43653.4656944444,8855681.0,FEBA,07-07-2019 00:00:00,SUC,12899963587599329569,,,,,,INR,43653.4657060185,Tax Payment,8807040.0,43653.0,TXP,,,,,2022486566.2022486566,,
32339.0,101,Direct Tax Payment,,,,209013881120101.0,Corporate,510101003396151.0,,,8809389,,,,FEBA_T.csv,,UNMATCHED,,,,,UNMATCHED,,,43653.801400462995,8809389.0,FEBA,07-07-2019 00:00:00,SUC,9863896347245832650,,,,,,INR,43653.801412037,Tax Payment,8813801.0,43653.0,TXP,,21000.0,,,CB0282.CB0282TDS2,,
440.0,101,West Bengal Tax Payment,,,,52013825100701.0,Retail,520101252137661.0,,,8864231,,,,FEBA_T.csv,,UNMATCHED,,,,,UNMATCHED,,,43653.8605324074,8864231.0,FEBA,07-07-2019 00:00:00,SUC,13136918528363445343,,,,,,INR,43653.8605439815,Tax Payment,8814893.0,43653.0,TXP,,,,,2024198795.2024198795,,
2500.0,101,Karnataka Tax Payment,,,,22013825100701.0,Retail,520101256959427.0,,,8858528,,,,FEBA_T.csv,,UNMATCHED,,,,,UNMATCHED,,,43653.5674305556,8858528.0,FEBA,07-07-2019 00:00:00,SUC,12286603733596610739,,,,,,INR,43653.5674421296,Tax Payment,8809651.0,43653.0,TXP,,,,,2025148826.2025148826,,
3800.0,101,Karnataka Tax Payment,,,,22013825100701.0,Corporate,510101001402802.0,,,8863233,,,,FEBA_T.csv,,UNMATCHED,,,,,UNMATCHED,,,43653.8112847222,8863233.0,FEBA,07-07-2019 00:00:00,SUC,12017272564150049113,,,,,,INR,43653.8112847222,Tax Payment,8813989.0,43653.0,TXP,,,,,1000215611.1000215611,,
300.0,101,West Bengal Tax Payment,,,,52013825100701.0,Retail,520101248706884.0,,,8865442,,,,FEBA_T.csv,,UNMATCHED,,,,,UNMATCHED,,,43653.9322106481,8865442.0,FEBA,07-07-2019 00:00:00,SUC,13628017673731442385,,,,,,INR,43653.9322222222,Tax Payment,8815995.0,43653.0,TXP,,,,,2023860498.2023860498,,
600.0,101,Karnataka Tax Payment,,,,22013825100701.0,Corporate,560131000051514.0,,,8863550,,,,FEBA_T.csv,,UNMATCHED,,,,,UNMATCHED,,,43653.8259027778,8863550.0,FEBA,07-07-2019 00:00:00,SUC,12386101251548275532,,,,,,INR,43653.8259143519,Tax Payment,8814279.0,43653.0,TXP,,,,,1000310446.1000310446,,
4080.0,101,West Bengal Tax Payment,,,,52013825100701.0,Corporate,510101004605968.0,,,8853105,,,,FEBA_T.csv,,UNMATCHED,,,,,UNMATCHED,,,43653.3050925926,8853105.0,FEBA,07-07-2019 00:00:00,SUC,9500271236529861971,,,,,,INR,43653.3051041667,Tax Payment,8804737.0,43653.0,TXP,,,,,1000772068.1000772068,,
2500.0,101,Karnataka Tax Payment,,,,22013825100701.0,Retail,510101003271373.0,,,8856566,,,,FEBA_T.csv,,UNMATCHED,,,,,UNMATCHED,,,43653.497337962996,8856566.0,FEBA,07-07-2019 00:00:00,SUC,10990565117573513039,,,,,,INR,43653.497349537,Tax Payment,8807854.0,43653.0,TXP,,,,,2014017908.2014017908,,
2500.0,101,Karnataka Tax Payment,,,,22013825100701.0,Retail,520101256959427.0,,,8858488,,,,FEBA_T.csv,,UNMATCHED,,,,,UNMATCHED,,,43653.5656481481,8858488.0,FEBA,07-07-2019 00:00:00,SUC,10707315610713286036,,,,,,INR,43653.565659722204,Tax Payment,8809612.0,43653.0,TXP,,,,,2025148826.2025148826,,
300.0,101,West Bengal Tax Payment,,,,52013825100701.0,Corporate,510101002500840.0,,,8854496,,,,FEBA_T.csv,,UNMATCHED,,,,,UNMATCHED,,,43653.4149189815,8854496.0,FEBA,07-07-2019 00:00:00,SUC,12677206671740221214,,,,,,INR,43653.4149189815,Tax Payment,8805952.0,43653.0,TXP,,,,,1000411184.1000411184,,
1400.0,101,Karnataka Tax Payment,,,,22013825100701.0,Retail,565181000034920.0,,,8855424,,,,FEBA_T.csv,,UNMATCHED,,,,,UNMATCHED,,,43653.457094907404,8855424.0,FEBA,07-07-2019 00:00:00,SUC,12114506340497659478,,,,,,INR,43653.457094907404,Tax Payment,8806805.0,43653.0,TXP,,,,,2005481573.2005481573,,
20.0,101,West Bengal Tax Payment,,,,52013825100701.0,Retail,520111001746606.0,,,8863535,,,,FEBA_T.csv,,UNMATCHED,,,,,UNMATCHED,,,43653.8243981481,8863535.0,FEBA,07-07-2019 00:00:00,SUC,13525865349762941946,,,,,,INR,43653.824409722205,Tax Payment,8814266.0,43653.0,TXP,,,,,2004318088.2004318088,,
3400.0,101,Karnataka Tax Payment,,,,22013825100701.0,Retail,520101067036054.0,,,8855340,,,,FEBA_T.csv,,UNMATCHED,,,,,UNMATCHED,,,43653.4526736111,8855340.0,FEBA,07-07-2019 00:00:00,SUC,10920960982510859193,,,,,,INR,43653.4526851852,Tax Payment,8806725.0,43653.0,TXP,,,,,2011723134.2011723134,,
2500.0,101,Karnataka Tax Payment,,,,22013825100701.0,Retail,520101256959427.0,,,8857086,,,,FEBA_T.csv,,UNMATCHED,,,,,UNMATCHED,,,43653.5166087963,8857086.0,FEBA,07-07-2019 00:00:00,SUC,10407525103166638691,,,,,,INR,43653.5166435185,Tax Payment,8808313.0,43653.0,TXP,,,,,2025148826.2025148826,,
20.0,101,West Bengal Tax Payment,,,,52013825100701.0,Retail,520101252935655.0,,,8865985,,,,FEBA_T.csv,,UNMATCHED,,,,,UNMATCHED,,,43653.984224537,8865985.0,FEBA,07-07-2019 00:00:00,SUC,12997665663228933194,,,,,,INR,43653.9842361111,Tax Payment,8816493.0,43653.0,TXP,,,,,2024335804.2024335804,,
2500.0,101,Karnataka Tax Payment,,,,22013825100701.0,Retail,520101256959427.0,,,8859945,,,,FEBA_T.csv,,UNMATCHED,,,,,UNMATCHED,,,43653.639224537,8859945.0,FEBA,07-07-2019 00:00:00,SUC,12113908066239176630,,,,,,INR,43653.6392361111,Tax Payment,8810937.0,43653.0,TXP,,,,,2025148826.2025148826,,
1000.0,101,Telangana Tax Payment,,,,524013825100701.0,Corporate,510101000680035.0,,,8859924,,,,FEBA_T.csv,,UNMATCHED,,,,,UNMATCHED,,,43653.6421643519,8859924.0,FEBA,07-07-2019 00:00:00,SUC,12767348573465140092,,,,,,INR,43653.642175925896,Tax Payment,8810981.0,43653.0,TXP,,,,,BNRCO.BNRBNRCO,,
800.0,101,Karnataka Tax Payment,,,,22013825100701.0,Retail,520101042025237.0,,,8857949,,,,FEBA_T.csv,,UNMATCHED,,,,,UNMATCHED,,,43653.5451851852,8857949.0,FEBA,07-07-2019 00:00:00,SUC,12892597537238083132,,,,,,INR,43653.5451967593,Tax Payment,8809101.0,43653.0,TXP,,,,,2007138608.2007138608,,
2500.0,101,Karnataka Tax Payment,,,,22013825100701.0,Retail,520101256959427.0,,,8860074,,,,FEBA_T.csv,,UNMATCHED,,,,,UNMATCHED,,,43653.6472337963,8860074.0,FEBA,07-07-2019 00:00:00,SUC,9369470918910569126,,,,,,INR,43653.6472337963,Tax Payment,8811070.0,43653.0,TXP,,,,,2025148826.2025148826,,
2500.0,101,Karnataka Tax Payment,,,,22013825100701.0,Retail,520101256959427.0,,,8860003,,,,FEBA_T.csv,,UNMATCHED,,,,,UNMATCHED,,,43653.6428472222,8860003.0,FEBA,07-07-2019 00:00:00,SUC,13763257733336605670,,,,,,INR,43653.6428587963,Tax Payment,8810994.0,43653.0,TXP,,,,,2025148826.2025148826,,
2800.0,101,Karnataka Tax Payment,,,,22013825100701.0,Retail,565181000109882.0,,,8860152,,,,FEBA_T.csv,,UNMATCHED,,,,,UNMATCHED,,,43653.6531828704,8860152.0,FEBA,07-07-2019 00:00:00,SUC,9538931667801366227,,,,,,INR,43653.6531944444,Tax Payment,8811185.0,43653.0,TXP,,,,,2022170800.2022170800,,
600.0,101,West Bengal Tax Payment,,,,52013825100701.0,Corporate,510101002500840.0,,,8854442,,,,FEBA_T.csv,,UNMATCHED,,,,,UNMATCHED,,,43653.4119212963,8854442.0,FEBA,07-07-2019 00:00:00,SUC,11868682555359702427,,,,,,INR,43653.4119444444,Tax Payment,8805902.0,43653.0,TXP,,,,,1000411184.1000411184,,
1000.0,101,Karnataka Tax Payment,,,,22013825100701.0,Corporate,510101006072797.0,,,8860641,,,,FEBA_T.csv,,UNMATCHED,,,,,UNMATCHED,,,43653.694837963,8860641.0,FEBA,07-07-2019 00:00:00,SUC,13357976442919095566,,,,,,INR,43653.694837963,Tax Payment,8811842.0,43653.0,TXP,,,,,CB2148.CB2148TDS2,,
1421.0,101,Karnataka Tax Payment,,,,22013825100701.0,Retail,520471001923890.0,,,8860888,,,,FEBA_T.csv,,UNMATCHED,,,,,UNMATCHED,,,43653.6943402778,8860888.0,FEBA,07-07-2019 00:00:00,SUC,10899446035613855534,,,,,,INR,43653.6943402778,Tax Payment,8811846.0,43653.0,TXP,,,,,2003579907.2003579907,,
2500.0,101,Karnataka Tax Payment,,,,22013825100701.0,Retail,520101256959427.0,,,8857821,,,,FEBA_T.csv,,UNMATCHED,,,,,UNMATCHED,,,43653.5402777778,8857821.0,FEBA,07-07-2019 00:00:00,SUC,11917897689101943700,,,,,,INR,43653.5402893519,Tax Payment,8808973.0,43653.0,TXP,,,,,2025148826.2025148826,,
800.0,101,Karnataka Tax Payment,,,,22013825100701.0,Corporate,510101006168433.0,,,8859837,,,,FEBA_T.csv,,UNMATCHED,,,,,UNMATCHED,,,43653.633287037,8859837.0,FEBA,07-07-2019 00:00:00,SUC,10850113386035080708,,,,,,INR,43653.6332986111,Tax Payment,8810845.0,43653.0,TXP,,,,,CB3231.CB3231TDS1,,
20.0,101,West Bengal Tax Payment,,,,52013825100701.0,Retail,520101050080111.0,,,8857767,,,,FEBA_T.csv,,UNMATCHED,,,,,UNMATCHED,,,43653.5388541667,8857767.0,FEBA,07-07-2019 00:00:00,SUC,12470258955855182088,,,,,,INR,43653.538865740695,Tax Payment,8808938.0,43653.0,TXP,,,,,2008581012.2008581012,,
2500.0,101,Karnataka Tax Payment,,,,22013825100701.0,Retail,520101256959427.0,,,8858379,,,,FEBA_T.csv,,UNMATCHED,,,,,UNMATCHED,,,43653.5616319444,8858379.0,FEBA,07-07-2019 00:00:00,SUC,13727311792334532108,,,,,,INR,43653.5616435185,Tax Payment,8809518.0,43653.0,TXP,,,,,2025148826.2025148826,,
2500.0,101,Karnataka Tax Payment,,,,22013825100701.0,Retail,520101256959427.0,,,8857653,,,,FEBA_T.csv,,UNMATCHED,,,,,UNMATCHED,,,43653.5348263889,8857653.0,FEBA,07-07-2019 00:00:00,SUC,13788224648535153117,,,,,,INR,43653.534837963,Tax Payment,8808818.0,43653.0,TXP,,,,,2025148826.2025148826,,
1400.0,101,Telangana Tax Payment,,,,524013825100701.0,Corporate,510101001622330.0,,,8856661,,,,FEBA_T.csv,,UNMATCHED,,,,,UNMATCHED,,,43653.5025115741,8856661.0,FEBA,07-07-2019 00:00:00,SUC,12553476738103797842,,,,,,INR,43653.5025231481,Tax Payment,8807995.0,43653.0,TXP,,,,,CB1235.CB1235TDS2,,
1103.0,101,Karnataka Tax Payment,,,,22013825100701.0,Retail,520101058650519.0,,,8857804,,,,FEBA_T.csv,,UNMATCHED,,,,,UNMATCHED,,,43653.539988425895,8857804.0,FEBA,07-07-2019 00:00:00,SUC,9284806445285785888,,,,,,INR,43653.54,Tax Payment,8808968.0,43653.0,TXP,,,,,2010397466.2010397466,,
200.0,101,Karnataka Tax Payment,,,,22013825100701.0,Corporate,510101003091030.0,,,8854545,,,,FEBA_T.csv,,UNMATCHED,,,,,UNMATCHED,,,43653.4177893519,8854545.0,FEBA,07-07-2019 00:00:00,SUC,11989941835787999199,,,,,,INR,43653.4178125,Tax Payment,8805993.0,43653.0,TXP,,,,,1000502486.1000502486,,
4000.0,101,Karnataka Tax Payment,,,,22013825100701.0,Corporate,510101006226182.0,,,8798178,,,,FEBA_T.csv,,UNMATCHED,,,,,UNMATCHED,,,43653.8328587963,8798178.0,FEBA,07-07-2019 00:00:00,SUC,11089814148763761934,,,,,,INR,43653.8328703704,Tax Payment,8814413.0,43653.0,TXP,,,,,CROMPTON.HVCROMPTON,,
2200.0,101,Karnataka Tax Payment,,,,22013825100701.0,Corporate,510101004507532.0,,,8857742,,,,FEBA_T.csv,,UNMATCHED,,,,,UNMATCHED,,,43653.5392824074,8857742.0,FEBA,07-07-2019 00:00:00,SUC,11845963955253067570,,,,,,INR,43653.5392939815,Tax Payment,8808969.0,43653.0,TXP,,,,,CB0056.CB0056TDS2,,
400.0,101,Karnataka Tax Payment,,,,22013825100701.0,Retail,510101002832983.0,,,8860832,,,,FEBA_T.csv,,UNMATCHED,,,,,UNMATCHED,,,43653.6916319444,8860832.0,FEBA,07-07-2019 00:00:00,SUC,11720022592034453396,,,,,,INR,43653.6916319444,Tax Payment,8811799.0,43653.0,TXP,,,,,2011734255.2011734255,,
1400.0,101,Karnataka Tax Payment,,,,22013825100701.0,Retail,520471001923890.0,,,8862337,,,,FEBA_T.csv,,UNMATCHED,,,,,UNMATCHED,,,43653.7652662037,8862337.0,FEBA,07-07-2019 00:00:00,SUC,13799368002012104871,,,,,,INR,43653.7652777778,Tax Payment,8813155.0,43653.0,TXP,,,,,2003579907.2003579907,,
200.0,101,Karnataka Tax Payment,,,,22013825100701.0,Retail,520141000506407.0,,,8861471,,,,FEBA_T.csv,,UNMATCHED,,,,,UNMATCHED,,,43653.7281365741,8861471.0,FEBA,07-07-2019 00:00:00,SUC,12418488614304179950,,,,,,INR,43653.728148148104,Tax Payment,8812375.0,43653.0,TXP,,,,,2011712415.2011712415,,
800.0,101,Karnataka Tax Payment,,,,22013825100701.0,Corporate,510101006168433.0,,,8855816,,,,FEBA_T.csv,,UNMATCHED,,,,,UNMATCHED,,,43653.6256828704,8855816.0,FEBA,07-07-2019 00:00:00,SUC,11169333623323312911,,,,,,INR,43653.625694444396,Tax Payment,8810724.0,43653.0,TXP,,,,,CB3231.CB3231TDS1,,
1200.0,101,Karnataka Tax Payment,,,,22013825100701.0,Corporate,510101004543237.0,,,8861132,,,,FEBA_T.csv,,UNMATCHED,,,,,UNMATCHED,,,43653.7160069444,8861132.0,FEBA,07-07-2019 00:00:00,SUC,12532749807048344039,,,,,,INR,43653.7160185185,Tax Payment,8812211.0,43653.0,TXP,,,,,CB9964.CB9964TDS5,,
1000000.0,101,,,,,530101345783114.0,Corporate,510101001943366.0,,,FDO_INITIATE,,,,FEBA_T.csv,,UNMATCHED,,,,,UNMATCHED,,,43653.0061574074,FDO_INITIATE,FEBA,07-07-2019 00:00:00,CLO,12927907716557498170,,,,,,INR,43653.0061805556,Fixed Deposit,955511.0,43653.0061805556,FDO_INITIATE,,,,,WCC2144.RGHTWCC2144,,
14261.0,101,HASEM CHOWDHURY,,,,104800101008370.0,Retail,510101000145441.0,,,45501,,,,FEBA_T.csv,,UNMATCHED,,,,,UNMATCHED,,,43653.8744444444,45501.0,FEBA,07-07-2019 00:00:00,SUC,10985303392147027196,,,,,,INR,43653.8744560185,Bulk Upload,138685.0,43653.8744560185,BUP,,,,,1000019476.1000019476,,
5067.0,101,SHUKUER SEKH,,,,104800101008363.0,Retail,510101000145441.0,,,45501,,,,FEBA_T.csv,,UNMATCHED,,,,,UNMATCHED,,,43653.8745023148,45501.0,FEBA,07-07-2019 00:00:00,SUC,9386063789438745473,,,,,,INR,43653.8745023148,Bulk Upload,138693.0,43653.8745023148,BUP,,,,,1000019476.1000019476,,
13277.0,101,SK JABER ALI,,,,104800101009290.0,Retail,510101000145441.0,,,45501,,,,FEBA_T.csv,,UNMATCHED,,,,,UNMATCHED,,,43653.874525463,45501.0,FEBA,07-07-2019 00:00:00,SUC,13395115003627543888,,,,,,INR,43653.874525463,Bulk Upload,138697.0,43653.874525463,BUP,,,,,1000019476.1000019476,,
15263.0,101,MOKARIM SEKH,,,,104800101005366.0,Retail,510101000145441.0,,,45501,,,,FEBA_T.csv,,UNMATCHED,,,,,UNMATCHED,,,43653.8745486111,45501.0,FEBA,07-07-2019 00:00:00,SUC,13194904167908414185,,,,,,INR,43653.8745486111,Bulk Upload,138700.0,43653.8745486111,BUP,,,,,1000019476.1000019476,,
13520.0,101,SALAUDDIN SARKAR,,,,104800101005390.0,Retail,510101000145441.0,,,45503,,,,FEBA_T.csv,,UNMATCHED,,,,,UNMATCHED,,,43653.8778587963,45503.0,FEBA,07-07-2019 00:00:00,SUC,12623977691948895165,,,,,,INR,43653.8778703704,Bulk Upload,138744.0,43653.8778703704,BUP,,,,,1000019476.1000019476,,
13687.0,101,SK SAHIDUL HAQUE,,,,104800101005376.0,Retail,510101000145441.0,,,45503,,,,FEBA_T.csv,,UNMATCHED,,,,,UNMATCHED,,,43653.8778703704,45503.0,FEBA,07-07-2019 00:00:00,SUC,11445532890832368148,,,,,,INR,43653.8778703704,Bulk Upload,138745.0,43653.8778703704,BUP,,,,,1000019476.1000019476,,
14441.0,101,SEKENDAR SK,,,,104800101005396.0,Retail,510101000145441.0,,,45503,,,,FEBA_T.csv,,UNMATCHED,,,,,UNMATCHED,,,43653.8778819444,45503.0,FEBA,07-07-2019 00:00:00,SUC,9735346429915982332,,,,,,INR,43653.8778819444,Bulk Upload,138748.0,43653.8778819444,BUP,,,,,1000019476.1000019476,,
17383.0,101,RABIUL MALLICK,,,,104800101007364.0,Retail,510101000145441.0,,,45503,,,,FEBA_T.csv,,UNMATCHED,,,,,UNMATCHED,,,43653.877893518504,45503.0,FEBA,07-07-2019 00:00:00,SUC,9392813945163883155,,,,,,INR,43653.877893518504,Bulk Upload,138750.0,43653.877893518504,BUP,,,,,1000019476.1000019476,,
19769.0,101,SHUKULAL SEKH,,,,104800101005297.0,Retail,510101000145441.0,,,45503,,,,FEBA_T.csv,,UNMATCHED,,,,,UNMATCHED,,,43653.877893518504,45503.0,FEBA,07-07-2019 00:00:00,SUC,11715539755502778773,,,,,,INR,43653.877905092595,Bulk Upload,138751.0,43653.877905092595,BUP,,,,,1000019476.1000019476,,
11618.0,101,IBADAT SEKH,,,,104800101005356.0,Retail,510101000145441.0,,,45503,,,,FEBA_T.csv,,UNMATCHED,,,,,UNMATCHED,,,43653.8779166667,45503.0,FEBA,07-07-2019 00:00:00,SUC,11097551333267293373,,,,,,INR,43653.8779282407,Bulk Upload,138756.0,43653.8779282407,BUP,,,,,1000019476.1000019476,,
15683.0,101,KERIM SEKH,,,,104800101005368.0,Retail,510101000145441.0,,,45503,,,,FEBA_T.csv,,UNMATCHED,,,,,UNMATCHED,,,43653.877986111096,45503.0,FEBA,07-07-2019 00:00:00,SUC,12794285654852298422,,,,,,INR,43653.877986111096,Bulk Upload,138769.0,43653.877986111096,BUP,,,,,1000019476.1000019476,,
15983.0,101,IBRAHIM SK,,,,104800101008372.0,Retail,510101000145441.0,,,45503,,,,FEBA_T.csv,,UNMATCHED,,,,,UNMATCHED,,,43653.8779976852,45503.0,FEBA,07-07-2019 00:00:00,SUC,9919218762324746134,,,,,,INR,43653.8780092593,Bulk Upload,138773.0,43653.8780092593,BUP,,,,,1000019476.1000019476,,
12949.0,101,LALTU MONDAL,,,,104800101007254.0,Retail,510101000145441.0,,,45501,,,,FEBA_T.csv,,UNMATCHED,,,,,UNMATCHED,,,43653.8743171296,45501.0,FEBA,07-07-2019 00:00:00,SUC,9260556694303269039,,,,,,INR,43653.8743171296,Bulk Upload,138665.0,43653.8743171296,BUP,,,,,1000019476.1000019476,,
32353.0,101,RAVIKANT YADAV,,,,80025934414.0,Corporate,565141000039078.0,,,45491,,,,FEBA_T.csv,,UNMATCHED,,,,,UNMATCHED,,,43653.5763773148,45491.0,FEBA,07-07-2019 00:00:00,SUC,10315599281108787293,,,,,,INR,43653.5808564815,Bulk Upload,138659.0,43653.5808564815,BUP,,,,,ATCO1768.NJATCO1768,,
91039.0,101,KAPOORCHANDRA SAHU,,,,34787061931.0,Corporate,565141000039078.0,,,45491,,,,FEBA_T.csv,,UNMATCHED,,,,,UNMATCHED,,,43653.5763773148,45491.0,FEBA,07-07-2019 00:00:00,SUC,9537361778891816464,,,,,,INR,43653.5808912037,Bulk Upload,138660.0,43653.5808912037,BUP,,,,,ATCO1768.NJATCO1768,,
30186.0,101,PRAKASH SINGH KURMI,,,,1741520666.0,Corporate,565141000039078.0,,,45491,,,,FEBA_T.csv,,UNMATCHED,,,,,UNMATCHED,,,43653.5763773148,45491.0,FEBA,07-07-2019 00:00:00,SUC,11747553100686992380,,,,,,INR,43653.5809490741,Bulk Upload,138661.0,43653.5809490741,BUP,,,,,ATCO1768.NJATCO1768,,
20000.0,101,VEERENDRA,,,,2383101007563.0,Corporate,565141000039078.0,,,45491,,,,FEBA_T.csv,,UNMATCHED,,,,,UNMATCHED,,,43653.5763773148,45491.0,FEBA,07-07-2019 00:00:00,SUC,13167860339980535795,,,,,,INR,43653.5809953704,Bulk Upload,138662.0,43653.5809953704,BUP,,,,,ATCO1768.NJATCO1768,,
17468.0,101,SEKH RAJU,,,,104800101005405.0,Retail,510101000145441.0,,,45502,,,,FEBA_T.csv,,UNMATCHED,,,,,UNMATCHED,,,43653.8761342593,45502.0,FEBA,07-07-2019 00:00:00,SUC,9858740666213953510,,,,,,INR,43653.8761342593,Bulk Upload,138702.0,43653.8761342593,BUP,,,,,1000019476.1000019476,,
15223.0,101,RAJIB SEKH,,,,104800101006928.0,Retail,510101000145441.0,,,45502,,,,FEBA_T.csv,,UNMATCHED,,,,,UNMATCHED,,,43653.8761921296,45502.0,FEBA,07-07-2019 00:00:00,SUC,11453906336534897019,,,,,,INR,43653.8761921296,Bulk Upload,138715.0,43653.8761921296,BUP,,,,,1000019476.1000019476,,
11157.0,101,RABIUL SEKH,,,,104800101011479.0,Retail,510101000145441.0,,,45502,,,,FEBA_T.csv,,UNMATCHED,,,,,UNMATCHED,,,43653.8762152778,45502.0,FEBA,07-07-2019 00:00:00,SUC,10503986602972522548,,,,,,INR,43653.8762268519,Bulk Upload,138720.0,43653.8762268519,BUP,,,,,1000019476.1000019476,,
14919.0,101,PROBITRA DHARA,,,,104800101011997.0,Retail,510101000145441.0,,,45502,,,,FEBA_T.csv,,UNMATCHED,,,,,UNMATCHED,,,43653.87625,45502.0,FEBA,07-07-2019 00:00:00,SUC,9935290176665864796,,,,,,INR,43653.87625,Bulk Upload,138727.0,43653.87625,BUP,,,,,1000019476.1000019476,,
12739.0,101,SK DALIM,,,,104800101011233.0,Retail,510101000145441.0,,,45502,,,,FEBA_T.csv,,UNMATCHED,,,,,UNMATCHED,,,43653.8762615741,45502.0,FEBA,07-07-2019 00:00:00,SUC,13552432532476636865,,,,,,INR,43653.8762615741,Bulk Upload,138729.0,43653.8762615741,BUP,,,,,1000019476.1000019476,,
4387.0,101,LALAN SEKH,,,,104800101005307.0,Retail,510101000145441.0,,,45502,,,,FEBA_T.csv,,UNMATCHED,,,,,UNMATCHED,,,43653.8762615741,45502.0,FEBA,07-07-2019 00:00:00,SUC,13457622294029473892,,,,,,INR,43653.876273148104,Bulk Upload,138731.0,43653.876273148104,BUP,,,,,1000019476.1000019476,,
13538.0,101,RAJIB KANTI DAS,,,,104800101011053.0,Retail,510101000145441.0,,,45504,,,,FEBA_T.csv,,UNMATCHED,,,,,UNMATCHED,,,43653.8794791667,45504.0,FEBA,07-07-2019 00:00:00,SUC,9592300170101122774,,,,,,INR,43653.8794791667,Bulk Upload,138787.0,43653.8794791667,BUP,,,,,1000019476.1000019476,,
12799.0,101,SK SAHIDUL,,,,104800101007513.0,Retail,510101000145441.0,,,45504,,,,FEBA_T.csv,,UNMATCHED,,,,,UNMATCHED,,,43653.8794791667,45504.0,FEBA,07-07-2019 00:00:00,SUC,12851156674937113267,,,,,,INR,43653.8794791667,Bulk Upload,138788.0,43653.8794791667,BUP,,,,,1000019476.1000019476,,
23634.0,101,ABBASUDDIN SK,,,,104800101005292.0,Retail,510101000145441.0,,,45504,,,,FEBA_T.csv,,UNMATCHED,,,,,UNMATCHED,,,43653.8794791667,45504.0,FEBA,07-07-2019 00:00:00,SUC,12933706511864309092,,,,,,INR,43653.8794907407,Bulk Upload,138789.0,43653.8794907407,BUP,,,,,1000019476.1000019476,,
13320.0,101,HOSSAIN MOLLA,,,,104800101005772.0,Retail,510101000145441.0,,,45504,,,,FEBA_T.csv,,UNMATCHED,,,,,UNMATCHED,,,43653.8794907407,45504.0,FEBA,07-07-2019 00:00:00,SUC,12399782641088878646,,,,,,INR,43653.8794907407,Bulk Upload,138790.0,43653.8794907407,BUP,,,,,1000019476.1000019476,,
11718.0,101,M LAKSHMI,,,,104800101006931.0,Retail,510101000145441.0,,,45504,,,,FEBA_T.csv,,UNMATCHED,,,,,UNMATCHED,,,43653.8795486111,45504.0,FEBA,07-07-2019 00:00:00,SUC,9912827155234797209,,,,,,INR,43653.8795486111,Bulk Upload,138802.0,43653.8795486111,BUP,,,,,1000019476.1000019476,,
13473.0,101,D.EGAVALLI,,,,104800101005479.0,Retail,510101000145441.0,,,45504,,,,FEBA_T.csv,,UNMATCHED,,,,,UNMATCHED,,,43653.8795717593,45504.0,FEBA,07-07-2019 00:00:00,SUC,12044493487876628159,,,,,,INR,43653.8795717593,Bulk Upload,138806.0,43653.8795717593,BUP,,,,,1000019476.1000019476,,
8171.0,101,COTMAC ELECTRONICS PRIVATE LIMITED,,,,209013881120101.0,Corporate,560101000005660.0,,,,,,,FEBA_T.csv,,UNMATCHED,,,,,UNMATCHED,3.5021807072019e+18,,43651.7763194444,CD07072019676140,FEBA,07-07-2019 00:00:00,SUC,11566137959235714946,,,,,,INR,43653.6315625,Direct Tax Bulk Upload,0.0,43653.6315625,DRTAXFU,,,,,CEPLTD.SUBHASHCEPLTD,,
834369.0,101,COTMAC ELECTRONICS PRIVATE LIMITED,,,,209013881120101.0,Corporate,560101000005660.0,,,,,,,FEBA_T.csv,,UNMATCHED,,,,,UNMATCHED,3.5021807072019e+18,,43651.7763194444,CD07072019676141,FEBA,07-07-2019 00:00:00,SUC,12638842601737634537,,,,,,INR,43653.6315625,Direct Tax Bulk Upload,0.0,43653.6315625,DRTAXFU,,,,,CEPLTD.SUBHASHCEPLTD,,
181884.0,101,COTMAC ELECTRONICS PRIVATE LIMITED,,,,209013881120101.0,Corporate,560101000005660.0,,,,,,,FEBA_T.csv,,UNMATCHED,,,,,UNMATCHED,3.5021807072019e+18,,43651.7763194444,CD07072019676142,FEBA,07-07-2019 00:00:00,SUC,13005389753554890641,,,,,,INR,43653.6315625,Direct Tax Bulk Upload,0.0,43653.6315625,DRTAXFU,,,,,CEPLTD.SUBHASHCEPLTD,,
45655.0,101,COTMAC ELECTRONICS PRIVATE LIMITED,,,,209013881120101.0,Corporate,560101000005660.0,,,,,,,FEBA_T.csv,,UNMATCHED,,,,,UNMATCHED,3.5021807072019e+18,,43651.7763194444,CD07072019676143,FEBA,07-07-2019 00:00:00,SUC,11927725897408132328,,,,,,INR,43653.631574074105,Direct Tax Bulk Upload,0.0,43653.631574074105,DRTAXFU,,,,,CEPLTD.SUBHASHCEPLTD,,
138164.0,101,COTMAC ELECTRONICS PRIVATE LIMITED,,,,209013881120101.0,Corporate,560101000005660.0,,,,,,,FEBA_T.csv,,UNMATCHED,,,,,UNMATCHED,3.5021807072019e+18,,43651.7763194444,CD07072019676144,FEBA,07-07-2019 00:00:00,SUC,12791952833981413772,,,,,,INR,43653.631574074105,Direct Tax Bulk Upload,0.0,43653.631574074105,DRTAXFU,,,,,CEPLTD.SUBHASHCEPLTD,,
4301.0,101,COTMAC ELECTRONICS PRIVATE LIMITED,,,,209013881120101.0,Corporate,560101000005660.0,,,,,,,FEBA_T.csv,,UNMATCHED,,,,,UNMATCHED,3.5021807072019e+18,,43651.7763194444,CD07072019676145,FEBA,07-07-2019 00:00:00,SUC,10182609814018483666,,,,,,INR,43653.631574074105,Direct Tax Bulk Upload,0.0,43653.631574074105,DRTAXFU,,,,,CEPLTD.SUBHASHCEPLTD,,
772110.0,101,COTMAC ELECTRONICS PRIVATE LIMITED,,,,209013881120101.0,Corporate,560101000005660.0,,,,,,,FEBA_T.csv,,UNMATCHED,,,,,UNMATCHED,3.5021807072019e+18,,43651.7763194444,CD07072019676146,FEBA,07-07-2019 00:00:00,SUC,10017348876368296317,,,,,,INR,43653.631574074105,Direct Tax Bulk Upload,0.0,43653.631574074105,DRTAXFU,,,,,CEPLTD.SUBHASHCEPLTD,,
90585.0,101,COTMAC ELECTRONICS PRIVATE LIMITED,,,,209013881120101.0,Corporate,560101000005660.0,,,,,,,FEBA_T.csv,,UNMATCHED,,,,,UNMATCHED,3.5021807072019e+18,,43651.7763194444,CD07072019676147,FEBA,07-07-2019 00:00:00,SUC,9555021082380704493,,,,,,INR,43653.631585648196,Direct Tax Bulk Upload,0.0,43653.631585648196,DRTAXFU,,,,,CEPLTD.SUBHASHCEPLTD,,
728.0,101,,,,,,,,,,,,UNMATCHED,,10001_07072019_OLT.txt,,UNMATCHED,,10001.0,,,,8714736069.0,8866060.0,,,OLT,07-07-2019 00:00:00,S,13806797426816576476,,,,,,,,,,,,,,,,,,07-07-2019 00:00:00
448.0,101,,,,,,,,,,,,UNMATCHED,,10048_07072019_OLT.txt,,UNMATCHED,,10048.0,,,,108621910722.0,8866065.0,,,OLT,07-07-2019 00:00:00,S,11124149627399291350,,,,,,,,,,,,,,,,,,07-07-2019 00:00:00
5400.0,101,,,,,,,,,,,,UNMATCHED,,10007_07072019_OLT.txt,,UNMATCHED,,10007.0,,,,844527459.0,8851435.0,,,OLT,07-07-2019 00:00:00,S,12567275793885053895,,,,,,,,,,,,,,,,,,06-07-2019 00:00:00
286646.0,101,,,,,,,,,,,,UNMATCHED,,10007_07072019_OLT.txt,,UNMATCHED,,10007.0,,,,844467894.0,8849932.0,,,OLT,07-07-2019 00:00:00,S,11002540944610694161,,,,,,,,,,,,,,,,,,06-07-2019 00:00:00
51858.0,101,,,,,,,,,,,,UNMATCHED,,10007_07072019_OLT.txt,,UNMATCHED,,10007.0,,,,844466638.0,8849926.0,,,OLT,07-07-2019 00:00:00,S,9469670572249696981,,,,,,,,,,,,,,,,,,06-07-2019 00:00:00
17048.0,101,,,,,,,,,,,,UNMATCHED,,10007_07072019_OLT.txt,,UNMATCHED,,10007.0,,,,844461959.0,8849861.0,,,OLT,07-07-2019 00:00:00,S,10250140524732335662,,,,,,,,,,,,,,,,,,06-07-2019 00:00:00
940.0,101,,,,,,,,,,,,UNMATCHED,,10007_07072019_OLT.txt,,UNMATCHED,,10007.0,,,,844467150.0,8849894.0,,,OLT,07-07-2019 00:00:00,S,12231577982457536653,,,,,,,,,,,,,,,,,,06-07-2019 00:00:00
27847.0,101,,,,,,,,,,,,UNMATCHED,,10007_07072019_OLT.txt,,UNMATCHED,,10007.0,,,,844466991.0,8849905.0,,,OLT,07-07-2019 00:00:00,S,11891820574305064904,,,,,,,,,,,,,,,,,,06-07-2019 00:00:00
3628.0,101,,,,,,,,,,,,UNMATCHED,,10007_07072019_OLT.txt,,UNMATCHED,,10007.0,,,,844476141.0,8850177.0,,,OLT,07-07-2019 00:00:00,S,10679426475195095070,,,,,,,,,,,,,,,,,,06-07-2019 00:00:00
4600.0,101,,,,,,,,,,,,UNMATCHED,,10007_07072019_OLT.txt,,UNMATCHED,,10007.0,,,,844565100.0,8852169.0,,,OLT,07-07-2019 00:00:00,S,13138664030661634869,,,,,,,,,,,,,,,,,,06-07-2019 00:00:00
1650.0,101,,,,,,,,,,,,UNMATCHED,,10007_07072019_OLT.txt,,UNMATCHED,,10007.0,,,,844520933.0,8851304.0,,,OLT,07-07-2019 00:00:00,S,10849551305271962409,,,,,,,,,,,,,,,,,,06-07-2019 00:00:00
21296.0,101,,,,,,,,,,,,UNMATCHED,,10007_07072019_OLT.txt,,UNMATCHED,,10007.0,,,,844586794.0,8852548.0,,,OLT,07-07-2019 00:00:00,S,11141637980467252581,,,,,,,,,,,,,,,,,,06-07-2019 00:00:00
4230.0,101,,,,,,,,,,,,UNMATCHED,,10007_07072019_OLT.txt,,UNMATCHED,,10007.0,,,,844496840.0,8850766.0,,,OLT,07-07-2019 00:00:00,S,13671839924491385685,,,,,,,,,,,,,,,,,,06-07-2019 00:00:00
1505.0,101,,,,,,,,,,,,UNMATCHED,,10007_07072019_OLT.txt,,UNMATCHED,,10007.0,,,,844495830.0,8850715.0,,,OLT,07-07-2019 00:00:00,S,11318998268262921170,,,,,,,,,,,,,,,,,,06-07-2019 00:00:00
2350.0,101,,,,,,,,,,,,UNMATCHED,,10007_07072019_OLT.txt,,UNMATCHED,,10007.0,,,,844514064.0,8851168.0,,,OLT,07-07-2019 00:00:00,S,11965568216936928451,,,,,,,,,,,,,,,,,,06-07-2019 00:00:00
64910.0,101,,,,,,,,,,,,UNMATCHED,,10007_07072019_OLT.txt,,UNMATCHED,,10007.0,,,,844512428.0,8851131.0,,,OLT,07-07-2019 00:00:00,S,10929626872790966710,,,,,,,,,,,,,,,,,,06-07-2019 00:00:00
2300.0,101,,,,,,,,,,,,UNMATCHED,,10007_07072019_OLT.txt,,UNMATCHED,,10007.0,,,,844513085.0,8851149.0,,,OLT,07-07-2019 00:00:00,S,9482225336249141750,,,,,,,,,,,,,,,,,,06-07-2019 00:00:00
500.0,101,,,,,,,,,,,,UNMATCHED,,10007_07072019_OLT.txt,,UNMATCHED,,10007.0,,,,844463086.0,8849765.0,,,OLT,07-07-2019 00:00:00,S,12629337914590038409,,,,,,,,,,,,,,,,,,06-07-2019 00:00:00
1480.0,101,,,,,,,,,,,,UNMATCHED,,10007_07072019_OLT.txt,,UNMATCHED,,10007.0,,,,844462449.0,8849745.0,,,OLT,07-07-2019 00:00:00,S,12214238717656176618,,,,,,,,,,,,,,,,,,06-07-2019 00:00:00
9000.0,101,,,,,,,,,,,,UNMATCHED,,10007_07072019_OLT.txt,,UNMATCHED,,10007.0,,,,844541031.0,8851760.0,,,OLT,07-07-2019 00:00:00,S,12921694965479975034,,,,,,,,,,,,,,,,,,06-07-2019 00:00:00
320.0,101,,,,,,,,,,,,UNMATCHED,,10007_07072019_OLT.txt,,UNMATCHED,,10007.0,,,,844542509.0,8851756.0,,,OLT,07-07-2019 00:00:00,S,13115023902975258702,,,,,,,,,,,,,,,,,,06-07-2019 00:00:00
24630.0,101,,,,,,,,,,,,UNMATCHED,,10007_07072019_OLT.txt,,UNMATCHED,,10007.0,,,,844543212.0,8851773.0,,,OLT,07-07-2019 00:00:00,S,10798336591088398897,,,,,,,,,,,,,,,,,,06-07-2019 00:00:00
5016.0,101,,,,,,,,,,,,UNMATCHED,,10007_07072019_OLT.txt,,UNMATCHED,,10007.0,,,,844573417.0,8852344.0,,,OLT,07-07-2019 00:00:00,S,11314032426170254256,,,,,,,,,,,,,,,,,,06-07-2019 00:00:00
54000.0,101,,,,,,,,,,,,UNMATCHED,,10007_07072019_OLT.txt,,UNMATCHED,,10007.0,,,,844518715.0,8851236.0,,,OLT,07-07-2019 00:00:00,S,12265522859020032865,,,,,,,,,,,,,,,,,,06-07-2019 00:00:00
20620.0,101,,,,,,,,,,,,UNMATCHED,,10007_07072019_OLT.txt,,UNMATCHED,,10007.0,,,,844530549.0,8851501.0,,,OLT,07-07-2019 00:00:00,S,10148086163261423223,,,,,,,,,,,,,,,,,,06-07-2019 00:00:00
2000.0,101,,,,,,,,,,,,UNMATCHED,,10007_07072019_OLT.txt,,UNMATCHED,,10007.0,,,,844537241.0,8851655.0,,,OLT,07-07-2019 00:00:00,S,12110162088439957104,,,,,,,,,,,,,,,,,,06-07-2019 00:00:00
2350.0,101,,,,,,,,,,,,UNMATCHED,,10007_07072019_OLT.txt,,UNMATCHED,,10007.0,,,,844537446.0,8851638.0,,,OLT,07-07-2019 00:00:00,S,13732667334447510228,,,,,,,,,,,,,,,,,,06-07-2019 00:00:00
320.0,101,,,,,,,,,,,,UNMATCHED,,10007_07072019_OLT.txt,,UNMATCHED,,10007.0,,,,844551024.0,8851903.0,,,OLT,07-07-2019 00:00:00,S,10246121301965288157,,,,,,,,,,,,,,,,,,06-07-2019 00:00:00
180000.0,101,,,,,,,,,,,,UNMATCHED,,10007_07072019_OLT.txt,,UNMATCHED,,10007.0,,,,844570531.0,8852282.0,,,OLT,07-07-2019 00:00:00,S,12513398000826287063,,,,,,,,,,,,,,,,,,06-07-2019 00:00:00
800.0,101,,,,,,,,,,,,UNMATCHED,,10007_07072019_OLT.txt,,UNMATCHED,,10007.0,,,,844493515.0,8850649.0,,,OLT,07-07-2019 00:00:00,S,11287059671116341042,,,,,,,,,,,,,,,,,,06-07-2019 00:00:00
48068.0,101,,,,,,,,,,,,UNMATCHED,,10007_07072019_OLT.txt,,UNMATCHED,,10007.0,,,,844510371.0,8851065.0,,,OLT,07-07-2019 00:00:00,S,13824862341773499571,,,,,,,,,,,,,,,,,,06-07-2019 00:00:00
320.0,101,,,,,,,,,,,,UNMATCHED,,10007_07072019_OLT.txt,,UNMATCHED,,10007.0,,,,844474212.0,8850125.0,,,OLT,07-07-2019 00:00:00,S,12240927272662438928,,,,,,,,,,,,,,,,,,06-07-2019 00:00:00
4052.0,101,,,,,,,,,,,,UNMATCHED,,10007_07072019_OLT.txt,,UNMATCHED,,10007.0,,,,844472694.0,8850079.0,,,OLT,07-07-2019 00:00:00,S,11600535619465838812,,,,,,,,,,,,,,,,,,06-07-2019 00:00:00
16000.0,101,,,,,,,,,,,,UNMATCHED,,10007_07072019_OLT.txt,,UNMATCHED,,10007.0,,,,844544713.0,8851796.0,,,OLT,07-07-2019 00:00:00,S,11798878595508496288,,,,,,,,,,,,,,,,,,06-07-2019 00:00:00
67156.0,101,,,,,,,,,,,,UNMATCHED,,10007_07072019_OLT.txt,,UNMATCHED,,10007.0,,,,844558967.0,8852082.0,,,OLT,07-07-2019 00:00:00,S,13186685619334312840,,,,,,,,,,,,,,,,,,06-07-2019 00:00:00
1580.0,101,,,,,,,,,,,,UNMATCHED,,10007_07072019_OLT.txt,,UNMATCHED,,10007.0,,,,844569153.0,8852248.0,,,OLT,07-07-2019 00:00:00,S,10774173532553982898,,,,,,,,,,,,,,,,,,06-07-2019 00:00:00
37730.0,101,,,,,,,,,,,,UNMATCHED,,10007_07072019_OLT.txt,,UNMATCHED,,10007.0,,,,844476546.0,8850204.0,,,OLT,07-07-2019 00:00:00,S,12365173714415305738,,,,,,,,,,,,,,,,,,06-07-2019 00:00:00
3700.0,101,,,,,,,,,,,,UNMATCHED,,10007_07072019_OLT.txt,,UNMATCHED,,10007.0,,,,844475352.0,8850178.0,,,OLT,07-07-2019 00:00:00,S,9956462335769677080,,,,,,,,,,,,,,,,,,06-07-2019 00:00:00
59330.0,101,,,,,,,,,,,,UNMATCHED,,10007_07072019_OLT.txt,,UNMATCHED,,10007.0,,,,844565212.0,8852185.0,,,OLT,07-07-2019 00:00:00,S,10694109537436242008,,,,,,,,,,,,,,,,,,06-07-2019 00:00:00
100.0,101,,,,,,,,,,,,UNMATCHED,,10007_07072019_OLT.txt,,UNMATCHED,,10007.0,,,,844523764.0,8851340.0,,,OLT,07-07-2019 00:00:00,S,12391917646440018182,,,,,,,,,,,,,,,,,,06-07-2019 00:00:00
2350.0,101,,,,,,,,,,,,UNMATCHED,,10007_07072019_OLT.txt,,UNMATCHED,,10007.0,,,,844583729.0,8852491.0,,,OLT,07-07-2019 00:00:00,S,9224455675209861406,,,,,,,,,,,,,,,,,,06-07-2019 00:00:00
6402.0,101,,,,,,,,,,,,UNMATCHED,,10007_07072019_OLT.txt,,UNMATCHED,,10007.0,,,,844577626.0,8852425.0,,,OLT,07-07-2019 00:00:00,S,9452056160908784878,,,,,,,,,,,,,,,,,,06-07-2019 00:00:00
625.0,101,,,,,,,,,,,,UNMATCHED,,10007_07072019_OLT.txt,,UNMATCHED,,10007.0,,,,844461780.0,8849775.0,,,OLT,07-07-2019 00:00:00,S,10276848704575879803,,,,,,,,,,,,,,,,,,06-07-2019 00:00:00
7306.0,101,,,,,,,,,,,,UNMATCHED,,10007_07072019_OLT.txt,,UNMATCHED,,10007.0,,,,844463237.0,8849831.0,,,OLT,07-07-2019 00:00:00,S,11725226707294227863,,,,,,,,,,,,,,,,,,06-07-2019 00:00:00
116652.0,101,,,,,,,,,,,,UNMATCHED,,10007_07072019_OLT.txt,,UNMATCHED,,10007.0,,,,844463491.0,8849815.0,,,OLT,07-07-2019 00:00:00,S,12633201286726068955,,,,,,,,,,,,,,,,,,06-07-2019 00:00:00
106258.0,101,,,,,,,,,,,,UNMATCHED,,10007_07072019_OLT.txt,,UNMATCHED,,10007.0,,,,844539132.0,8851693.0,,,OLT,07-07-2019 00:00:00,S,10816074038208015874,,,,,,,,,,,,,,,,,,06-07-2019 00:00:00
3700.0,101,,,,,,,,,,,,UNMATCHED,,10007_07072019_OLT.txt,,UNMATCHED,,10007.0,,,,844537207.0,8851664.0,,,OLT,07-07-2019 00:00:00,S,11935556448352518018,,,,,,,,,,,,,,,,,,06-07-2019 00:00:00
20361.0,101,,,,,,,,,,,,UNMATCHED,,10007_07072019_OLT.txt,,UNMATCHED,,10007.0,,,,844459392.0,8849653.0,,,OLT,07-07-2019 00:00:00,S,11231663744643234181,,,,,,,,,,,,,,,,,,06-07-2019 00:00:00
3650.0,101,,,,,,,,,,,,UNMATCHED,,10007_07072019_OLT.txt,,UNMATCHED,,10007.0,,,,844504326.0,8850923.0,,,OLT,07-07-2019 00:00:00,S,10139850896549432325,,,,,,,,,,,,,,,,,,06-07-2019 00:00:00
58700.0,101,,,,,,,,,,,,UNMATCHED,,10007_07072019_OLT.txt,,UNMATCHED,,10007.0,,,,844499724.0,8850944.0,,,OLT,07-07-2019 00:00:00,S,11588676968472289825,,,,,,,,,,,,,,,,,,06-07-2019 00:00:00
333.0,101,,,,,,,,,,,,UNMATCHED,,10007_07072019_OLT.txt,,UNMATCHED,,10007.0,,,,844493323.0,8850663.0,,,OLT,07-07-2019 00:00:00,S,10734353203500688222,,,,,,,,,,,,,,,,,,06-07-2019 00:00:00
320.0,101,,,,,,,,,,,,UNMATCHED,,10007_07072019_OLT.txt,,UNMATCHED,,10007.0,,,,844481302.0,8850328.0,,,OLT,07-07-2019 00:00:00,S,9497251591034799198,,,,,,,,,,,,,,,,,,06-07-2019 00:00:00
3700.0,101,,,,,,,,,,,,UNMATCHED,,10007_07072019_OLT.txt,,UNMATCHED,,10007.0,,,,844481757.0,8850348.0,,,OLT,07-07-2019 00:00:00,S,13164044660508184225,,,,,,,,,,,,,,,,,,06-07-2019 00:00:00
1698.0,101,,,,,,,,,,,,UNMATCHED,,10007_07072019_OLT.txt,,UNMATCHED,,10007.0,,,,844547391.0,8851846.0,,,OLT,07-07-2019 00:00:00,S,9546080782987558312,,,,,,,,,,,,,,,,,,06-07-2019 00:00:00
5321.0,101,,,,,,,,,,,,UNMATCHED,,10007_07072019_OLT.txt,,UNMATCHED,,10007.0,,,,844531649.0,8851525.0,,,OLT,07-07-2019 00:00:00,S,9805393797184580375,,,,,,,,,,,,,,,,,,06-07-2019 00:00:00
2350.0,101,,,,,,,,,,,,UNMATCHED,,10007_07072019_OLT.txt,,UNMATCHED,,10007.0,,,,844486752.0,8850493.0,,,OLT,07-07-2019 00:00:00,S,9952842312801443748,,,,,,,,,,,,,,,,,,06-07-2019 00:00:00
15880.0,101,,,,,,,,,,,,UNMATCHED,,10007_07072019_OLT.txt,,UNMATCHED,,10007.0,,,,844560066.0,8852086.0,,,OLT,07-07-2019 00:00:00,S,11725339771961975259,,,,,,,,,,,,,,,,,,06-07-2019 00:00:00
4500.0,101,,,,,,,,,,,,UNMATCHED,,10007_07072019_OLT.txt,,UNMATCHED,,10007.0,,,,844483892.0,8850393.0,,,OLT,07-07-2019 00:00:00,S,10291580333639537524,,,,,,,,,,,,,,,,,,06-07-2019 00:00:00
114.0,101,,,,,,,,,,,,UNMATCHED,,10007_07072019_OLT.txt,,UNMATCHED,,10007.0,,,,844488391.0,8850529.0,,,OLT,07-07-2019 00:00:00,S,12689894803543994647,,,,,,,,,,,,,,,,,,06-07-2019 00:00:00
