[

	{

		"filters": [{
			"resultkey": "CBSR",
			"source": "results.CBS",
			"expressions": ["df = df[df['FORACID'].str.endswith('1061657016')]"]
		}],
		"rows": {
			"Credit Amount": 0.0,
			"Account Description": "PRINCIPLE ACCT Branch Settlements Inward",
			"Credit Count": "{CBSR,len(df)}",
			"Debit Count": "{CBSR,len(df)}",
			"Account Head": 7551025399010,
			"Debit Amount": "{CBS,df['Amount'].sum()}"
		}
	}

]
