{
	"fileType": "csv",
	"action": [
			{"header":"True",
			"filters": [{

                                "header":"True",
				"resultkey": "payload['custom_reports']['T24&daypost_check']",
				"source": "T24 System",
				"expressions": [
						"payload['custom_reports'] = {}",
					


					
			
 					"payload['custom_reports']['T24&daypost_check'] =df"
					


				]
                             
				

			}
]
},
                   
                   

		

                              {
				"header":"True",
				"filters" :[{
				"header":"True",
				"resultkey": "payload['custom_reports']['T24&daypost_checkB']",
				"source": "For the day Posting data",
				"expressions": [
						
					


					
			
 					"payload['custom_reports']['T24&daypost_check'] =payload['custom_reports']['T24&daypost_check'].append(df)"
					


				]
				
			}
                    ]
                   


		}


             


	]
       
}
