{
	"fileType": "csv",
	"action": [{
			"filters": [{
				"resultkey": "Posted members reconciled_fileE",
				"source": "Posted members reconciled_fileG",
				"expressions": [
						"df = df.loc[df['Amount_Diff']>0]",
					"df.loc[:,'Remarks'] = 'System Data'",
					"payload['Posted members reconciled_fileE'] = df.copy()",
			
					
 					"payload['custom_reports']['Posted members reconciled_fileE'] = payload['Posted members reconciled_fileE'].copy()"
					


				]
			}
                    ],
                   "header":["Branch ID","Branch Name","Center ID","Customer ID",
       "Customer Name","Loan ID","Remarks","member_loan",
         "Amount_Diff","Amount"]


		}
	]
       
}
