HD|20171016000000|20171016234734|
1014561588|TW803030003414|CCGST|1|898.5|898.5|20171016000000|INV00000000000046640|80303|84||84|N|N|N|N|N|161.74|N|898.5|N||N|INDUS|Y|GSTSC|Charge for GST Computation||N||||||||||80.87|80.87|9|9||9971
1024334508|LP413250009434|CCGST|1|3000|3000|20171016000000|INV00000000000032599|41325|70||70|N|N|N|N|N|540|N|3000|N||N|INDUS|Y|GSTSC|Charge for GST Computation||N||||||||||270|270|9|9||9971
1024335772|TW803040008983|CCGST|1|999|999|20171016000000|INV00000000000032628|80304|84||84|N|N|N|N|N|179.82|N|999|N||N|INDUS|Y|GSTSC|Charge for GST Computation||N||||||||||89.91|89.91|9|9||9971
1024682658|TW412610009372|CCGST|1|999|999|20171016000000|INV00000000000036293|41261|70||70|N|N|N|N|N|179.82|N|999|N||N|INDUS|Y|GSTSC|Charge for GST Computation||N||||||||||89.91|89.91|9|9||9971
1024704978|TW413010009425|CCGST|1|999|999|20171016000000|INV00000000000036847|41301|70||70|N|N|N|N|N|179.82|N|999|N||N|INDUS|Y|GSTSC|Charge for GST Computation||N||||||||||89.91|89.91|9|9||9971
1024737664|TW802820009440|CCGST|1|999|999|20171016000000|INV00000000000037128|80282|84||84|N|N|N|N|N|179.82|N|999|N||N|INDUS|Y|GSTSC|Charge for GST Computation||N||||||||||89.91|89.91|9|9||9971
1024750878|TW421610009451|CCGST|1|999|999|20171016000000|INV00000000000037375|42161|54||54|N|N|N|N|N|179.82|N|999|N||N|INDUS|Y|GSTSC|Charge for GST Computation||N||||||||||89.91|89.91|9|9||9971
1024824707|TW421410009577|CCGST|1|999|999|20171016000000|INV00000000000038479|42141|70||70|N|N|N|N|N|179.82|N|999|N||N|INDUS|Y|GSTSC|Charge for GST Computation||N||||||||||89.91|89.91|9|9||9971
1024863848|EH412610009595|CCGST|1|1600|1600|20171016000000|INV00000000000037344|41261|70||70|N|N|N|N|N|288|N|1600|N||N|INDUS|Y|GSTSC|Charge for GST Computation||N||||||||||144|144|9|9||9971
1024887305|EH803010009620|CCGST|1|2000|2000|20171016000000|INV00000000000039157|80301|84||84|N|N|N|N|N|360|N|2000|N||N|INDUS|Y|GSTSC|Charge for GST Computation||N||||||||||180|180|9|9||9971
1024894378|TW421010009635|CCGST|1|999|999|20171016000000|INV00000000000039151|42101|70||70|N|N|N|N|N|179.82|N|999|N||N|INDUS|Y|GSTSC|Charge for GST Computation||N||||||||||89.91|89.91|9|9||9971
1024894617|TW421010009638|CCGST|1|999|999|20171016000000|INV00000000000039213|42101|70||70|N|N|N|N|N|179.82|N|999|N||N|INDUS|Y|GSTSC|Charge for GST Computation||N||||||||||89.91|89.91|9|9||9971
1024895270|TW421010009641|CCGST|1|999|999|20171016000000|INV00000000000039234|42101|70||70|N|N|N|N|N|179.82|N|999|N||N|INDUS|Y|GSTSC|Charge for GST Computation||N||||||||||89.91|89.91|9|9||9971
1024895394|TW421010009639|CCGST|1|999|999|20171016000000|INV00000000000039251|42101|70||70|N|N|N|N|N|179.82|N|999|N||N|INDUS|Y|GSTSC|Charge for GST Computation||N||||||||||89.91|89.91|9|9||9971
1024903190|EH412250009666|CCGST|1|4500|4500|20171016000000|INV00000000000039524|41225|70||70|N|N|N|N|N|810|N|4500|N||N|INDUS|Y|GSTSC|Charge for GST Computation||N||||||||||405|405|9|9||9971
1024954544|TW802520009682|CCGST|1|999|999|20171016000000|INV00000000000040203|80252|84||84|N|N|N|N|N|179.82|N|999|N||N|INDUS|Y|GSTSC|Charge for GST Computation||N||||||||||89.91|89.91|9|9||9971
1024975326|TW802560009738|CCGST|1|999|999|20171016000000|INV00000000000040688|80256|84||84|N|N|N|N|N|179.82|N|999|N||N|INDUS|Y|GSTSC|Charge for GST Computation||N||||||||||89.91|89.91|9|9||9971
1024976125|TW413010009732|CCGST|1|999|999|20171016000000|INV00000000000040672|41301|70||70|N|N|N|N|N|179.82|N|999|N||N|INDUS|Y|GSTSC|Charge for GST Computation||N||||||||||89.91|89.91|9|9||9971
1024976454|TW411060010025|CCGST|1|999|999|20171016000000|INV00000000000037288|41106|70||70|N|N|N|N|N|179.82|N|999|N||N|INDUS|Y|GSTSC|Charge for GST Computation||N||||||||||89.91|89.91|9|9||9971
1024976567|TW803040009506|CCGST|1|999|999|20171016000000|INV00000000000040740|80304|84||84|N|N|N|N|N|179.82|N|999|N||N|INDUS|Y|GSTSC|Charge for GST Computation||N||||||||||89.91|89.91|9|9||9971
1024982719|TW412230009750|CCGST|1|999|999|20171016000000|INV00000000000040870|41223|70||70|N|N|N|N|N|179.82|N|999|N||N|INDUS|Y|GSTSC|Charge for GST Computation||N||||||||||89.91|89.91|9|9||9971
1024995036|EH413250009773|CCGST|1|1560|1560|20171016000000|INV00000000000041141|41325|70||70|N|N|N|N|N|280.8|N|1560|N||N|INDUS|Y|GSTSC|Charge for GST Computation||N||||||||||140.4|140.4|9|9||9971
1024999278|TW421010009832|CCGST|1|999|999|20171016000000|INV00000000000041090|42101|70||70|N|N|N|N|N|179.82|N|999|N||N|INDUS|Y|GSTSC|Charge for GST Computation||N||||||||||89.91|89.91|9|9||9971
1025000095|TW421010009827|CCGST|1|999|999|20171016000000|INV00000000000041030|42101|70||70|N|N|N|N|N|179.82|N|999|N||N|INDUS|Y|GSTSC|Charge for GST Computation||N||||||||||89.91|89.91|9|9||9971
1025025758|TW802540009801|CCGST|1|999|999|20171016000000|INV00000000000041485|80254|84||84|N|N|N|N|N|179.82|N|999|N||N|INDUS|Y|GSTSC|Charge for GST Computation||N||||||||||89.91|89.91|9|9||9971
1025027110|TW803010009804|CCGST|1|999|999|20171016000000|INV00000000000041482|80301|84||84|N|N|N|N|N|179.82|N|999|N||N|INDUS|Y|GSTSC|Charge for GST Computation||N||||||||||89.91|89.91|9|9||9971
1025027314|TW803010009805|CCGST|1|999|999|20171016000000|INV00000000000041544|80301|84||84|N|N|N|N|N|179.82|N|999|N||N|INDUS|Y|GSTSC|Charge for GST Computation||N||||||||||89.91|89.91|9|9||9971
1025034875|TW421010009835|CCGST|1|999|999|20171016000000|INV00000000000040992|42101|70||70|N|N|N|N|N|179.82|N|999|N||N|INDUS|Y|GSTSC|Charge for GST Computation||N||||||||||89.91|89.91|9|9||9971
1025037504|TW803330009841|CCGST|1|999|999|20171016000000|INV00000000000041922|80333|84||84|N|N|N|N|N|179.82|N|999|N||N|INDUS|Y|GSTSC|Charge for GST Computation||N||||||||||89.91|89.91|9|9||9971
1025040460|TW413010009848|CCGST|1|999|999|20171016000000|INV00000000000041713|41301|70||70|N|N|N|N|N|179.82|N|999|N||N|INDUS|Y|GSTSC|Charge for GST Computation||N||||||||||89.91|89.91|9|9||9971
1025041395|TW413020009869|CCGST|1|999|999|20171016000000|INV00000000000042014|41302|70||70|N|N|N|N|N|179.82|N|999|N||N|INDUS|Y|GSTSC|Charge for GST Computation||N||||||||||89.91|89.91|9|9||9971
1025047557|TW412230009875|CCGST|1|999|999|20171016000000|INV00000000000042307|41223|70||70|N|N|N|N|N|179.82|N|999|N||N|INDUS|Y|GSTSC|Charge for GST Computation||N||||||||||89.91|89.91|9|9||9971
1025050321|TW411710010073|CCGST|1|999|999|20171016000000|INV00000000000045674|41171|70||70|N|N|N|N|N|179.82|N|999|N||N|INDUS|Y|GSTSC|Charge for GST Computation||N||||||||||89.91|89.91|9|9||9971
1025056695|TW411710009909|CCGST|1|999|999|20171016000000|INV00000000000042399|41171|70||70|N|N|N|N|N|179.82|N|999|N||N|INDUS|Y|GSTSC|Charge for GST Computation||N||||||||||89.91|89.91|9|9||9971
1025059380|TW802550009914|CCGST|1|999|999|20171016000000|INV00000000000042687|80255|84||84|N|N|N|N|N|179.82|N|999|N||N|INDUS|Y|GSTSC|Charge for GST Computation||N||||||||||89.91|89.91|9|9||9971
1025060849|TW803040009918|CCGST|1|999|999|20171016000000|INV00000000000042696|80304|84||84|N|N|N|N|N|179.82|N|999|N||N|INDUS|Y|GSTSC|Charge for GST Computation||N||||||||||89.91|89.91|9|9||9971
1025061275|TW804310009919|CCGST|1|999|999|20171016000000|INV00000000000042723|80431|84||84|N|N|N|N|N|179.82|N|999|N||N|INDUS|Y|GSTSC|Charge for GST Computation||N||||||||||89.91|89.91|9|9||9971
1025062575|TW803330009923|CCGST|1|999|999|20171016000000|INV00000000000042773|80333|84||84|N|N|N|N|N|179.82|N|999|N||N|INDUS|Y|GSTSC|Charge for GST Computation||N||||||||||89.91|89.91|9|9||9971
1025063421|TW421410009922|CCGST|1|999|999|20171016000000|INV00000000000042810|42141|70||70|N|N|N|N|N|179.82|N|999|N||N|INDUS|Y|GSTSC|Charge for GST Computation||N||||||||||89.91|89.91|9|9||9971
1025064254|TW802820009928|CCGST|1|999|999|20171016000000|INV00000000000042821|80282|84||84|N|N|N|N|N|179.82|N|999|N||N|INDUS|Y|GSTSC|Charge for GST Computation||N||||||||||89.91|89.91|9|9||9971
1025068124|TW421410009931|CCGST|1|999|999|20171016000000|INV00000000000042907|42141|70||70|N|N|N|N|N|179.82|N|999|N||N|INDUS|Y|GSTSC|Charge for GST Computation||N||||||||||89.91|89.91|9|9||9971
1025076973|TW803510009935|CCGST|1|980|980|20171016000000|INV00000000000042982|80351|84||84|N|N|N|N|N|176.4|N|980|N||N|INDUS|Y|GSTSC|Charge for GST Computation||N||||||||||88.2|88.2|9|9||9971
1025076973|TW803510009935|CCGST|1|1000|1000|20171016000000|INV00000000000042981|80351|84||84|N|N|N|N|N|180|N|1000|N||N|INDUS|Y|GSTSC|Charge for GST Computation||N||||||||||90|90|9|9||9971
1025095329|TW804320009936|CCGST|1|999|999|20171016000000|INV00000000000042830|80432|84||84|N|N|N|N|N|179.82|N|999|N||N|INDUS|Y|GSTSC|Charge for GST Computation||N||||||||||89.91|89.91|9|9||9971
1025096560|TW804910009939|CCGST|1|999|999|20171016000000|INV00000000000043000|80491|84||84|N|N|N|N|N|179.82|N|999|N||N|INDUS|Y|GSTSC|Charge for GST Computation||N||||||||||89.91|89.91|9|9||9971
1025097235|TW803530009937|CCGST|1|999|999|20171016000000|INV00000000000043019|80353|84||84|N|N|N|N|N|179.82|N|999|N||N|INDUS|Y|GSTSC|Charge for GST Computation||N||||||||||89.91|89.91|9|9||9971
1025101651|TW803030009940|CCGST|1|999|999|20171016000000|INV00000000000042599|80303|84||84|N|N|N|N|N|179.82|N|999|N||N|INDUS|Y|GSTSC|Charge for GST Computation||N||||||||||89.91|89.91|9|9||9971
1025110452|TW802520009945|CCGST|1|999|999|20171016000000|INV00000000000043231|80252|84||84|N|N|N|N|N|179.82|N|999|N||N|INDUS|Y|GSTSC|Charge for GST Computation||N||||||||||89.91|89.91|9|9||9971
1025112370|TW803510009948|CCGST|1|999|999|20171016000000|INV00000000000043259|80351|84||84|N|N|N|N|N|179.82|N|999|N||N|INDUS|Y|GSTSC|Charge for GST Computation||N||||||||||89.91|89.91|9|9||9971
1025113408|TW802520009949|CCGST|1|999|999|20171016000000|INV00000000000043268|80252|84||84|N|N|N|N|N|179.82|N|999|N||N|INDUS|Y|GSTSC|Charge for GST Computation||N||||||||||89.91|89.91|9|9||9971
1025116125|TW802810009951|CCGST|1|999|999|20171016000000|INV00000000000043283|80281|84||84|N|N|N|N|N|179.82|N|999|N||N|INDUS|Y|GSTSC|Charge for GST Computation||N||||||||||89.91|89.91|9|9||9971
1025118316|TW802810009952|CCGST|1|999|999|20171016000000|INV00000000000043365|80281|84||84|N|N|N|N|N|179.82|N|999|N||N|INDUS|Y|GSTSC|Charge for GST Computation||N||||||||||89.91|89.91|9|9||9971
1025118598|TW803520009953|CCGST|1|999|999|20171016000000|INV00000000000043368|80352|84||84|N|N|N|N|N|179.82|N|999|N||N|INDUS|Y|GSTSC|Charge for GST Computation||N||||||||||89.91|89.91|9|9||9971
1025119625|TW804910009965|CCGST|1|999|999|20171016000000|INV00000000000043345|80491|84||84|N|N|N|N|N|179.82|N|999|N||N|INDUS|Y|GSTSC|Charge for GST Computation||N||||||||||89.91|89.91|9|9||9971
1025120062|TW802520009954|CCGST|1|999|999|20171016000000|INV00000000000043387|80252|84||84|N|N|N|N|N|179.82|N|999|N||N|INDUS|Y|GSTSC|Charge for GST Computation||N||||||||||89.91|89.91|9|9||9971
1025121431|TW803520009956|CCGST|1|999|999|20171016000000|INV00000000000043409|80352|84||84|N|N|N|N|N|179.82|N|999|N||N|INDUS|Y|GSTSC|Charge for GST Computation||N||||||||||89.91|89.91|9|9||9971
1025122912|EH804320009959|CCGST|1|2500|2500|20171016000000|INV00000000000043440|80432|84||84|N|N|N|N|N|450|N|2500|N||N|INDUS|Y|GSTSC|Charge for GST Computation||N||||||||||225|225|9|9||9971
1025123096|TW803530009976|CCGST|1|999|999|20171016000000|INV00000000000043436|80353|84||84|N|N|N|N|N|179.82|N|999|N||N|INDUS|Y|GSTSC|Charge for GST Computation||N||||||||||89.91|89.91|9|9||9971
1025123187|TW803530009977|CCGST|1|999|999|20171016000000|INV00000000000043448|80353|84||84|N|N|N|N|N|179.82|N|999|N||N|INDUS|Y|GSTSC|Charge for GST Computation||N||||||||||89.91|89.91|9|9||9971
1025124238|TW803310009960|CCGST|1|999|999|20171016000000|INV00000000000043511|80331|84||84|N|N|N|N|N|179.82|N|999|N||N|INDUS|Y|GSTSC|Charge for GST Computation||N||||||||||89.91|89.91|9|9||9971
1025124330|TW803530009967|CCGST|1|999|999|20171016000000|INV00000000000043494|80353|84||84|N|N|N|N|N|179.82|N|999|N||N|INDUS|Y|GSTSC|Charge for GST Computation||N||||||||||89.91|89.91|9|9||9971
1025124487|TW802810009961|CCGST|1|999|999|20171016000000|INV00000000000043445|80281|84||84|N|N|N|N|N|179.82|N|999|N|20|N|INDUS|Y|GSTSC|Charge for GST Computation||N||||||||||89.91|89.91|9|9||9971
1025125935|TW803510009979|CCGST|1|999|999|20171016000000|INV00000000000043451|80351|84||84|N|N|N|N|N|179.82|N|999|N||N|INDUS|Y|GSTSC|Charge for GST Computation||N||||||||||89.91|89.91|9|9||9971
1025126008|TW803530009968|CCGST|1|999|999|20171016000000|INV00000000000043531|80353|84||84|N|N|N|N|N|179.82|N|999|N||N|INDUS|Y|GSTSC|Charge for GST Computation||N||||||||||89.91|89.91|9|9||9971
1025127353|TW804910009938|CCGST|1|999|999|20171016000000|INV00000000000043338|80491|84||84|N|N|N|N|N|179.82|N|999|N||N|INDUS|Y|GSTSC|Charge for GST Computation||N||||||||||89.91|89.91|9|9||9971
1025127386|TW804910009947|CCGST|1|999|999|20171016000000|INV00000000000043394|80491|84||84|N|N|N|N|N|179.82|N|999|N||N|INDUS|Y|GSTSC|Charge for GST Computation||N||||||||||89.91|89.91|9|9||9971
1025127455|TW802510009970|CCGST|1|999|999|20171016000000|INV00000000000043202|80251|84||84|N|N|N|N|N|179.82|N|999|N||N|INDUS|Y|GSTSC|Charge for GST Computation||N||||||||||89.91|89.91|9|9||9971
1025128652|TW803520009971|CCGST|1|999|999|20171016000000|INV00000000000043590|80352|84||84|N|N|N|N|N|179.82|N|999|N||N|INDUS|Y|GSTSC|Charge for GST Computation||N||||||||||89.91|89.91|9|9||9971
1025129112|TW803520009973|CCGST|1|999|999|20171016000000|INV00000000000043615|80352|84||84|N|N|N|N|N|179.82|N|999|N||N|INDUS|Y|GSTSC|Charge for GST Computation||N||||||||||89.91|89.91|9|9||9971
1025129156|TW803530009974|CCGST|1|999|999|20171016000000|INV00000000000043606|80353|84||84|N|N|N|N|N|179.82|N|999|N||N|INDUS|Y|GSTSC|Charge for GST Computation||N||||||||||89.91|89.91|9|9||9971
1025131619|TW803530010027|CCGST|1|999|999|20171016000000|INV00000000000043635|80353|84||84|N|N|N|N|N|179.82|N|999|N||N|INDUS|Y|GSTSC|Charge for GST Computation||N||||||||||89.91|89.91|9|9||9971
1025133446|TW802510009978|CCGST|1|999|999|20171016000000|INV00000000000043642|80251|84||84|N|N|N|N|N|179.82|N|999|N||N|INDUS|Y|GSTSC|Charge for GST Computation||N||||||||||89.91|89.91|9|9||9971
1025138820|TW802520009980|CCGST|1|999|999|20171016000000|INV00000000000043764|80252|84||84|N|N|N|N|N|179.82|N|999|N||N|INDUS|Y|GSTSC|Charge for GST Computation||N||||||||||89.91|89.91|9|9||9971
1025139039|TW803310009983|CCGST|1|999|999|20171016000000|INV00000000000043781|80331|84||84|N|N|N|N|N|179.82|N|999|N||N|INDUS|Y|GSTSC|Charge for GST Computation||N||||||||||89.91|89.91|9|9||9971
1025139288|TW803310009982|CCGST|1|999|999|20171016000000|INV00000000000043697|80331|84||84|N|N|N|N|N|179.82|N|999|N||N|INDUS|Y|GSTSC|Charge for GST Computation||N||||||||||89.91|89.91|9|9||9971
1025139981|TW802560009985|CCGST|1|999|999|20171016000000|INV00000000000043936|80256|84||84|N|N|N|N|N|179.82|N|999|N||N|INDUS|Y|GSTSC|Charge for GST Computation||N||||||||||89.91|89.91|9|9||9971
1025140136|TW803510010013|CCGST|1|999|999|20171016000000|INV00000000000043826|80351|84||84|N|N|N|N|N|179.82|N|999|N||N|INDUS|Y|GSTSC|Charge for GST Computation||N||||||||||89.91|89.91|9|9||9971
1025140283|TW802820009989|CCGST|1|999|999|20171016000000|INV00000000000043938|80282|84||84|N|N|N|N|N|179.82|N|999|N||N|INDUS|Y|GSTSC|Charge for GST Computation||N||||||||||89.91|89.91|9|9||9971
1025140352|TW802820009991|CCGST|1|999|999|20171016000000|INV00000000000043968|80282|84||84|N|N|N|N|N|179.82|N|999|N||N|INDUS|Y|GSTSC|Charge for GST Computation||N||||||||||89.91|89.91|9|9||9971
1025140545|TW803310009990|CCGST|1|999|999|20171016000000|INV00000000000043923|80331|84||84|N|N|N|N|N|179.82|N|999|N||N|INDUS|Y|GSTSC|Charge for GST Computation||N||||||||||89.91|89.91|9|9||9971
1025140862|TW803510010014|CCGST|1|999|999|20171016000000|INV00000000000044037|80351|84||84|N|N|N|N|N|179.82|N|999|N||N|INDUS|Y|GSTSC|Charge for GST Computation||N||||||||||89.91|89.91|9|9||9971
1025141027|TW803030010005|CCGST|1|999|999|20171016000000|INV00000000000043357|80303|84||84|N|N|N|N|N|179.82|N|999|N||N|INDUS|Y|GSTSC|Charge for GST Computation||N||||||||||89.91|89.91|9|9||9971
1025141083|TW803030009993|CCGST|1|999|999|20171016000000|INV00000000000043880|80303|84||84|N|N|N|N|N|179.82|N|999|N||N|INDUS|Y|GSTSC|Charge for GST Computation||N||||||||||89.91|89.91|9|9||9971
1025141141|TW802560009992|CCGST|1|999|999|20171016000000|INV00000000000044088|80256|84||84|N|N|N|N|N|179.82|N|999|N||N|INDUS|Y|GSTSC|Charge for GST Computation||N||||||||||89.91|89.91|9|9||9971
1025141152|TW803030010000|CCGST|1|999|999|20171016000000|INV00000000000043174|80303|84||84|N|N|N|N|N|179.82|N|999|N||N|INDUS|Y|GSTSC|Charge for GST Computation||N||||||||||89.91|89.91|9|9||9971
1025141232|TW803010009997|CCGST|1|999|999|20171016000000|INV00000000000044018|80301|84||84|N|N|N|N|N|179.82|N|999|N||N|INDUS|Y|GSTSC|Charge for GST Computation||N||||||||||89.91|89.91|9|9||9971
1025141276|TW803010009999|CCGST|1|999|999|20171016000000|INV00000000000044066|80301|84||84|N|N|N|N|N|179.82|N|999|N||N|INDUS|Y|GSTSC|Charge for GST Computation||N||||||||||89.91|89.91|9|9||9971
1025141403|TW803010010004|CCGST|1|999|999|20171016000000|INV00000000000044165|80301|84||84|N|N|N|N|N|179.82|N|999|N||N|INDUS|Y|GSTSC|Charge for GST Computation||N||||||||||89.91|89.91|9|9||9971
1025141980|TW803530010006|CCGST|1|999|999|20171016000000|INV00000000000044290|80353|84||84|N|N|N|N|N|179.82|N|999|N||N|INDUS|Y|GSTSC|Charge for GST Computation||N||||||||||89.91|89.91|9|9||9971
1025142156|TW803030010008|CCGST|1|999|999|20171016000000|INV00000000000043930|80303|84||84|N|N|N|N|N|179.82|N|999|N||N|INDUS|Y|GSTSC|Charge for GST Computation||N||||||||||89.91|89.91|9|9||9971
1025142826|TW803510010015|CCGST|1|999|999|20171016000000|INV00000000000044380|80351|84||84|N|N|N|N|N|179.82|N|999|N||N|INDUS|Y|GSTSC|Charge for GST Computation||N||||||||||89.91|89.91|9|9||9971
1025143228|TW803010010010|CCGST|1|999|999|20171016000000|INV00000000000044365|80301|84||84|N|N|N|N|N|179.82|N|999|N||N|INDUS|Y|GSTSC|Charge for GST Computation||N||||||||||89.91|89.91|9|9||9971
1025143749|TW803510010017|CCGST|1|999|999|20171016000000|INV00000000000044493|80351|84||84|N|N|N|N|N|179.82|N|999|N||N|INDUS|Y|GSTSC|Charge for GST Computation||N||||||||||89.91|89.91|9|9||9971
1025144200|TW803520010020|CCGST|1|999|999|20171016000000|INV00000000000044583|80352|84||84|N|N|N|N|N|179.82|N|999|N||N|INDUS|Y|GSTSC|Charge for GST Computation||N||||||||||89.91|89.91|9|9||9971
1025144709|TW803520010023|CCGST|1|999|999|20171016000000|INV00000000000044701|80352|84||84|N|N|N|N|N|179.82|N|999|N||N|INDUS|Y|GSTSC|Charge for GST Computation||N||||||||||89.91|89.91|9|9||9971
1025145124|TW413030010031|CCGST|1|999|999|20171016000000|INV00000000000044578|41303|70||70|N|N|N|N|N|179.82|N|999|N||N|INDUS|Y|GSTSC|Charge for GST Computation||N||||||||||89.91|89.91|9|9||9971
1025145259|TW803010010053|CCGST|1|999|999|20171016000000|INV00000000000044509|80301|84||84|N|N|N|N|N|179.82|N|999|N||N|INDUS|Y|GSTSC|Charge for GST Computation||N||||||||||89.91|89.91|9|9||9971
1025145317|TW803310010026|CCGST|1|999|999|20171016000000|INV00000000000044800|80331|84||84|N|N|N|N|N|179.82|N|999|N||N|INDUS|Y|GSTSC|Charge for GST Computation||N||||||||||89.91|89.91|9|9||9971
1025145838|TW803530010029|CCGST|1|999|999|20171016000000|INV00000000000044789|80353|84||84|N|N|N|N|N|179.82|N|999|N||N|INDUS|Y|GSTSC|Charge for GST Computation||N||||||||||89.91|89.91|9|9||9971
1025146092|TW804310010030|CCGST|1|999|999|20171016000000|INV00000000000044859|80431|84||84|N|N|N|N|N|179.82|N|999|N||N|INDUS|Y|GSTSC|Charge for GST Computation||N||||||||||89.91|89.91|9|9||9971
1025146423|TW803510010067|CCGST|1|999|999|20171016000000|INV00000000000044916|80351|84||84|N|N|N|N|N|179.82|N|999|N||N|INDUS|Y|GSTSC|Charge for GST Computation||N||||||||||89.91|89.91|9|9||9971
1025146660|TW802560010032|CCGST|1|999|999|20171016000000|INV00000000000045026|80256|84||84|N|N|N|N|N|179.82|N|999|N||N|INDUS|Y|GSTSC|Charge for GST Computation||N||||||||||89.91|89.91|9|9||9971
1025147799|TW421010010040|CCGST|1|999|999|20171016000000|INV00000000000045110|42101|70||70|N|N|N|N|N|179.82|N|999|N||N|INDUS|Y|GSTSC|Charge for GST Computation||N||||||||||89.91|89.91|9|9||9971
1025149015|TW802510010044|CCGST|1|999|999|20171016000000|INV00000000000043647|80251|84||84|N|N|N|N|N|179.82|N|999|N||N|INDUS|Y|GSTSC|Charge for GST Computation||N||||||||||89.91|89.91|9|9||9971
1025149275|TW804310010046|CCGST|1|999|999|20171016000000|INV00000000000045367|80431|84||84|N|N|N|N|N|179.82|N|999|N||N|INDUS|Y|GSTSC|Charge for GST Computation||N||||||||||89.91|89.91|9|9||9971
1025149821|TW802820010051|CCGST|1|999|999|20171016000000|INV00000000000045376|80282|84||84|N|N|N|N|N|179.82|N|999|N||N|INDUS|Y|GSTSC|Charge for GST Computation||N||||||||||89.91|89.91|9|9||9971
1025149854|TW802820010048|CCGST|1|999|999|20171016000000|INV00000000000045388|80282|84||84|N|N|N|N|N|179.82|N|999|N||N|INDUS|Y|GSTSC|Charge for GST Computation||N||||||||||89.91|89.91|9|9||9971
1025150075|TW802820010050|CCGST|1|999|999|20171016000000|INV00000000000045429|80282|84||84|N|N|N|N|N|179.82|N|999|N||N|INDUS|Y|GSTSC|Charge for GST Computation||N||||||||||89.91|89.91|9|9||9971
1025150382|TW802510010049|CCGST|1|999|999|20171016000000|INV00000000000045439|80251|84||84|N|N|N|N|N|179.82|N|999|N||N|INDUS|Y|GSTSC|Charge for GST Computation||N||||||||||89.91|89.91|9|9||9971
1025150440|TW802820010052|CCGST|1|999|999|20171016000000|INV00000000000045453|80282|84||84|N|N|N|N|N|179.82|N|999|N||N|INDUS|Y|GSTSC|Charge for GST Computation||N||||||||||89.91|89.91|9|9||9971
1025150701|TW413030010054|CCGST|1|999|999|20171016000000|INV00000000000045449|41303|70||70|N|N|N|N|N|179.82|N|999|N||N|INDUS|Y|GSTSC|Charge for GST Computation||N||||||||||89.91|89.91|9|9||9971
1025150814|TW413030010082|CCGST|1|999|999|20171016000000|INV00000000000045472|41303|70||70|N|N|N|N|N|179.82|N|999|N||N|INDUS|Y|GSTSC|Charge for GST Computation||N||||||||||89.91|89.91|9|9||9971
1025158177|TW803310010055|CCGST|1|999|999|20171016000000|INV00000000000045549|80331|84||84|N|N|N|N|N|179.82|N|999|N||N|INDUS|Y|GSTSC|Charge for GST Computation||N||||||||||89.91|89.91|9|9||9971
1025158586|TW412040010061|CCGST|1|999|999|20171016000000|INV00000000000044984|41204|70||70|N|N|N|N|N|179.82|N|999|N||N|INDUS|Y|GSTSC|Charge for GST Computation||N||||||||||89.91|89.91|9|9||9971
1025160107|TW803310010066|CCGST|1|999|999|20171016000000|INV00000000000045613|80331|84||84|N|N|N|N|N|179.82|N|999|N||N|INDUS|Y|GSTSC|Charge for GST Computation||N||||||||||89.91|89.91|9|9||9971
1025160389|TW803520010063|CCGST|1|999|999|20171016000000|INV00000000000043310|80352|84||84|N|N|N|N|N|179.82|N|999|N||N|INDUS|Y|GSTSC|Charge for GST Computation||N||||||||||89.91|89.91|9|9||9971
1025160628|TW802510010065|CCGST|1|999|999|20171016000000|INV00000000000045634|80251|84||84|N|N|N|N|N|179.82|N|999|N||N|INDUS|Y|GSTSC|Charge for GST Computation||N||||||||||89.91|89.91|9|9||9971
1025161225|TW802550010069|CCGST|1|999|999|20171016000000|INV00000000000045536|80255|84||84|N|N|N|N|N|179.82|N|999|N||N|INDUS|Y|GSTSC|Charge for GST Computation||N||||||||||89.91|89.91|9|9||9971
1025162999|TW803010010002|CCGST|1|999|999|20171016000000|INV00000000000045594|80301|84||84|N|N|N|N|N|179.82|N|999|N||N|INDUS|Y|GSTSC|Charge for GST Computation||N||||||||||89.91|89.91|9|9||9971
1025163233|TW412040010070|CCGST|1|999|999|20171016000000|INV00000000000044880|41204|70||70|N|N|N|N|N|179.82|N|999|N||N|INDUS|Y|GSTSC|Charge for GST Computation||N||||||||||89.91|89.91|9|9||9971
1025163244|TW802550010098|CCGST|1|999|999|20171016000000|INV00000000000045713|80255|84||84|N|N|N|N|N|179.82|N|999|N||N|INDUS|Y|GSTSC|Charge for GST Computation||N||||||||||89.91|89.91|9|9||9971
1025164180|TW411710010075|CCGST|1|999|999|20171016000000|INV00000000000045717|41171|70||70|N|N|N|N|N|179.82|N|999|N||N|INDUS|Y|GSTSC|Charge for GST Computation||N||||||||||89.91|89.91|9|9||9971
1025165593|TW803520010079|CCGST|1|999|999|20171016000000|INV00000000000045754|80352|84||84|N|N|N|N|N|179.82|N|999|N||N|INDUS|Y|GSTSC|Charge for GST Computation||N||||||||||89.91|89.91|9|9||9971
1025165887|TW802820010078|CCGST|1|999|999|20171016000000|INV00000000000045772|80282|84||84|N|N|N|N|N|179.82|N|999|N||N|INDUS|Y|GSTSC|Charge for GST Computation||N||||||||||89.91|89.91|9|9||9971
1025169575|TW802540010088|CCGST|1|999|999|20171016000000|INV00000000000045835|80254|84||84|N|N|N|N|N|179.82|N|999|N||N|INDUS|Y|GSTSC|Charge for GST Computation||N||||||||||89.91|89.91|9|9||9971
1025169961|TW803310010087|CCGST|1|999|999|20171016000000|INV00000000000045709|80331|84||84|N|N|N|N|N|179.82|N|999|N||N|INDUS|Y|GSTSC|Charge for GST Computation||N||||||||||89.91|89.91|9|9||9971
1025170761|TW803040010118|CCGST|1|999|999|20171016000000|INV00000000000045784|80304|84||84|N|N|N|N|N|179.82|N|999|N||N|INDUS|Y|GSTSC|Charge for GST Computation||N||||||||||89.91|89.91|9|9||9971
1025171233|TW802820010090|CCGST|1|999|999|20171016000000|INV00000000000045858|80282|84||84|N|N|N|N|N|179.82|N|999|N||N|INDUS|Y|GSTSC|Charge for GST Computation||N||||||||||89.91|89.91|9|9||9971
1025171889|TW411710010089|CCGST|1|999|999|20171016000000|INV00000000000045898|41171|70||70|N|N|N|N|N|179.82|N|999|N||N|INDUS|Y|GSTSC|Charge for GST Computation||N||||||||||89.91|89.91|9|9||9971
1025175158|TW803520010092|CCGST|1|999|999|20171016000000|INV00000000000046002|80352|84||84|N|N|N|N|N|179.82|N|999|N||N|INDUS|Y|GSTSC|Charge for GST Computation||N||||||||||89.91|89.91|9|9||9971
1025176195|TW803320010094|CCGST|1|999|999|20171016000000|INV00000000000045966|80332|84||84|N|N|N|N|N|179.82|N|999|N||N|INDUS|Y|GSTSC|Charge for GST Computation||N||||||||||89.91|89.91|9|9||9971
1025176752|TW802510010145|CCGST|1|999|999|20171016000000|INV00000000000045569|80251|84||84|N|N|N|N|N|179.82|N|999|N||N|INDUS|Y|GSTSC|Charge for GST Computation||N||||||||||89.91|89.91|9|9||9971
1025177734|TW803510010099|CCGST|1|999|999|20171016000000|INV00000000000046088|80351|84||84|N|N|N|N|N|179.82|N|999|N||N|INDUS|Y|GSTSC|Charge for GST Computation||N||||||||||89.91|89.91|9|9||9971
1025178024|TW802520010100|CCGST|1|999|999|20171016000000|INV00000000000046060|80252|84||84|N|N|N|N|N|179.82|N|999|N||N|INDUS|Y|GSTSC|Charge for GST Computation||N||||||||||89.91|89.91|9|9||9971
1025178331|TW802820010102|CCGST|1|999|999|20171016000000|INV00000000000046009|80282|84||84|N|N|N|N|N|179.82|N|999|N||N|INDUS|Y|GSTSC|Charge for GST Computation||N||||||||||89.91|89.91|9|9||9971
1025179265|TW802810010106|CCGST|1|999|999|20171016000000|INV00000000000046154|80281|84||84|N|N|N|N|N|179.82|N|999|N||N|INDUS|Y|GSTSC|Charge for GST Computation||N||||||||||89.91|89.91|9|9||9971
1025180475|TW802520010113|CCGST|1|999|999|20171016000000|INV00000000000046172|80252|84||84|N|N|N|N|N|179.82|N|999|N||N|INDUS|Y|GSTSC|Charge for GST Computation||N||||||||||89.91|89.91|9|9||9971
1025181672|TW802820010122|CCGST|1|999|999|20171016000000|INV00000000000046281|80282|84||84|N|N|N|N|N|179.82|N|999|N||N|INDUS|Y|GSTSC|Charge for GST Computation||N||||||||||89.91|89.91|9|9||9971
1025181741|TW803040010123|CCGST|1|999|999|20171016000000|INV00000000000046005|80304|84||84|N|N|N|N|N|179.82|N|999|N||N|INDUS|Y|GSTSC|Charge for GST Computation||N||||||||||89.91|89.91|9|9||9971
1025184083|TW804320010131|CCGST|1|999|999|20171016000000|INV00000000000046394|80432|84||84|N|N|N|N|N|179.82|N|999|N||N|INDUS|Y|GSTSC|Charge for GST Computation||N||||||||||89.91|89.91|9|9||9971
1025185644|TW802810009996|CCGST|1|999|999|20171016000000|INV00000000000046366|80281|84||84|N|N|N|N|N|179.82|N|999|N||N|INDUS|Y|GSTSC|Charge for GST Computation||N||||||||||89.91|89.91|9|9||9971
1025185655|TW802560010134|CCGST|1|999|999|20171016000000|INV00000000000046421|80256|84||84|N|N|N|N|N|179.82|N|999|N||N|INDUS|Y|GSTSC|Charge for GST Computation||N||||||||||89.91|89.91|9|9||9971
1025185677|TW802560010169|CCGST|1|999|999|20171016000000|INV00000000000046815|80256|84||84|N|N|N|N|N|179.82|N|999|N||N|INDUS|Y|GSTSC|Charge for GST Computation||N||||||||||89.91|89.91|9|9||9971
1025185928|TW804330010146|CCGST|1|999|999|20171016000000|INV00000000000046418|80433|84||84|N|N|N|N|N|179.82|N|999|N||N|INDUS|Y|GSTSC|Charge for GST Computation||N||||||||||89.91|89.91|9|9||9971
1025186397|TW411710010136|CCGST|1|999|999|20171016000000|INV00000000000046479|41171|70||70|N|N|N|N|N|179.82|N|999|N||N|INDUS|Y|GSTSC|Charge for GST Computation||N||||||||||89.91|89.91|9|9||9971
1025187539|TW803310010137|CCGST|1|999|999|20171016000000|INV00000000000046469|80331|84||84|N|N|N|N|N|179.82|N|999|N||N|INDUS|Y|GSTSC|Charge for GST Computation||N||||||||||89.91|89.91|9|9||9971
1025187798|TW412230010139|CCGST|1|999|999|20171016000000|INV00000000000046487|41223|70||70|N|N|N|N|N|179.82|N|999|N||N|INDUS|Y|GSTSC|Charge for GST Computation||N||||||||||89.91|89.91|9|9||9971
1025188011|TW412220010147|CCGST|1|999|999|20171016000000|INV00000000000046551|41222|70||70|N|N|N|N|N|179.82|N|999|N||N|INDUS|Y|GSTSC|Charge for GST Computation||N||||||||||89.91|89.91|9|9||9971
1025189514|TW803010010156|CCGST|1|999|999|20171016000000|INV00000000000046713|80301|84||84|N|N|N|N|N|179.82|N|999|N||N|INDUS|Y|GSTSC|Charge for GST Computation||N||||||||||89.91|89.91|9|9||9971
1025189740|TW804320010158|CCGST|1|999|999|20171016000000|INV00000000000046521|80432|84||84|N|N|N|N|N|179.82|N|999|N||N|INDUS|Y|GSTSC|Charge for GST Computation||N||||||||||89.91|89.91|9|9||9971
1025193417|TW803510010175|CCGST|1|999|999|20171016000000|INV00000000000046961|80351|84||84|N|N|N|N|N|179.82|N|999|N||N|INDUS|Y|GSTSC|Charge for GST Computation||N||||||||||89.91|89.91|9|9||9971
TR|20171016000000|20171016234734|151|
