Description,DataType,DatePattern
TRANSACTION_DATE,str,
BRANCH_CODE,str,
BRANCH_NAME,str,
ACCOUNT_NUMBER,str,
TRANSACTION_DESCRIPTION,str,
VALUE_DATE,np.datetime64,%d-%m-%Y
AMOUNT,np.float64,
CREDIT_DEBIT,str,
REF_TXN_NO,str,
CBS_PROCESSING_TIME,str,
CRTD_DATE,str,
