Transaction Date,Description,Amount,C.D.Falg,Reference No,Value Date,Branch Name
2018-07-03,00030330004897   EOD SWEEP ,180746545.79,D, ,02/07/2018,K G MARG
2018-07-03,IMPS-818411659429-PHONEPE PRIVATE LIMI-HDFC-xxxxxxxxxxx0025-PvrcinemasRedemption,157756.97,C,818411659429,03/07/2018,FORT
2018-07-03,NEFT Cr-ICIC0000104-PAYU PAYMENTS PVT LTD-PVR Limited-CMS854583492,6396.0,C,CMS854583492,03/07/2018,FORT
2018-07-03,NEFT Cr-AIRP0000001-PVR LIMITED.-PVR LTD-A184180001144306,45828.54,C,A184180001144306,03/07/2018,FORT
2018-07-03,NEFT Cr-KKBK0000958-BIG TREE ENTERTAINMENT PRIVATE LIMITED-PVR LIMITED-KKBK181848211285,19859.0,C,KKBK181848211285,03/07/2018,FORT
2018-07-03,NEFT Cr-KKBK0000958-BIG TREE ENTERTAINMENT PRIVATE LIMITED-PVR LIMITED-KKBK181848211397,2014435.0,C,KKBK181848211397,03/07/2018,FORT
2018-07-03,NEFT Cr-KKBK0000958-BIG TREE ENTERTAINMENT PRIVATE LIMITED-PVR LIMITED-KKBK181848211273,1513.0,C,KKBK181848211273,03/07/2018,FORT
2018-07-03,NEFT Cr-KKBK0000958-BIG TREE ENTERTAINMENT PRIVATE LIMITED-PVR LIMITED-KKBK181848211300,264313.0,C,KKBK181848211300,03/07/2018,FORT
2018-07-03,NEFT Cr-KKBK0000958-BIG TREE ENTERTAINMENT PRIVATE LIMITED-PVR LIMITED-KKBK181848211268,2773.0,C,KKBK181848211268,03/07/2018,FORT
2018-07-03,NEFT Cr-KKBK0000958-BIG TREE ENTERTAINMENT PRIVATE LIMITED-PVR LIMITED-KKBK181848211271,35203.0,C,KKBK181848211271,03/07/2018,FORT
2018-07-03,NEFT Cr-KKBK0000958-BIG TREE ENTERTAINMENT PRIVATE LIMITED-PVR LIMITED-KKBK181848211296,20966.0,C,KKBK181848211296,03/07/2018,FORT
2018-07-03,NEFT Cr-KKBK0000958-BIG TREE ENTERTAINMENT PRIVATE LIMITED-PVR LIMITED-KKBK181848211395,3620083.0,C,KKBK181848211395,03/07/2018,FORT
2018-07-03,NEFT Cr-KKBK0000958-BIG TREE ENTERTAINMENT PRIVATE LIMITED-PVR LIMITED-KKBK181848211423,16872157.0,C,KKBK181848211423,03/07/2018,FORT
2018-07-03,NEFT Cr-CITI0000002-ONE97 COMMUNICATIONS LIMITED-PVR LIMITED-CITIN18883945384,5943042.95,C,CITIN18883945384,03/07/2018,FORT
2018-07-03,NEFT Cr-CITI0000002-ONE97 COMMUNICATIONS LIMITED-PVR LIMITED-CITIN18883945392,8133893.15,C,CITIN18883945392,03/07/2018,FORT
2018-07-03,00030330004897   EOD SWEEP ,37138219.61,D, ,03/07/2018,K G MARG
2018-07-04,IMPS-818507878316-PHONEPE PRIVATE LIMI-HDFC-xxxxxxxxxxx0025-PvrcinemasRedemption,124544.92,C,818507878316,04/07/2018,FORT
2018-07-04,NEFT Cr-ICIC0000031-ONE 97 COMMUNICATIONS LTD-Pvr Limited-CMS854876830,1329.58,C,CMS854876830,04/07/2018,FORT
2018-07-04,NEFT Cr-ICIC0SF0002-ARTHASHASTRA FINTECH PRIVATE LIMITED-PVR LIMITED-20601048821DC,79921.54,C,20601048821DC,04/07/2018,FORT
2018-07-04,NEFT Cr-KKBK0000958-BIG TREE ENTERTAINMENT PRIVATE LIMITED-PVR LIMITED-KKBK181858341106,250275.0,C,KKBK181858341106,04/07/2018,FORT
2018-07-04,NEFT Cr-KKBK0000958-BIG TREE ENTERTAINMENT PRIVATE LIMITED-PVR LIMITED-KKBK181858341127,799.0,C,KKBK181858341127,04/07/2018,FORT
2018-07-04,NEFT Cr-KKBK0000958-BIG TREE ENTERTAINMENT PRIVATE LIMITED-PVR LIMITED-KKBK181858341183,2041745.0,C,KKBK181858341183,04/07/2018,FORT
2018-07-04,NEFT Cr-KKBK0000958-BIG TREE ENTERTAINMENT PRIVATE LIMITED-PVR LIMITED-KKBK181858341125,43343.0,C,KKBK181858341125,04/07/2018,FORT
2018-07-04,NEFT Cr-KKBK0000958-BIG TREE ENTERTAINMENT PRIVATE LIMITED-PVR LIMITED-KKBK181858341168,2895.0,C,KKBK181858341168,04/07/2018,FORT
2018-07-04,NEFT Cr-KKBK0000958-BIG TREE ENTERTAINMENT PRIVATE LIMITED-PVR LIMITED-KKBK181858341133,10688.0,C,KKBK181858341133,04/07/2018,FORT
2018-07-04,NEFT Cr-KKBK0000958-BIG TREE ENTERTAINMENT PRIVATE LIMITED-PVR LIMITED-KKBK181858341135,26221.0,C,KKBK181858341135,04/07/2018,FORT
2018-07-04,NEFT Cr-KKBK0000958-BIG TREE ENTERTAINMENT PRIVATE LIMITED-PVR LIMITED-KKBK181858341191,15958369.0,C,KKBK181858341191,04/07/2018,FORT
2018-07-04,NEFT Cr-KKBK0000958-BIG TREE ENTERTAINMENT PRIVATE LIMITED-PVR LIMITED-KKBK181858341198,3784531.0,C,KKBK181858341198,04/07/2018,FORT
2018-07-04,NEFT Cr-CITI0100000-PAYPAL PAYMENTS PL-NODAL A/C-PVR Limited-CITIN18884313066,508.54,C,CITIN18884313066,04/07/2018,FORT
2018-07-04,NEFT Cr-AIRP0000001-PVR LIMITED.-PVR LTD-A185180001145309,575552.25,C,A185180001145309,04/07/2018,CMS TF WBO MUMBAI
2018-07-04,NEFT Cr-CITI0000002-ONE97 COMMUNICATIONS LIMITED-PVR LIMITED-CITIN18884614233,6657264.53,C,CITIN18884614233,04/07/2018,FORT
2018-07-04,NEFT Cr-CITI0000002-ONE97 COMMUNICATIONS LIMITED-PVR LIMITED-CITIN18884613763,4979589.79,C,CITIN18884613763,04/07/2018,FORT
2018-07-04,NEFT Cr-ICIC0000031-ONE 97 COMMUNICATIONS LTD-Pvr Limited-CMS855942235,1780.9,C,CMS855942235,04/07/2018,FORT
2018-07-04,00030330004897   EOD SWEEP ,34539358.05,D, ,04/07/2018,K G MARG
