Transaction Date,Description,Amount,C.D.Falg,Reference No,Value Date,Branch Name
2018-07-16,NEFT Cr-YESB0000001-PHONEPE PRIVATE LIMITED-PVR LIMITED-N197180130403578,432707.02,C,N197180130403578,16/07/2018,FORT
2018-07-16,NEFT Cr-CITI0100000-PAYPAL PAYMENTS PL-NODAL A/C-PVR Limited-CITIN18889329896,48222.04,C,CITIN18889329896,16/07/2018,FORT
2018-07-16,NEFT Cr-CITI0100000-PAYPAL PAYMENTS PL-NODAL A/C-PVR Limited-CITIN18889329900,81745.63,C,CITIN18889329900,16/07/2018,FORT
2018-07-16,NEFT Cr-CITI0100000-PAYPAL PAYMENTS PL-NODAL A/C-PVR Limited-CITIN18889337559,93671.56,C,CITIN18889337559,16/07/2018,FORT
2018-07-16,NEFT Cr-AIRP0000001-PVR LIMITED.-PVR LTD-A197180001167402,141275.89,C,A197180001167402,16/07/2018,CMS TF WBO MUMBAI
2018-07-16,NEFT Cr-CITI0000002-ONE97 COMMUNICATIONS LIMITED-PVR LIMITED-CITIN18889489616,9690.58,C,CITIN18889489616,16/07/2018,FORT
2018-07-16,NEFT Cr-KKBK0000958-BIG TREE ENTERTAINMENT PRIVATE LIMITED-PVR LIMITED-KKBK181971084397,1655462.0,C,KKBK181971084397,16/07/2018,FORT
2018-07-16,NEFT Cr-CITI0000002-ONE97 COMMUNICATIONS LIMITED-PVR LIMITED-CITIN18889489767,6347.47,C,CITIN18889489767,16/07/2018,FORT
2018-07-16,NEFT Cr-KKBK0000958-BIG TREE ENTERTAINMENT PRIVATE LIMITED-PVR LIMITED-KKBK181971084675,3208940.0,C,KKBK181971084675,16/07/2018,FORT
2018-07-16,NEFT Cr-KKBK0000958-BIG TREE ENTERTAINMENT PRIVATE LIMITED-PVR LIMITED-KKBK181971085283,2557745.0,C,KKBK181971085283,16/07/2018,FORT
2018-07-16,NEFT Cr-KKBK0000958-BIG TREE ENTERTAINMENT PRIVATE LIMITED-PVR LIMITED-KKBK181971085094,3230275.0,C,KKBK181971085094,16/07/2018,FORT
2018-07-16,NEFT Cr-KKBK0000958-BIG TREE ENTERTAINMENT PRIVATE LIMITED-PVR LIMITED-KKBK181971084339,2537639.0,C,KKBK181971084339,16/07/2018,FORT
2018-07-16,NEFT Cr-KKBK0000958-BIG TREE ENTERTAINMENT PRIVATE LIMITED-PVR LIMITED-KKBK181971084699,26583061.0,C,KKBK181971084699,16/07/2018,FORT
2018-07-16,NEFT Cr-KKBK0000958-BIG TREE ENTERTAINMENT PRIVATE LIMITED-PVR LIMITED-KKBK181971084504,17351785.0,C,KKBK181971084504,16/07/2018,FORT
2018-07-16,NEFT Cr-KKBK0000958-BIG TREE ENTERTAINMENT PRIVATE LIMITED-PVR LIMITED-KKBK181971085146,24374671.0,C,KKBK181971085146,16/07/2018,FORT
2018-07-16,NEFT Cr-KKBK0000958-BIG TREE ENTERTAINMENT PRIVATE LIMITED-PVR LIMITED-KKBK181971084737,3676128.0,C,KKBK181971084737,16/07/2018,FORT
2018-07-16,NEFT Cr-KKBK0000958-BIG TREE ENTERTAINMENT PRIVATE LIMITED-PVR LIMITED-KKBK181971097329,440026.0,C,KKBK181971097329,16/07/2018,FORT
2018-07-16,NEFT Cr-KKBK0000958-BIG TREE ENTERTAINMENT PRIVATE LIMITED-PVR LIMITED-KKBK181971097756,407476.0,C,KKBK181971097756,16/07/2018,FORT
2018-07-16,NEFT Cr-KKBK0000958-BIG TREE ENTERTAINMENT PRIVATE LIMITED-PVR LIMITED-KKBK181971097786,57371.0,C,KKBK181971097786,16/07/2018,FORT
2018-07-16,NEFT Cr-KKBK0000958-BIG TREE ENTERTAINMENT PRIVATE LIMITED-PVR LIMITED-KKBK181971095140,289961.0,C,KKBK181971095140,16/07/2018,FORT
2018-07-16,NEFT Cr-KKBK0000958-BIG TREE ENTERTAINMENT PRIVATE LIMITED-PVR LIMITED-KKBK181971097157,54993.0,C,KKBK181971097157,16/07/2018,FORT
2018-07-16,NEFT Cr-KKBK0000958-BIG TREE ENTERTAINMENT PRIVATE LIMITED-PVR LIMITED-KKBK181971095492,55615.0,C,KKBK181971095492,16/07/2018,FORT
2018-07-16,NEFT Cr-KKBK0000958-BIG TREE ENTERTAINMENT PRIVATE LIMITED-PVR LIMITED-KKBK181971097741,25561.0,C,KKBK181971097741,16/07/2018,FORT
2018-07-16,NEFT Cr-KKBK0000958-BIG TREE ENTERTAINMENT PRIVATE LIMITED-PVR LIMITED-KKBK181971097501,3829.0,C,KKBK181971097501,16/07/2018,FORT
2018-07-16,NEFT Cr-KKBK0000958-BIG TREE ENTERTAINMENT PRIVATE LIMITED-PVR LIMITED-KKBK181971097358,29518.0,C,KKBK181971097358,16/07/2018,FORT
2018-07-16,NEFT Cr-KKBK0000958-BIG TREE ENTERTAINMENT PRIVATE LIMITED-PVR LIMITED-KKBK181971098814,1485.0,C,KKBK181971098814,16/07/2018,FORT
2018-07-16,NEFT Cr-KKBK0000958-BIG TREE ENTERTAINMENT PRIVATE LIMITED-PVR LIMITED-KKBK181971095143,3095.0,C,KKBK181971095143,16/07/2018,FORT
2018-07-16,NEFT Cr-KKBK0000958-BIG TREE ENTERTAINMENT PRIVATE LIMITED-PVR LIMITED-KKBK181971095108,23025.0,C,KKBK181971095108,16/07/2018,FORT
2018-07-16,NEFT Cr-KKBK0000958-BIG TREE ENTERTAINMENT PRIVATE LIMITED-PVR LIMITED-KKBK181971097319,41560.0,C,KKBK181971097319,16/07/2018,FORT
2018-07-16,NEFT Cr-KKBK0000958-BIG TREE ENTERTAINMENT PRIVATE LIMITED-PVR LIMITED-KKBK181971097798,2688.0,C,KKBK181971097798,16/07/2018,FORT
2018-07-16,NEFT Cr-KKBK0000958-BIG TREE ENTERTAINMENT PRIVATE LIMITED-PVR LIMITED-KKBK181971097239,2820.0,C,KKBK181971097239,16/07/2018,FORT
2018-07-16,NEFT Cr-KKBK0000958-BIG TREE ENTERTAINMENT PRIVATE LIMITED-PVR LIMITED-KKBK181971097801,1617.0,C,KKBK181971097801,16/07/2018,FORT
2018-07-16,NEFT Cr-KKBK0000958-BIG TREE ENTERTAINMENT PRIVATE LIMITED-PVR LIMITED-KKBK181971097808,21597.0,C,KKBK181971097808,16/07/2018,FORT
2018-07-16,NEFT Cr-KKBK0000958-BIG TREE ENTERTAINMENT PRIVATE LIMITED-PVR LIMITED-KKBK181971095317,37914.0,C,KKBK181971095317,16/07/2018,FORT
2018-07-16,NEFT Cr-ICIC0SF0002-ARTHASHASTRA FINTECH PRIVATE LIMITED-PVR LIMITED-20619860881DC,162352.58,C,20619860881DC,16/07/2018,FORT
2018-07-17,00030330004897   EOD SWEEP ,87651869.77,D, ,16/07/2018,K G MARG
2018-07-17,IMPS-819807309589-PHONEPE PRIVATE LIMI-HDFC-xxxxxxxxxxx0025-PvrcinemasRedemption,106485.38,C,819807309589,17/07/2018,FORT
2018-07-17,NEFT Cr-CITI0100000-PAYPAL PAYMENTS PL-NODAL A/C-PVR Limited-CITIN18889922528,30495.64,C,CITIN18889922528,17/07/2018,FORT
2018-07-17,NEFT Cr-AIRP0000001-PVR LIMITED.-PVR LTD-A198180001175950,17676.6,C,A198180001175950,17/07/2018,FORT
2018-07-17,NEFT Cr-CITI0000002-ONE97 COMMUNICATIONS LIMITED-PVR LIMITED-CITIN18890155968,667131.12,C,CITIN18890155968,17/07/2018,FORT
2018-07-17,NEFT Cr-CITI0000002-ONE97 COMMUNICATIONS LIMITED-PVR LIMITED-CITIN18890157557,720989.67,C,CITIN18890157557,17/07/2018,FORT
2018-07-17,NEFT Cr-ICIC0SF0002-ARTHASHASTRA FINTECH PRIVATE LIMITED-PVR LIMITED-20621557471DC,24729.12,C,20621557471DC,17/07/2018,FORT
