DEBIT GL|DEBIT CC|CREDIT GL|CREDIT CC|AMOUNT|REMARKS
||271210050001|10000|1084555.36|IMPS Inward sett dt22082019-4C
||271210050001|10000|3.0|IMPS Inward P-08 sett dt22082019-4C
||270910050027|10000|0.14|IMPS I/w P-08 Approved Fee GST dt22082019-4C
||761210210001|10000|0.75|IMPS I/w P-08 Approved fee dt22082019-4C
||270910050027|10000|14.63|IMPS I/w Approved fees GST 22082019-4C
||761210210001|10000|81.25|IMPS I/w Approved fees 22082019-4C
||271210050001|10000|851264.21|IMPS Inward sett dt22082019-3C
||271210050001|10000|6605.0|IMPS Inward P-08 sett dt22082019-3C
||270910050027|10000|0.59|IMPS I/w P-08 Approved Fee GST dt22082019-3C
||761210210001|10000|3.25|IMPS I/w P-08 Approved fee dt22082019-3C
||270910050027|10000|11.79|IMPS I/w Approved fees GST 22082019-3C
||761210210001|10000|65.5|IMPS I/w Approved fees 22082019-3C
||270910050027|10000|16.7|IMPS I/w Approved fees GST 22082019-2C
||271210050001|10000|1149647.9|IMPS Inward sett dt22082019-2C
||761210210001|10000|92.75|IMPS I/w Approved fees 22082019-2C
||271210050001|10000|729524.8|IMPS Inward sett dt22082019-1C
||270910050027|10000|16.83|IMPS I/w Approved fees GST 22082019-1C
||761210210001|10000|93.5|IMPS I/w Approved fees 22082019-1C
271210370001|10000|||700.0|IMPS P-08  Outward sett dt22082019-4C
560810010027|10000|||0.05|IMPS O/w P-08  Switchng Fee GST dt22082019-4C
860610130001|10000|||0.25|IMPS O/w P-08 Switching fee dt22082019-4C
560810010027|10000|||0.05|IMPS O/w P-08 Approved Fee GST dt22082019-4C
860610130001|10000|||0.25|IMPS O/w P-08 Approved fee dt22082019-4C
271210370001|10000|||1289904.0|IMPS Outward sett dt22082019-4C
860610130001|10000|||47.75|IMPS O/w Switching fee dt22082019-4C
560810010027|10000|||23.81|IMPS O/w Approved Fee GST dt 22082019-4C
860610130001|10000|||132.25|IMPS O/w Approved fee dt 22082019-4C
560810010027|10000|||8.6|IMPS O/w Switchng Fee GST dt22082019-4C
271210370001|10000|||2909.0|IMPS P-08  Outward sett dt22082019-3C
560810010027|10000|||0.09|IMPS O/w P-08  Switchng Fee GST dt22082019-3C
860610130001|10000|||0.5|IMPS O/w P-08 Switching fee dt22082019-3C
560810010027|10000|||0.18|IMPS O/w P-08 Approved Fee GST dt22082019-3C
860610130001|10000|||1.0|IMPS O/w P-08 Approved fee dt22082019-3C
271210370001|10000|||1447208.0|IMPS Outward sett dt22082019-3C
860610130001|10000|||50.5|IMPS O/w Switching fee dt22082019-3C
560810010027|10000|||29.88|IMPS O/w Approved Fee GST dt 22082019-3C
860610130001|10000|||166.0|IMPS O/w Approved fee dt 22082019-3C
560810010027|10000|||9.09|IMPS O/w Switchng Fee GST dt22082019-3C
271210370001|10000|||1267597.19|IMPS Outward sett dt22082019-2C
560810010027|10000|||9.63|IMPS O/w Switchng Fee GST dt22082019-2C
860610130001|10000|||53.5|IMPS O/w Switching fee dt22082019-2C
560810010027|10000|||22.5|IMPS O/w Approved Fee GST dt 22082019-2C
860610130001|10000|||125.0|IMPS O/w Approved fee dt 22082019-2C
560810010027|10000|||29.75|IMPS O/w Approved Fee GST dt 22082019-1C
271210370001|10000|||6000.0|IMPS P-08  Outward sett dt22082019-1C
560810010027|10000|||0.09|IMPS O/w P-08  Switchng Fee GST dt22082019-1C
860610130001|10000|||0.5|IMPS O/w P-08 Switching fee dt22082019-1C
560810010027|10000|||0.18|IMPS O/w P-08 Approved Fee GST dt22082019-1C
860610130001|10000|||1.0|IMPS O/w P-08 Approved fee dt22082019-1C
271210370001|10000|||1123402.0|IMPS Outward sett dt22082019-1C
560810010027|10000|||13.19|IMPS O/w Switchng Fee GST dt22082019-1C
860610130001|10000|||73.25|IMPS O/w Switching fee dt22082019-1C
860610130001|10000|||165.25|IMPS O/w Approved fee dt 22082019-1C
||271210030001|10000|206161.88|IMPS Net settlement dt 22082019-4C
||271210030001|10000|592423.9|IMPS Net settlement dt 22082019-3C
||271210030001|10000|118050.47|IMPS Net settlement dt 22082019-2C
||271210030001|10000|400050.08|IMPS Net settlement dt 22082019-1C
