RECORD TYPE,CREATE DATE,CREATE TIME,BUSINESS DATE,TOTAL ITEM COUNT,TOTAL AMOUNT
O,01,1,400751000,ALLAHABAD BANK,00010208657666,403710,380010013,000000,31,500000,380751001,C,01022016
O,01,1,400751000,ALLAHABAD BANK,00010208657668,403692,380010013,000000,31,500000,380751001,B,01022016
O,01,1,400751000,ALLAHABAD BANK,00010208657670,403730,380010013,000000,31,500000,380751001,B,01022016
O,01,1,400751000,ALLAHABAD BANK,00010208657674,404990,380010013,000000,31,500000,380751001,B,01022016
O,01,1,400751000,AXIS BANK LTD,00010208657780,267361,400211006,020180,31,2500000,400751002,B,01022016
O,01,1,400751000,AXIS BANK LTD,00010208657788,619430,400211036,395100,31,1515300,400751002,B,01022016
O,01,1,400751000,DEUTSCHE BANK,00010208657707,375649,400200003,880014,31,2500000,400751003,B,01022016
O,01,1,400751000,FEDERAL BANK LTD.,00010208657772,075723,000049000,230000,16,87500000,400751002,B,01022016
O,01,1,400751000,HDFC BANK LTD.,00010208657663,000006,400240002,297169,31,5000000,400751003,B,01022016
O,01,1,400751000,HDFC BANK LTD.,00010208657705,000083,400240083,004183,31,2500000,400751003,B,01022016
O,01,1,400751000,HDFC BANK LTD.,00010208657711,000033,400240003,635231,31,2500000,400751003,B,01022016
O,01,1,400751000,HDFC BANK LTD.,00010208657719,000015,400240002,653561,31,2500000,400751003,B,01022016
O,01,1,400751000,HDFC BANK LTD.,00010208657721,000074,400240124,010859,31,3000000,400751003,B,01022016
O,01,1,400751000,HDFC BANK LTD.,00010208657786,000050,560240005,193542,31,2600000,400751002,B,01022016
O,01,1,400751000,HDFC BANK LTD.,00010208657790,000013,400240035,003273,31,2500000,400751002,B,01022016
O,01,1,400751000,HDFC BANK LTD.,00010208657797,000068,400240083,001158,31,87800,400751002,B,01022016
O,01,1,400751000,HONGKONG and SHANGHAI BKG.CO.,00010208657723,111164,400039004,210011,31,2500000,400751003,B,01022016
O,01,1,400751000,ICICI BANK LTD.,00010208657709,335624,400229028,509776,31,2500000,400751003,B,01022016
O,01,1,400751000,ICICI BANK LTD.,00010208657713,057004,400229092,501178,31,2500000,400751003,B,01022016
O,01,1,400751000,ICICI BANK LTD.,00010208657715,856065,400229003,505371,31,2500000,400751003,B,01022016
O,01,1,400751000,ICICI BANK LTD.,00010208657774,732539,400229015,017556,31,2500000,400751002,B,01022016
O,01,1,400751000,ICICI BANK LTD.,00010208657782,367405,600229002,212440,31,1200000,400751002,B,01022016
O,01,1,400751000,ICICI BANK LTD.,00010208657794,587063,400229002,007989,29,500000000,400751002,B,01022016
O,01,1,400751000,INDIAN BANK,00010208657784,579723,400019024,942833,31,5000000,400751002,B,01022016
O,01,1,400751000,INDIAN OVERSEAS BANK,00010208657776,546834,400020049,000000,11,2500000,400751002,B,01022016
O,01,1,400751000,INDIAN OVERSEAS BANK,00010208657778,546835,400020049,000000,11,2500000,400751002,B,01022016
O,01,1,400751000,INDUSIND BANK LTD,00010208657703,322493,400234008,101010,31,10000000,400751003,B,01022016
O,01,1,400751000,INDUSIND BANK LTD,00010208657717,879211,400234005,100040,31,2500000,400751003,B,01022016
O,01,1,400751000,INDUSIND BANK LTD,00010208657725,720877,000234000,000000,16,11202,400751003,B,01022016
O,01,1,400751000,KOTAK MAHINDRA BANK LTD.,00010208657672,000002,380485004,067143,31,3000000,380751001,B,01022016
O,01,1,400751000,STATE BANK OF INDIA,00010208657792,019253,400002113,021126,31,2500000,400751002,B,01022016
O,01,1,400751000,THE BHARAT CO-OP.BANK LTD.,00010208657799,320773,400112012,001522,11,84403900,400751002,B,01022016
O,01,1,400751000,VIJAYA BANK,00010208657801,397963,400029008,500741,10,308200,400751002,B,01022016
O,01,1,400751000,VIJAYA BANK,00010208657803,400345,400029008,500741,10,1463970600,400751002,B,01022016
O,01,1,400751000,VIJAYA BANK,00010208657805,776814,400029008,500727,10,446990300,400751002,B,01022016
O,11,11,400751000,BANK OF BARODA,00010208657498,612046,400012068,000000,10,20000000,400751002,B,29012016
O,11,11,400751000,HDFC BANK LTD.,00010208657626,088193,400240135,004242,31,1000000,400751002,B,30012016
O,11,11,400751000,HDFC BANK LTD.,00010208657630,458114,400240002,174294,31,1000000,400751002,B,30012016
