Transaction Date,Description,Amount,C.D.Falg,Reference No,Value Date,Branch Name
2018-08-22,EOD SWEEP  00030330005137  ,63727335.00,C, ,21/08/2018,K G MARG
2018-08-22,EOD SWEEP  09290330000094  ,41901405.66,C, ,21/08/2018,CYBERCITY
2018-08-22,AUTO SWEEPOUT TO PVR LIMITED-NORTH 09290330000084  ,347201.92,C, ,22/08/2018,CYBERCITY
2018-08-22,AUTO SWEEPOUT TO PVR LIMITED-SOUTH 09290330000102  ,2956877.00,C, ,22/08/2018,CYBERCITY
2018-08-22,TERM LOAN LIQUIDATED AGAINST 003LN08173140086,25000000.00,D,003LN08173140086,22/08/2018,K G MARG
2018-08-22,TERM LOAN LIQUIDATED AGAINST 003LN08173140117,25000000.00,D,003LN08173140117,22/08/2018,K G MARG
2018-08-22,70003304TERMINAL 1 CARDS SETTL. 22/08/18,623095.11,C, ,22/08/2018,DB OPS MUMBAI
2018-08-22,70003304TERMINAL 1CREDIT VOUCHER22/08/18,2483.72,D, ,22/08/2018,DB OPS MUMBAI
2018-08-22,00022560003263-TPT-PVR LTD,85000.00,C,000169815032,22/08/2018,NETBANK MUMBAI
2018-08-22,00022560003263  -TPT-PVR LTD,277344.00,C,124164279A1,22/08/2018,NETBANK MUMBAI
2018-08-22,Kishor Sharma,20000.00,D,808222018097,22/08/2018,NETBANK MUMBAI
2018-08-22,PVR PICTURES L-PVR Limited,5000000.00,C,808222040004,22/08/2018,NETBANK MUMBAI
2018-08-22,PVR PICTURES L-PVR Limited,5000000.00,C,808222040005,22/08/2018,NETBANK MUMBAI
2018-08-22,Raju Shinde,17405.00,D,808222118491,22/08/2018,NETBANK MUMBAI
2018-08-22,Shivani Thapa,9625.00,D,808222118467,22/08/2018,NETBANK MUMBAI
2018-08-22,Chandni N Sachd,40745.00,D,808222118469,22/08/2018,NETBANK MUMBAI
2018-08-22,Yatin R Sharma,100272.00,D,808222118470,22/08/2018,NETBANK MUMBAI
2018-08-22,PS PRECIOUS HAN,1559077.00,D,808222118506,22/08/2018,NETBANK MUMBAI
2018-08-22,DLF LTD,4225715.00,D,808222118498,22/08/2018,NETBANK MUMBAI
2018-08-22,FLICKER PROJECT,1458847.00,D,808222118500,22/08/2018,NETBANK MUMBAI
2018-08-22,CSJ INFRASTRUCT,346500.00,D,808222118511,22/08/2018,NETBANK MUMBAI
2018-08-22,S Prabhu,11655.00,D,808222118480,22/08/2018,NETBANK MUMBAI
2018-08-22,Arun Sharma,10759.00,D,808222118486,22/08/2018,NETBANK MUMBAI
2018-08-22,Ajay Kumar,15712.00,D,808222118468,22/08/2018,NETBANK MUMBAI
2018-08-22,Abhilash A,389.00,D,808222118484,22/08/2018,NETBANK MUMBAI
2018-08-22,Raghu Hs,22802.00,D,808222118466,22/08/2018,NETBANK MUMBAI
2018-08-22,FLICKER PROJECT,467888.00,D,808222118501,22/08/2018,NETBANK MUMBAI
2018-08-22,PS PRECIOUS HAN,1106235.00,D,808222118497,22/08/2018,NETBANK MUMBAI
2018-08-22,LEX LAND SECURI,918654.00,D,808222118515,22/08/2018,NETBANK MUMBAI
2018-08-22,BHARTI REALTY H,438540.00,D,808222118509,22/08/2018,NETBANK MUMBAI
2018-08-22,Reliance Genera,200000.00,D,808222244819,22/08/2018,NETBANK MUMBAI
2018-08-22,Stop payment charges for 000000351893,100.00,D, ,22/08/2018,K G MARG
2018-08-22,Stop payment charges for 000000351894,100.00,D, ,22/08/2018,K G MARG
2018-08-22,EOD SWEEP  00030330005137  ,61467.60,C, ,22/08/2018,K G MARG
2018-08-22,EOD SWEEP  09290330000094  ,4862382.44,C, ,22/08/2018,CYBERCITY
2018-08-23,IGST - Stop payment charges - NCB1823568296963,18.00,D,NCB1823568296963,23/08/2018,K G MARG
2018-08-23,IGST - Stop payment charges - NCB1823568296964,18.00,D,NCB1823568296964,23/08/2018,K G MARG
2018-08-23,VIVEK PRATAP SI,200000.00,D,N235180614205792,23/08/2018,NETBANK MUMBAI
2018-08-23,P RamKumar,8605.00,D,N235180614225498,23/08/2018,NETBANK MUMBAI
2018-08-23,Chandrakant Sad,37582.00,D,N235180614215601,23/08/2018,NETBANK MUMBAI
2018-08-23,SHREE SURYODAYA,432000.00,D,N235180614215616,23/08/2018,NETBANK MUMBAI
2018-08-23,NITESH PUNE MAL,270000.00,D,N235180614221272,23/08/2018,NETBANK MUMBAI
2018-08-23,AMAN PORWAL,16240.00,D,N235180614228921,23/08/2018,NETBANK MUMBAI
2018-08-23,DONA BUILDERS P,172437.00,D,N235180614229017,23/08/2018,NETBANK MUMBAI
2018-08-23,KMBL A C SEQUEL,464845.00,D,N235180614229053,23/08/2018,NETBANK MUMBAI
2018-08-23,DONA BUILDERS P,425899.00,D,N235180614237930,23/08/2018,NETBANK MUMBAI
2018-08-23,JANEESH P,11767.00,D,N235180614237970,23/08/2018,NETBANK MUMBAI
2018-08-23,NITESH PUNE MAL,166618.00,D,N235180614239818,23/08/2018,NETBANK MUMBAI
2018-08-23,KUMAR COMPANY,224366.00,D,N235180614259893,23/08/2018,NETBANK MUMBAI
2018-08-23,Varun Singh,7793.00,D,N235180614270366,23/08/2018,NETBANK MUMBAI
2018-08-23,NIF PRIVATE LIM,65340.00,D,N235180614270902,23/08/2018,NETBANK MUMBAI
2018-08-23,VISHAL SHIVAM,11000.00,D,N235180614271517,23/08/2018,NETBANK MUMBAI
2018-08-23,DONA BUILDERS P,227700.00,D,N235180614263304,23/08/2018,NETBANK MUMBAI
2018-08-23,KSL AND INDUSTR,3523915.00,D,N235180614267707,23/08/2018,NETBANK MUMBAI
2018-08-23,Thakar Singh,15611.00,D,N235180614276580,23/08/2018,NETBANK MUMBAI
2018-08-23,Jestin Joseph,1668.00,D,N235180614281227,23/08/2018,NETBANK MUMBAI
2018-08-23,Pawan Bisht,4582.00,D,N235180614294358,23/08/2018,NETBANK MUMBAI
2018-08-23,Shivam Pandey,11467.00,D,N235180614299063,23/08/2018,NETBANK MUMBAI
2018-08-23,SELECT INFRASTR,1509470.00,D,N235180614299358,23/08/2018,NETBANK MUMBAI
2018-08-23,CINELINE INDIA,246024.00,D,N235180614299436,23/08/2018,NETBANK MUMBAI
2018-08-23,Ravindra Prajap,62150.00,D,N235180614306061,23/08/2018,NETBANK MUMBAI
2018-08-23,Soni Kumari,3430.00,D,N235180614315296,23/08/2018,NETBANK MUMBAI
2018-08-23,Sameer Tajnekar,35668.00,D,N235180614315344,23/08/2018,NETBANK MUMBAI
2018-08-23,CINELINE INDIA,69692.00,D,N235180614315390,23/08/2018,NETBANK MUMBAI
2018-08-23,R R FILMS-PROPE,38880.00,D,N235180614310824,23/08/2018,NETBANK MUMBAI
2018-08-23,Malkeet Singh,2351.00,D,N235180614310857,23/08/2018,NETBANK MUMBAI
2018-08-23,UMAKANT VERMA,8999.00,D,N235180614306570,23/08/2018,NETBANK MUMBAI
2018-08-23,MINDSPACE BUSIN,477500.00,D,N235180614315555,23/08/2018,NETBANK MUMBAI
2018-08-23,Sandeep,9941.00,D,N235180614311071,23/08/2018,NETBANK MUMBAI
2018-08-23,ODEON EXHIBITOR,61668.00,D,N235180614306698,23/08/2018,NETBANK MUMBAI
2018-08-23,NEELAM DEVI,5746.00,D,N235180614306924,23/08/2018,NETBANK MUMBAI
2018-08-23,Santosh Kumar,331.00,D,N235180614317286,23/08/2018,NETBANK MUMBAI
2018-08-23,PRESTIGE MANGAL,966340.00,D,N235180614312264,23/08/2018,NETBANK MUMBAI
2018-08-23,SURYA TREASURE,784350.00,D,N235180614317383,23/08/2018,NETBANK MUMBAI
2018-08-23,Amlesh Kumar Jh,2008.00,D,N235180614317942,23/08/2018,NETBANK MUMBAI
2018-08-23,CITY CENTRE MAL,364032.00,D,N235180614317991,23/08/2018,NETBANK MUMBAI
2018-08-23,Sunil Kumar,9275.00,D,N235180614318943,23/08/2018,NETBANK MUMBAI
2018-08-23,REGALIAA BUILDT,122222.00,D,N235180614313483,23/08/2018,NETBANK MUMBAI
2018-08-23,Mayank Grover,7721.00,D,N235180614313522,23/08/2018,NETBANK MUMBAI
2018-08-23,AVINASH DEVELOP,679924.00,D,N235180614313661,23/08/2018,NETBANK MUMBAI
2018-08-23,Sushil Kumar Ka,36401.00,D,N235180614319836,23/08/2018,NETBANK MUMBAI
2018-08-23,CITY CENTRE MAL,618829.00,D,N235180614314074,23/08/2018,NETBANK MUMBAI
2018-08-23,J Murali,19924.00,D,N235180614309279,23/08/2018,NETBANK MUMBAI
2018-08-23,MS972008.001 20082018,34573.00,D,808209867999,23/08/2018,NETBANK MUMBAI
2018-08-23,Chq Paid-MICR CTS-MU-EXCELLENT AIRCONDIT,2655.00,D,000000349408,23/08/2018,MUMBAI CLEARING
2018-08-23,Chq Paid-MICR CTS-MU-SCALEMART,963.00,D,000000348158,23/08/2018,MUMBAI CLEARING
2018-08-23,Chq Paid-MICR CTS-MU-CD CONSULTANCY & SE,846.40,D,000000350880,23/08/2018,MUMBAI CLEARING
2018-08-23,Chq Paid-MICR CTS-MU-ORIGIN COURIER,678.00,D,000000350964,23/08/2018,MUMBAI CLEARING
2018-08-23,Chq Paid-MICR CTS-MU-OM SAI SERVICES,3400.00,D,000000348513,23/08/2018,MUMBAI CLEARING
2018-08-23,Chq Paid-MICR CTS-MU-CHANDRAKANT D SHIND,4076.00,D,000000350881,23/08/2018,MUMBAI CLEARING
2018-08-23,Chq Paid-MICR CTS-MU-GANESH AMBADAS SHIN,5160.00,D,000000348100,23/08/2018,MUMBAI CLEARING
2018-08-23,Chq Paid-MICR CTS-MU-TANAJI BABURAO PATI,6190.00,D,000000348217,23/08/2018,MUMBAI CLEARING
2018-08-23,Chq Paid-MICR CTS-MU-VR MEDIA,6960.52,D,000000350875,23/08/2018,MUMBAI CLEARING
2018-08-23,Chq Paid-MICR CTS-MU-SHIVSHANKAR BHOJNAL,7499.00,D,000000350754,23/08/2018,MUMBAI CLEARING
2018-08-23,Chq Paid-MICR CTS-MU-BHARAT CHOWDHARY,7740.00,D,000000350223,23/08/2018,MUMBAI CLEARING
2018-08-23,Chq Paid-MICR CTS-MU-SUBRATA LAKSHMAN BE,8556.00,D,000000351317,23/08/2018,MUMBAI CLEARING
2018-08-23,Chq Paid-MICR CTS-MU-S M WORLD WIDE EXPR,8561.58,D,000000350886,23/08/2018,MUMBAI CLEARING
2018-08-23,Chq Paid-MICR CTS-MU-RATHI ENGINEERS AND,12242.00,D,000000349409,23/08/2018,MUMBAI CLEARING
2018-08-23,Chq Paid-MICR CTS-MU-ANIL JAISWAL,9075.00,D,000000350952,23/08/2018,MUMBAI CLEARING
2018-08-23,Chq Paid-MICR CTS-MU-REAL GOOD FOODS,12732.00,D,000000351303,23/08/2018,MUMBAI CLEARING
2018-08-23,Chq Paid-MICR CTS-MU-THE CASTLE,26251.00,D,000000347631,23/08/2018,MUMBAI CLEARING
2018-08-23,Chq Paid-MICR CTS-MU-VEDANT INDUSTRIAL S,35024.00,D,000000348074,23/08/2018,MUMBAI CLEARING
2018-08-23,Chq Paid-MICR CTS-MU-TEA PLUS SNACKS ADD,51725.00,D,000000351271,23/08/2018,MUMBAI CLEARING
2018-08-23,Chq Paid-MICR CTS-MU-NISHA AGENCIES,63519.00,D,000000351245,23/08/2018,MUMBAI CLEARING
2018-08-23,Chq Paid-MICR CTS-MU-K J TRADERS,64615.00,D,000000351247,23/08/2018,MUMBAI CLEARING
2018-08-23,Chq Paid-MICR CTS-MU-SHRIKRISHNA UDDHAV ,31500.00,D,000000349293,23/08/2018,MUMBAI CLEARING
2018-08-23,Chq Paid-MICR CTS-MU-MUNICIPAL CORPORATI,26640.00,D,000000350294,23/08/2018,MUMBAI CLEARING
2018-08-23,Chq Paid-MICR CTS-MU-N GANU BHAI,26568.00,D,000000351286,23/08/2018,MUMBAI CLEARING
2018-08-23,Chq Paid-MICR CTS-MU-ASHISH ELECTRICALS,35797.00,D,000000350963,23/08/2018,MUMBAI CLEARING
2018-08-23,Chq Paid-MICR CTS-MU-MAXICON POWER SOLUT,26019.00,D,000000350962,23/08/2018,MUMBAI CLEARING
2018-08-23,Chq Paid-MICR CTS-MU-EXCELLENT AIRCONDIT,14455.00,D,000000349412,23/08/2018,MUMBAI CLEARING
2018-08-23,Chq Paid-MICR CTS-MU-THE CASTLE,12913.00,D,000000351299,23/08/2018,MUMBAI CLEARING
2018-08-23,Chq Paid-MICR CTS-MU-KAMDHENU STATIONERY,32429.00,D,000000348504,23/08/2018,MUMBAI CLEARING
2018-08-23,Chq Paid-MICR CTS-MU-KAMDHENU STATIONERY,214869.00,D,000000350439,23/08/2018,MUMBAI CLEARING
2018-08-23,Chq Paid-MICR CTS-MU-SHRINGAR FILMS PVT ,2522746.24,D,000000351261,23/08/2018,MUMBAI CLEARING
2018-08-23,Chq Paid-MICR CTS-CH-FIRE TECH SOLUTION,20424.00,D,000000351349,23/08/2018,CHENNAI RK SALAI
2018-08-23,Chq Paid-MICR CTS-CH-R PRABHU,10500.00,D,000000350833,23/08/2018,CHENNAI RK SALAI
2018-08-23,Chq Paid-MICR CTS-CH-FIRE TECH SOLUTION,11733.00,D,000000351177,23/08/2018,CHENNAI RK SALAI
2018-08-23,Chq Paid-MICR CTS-CH-BHARATI A LTD,11820.06,D,000000350603,23/08/2018,CHENNAI RK SALAI
2018-08-23,Chq Paid-MICR CTS-CH-VENTECO,12316.00,D,000000351180,23/08/2018,CHENNAI RK SALAI
2018-08-23,Chq Paid-MICR CTS-CH-ABS AIRCON ENGG P L,903680.00,D,000000350912,23/08/2018,CHENNAI RK SALAI
2018-08-23,Chq Paid-MICR CTS-CH-ACADEMY NEWSPAPERS ,156860.60,D,000000351295,23/08/2018,CHENNAI RK SALAI
2018-08-23,Chq Paid-MICR CTS-CH-SANDEEP CO,21711.00,D,000000351182,23/08/2018,CHENNAI RK SALAI
2018-08-23,Chq Paid-MICR CTS-CH-ALVAS TRADERS,38335.00,D,000000350199,23/08/2018,CHENNAI RK SALAI
2018-08-23,Chq Paid-MICR CTS-CH-FOOD ART,60514.00,D,000000351184,23/08/2018,CHENNAI RK SALAI
2018-08-23,Chq Paid-MICR CTS-CH-SUCHAN ENG,127440.00,D,000000351063,23/08/2018,CHENNAI RK SALAI
2018-08-23,Chq Paid-MICR CTS-NO-JAI ENTER,434.50,D,000000345605,23/08/2018,NOIDA WBO
2018-08-23,Chq Paid-MICR CTS-NO-JAI ENTEPRISES,833.42,D,000000348696,23/08/2018,NOIDA WBO
2018-08-23,Chq Paid-MICR CTS-NO-SHRI KRISHNA,4176.00,D,000000348753,23/08/2018,NOIDA WBO
2018-08-23,Chq Paid-MICR CTS-NO-SHRI KRISHNA,8378.00,D,000000345821,23/08/2018,NOIDA WBO
2018-08-23,Chq Paid-MICR CTS-NO-ABDUL SALAM,2450.00,D,000000348561,23/08/2018,NOIDA WBO
2018-08-23,Chq Paid-MICR CTS-NO-APEX CHAMBER,4500.00,D,000000351007,23/08/2018,NOIDA WBO
2018-08-23,Chq Paid-MICR CTS-NO-QUADRANT TELEVENTUR,3540.00,D,000000351362,23/08/2018,NOIDA WBO
2018-08-23,Chq Paid-MICR CTS-NO-EXPRESS PLUS,15199.58,D,000000350263,23/08/2018,NOIDA WBO
2018-08-23,Chq Paid-MICR CTS-NO-DARBAIR,15000.00,D,000000351252,23/08/2018,NOIDA WBO
2018-08-23,Chq Paid-MICR CTS-NO-MANISH,14416.00,D,000000346972,23/08/2018,NOIDA WBO
2018-08-23,Chq Paid-MICR CTS-NO-ESSMA TEXTILES,12039.00,D,000000351334,23/08/2018,NOIDA WBO
2018-08-23,Chq Paid-MICR CTS-NO-EXPRESS PLUS,19436.08,D,000000350220,23/08/2018,NOIDA WBO
2018-08-23,Chq Paid-MICR CTS-NO-DARBAR INDUSTRIES,25000.00,D,000000351251,23/08/2018,NOIDA WBO
2018-08-23,Chq Paid-MICR CTS-NO-ACCESO MERCANDIN MA,28922.00,D,000000350569,23/08/2018,NOIDA WBO
2018-08-23,Chq Paid-MICR CTS-NO-SHOBHA ENTP,18880.00,D,000000351337,23/08/2018,NOIDA WBO
2018-08-23,Chq Paid-MICR CTS-NO-ORO ROSSA,41919.50,D,000000350741,23/08/2018,NOIDA WBO
2018-08-23,Chq Paid-MICR CTS-NO-EVAN AUTOMATION,54083.53,D,000000349343,23/08/2018,NOIDA WBO
2018-08-23,Chq Paid-MICR CTS-NO-BOBBY FOODS,109453.99,D,000000351083,23/08/2018,NOIDA WBO
2018-08-23,Chq Paid-MICR CTS-NO-KONE ELEVATOR INDIA,73858.00,D,000000350721,23/08/2018,NOIDA WBO
2018-08-23,Chq Paid-MICR CTS-NO-ESSMA TEXTILES,204450.00,D,000000350986,23/08/2018,NOIDA WBO
2018-08-23,Chq Paid-MICR CTS-NO-REALKEY CONSULTING,304504.00,D,000000351369,23/08/2018,NOIDA WBO
2018-08-23,Chq Paid-MICR CTS-NO-CARRIER AIRCOND,457083.87,D,000000348611,23/08/2018,NOIDA WBO
2018-08-23,Chq Paid-MICR CTS-NO-BRANDMARK PROJECTS,1122816.00,D,000000350815,23/08/2018,NOIDA WBO
2018-08-23,Chq Paid-MICR CTS-NO-VK FILMS,1327192.13,D,000000351379,23/08/2018,NOIDA WBO
2018-08-23,NEFT Cr-IBKL0NEFT01-SMILE ADVERTISING-PVR LIMITED-180823i179390972,3808.00,C,180823i179390972,23/08/2018,FORT
2018-08-23,NEFT Cr-KKBK0000958-MAINA SALES AND MARKETING-PVR LIMITED-KKBK182356119564,6000.00,C,KKBK182356119564,23/08/2018,FORT
2018-08-23,NEFT Cr-CITI0000002-PIHPL(FR.LAY DIV.) DISBURSE.HO A-PVR LTD.-CITIN18906104622,257910.00,C,CITIN18906104622,23/08/2018,CMS TF WBO MUMBAI
2018-08-23,NEFT Cr-KKBK0000958-VOLANO ENTERTAINMENT PRIVATE LIMITED-PVR LTD-KKBK182356126034,10440.00,C,KKBK182356126034,23/08/2018,FORT
2018-08-23,CITRUS PAYMENT-Citrus 20Aug C101552,125062.25,C,808232338037,23/08/2018,NETBANK MUMBAI
2018-08-23,CITRUS PAYMENT-Citrus 20Aug C100656,51511.89,C,808232337984,23/08/2018,NETBANK MUMBAI
2018-08-23,70003304TERMINAL 1 CARDS SETTL. 23/08/18,617023.70,C, ,23/08/2018,DB OPS MUMBAI
2018-08-23,FT - Dr - 06792560000569 - UTEC SYSTEMS,14500.00,D,000000351257,23/08/2018,VASANT KUNJ 3
2018-08-23,70003304TERMINAL 1CREDIT VOUCHER23/08/18,7761.35,D, ,23/08/2018,DB OPS MUMBAI
2018-08-23,00022560003263-TPT-PVR LTD,571968.00,C,000173593038,23/08/2018,NETBANK MUMBAI
2018-08-23,FT-03132320002788-ONKAR INTERNATIONAL PVT LTD,2492841.00,D,352162,23/08/2018,NEW DELHI RET ASSETS OPS
2018-08-23,FT - Dr - 50200027017446 - MOHANAM DISTRIBUTORS PRIVATE LIMITED,23000.00,D,000000347721,23/08/2018,BILASPUR CHHATTISGARH
2018-08-23,NEFT Cr-KKBK0000958-KALEESUWARI REFINERY PRIVATE LTD-PVR LIMITED-KKBK182356166668,290000.00,C,KKBK182356166668,23/08/2018,FORT
2018-08-23,Chq Paid-MICR INW CL-EXECUTIVE ENGINEER ,11554.00,D,000000351382,23/08/2018,LATUR MAHARASHTRA
2018-08-23,Chq Paid-TRANSFER IN-MARVEL ENTERPRISE,6998.00,D,000000349456,23/08/2018,MUMBAI CLEARING
2018-08-23,04292820000149  -TPT-JUL AUGUST BILL PVR,93420.00,C,129822649A1,23/08/2018,NETBANK MUMBAI
2018-08-23,NEFT Cr-KKBK0000958-MD MEDIA CORP-PVR LTD-KKBKH18235723326,253000.00,C,KKBKH18235723326,23/08/2018,CMS TF WBO MUMBAI
2018-08-23,RTGS Dr-SBIN0001604-LETTUCEENTERTAINYOULIMITED-NETBANK MUM-HDFCR52018082391141146,200000.00,D,HDFCR52018082391141146,23/08/2018,NETBANK MUMBAI
2018-08-23,NEFT Cr-ICIC0000104-ONE MOBIKWIK SYSTEMS PRIVATE LIMITED-PVR Limited-CMS894160003,7373.70,C,CMS894160003,23/08/2018,FORT
2018-08-23,NEFT Cr-ICIC0000104-ONE MOBIKWIK SYSTEMS PRIVATE LIMITED-PVR Limited-CMS894168890,7193.27,C,CMS894168890,23/08/2018,FORT
2018-08-23,1 DD ISS DT 23/08/2018,10000.00,D, ,23/08/2018,CMS TF WBO MUMBAI
2018-08-23,IMPS-823515200320-WORLD OF INDIAN ODYS-HDFC-xxxxxx6729-IB:   GCC PAYMENT ,18540.00,C,823515200320,23/08/2018,FORT
2018-08-23,NEFT Cr-SBIN0000TBU-PAO DAVP  New Delhi-PVR LIMITED-SBIN218235855885,2945517.00,C,SBIN218235855885,23/08/2018,FORT
2018-08-23,00532320005145-174730,6378.84,C,808232924797,23/08/2018,NETBANK MUMBAI
2018-08-23,00532320005145-174703,35081.88,C,808232924691,23/08/2018,NETBANK MUMBAI
2018-08-23,00532320005145-174731,1595.00,C,808232924801,23/08/2018,NETBANK MUMBAI
2018-08-23,00532320005145-174702,9567.68,C,808232924688,23/08/2018,NETBANK MUMBAI
2018-08-23,00532320005145-174707,25514.20,C,808232924705,23/08/2018,NETBANK MUMBAI
2018-08-23,00532320005145-174704,4783.84,C,808232924695,23/08/2018,NETBANK MUMBAI
2018-08-23,00532320005145-174705,12757.68,C,808232924698,23/08/2018,NETBANK MUMBAI
2018-08-23,00532320005145-174713,6378.84,C,808232924728,23/08/2018,NETBANK MUMBAI
2018-08-23,00532320005145-174708,9567.68,C,808232924708,23/08/2018,NETBANK MUMBAI
2018-08-23,Chq Paid-TRANSFER IN-A2Z INFRACON PVT LT,20358.00,D,000000351701,23/08/2018,NOIDA WBO
2018-08-23,BIGTREE ENTERT-Gold Movie Screeing,249000.00,C,808233076162,23/08/2018,NETBANK MUMBAI
2018-08-23,RTGS Cr-KKBK0000958-MD MEDIA CORP-PVR LIMID-KKBKR52018082300790598,490880.00,C,KKBKR52018082300790598,23/08/2018,CMS TF WBO MUMBAI
2018-08-23,RTGS Cr-YESB0000725-HUMBLE MUSIC PRIVATE LIMITED-PVR LIMITED-YESBR52018082357460750,696000.00,C,YESBR52018082357460750,23/08/2018,FORT
2018-08-23,DEVARC SHOP OWN,247309.00,D,N235180615177279,23/08/2018,NETBANK MUMBAI
2018-08-23,DEVARC SHOP OWN,508442.00,D,N235180615168860,23/08/2018,NETBANK MUMBAI
2018-08-23,K N RAMESH,116482.00,D,N235180615177301,23/08/2018,NETBANK MUMBAI
2018-08-23,VIJAY KUMAR,1750.00,D,808233153183,23/08/2018,NETBANK MUMBAI
2018-08-23,CHQ DEP - TRANSFER OW 2 - NOIDA WBO61147.00,C,000000000398,23/08/2018,NOIDA WBO,
2018-08-23,NEFT Cr-INDB0000006-PVR LIMITED-PVR LIMITED-000146201817,5000000.00,C,000146201817,23/08/2018,FORT
2018-08-23,NEFT Cr-SCBL0036001-M/S VODAFONE MOBILE-PVR LIMITED-SIN01849Q3536855,116000.00,C,SIN01849Q3536855,23/08/2018,FORT
2018-08-23,PVR LIMITED YES,10000000.00,D,N235180615227696,23/08/2018,NETBANK MUMBAI
2018-08-23,PVR LIMITED YES,10000000.00,D,N235180615235037,23/08/2018,NETBANK MUMBAI
2018-08-23,PVR LIMITED YES,10000000.00,D,N235180615233093,23/08/2018,NETBANK MUMBAI
2018-08-23,PVR LIMITED YES,10000000.00,D,N235180615233106,23/08/2018,NETBANK MUMBAI
2018-08-23,IMPS-823517863523-DEVIDAS GUNDETI-HDFC-xxxxxxxxxxx0808-,96642.00,C,823517863523,23/08/2018,FORT
2018-08-23,Chq Paid-INWARD TRAN-ARRINA EDUCATION SE,696540.18,D,000000349516,23/08/2018,MUMBAI CLEARING
2018-08-23,FT - Dr - 50200029236036 - ARHAM QUALITY CONTROL LABORATORY,6667.00,D,000000350869,23/08/2018,INDORE SRVC BRANCH
2018-08-23,EMP232964C-CHARGEBACKDT19/07-70003304-07,535.20,D, ,23/08/2018,DB OPS MUMBAI
2018-08-23,Exgratia Payment         Exgratia Paymen,21195.00,D,808233104494,23/08/2018,NETBANK MUMBAI
2018-08-23,NEFT Cr-UTIB0000783-DEON ADVERTISERS-PVR-AXMB182358985055,7552.00,C,AXMB182358985055,23/08/2018,FORT
2018-08-23,Chq Paid-INWARD TRAN-SHRAY ENTERPRISES,11328.02,D,000000349072,23/08/2018,NOIDA WBO
2018-08-23,Chq Paid-INWARD TRAN-SIMANJO FOODS PV TL,4640.00,D,000000351504,23/08/2018,NOIDA WBO
2018-08-23,Chq Paid-INWARD TRAN-VISIONS  D I S INDI,20600.00,D,000000349210,23/08/2018,NOIDA WBO
2018-08-23,Chq Paid-INWARD TRAN-VISIONS DIS INDIA P,22340.00,D,000000349211,23/08/2018,NOIDA WBO
2018-08-23,Chq Paid-INWARD TRAN-SKOR FOODS PV TLTD,22670.00,D,000000351826,23/08/2018,NOIDA WBO
2018-08-23,Chq Paid-INWARD TRAN-MAX PEST CONTROL SE,63684.00,D,000000351803,23/08/2018,NOIDA WBO
2018-08-23,Chq Paid-INWARD TRAN-GLOBAL PREMIUM LIFE,41120.00,D,000000351552,23/08/2018,NOIDA WBO
2018-08-23,Chq Paid-INWARD TRAN-A K ASSOCIATES,40600.00,D,000000350797,23/08/2018,NOIDA WBO
2018-08-23,Chq Paid-INWARD TRAN-S S DESIGNEX INDIA ,486000.00,D,000000351648,23/08/2018,NOIDA WBO
2018-08-23,Chq Paid-INWARD TRAN-SIMANJO FOODS P LTD,1599996.00,D,000000351478,23/08/2018,NOIDA WBO
2018-08-23,Chq Paid-INWARD TRAN-BLUE VECTOR CONSULT,259200.00,D,000000351757,23/08/2018,NOIDA WBO
2018-08-23,Chq Paid-INWARD TRAN-SS DESIGNEX INDIA P,1761403.00,D,000000351647,23/08/2018,NOIDA WBO
2018-08-23,Chq Paid-INWARD TRAN-SIMANJO FOODS P LTD,2636233.00,D,000000351827,23/08/2018,NOIDA WBO
2018-08-23,Chq Paid-INWARD TRAN-MAPPLE STAINLESS PR,5214505.00,D,000000351489,23/08/2018,NOIDA WBO
2018-08-23,NEFT Cr-SBIN0016411-PVR LIMITED-PVR HDFC 4897-SBIN318235082991,9500000.00,C,SBIN318235082991,23/08/2018,CMS TF WBO MUMBAI
2018-08-23,NEFT Cr-CITI0000002-ZOMATO MEDIA NODAL ACCOUNT-Pvr limited-CITIN18906645784,2117.58,C,CITIN18906645784,23/08/2018,FORT
2018-08-23,NEFT Cr-SYNB0000192-KANCHANA UDYOG.-PVR LIMITED-P18082391401183,45000.00,C,P18082391401183,23/08/2018,FORT
2018-08-23,NEFT Cr-YESB0000001-HOUSE OF ANITA DONGR-PVR Limited-N235180141853399,276729.80,C,N235180141853399,23/08/2018,FORT
2018-08-23,NEFT Cr-RBIS0KLPA01-PAY AND ACCOUNTS OFFICE I WEST BENGAL (E-PRADAN)-PVR LTD-U000000471204158,525906.00,C,U000000471204158,23/08/2018,CMS TF WBO MUMBAI
2018-08-23,Chq Paid-TRANSFER IN-AUTO CRUISE,8891.00,D,000000351397,23/08/2018,GHOD DOD ROAD-WBO
2018-08-23,Chq Paid-TRANSFER IN-SRI RAGAVENDRA TRAV,124115.00,D,000000351649,23/08/2018,CHENNAI RK SALAI
2018-08-23,Chq Paid-TRANSFER IN-PADAMCHAND C S,820268.00,D,000000351670,23/08/2018,CHENNAI RK SALAI
2018-08-23,Chq Paid-INWARD TRAN-HASMUKHLAL JAYANTIL,21402.00,D,000000351521,23/08/2018,NAVRANGPURA EXTN
2018-08-23,Chq Paid-INWARD TRAN-THE UMMED AHMEDABAD,16230.00,D,000000350477,23/08/2018,NAVRANGPURA EXTN
2018-08-23,Chq Paid-INWARD TRAN-CHAUHAN AND SONS,12350.00,D,000000351755,23/08/2018,NOIDA WBO
2018-08-23,Chq Paid-INWARD TRAN-ASM COMPUTERS,13906.00,D,000000351557,23/08/2018,NOIDA WBO
2018-08-23,Chq Paid-INWARD TRAN-ASM COMPUTERS,58000.00,D,000000351556,23/08/2018,NOIDA WBO
2018-08-23,Chq Paid-INWARD TRAN-CHAUHAN AND SONS,65143.00,D,000000351563,23/08/2018,NOIDA WBO
2018-08-23,Chq Paid-INWARD TRAN-CHAUHAN AND SONS,182454.00,D,000000351561,23/08/2018,NOIDA WBO
2018-08-23,Chq Paid-INWARD TRAN-LINK LOGISTICS MANA,229273.00,D,000000351419,23/08/2018,NOIDA WBO
2018-08-23,Chq Paid-INWARD TRAN-MAHARASHTRA FOODS,202728.00,D,000000351815,23/08/2018,NOIDA WBO
2018-08-23,Chq Paid-INWARD TRAN-ASM COMPUTERS,294615.00,D,000000351708,23/08/2018,NOIDA WBO
2018-08-23,Chq Paid-INWARD TRAN-CHAUHAN AND SONS,542800.00,D,000000351586,23/08/2018,NOIDA WBO
2018-08-23,Chq Paid-INWARD TRAN-SUPER HOSPITALITY,462467.00,D,000000351809,23/08/2018,NOIDA WBO
2018-08-23,Chq Paid-INWARD TRAN-MEC ELECTRIC CONTRA,1095856.00,D,000000351502,23/08/2018,NOIDA WBO
2018-08-23,Chq Paid-INWARD TRAN-LINK LOGISTICS MANA,567167.00,D,000000352207,23/08/2018,NOIDA WBO
2018-08-23,Chq Paid-INWARD TRAN-QAALEEN,2537540.00,D,000000351646,23/08/2018,NOIDA WBO
