Transaction Date,Description,Amount,C.D.Falg,Reference No,Value Date,Branch Name
2018-08-18,AUTO SWEEPOUT TO PVR LIMITED-NORTH 09290330000084  ,614434.99,C, ,18/08/2018,CYBERCITY
2018-08-18,AUTO SWEEPOUT TO PVR LIMITED-SOUTH 09290330000102  ,990687.00,C, ,18/08/2018,CYBERCITY
2018-08-18,IGST - Outward Chq RTN Charges - NCB1823060434544,9.00,D,NCB1823060434544,18/08/2018,K G MARG
2018-08-18,IGST - Outward Chq RTN Charges - NCB1823060434545,9.00,D,NCB1823060434545,18/08/2018,K G MARG
2018-08-18,Chq Paid-MICR CTS-NO-SECUREX SYSTEMS P L,6752.00,D,000000348765,18/08/2018,NOIDA WBO
2018-08-18,Chq Paid-MICR CTS-NO-ANUPAM SYNTHETICS P,104420.00,D,000000350803,18/08/2018,NOIDA WBO
2018-08-18,Chq Paid-MICR CTS-NO-NEW MAX FIRE SYSTEM,12180.00,D,000000350827,18/08/2018,NOIDA WBO
2018-08-18,Chq Paid-MICR CTS-NO-DFLORAL DESIGNS,16638.00,D,000000351228,18/08/2018,NOIDA WBO
2018-08-18,Chq Paid-MICR CTS-NO-BLUE STAR LTD,27788.00,D,000000350638,18/08/2018,NOIDA WBO
2018-08-18,Chq Paid-MICR CTS-NO-RANS TECHNO INDIA P,32763.00,D,000000350221,18/08/2018,NOIDA WBO
2018-08-18,Chq Paid-MICR CTS-NO-RADHAKRISHAN FOODLA,36000.00,D,000000350367,18/08/2018,NOIDA WBO
2018-08-18,Chq Paid-MICR CTS-NO-CONSTELLATION PROJE,36191.00,D,000000350147,18/08/2018,NOIDA WBO
2018-08-18,Chq Paid-MICR CTS-NO-SCRABBLE ENETR P L,43110.00,D,000000350699,18/08/2018,NOIDA WBO
2018-08-18,Chq Paid-MICR CTS-NO-BLUE DART EXPRESS L,68208.00,D,000000351219,18/08/2018,NOIDA WBO
2018-08-18,Chq Paid-MICR CTS-NO-NEW  SATELLITE AD,68415.00,D,000000350851,18/08/2018,NOIDA WBO
2018-08-18,Chq Paid-MICR CTS-NO-BRIJ PAL SINGH,90601.76,D,000000351091,18/08/2018,NOIDA WBO
2018-08-18,Chq Paid-MICR CTS-NO-LIXIL INDIA P L,93898.00,D,000000351001,18/08/2018,NOIDA WBO
2018-08-18,Chq Paid-MICR CTS-NO-BLUE STAR LTD,99795.00,D,000000350637,18/08/2018,NOIDA WBO
2018-08-18,Chq Paid-MICR CTS-NO-HONEYWELL AUTOMATIO,101639.49,D,000000348707,18/08/2018,NOIDA WBO
2018-08-18,Chq Paid-MICR CTS-NO-RADHAKRISHNA FOODLA,864016.08,D,000000350195,18/08/2018,NOIDA WBO
2018-08-18,Chq Paid-MICR CTS-NO-BRPL CA,831210.00,D,000000350462,18/08/2018,NOIDA WBO
2018-08-18,Chq Paid-MICR CTS-NO-IN FOODS PICTURES,297000.00,D,000000350856,18/08/2018,NOIDA WBO
2018-08-18,Chq Paid-MICR CTS-NO-RADHAKRISHNA FOODLA,258002.76,D,000000350503,18/08/2018,NOIDA WBO
2018-08-18,Chq Paid-MICR CTS-NO-POS SOLUTIONS PVT L,1506539.00,D,000000350915,18/08/2018,NOIDA WBO
2018-08-18,Chq Paid-MICR CTS-NO-BRPL CA NO,938420.00,D,000000350682,18/08/2018,NOIDA WBO
2018-08-18,Chq Paid-MICR CTS-NO-LIXIL INDIA P L,160012.00,D,000000351232,18/08/2018,NOIDA WBO
2018-08-18,Chq Paid-MICR CTS-NO-LIXIL INDIA P L,174715.00,D,000000351233,18/08/2018,NOIDA WBO
2018-08-18,Chq Paid-MICR CTS-CH-IMPERIAL TECH SERVI,99120.00,D,000000349475,18/08/2018,CHENNAI RK SALAI
2018-08-18,Chq Paid-MICR CTS-CH-EMMANUEL STORES,84069.00,D,000000350185,18/08/2018,CHENNAI RK SALAI
2018-08-18,Chq Paid-MICR CTS-CH-VOLTAS LTD,432026.00,D,000000349227,18/08/2018,CHENNAI RK SALAI
2018-08-18,Chq Paid-MICR CTS-CH-KALIAPPAN SENTHIL,19106.00,D,000000350670,18/08/2018,CHENNAI RK SALAI
2018-08-18,Chq Paid-MICR CTS-CH-JSB ADVERTISING,20032.00,D,000000350854,18/08/2018,CHENNAI RK SALAI
2018-08-18,Chq Paid-MICR CTS-CH-P I C INTERIOR,118944.00,D,000000351176,18/08/2018,CHENNAI RK SALAI
2018-08-18,Chq Paid-MICR CTS-CH-IMPERIAL TECH SERVI,14160.00,D,000000348460,18/08/2018,CHENNAI RK SALAI
2018-08-18,Chq Paid-MICR CTS-CH-MAX ENGG TECHNOLOGI,15640.00,D,000000351041,18/08/2018,CHENNAI RK SALAI
2018-08-18,Chq Paid-MICR CTS-MU-AIRTEL MOBILE NO 77,188.00,D,000000347602,18/08/2018,MUMBAI CLEARING
2018-08-18,Chq Paid-MICR CTS-MU-AIRTEL MOBILE NO 98,470.00,D,000000347601,18/08/2018,MUMBAI CLEARING
2018-08-18,Chq Paid-MICR CTS-MU-THANE MUNICIPAL COR,25190.00,D,000000350309,18/08/2018,MUMBAI CLEARING
2018-08-18,Chq Paid-MICR CTS-MU-SHREE MANGESH TRADE,22954.00,D,000000347633,18/08/2018,MUMBAI CLEARING
2018-08-18,Chq Paid-MICR CTS-MU-SOHANLAL GUPTA,13020.00,D,000000350116,18/08/2018,MUMBAI CLEARING
2018-08-18,Chq Paid-MICR CTS-MU-AIRTEL AC NO,12985.00,D,000000347603,18/08/2018,MUMBAI CLEARING
2018-08-18,Chq Paid-MICR CTS-MU-FOOD PLANET P LTD,1122564.00,D,000000350714,18/08/2018,MUMBAI CLEARING
2018-08-18,70003304TERMINAL 1 CARDS SETTL. 18/08/18,1552492.99,C, ,18/08/2018,DB OPS MUMBAI
2018-08-18,70003304TERMINAL 1CREDIT VOUCHER18/08/18,39225.60,D, ,18/08/2018,DB OPS MUMBAI
2018-08-18,NEFT Cr-CITI0000002-PEPSICO IND H PL-BU OFFICE GURGAON-PVR LTD.-CITIN18904602173,67210744.00,C,CITIN18904602173,18/08/2018,FORT
2018-08-18,NEFT Cr-CITI0100000-DSP BLACKROCK INV MGRS PVT LTD-IN-PVR LTD-CITIN18904609077,49600.00,C,CITIN18904609077,18/08/2018,FORT
2018-08-18,NEFT Cr-UTIB0000415-BIGTREE ENTERTAINMENT PVT LTD-PVR LIMITED-AXISCN0022382700,41462.92,C,AXISCN0022382700,18/08/2018,FORT
2018-08-18,NEFT Cr-UTIB0000296-DB CORP LTD RADIO DIVISION-PVR LTD-AXISP00007745140,85950.00,C,AXISP00007745140,18/08/2018,FORT
2018-08-18,CITRUS PAYMENT-Citrus 15Aug C100656,494327.82,C,808189095399,18/08/2018,NETBANK MUMBAI
2018-08-18,CITRUS PAYMENT-Citrus 15Aug C101552,1460564.59,C,808189095436,18/08/2018,NETBANK MUMBAI
2018-08-18,RTGS Cr-UTIB0000001-VRG MEDIA PRIVATE LIMITED-PVR LTD-UTIBR52018081800350330,2668000.00,C,UTIBR52018081800350330,18/08/2018,CMS TF WBO MUMBAI
2018-08-18,2 DD ISS DT 18/08/2018,924000.00,D, ,18/08/2018,CMS TF WBO MUMBAI
2018-08-18,FT - Dr - 50200031958959 - SRI LAKSHMI VRUSHADHRI PRODUCTIONS,316747.00,D,000000350679,18/08/2018,GANDHINAGAR
2018-08-18,GST/Bank Reference No: E1823006318509/CIN No: HDFC18083300195565,7846681.00,D, ,18/08/2018,NETBANK MUMBAI
2018-08-18,GST/Bank Reference No: E1823006318538/CIN No: HDFC18083200060756,7156301.00,D, ,18/08/2018,NETBANK MUMBAI
2018-08-18,GST/Bank Reference No: E1823006318572/CIN No: HDFC18081800033482,818.00,D, ,18/08/2018,NETBANK MUMBAI
2018-08-18,GST/Bank Reference No: E1823006318573/CIN No: HDFC18082000028622,3438987.00,D, ,18/08/2018,NETBANK MUMBAI
2018-08-18,GST/Bank Reference No: E1823006318541/CIN No: HDFC18080300059865,15169784.00,D, ,18/08/2018,NETBANK MUMBAI
2018-08-18,GST/Bank Reference No: E1823006318542/CIN No: HDFC18080500027646,1972301.00,D, ,18/08/2018,NETBANK MUMBAI
2018-08-18,GST/Bank Reference No: E1823006318543/CIN No: HDFC18082200029044,7337104.00,D, ,18/08/2018,NETBANK MUMBAI
2018-08-18,GST/Bank Reference No: E1823006318544/CIN No: HDFC18082400236194,19885366.00,D, ,18/08/2018,NETBANK MUMBAI
2018-08-18,GST/Bank Reference No: E1823006318545/CIN No: HDFC18080800115180,3677396.00,D, ,18/08/2018,NETBANK MUMBAI
2018-08-18,GST/Bank Reference No: E1823006318547/CIN No: HDFC18080400007589,7604141.00,D, ,18/08/2018,NETBANK MUMBAI
2018-08-18,GST/Bank Reference No: E1823006318548/CIN No: HDFC18083600073046,16476777.00,D, ,18/08/2018,NETBANK MUMBAI
2018-08-18,GST/Bank Reference No: E1823006318549/CIN No: HDFC18082300077311,5489717.00,D, ,18/08/2018,NETBANK MUMBAI
2018-08-18,GST/Bank Reference No: E1823006318610/CIN No: HDFC18081900128042,6230630.00,D, ,18/08/2018,NETBANK MUMBAI
2018-08-18,GST/Bank Reference No: E1823006318614/CIN No: HDFC18083700065975,385073.00,D, ,18/08/2018,NETBANK MUMBAI
2018-08-18,CARS24 SERVICE-7642-BTL Activity Ot,968716.00,C,808189341702,18/08/2018,NETBANK MUMBAI
2018-08-18,GST/Bank Reference No: E1823006324342/CIN No: HDFC18080900210936,21377281.00,D, ,18/08/2018,NETBANK MUMBAI
2018-08-18,NEFT Cr-ICIC0000104-ONE MOBIKWIK SYSTEMS PRIVATE LIMITED-PVR Limited-CMS891557439,13033.62,C,CMS891557439,18/08/2018,FORT
2018-08-18,NEFT Cr-ICIC0000104-ONE MOBIKWIK SYSTEMS PRIVATE LIMITED-PVR Limited-CMS891561202,24655.87,C,CMS891561202,18/08/2018,FORT
2018-08-18,FT - Dr - 50200015993562 - G V S AGENCIES,29084.00,D,000000351043,18/08/2018,GANDHI NAGAR VELLORE
2018-08-18,NEFT Cr-CITI0000002-ZOMATO MEDIA NODAL ACCOUNT-PVR LIMITED-CITIN18904758937,1175.75,C,CITIN18904758937,18/08/2018,FORT
2018-08-18,NEFT Cr-UTIB0001723-GUNDETI DEVIDAS NARAYAN-PVR LIMITED-AXIR182307893214,3717.00,C,AXIR182307893214,18/08/2018,FORT
2018-08-18,NEFT Cr-UTIB0000173-KAMA SCHACHTER JEWELRY PVT LIMITED-PVR LTD-AXISP00007797464,4500.00,C,AXISP00007797464,18/08/2018,FORT
2018-08-18,RTGS Cr-KKBK0000958-P V R LIMITED-P V R LIMITED-KKBKR52018081800642773,1500000.00,C,KKBKR52018081800642773,18/08/2018,CMS TF WBO MUMBAI
2018-08-18,EVP280362C-CHARGEBACKDT01/08-70003304-03,415.20,D, ,18/08/2018,DB OPS MUMBAI
2018-08-18,NEFT Cr-KKBK0000958-BLACKWOOD DEVELOPERS PRIVATE LIMITE-PVR LTD-KKBKH18230657514,29150.00,C,KKBKH18230657514,18/08/2018,FORT
2018-08-18,EMP232086C-CHARGEBACKDT17/07-70003304-04,744.00,D, ,18/08/2018,DB OPS MUMBAI
2018-08-18,Chq Paid-TRANSFER IN-ROYALUX LIGHTING,68400.00,D,000000351000,18/08/2018,NOIDA WBO
2018-08-18,Chq Paid-TRANSFER IN-FRAGRANCE,27000.00,D,000000351230,18/08/2018,NOIDA WBO
2018-08-18,Chq Paid-TRANSFER IN-JYOTI FOOD PLAZA,55257.42,D,000000351089,18/08/2018,NOIDA WBO
2018-08-18,Chq Paid-TRANSFER IN-360 BRANGING SOLUTI,85639.00,D,000000350860,18/08/2018,NOIDA WBO
2018-08-18,Chq Paid-TRANSFER IN-ROYALUX LIGHTING,257275.00,D,000000351006,18/08/2018,NOIDA WBO
2018-08-18,Chq Paid-TRANSFER IN-360 BRANDING SOLUTI,98640.00,D,000000350641,18/08/2018,NOIDA WBO
2018-08-18,Chq Paid-TRANSFER IN-HUMAN CAPITAL CONSU,76469.00,D,000000351212,18/08/2018,NOIDA WBO
2018-08-18,Chq Paid-TRANSFER IN-ITS ALLABOUT DESIGN,287604.00,D,000000351193,18/08/2018,NOIDA WBO
2018-08-18,Chq Paid-TRANSFER IN-AMPA HOUSING DEVELO,17052.00,D,000000349432,18/08/2018,CHENNAI RK SALAI
2018-08-18,Chq Paid-INWARD TRAN-BAA FOODS,336899.83,D,000000351102,18/08/2018,WBO ALLAHABAD
2018-08-18,Chq Paid-TRANSFER IN-SAK FOODS,45740.00,D,000000351292,18/08/2018,RAIPUR
2018-08-18,IMPS-823017916691-KUMAR MANGAT-HDFC-xxxxxxxxxxx0101-PVR Against the Book ID 4995380,2250.00,C,823017916691,18/08/2018,FORT
2018-08-18,Chq Paid-TRANSFER IN-TAJ FOOD SOLUTIONS,19736.86,D,000000348041,18/08/2018,RICHMOND RD BLORE
2018-08-18,Chq Paid-TRANSFER IN-ADLAW PARTNERS,40050.00,D,000000348762,18/08/2018,RICHMOND RD BLORE
2018-08-18,Chq Paid-TRANSFER IN-TELELOOMS,12180.00,D,000000348176,18/08/2018,RICHMOND RD BLORE
2018-08-18,Chq Paid-TRANSFER IN-M M G ACOUSTICAL CO,115830.00,D,000000350934,18/08/2018,RICHMOND RD BLORE
2018-08-18,Chq Paid-TRANSFER IN-M M G ACOUSTICAL CO,115830.00,D,000000350984,18/08/2018,RICHMOND RD BLORE
2018-08-18,Chq Paid-TRANSFER IN-TAJ FOOD SOLUTIONS,45223.00,D,000000345172,18/08/2018,RICHMOND RD BLORE
2018-08-18,Chq Paid-TRANSFER IN-M M G ACOUSTICAL CO,104490.00,D,000000350973,18/08/2018,RICHMOND RD BLORE
2018-08-18,Chq Paid-INWARD TRAN-V CARE HOSPITALITY ,78766.19,D,000000351112,18/08/2018,MUMBAI CLEARING
2018-08-18,Chq Paid-INWARD TRAN-V CARE HOSPITAL SER,453235.55,D,000000351113,18/08/2018,MUMBAI CLEARING
2018-08-18,Chq Paid-INWARD TRAN-NIKHIL ENTERPRISES,82325.00,D,000000350706,18/08/2018,MUMBAI CLEARING
2018-08-18,Chq Paid-INWARD TRAN-DIVINE FOODS,119411.00,D,000000350704,18/08/2018,MUMBAI CLEARING
2018-08-18,NEFT Cr-SBIN0005387-VASU COCO RESORTS PRIVATE LIMITED-PVR LIMITED-SBIN918230334830,52200.00,C,SBIN918230334830,18/08/2018,FORT
2018-08-18,FT - Dr - 22492000000583 - GOLDEN GRAPHIC PRINTERS,588000.00,D,000000270561,18/08/2018,BHIWADI II
2018-08-18,FT - Dr - 22492000000583 - GOLDEN GRAPHIC PRINTERS,571906.00,D,000000270560,18/08/2018,BHIWADI II
2018-08-18,Chq Paid-INWARD TRAN-VARUN BEVERAGES LTD,50606.00,D,000000350510,18/08/2018,DURGA NURSERY
2018-08-18,Chq Paid-INWARD TRAN-RIELL POWER INDIA P,11483.59,D,000000345295,18/08/2018,NOIDA WBO
2018-08-18,Chq Paid-INWARD TRAN-IENERGIZER IT SERVI,6847.00,D,000000350559,18/08/2018,NOIDA WBO
2018-08-18,Chq Paid-INWARD TRAN-SANJAY SAXENA AND S,56393.00,D,000000351240,18/08/2018,NOIDA WBO
2018-08-18,Chq Paid-INWARD TRAN-SUBHASH TRADING CO,16549.12,D,000000348972,18/08/2018,NOIDA WBO
2018-08-18,Chq Paid-INWARD TRAN-BRINDCO SALS P LT D,70357.00,D,000000349470,18/08/2018,NOIDA WBO
2018-08-18,Chq Paid-INWARD TRAN-SANJAY KHANNA,90000.00,D,000000270559,18/08/2018,NOIDA WBO
2018-08-18,Chq Paid-INWARD TRAN-SANJAY SAXENA AND S,28348.00,D,000000350941,18/08/2018,NOIDA WBO
2018-08-18,Chq Paid-INWARD TRAN-GKJ SPECIAL FOODS P,395747.85,D,000000350902,18/08/2018,NOIDA WBO
2018-08-18,Chq Paid-INWARD TRAN-MARUTI AIR,5833.00,D,000000345686,18/08/2018,NAGPUR IT PARK
2018-08-19,EOD SWEEP  00030330005137  ,11237760.20,C, ,18/08/2018,K G MARG
2018-08-19,EOD SWEEP  09290330000094  ,30829750.32,C, ,18/08/2018,CYBERCITY
2018-08-19,AUTO SWEEPOUT TO PVR LIMITED-SOUTH 09290330000102  ,1006352.00,C, ,19/08/2018,CYBERCITY
2018-08-19,AUTO SWEEPOUT TO PVR LIMITED-NORTH 09290330000084  ,598769.22,C, ,19/08/2018,CYBERCITY
2018-08-19,70003304TERMINAL 1 CARDS SETTL. 19/08/18,1624091.53,C, ,19/08/2018,DB OPS MUMBAI
2018-08-19,70003304TERMINAL 1CREDIT VOUCHER19/08/18,58105.21,D, ,19/08/2018,DB OPS MUMBAI
2018-08-19,EOD SWEEP  09290330000094  ,10115890.93,C, ,19/08/2018,CYBERCITY
