Transaction Date,Description,Amount,C.D.Falg,Reference No,Value Date,Branch Name
2018-08-25,EOD SWEEP  00030330005137  ,14635077.97,C, ,24/08/2018,K G MARG
2018-08-25,EOD SWEEP  09290330000094  ,26411174.00,C, ,24/08/2018,CYBERCITY
2018-08-25,AUTO SWEEPOUT TO PVR LIMITED-SOUTH 09290330000102  ,5006005.00,C, ,25/08/2018,CYBERCITY
2018-08-25,AUTO SWEEPOUT TO PVR LIMITED-NORTH 09290330000084  ,326415.12,C, ,25/08/2018,CYBERCITY
2018-08-25,70003304TERMINAL 1 CARDS SETTL. 25/08/18,1231888.06,C, ,25/08/2018,DB OPS MUMBAI
2018-08-25,70003304TERMINAL 1CREDIT VOUCHER25/08/18,14717.05,D, ,25/08/2018,DB OPS MUMBAI
2018-08-25,EOD SWEEP  09290330000094  ,5289362.22,C, ,25/08/2018,CYBERCITY
2018-08-26,70003304TERMINAL 1 CARDS SETTL. 26/08/18,1278237.89,C, ,26/08/2018,DB OPS MUMBAI
2018-08-26,70003304TERMINAL 1CREDIT VOUCHER26/08/18,44749.30,D, ,26/08/2018,DB OPS MUMBAI
2018-08-26,EOD SWEEP  09290330000094  ,8236199.64,C, ,26/08/2018,CYBERCITY
