Transaction Date,Description,Amount,C.D.Falg,Reference No,Value Date,Branch Name
2018-08-21,EOD SWEEP  00030330005137  ,50284574.29,C, ,20/08/2018,K G MARG
2018-08-21,EOD SWEEP  09290330000094  ,41726997.87,C, ,20/08/2018,CYBERCITY
2018-08-21,AUTO SWEEPOUT TO PVR LIMITED-NORTH 09290330000084  ,1273771.78,C, ,21/08/2018,CYBERCITY
2018-08-21,AUTO SWEEPOUT TO PVR LIMITED-SOUTH 09290330000102  ,169494.00,C, ,21/08/2018,CYBERCITY
2018-08-21,Chq Paid-MICR CTS-MU-MTNL,366.00,D,000000350954,21/08/2018,MUMBAI CLEARING
2018-08-21,Chq Paid-MICR CTS-MU-MTNL,3955.00,D,000000350958,21/08/2018,MUMBAI CLEARING
2018-08-21,Chq Paid-MICR CTS-MU-VRUSHALI BOOK STALL,3460.00,D,000000350968,21/08/2018,MUMBAI CLEARING
2018-08-21,Chq Paid-MICR CTS-MU-BHARAT CHAIRS,1652.00,D,000000351307,21/08/2018,MUMBAI CLEARING
2018-08-21,Chq Paid-MICR CTS-MU-SACHIN WANANJE,501.00,D,000000349477,21/08/2018,MUMBAI CLEARING
2018-08-21,Chq Paid-MICR CTS-MU-PUSEGAONKAR AND DIN,5310.00,D,000000347881,21/08/2018,MUMBAI CLEARING
2018-08-21,Chq Paid-MICR CTS-MU-MTNL,366.00,D,000000350955,21/08/2018,MUMBAI CLEARING
2018-08-21,Chq Paid-MICR CTS-MU-BACHCHANS,6655.00,D,000000350695,21/08/2018,MUMBAI CLEARING
2018-08-21,Chq Paid-MICR CTS-MU-BEST TELNET SERVICE,5900.00,D,000000348101,21/08/2018,MUMBAI CLEARING
2018-08-21,Chq Paid-MICR CTS-MU-TEHSILDAR PANVEL,7000.00,D,000000350523,21/08/2018,MUMBAI CLEARING
2018-08-21,Chq Paid-MICR CTS-MU-SANJAY KUMAR SAKSER,12007.00,D,000000351268,21/08/2018,MUMBAI CLEARING
2018-08-21,Chq Paid-MICR CTS-MU-QUALITY SALES,13764.00,D,000000350877,21/08/2018,MUMBAI CLEARING
2018-08-21,Chq Paid-MICR CTS-MU-BHOPAL CITY TAXI,15450.00,D,000000351340,21/08/2018,MUMBAI CLEARING
2018-08-21,Chq Paid-MICR CTS-MU-BABUBHAI A VANKAR,10668.00,D,000000350525,21/08/2018,MUMBAI CLEARING
2018-08-21,Chq Paid-MICR CTS-MU-CAFE CHOCO CRAZE PV,21805.00,D,000000347905,21/08/2018,MUMBAI CLEARING
2018-08-21,Chq Paid-MICR CTS-MU-CHIRANJI LAL VISHWA,21382.00,D,000000347733,21/08/2018,MUMBAI CLEARING
2018-08-21,Chq Paid-MICR CTS-MU-RANJU CHANDAN JAMGA,51476.00,D,000000351244,21/08/2018,MUMBAI CLEARING
2018-08-21,Chq Paid-MICR CTS-MU-HIGHX EXPRESS,40304.02,D,000000351114,21/08/2018,MUMBAI CLEARING
2018-08-21,Chq Paid-MICR CTS-MU-SAI KRIPA ENTERPRIS,31436.00,D,000000351316,21/08/2018,MUMBAI CLEARING
2018-08-21,Chq Paid-MICR CTS-MU-UNITED TRADERS,26966.00,D,000000350445,21/08/2018,MUMBAI CLEARING
2018-08-21,Chq Paid-MICR CTS-MU-D R CATERERS,22966.00,D,000000351253,21/08/2018,MUMBAI CLEARING
2018-08-21,Chq Paid-MICR CTS-MU-CAFE CHOCO CRAZE PV,22640.00,D,000000350612,21/08/2018,MUMBAI CLEARING
2018-08-21,Chq Paid-MICR CTS-MU-MALEGAON MUNICIPAL ,8020.00,D,000000350275,21/08/2018,MUMBAI CLEARING
2018-08-21,Chq Paid-MICR CTS-MU-UNIVERSAL SERVICE C,58176.00,D,000000347877,21/08/2018,MUMBAI CLEARING
2018-08-21,Chq Paid-MICR CTS-MU-PEN WORKERS,96610.00,D,000000351009,21/08/2018,MUMBAI CLEARING
2018-08-21,Chq Paid-MICR CTS-MU-NALCO WATER INDIA L,110136.00,D,000000347789,21/08/2018,MUMBAI CLEARING
2018-08-21,Chq Paid-MICR CTS-MU-ATHWA AUTOMOBILES,131022.00,D,000000351328,21/08/2018,MUMBAI CLEARING
2018-08-21,Chq Paid-MICR CTS-MU-FIZA FILMS DTRIBUTO,210343.74,D,000000350791,21/08/2018,MUMBAI CLEARING
2018-08-21,Chq Paid-MICR CTS-MU-BIGTREE ENTERTAINME,270000.00,D,000000349586,21/08/2018,MUMBAI CLEARING
2018-08-21,Chq Paid-MICR CTS-MU-PHANTOM FILMS PVT L,888916.00,D,000000350929,21/08/2018,MUMBAI CLEARING
2018-08-21,Chq Paid-MICR CTS-MU-BIGTREE ENTERTAINME,1455408.00,D,000000349587,21/08/2018,MUMBAI CLEARING
2018-08-21,Chq Paid-MICR CTS-MU-YOGANANDA GRAPHICS,54874.00,D,000000351234,21/08/2018,MUMBAI CLEARING
2018-08-21,Chq Paid-MICR CTS-MU-VEER AGENCIES,78842.00,D,000000351298,21/08/2018,MUMBAI CLEARING
2018-08-21,Chq Paid-MICR CTS-CH-HINDUSTAN RADIATORS,23600.00,D,000000351046,21/08/2018,CHENNAI RK SALAI
2018-08-21,Chq Paid-MICR CTS-CH-SUPREME AGENCY,4072.00,D,000000351181,21/08/2018,CHENNAI RK SALAI
2018-08-21,Chq Paid-MICR CTS-CH-RIYAS AC,5076.00,D,000000348594,21/08/2018,CHENNAI RK SALAI
2018-08-21,Chq Paid-MICR CTS-CH-EVEREST AGENCIES,7724.48,D,000000349236,21/08/2018,CHENNAI RK SALAI
2018-08-21,Chq Paid-MICR CTS-CH-ZENER SYSTEM P LTD,10440.00,D,000000351026,21/08/2018,CHENNAI RK SALAI
2018-08-21,Chq Paid-MICR CTS-CH-DEEPAK B K,15554.00,D,000000350374,21/08/2018,CHENNAI RK SALAI
2018-08-21,Chq Paid-MICR CTS-CH-T VENKATASWAMY,84780.00,D,000000350335,21/08/2018,CHENNAI RK SALAI
2018-08-21,Chq Paid-MICR CTS-CH-LAXMI SANITATION,26650.30,D,000000349271,21/08/2018,CHENNAI RK SALAI
2018-08-21,Chq Paid-MICR CTS-CH-C KUMAR,28300.00,D,000000350693,21/08/2018,CHENNAI RK SALAI
2018-08-21,Chq Paid-MICR CTS-CH-S Z INTERIORS AND F,28320.00,D,000000351069,21/08/2018,CHENNAI RK SALAI
2018-08-21,Chq Paid-MICR CTS-CH-SHIVA SHAKTHI INDUS,59000.00,D,000000351045,21/08/2018,CHENNAI RK SALAI
2018-08-21,Chq Paid-MICR CTS-CH-BANASHREE INC,70977.00,D,000000351027,21/08/2018,CHENNAI RK SALAI
2018-08-21,Chq Paid-MICR CTS-CH-GEETHA V,84780.00,D,000000350333,21/08/2018,CHENNAI RK SALAI
2018-08-21,Chq Paid-MICR CTS-CH-T NANJUNDA REDDY,84780.00,D,000000350334,21/08/2018,CHENNAI RK SALAI
2018-08-21,Chq Paid-MICR CTS-CH-MAG COMMUNICATION P,564592.60,D,000000351196,21/08/2018,CHENNAI RK SALAI
2018-08-21,IGST - ServiceCharge-STAX Upload - NCB1823366139454,4500.00,D,NCB1823366139454,21/08/2018,SANDOZ - MUMBAI
2018-08-21,Chq Paid-MICR CTS-NO-DHRUV,703.50,D,000000350219,21/08/2018,NOIDA WBO
2018-08-21,Chq Paid-MICR CTS-NO-DHRUV ENTP,1182.72,D,000000350108,21/08/2018,NOIDA WBO
2018-08-21,Chq Paid-MICR CTS-NO-LAGOON TELECOMM,1213.04,D,000000351218,21/08/2018,NOIDA WBO
2018-08-21,Chq Paid-MICR CTS-NO-LAGOON TELECOMM,1239.00,D,000000351216,21/08/2018,NOIDA WBO
2018-08-21,Chq Paid-MICR CTS-NO-LUCKNOW,2600.00,D,000000270447,21/08/2018,NOIDA WBO
2018-08-21,Chq Paid-MICR CTS-NO-DHRUV,3540.00,D,000000350212,21/08/2018,NOIDA WBO
2018-08-21,Chq Paid-MICR CTS-NO-LUCKNOW,3525.00,D,000000270431,21/08/2018,NOIDA WBO
2018-08-21,Chq Paid-MICR CTS-NO-ORION PEST SOLUTION,3306.00,D,000000349219,21/08/2018,NOIDA WBO
2018-08-21,Chq Paid-MICR CTS-NO-ORION PEST SOLUTION,3249.00,D,000000346721,21/08/2018,NOIDA WBO
2018-08-21,Chq Paid-MICR CTS-NO-AO CASHB SNL,4633.00,D,000000350748,21/08/2018,NOIDA WBO
2018-08-21,Chq Paid-MICR CTS-NO-NAGENDRA,5100.00,D,000000351353,21/08/2018,NOIDA WBO
2018-08-21,Chq Paid-MICR CTS-NO-LUCNKNOW,5375.00,D,000000270408,21/08/2018,NOIDA WBO
2018-08-21,Chq Paid-MICR CTS-NO-SHUBHAM ASSO,7305.00,D,000000351221,21/08/2018,NOIDA WBO
2018-08-21,Chq Paid-MICR CTS-NO-RATIONAL BUISNESS C,10440.00,D,000000347678,21/08/2018,NOIDA WBO
2018-08-21,Chq Paid-MICR CTS-NO-NEW POOJA RESTARUAN,8135.00,D,000000350919,21/08/2018,NOIDA WBO
2018-08-21,Chq Paid-MICR CTS-NO-DHRUV,11328.00,D,000000350203,21/08/2018,NOIDA WBO
2018-08-21,Chq Paid-MICR CTS-NO-OCEAN COMMCUANITION,12390.00,D,000000350740,21/08/2018,NOIDA WBO
2018-08-21,Chq Paid-MICR CTS-NO-FINCA SPECAILTY COF,15120.00,D,000000349064,21/08/2018,NOIDA WBO
2018-08-21,Chq Paid-MICR CTS-NO-DRUV,17861.55,D,000000350202,21/08/2018,NOIDA WBO
2018-08-21,Chq Paid-MICR CTS-NO-ICICI LOMBARD GIC,27821.00,D,000000350988,21/08/2018,NOIDA WBO
2018-08-21,Chq Paid-MICR CTS-NO-DHRUV ENTP,24780.00,D,000000350123,21/08/2018,NOIDA WBO
2018-08-21,Chq Paid-MICR CTS-NO-QUADRANT TELEVETURE,22125.00,D,000000350615,21/08/2018,NOIDA WBO
2018-08-21,Chq Paid-MICR CTS-NO-COEAN COMMUNICATION,21228.20,D,000000350227,21/08/2018,NOIDA WBO
2018-08-21,Chq Paid-MICR CTS-NO-OCEAN COMMUCNAITION,21228.20,D,000000350107,21/08/2018,NOIDA WBO
2018-08-21,Chq Paid-MICR CTS-NO-SECURX SYSTEMS P L,28615.00,D,000000351117,21/08/2018,NOIDA WBO
2018-08-21,Chq Paid-MICR CTS-NO-DHRUV ENTP,15514.00,D,000000350122,21/08/2018,NOIDA WBO
2018-08-21,Chq Paid-MICR CTS-NO-ASHISH ENTPERISS,38314.60,D,000000350868,21/08/2018,NOIDA WBO
2018-08-21,Chq Paid-MICR CTS-NO-MIDAS,31830.00,D,000000351231,21/08/2018,NOIDA WBO
2018-08-21,Chq Paid-MICR CTS-NO-PRIME SCAN,33841.00,D,000000350850,21/08/2018,NOIDA WBO
2018-08-21,Chq Paid-MICR CTS-NO-ENTPERISES,33873.00,D,000000348663,21/08/2018,NOIDA WBO
2018-08-21,Chq Paid-MICR CTS-NO-MUKESH KUMAR,37800.00,D,000000350350,21/08/2018,NOIDA WBO
2018-08-21,Chq Paid-MICR CTS-NO-P K SIANI ELECTRICA,342000.00,D,000000350998,21/08/2018,NOIDA WBO
2018-08-21,Chq Paid-MICR CTS-NO-BELL,180338.00,D,000000348610,21/08/2018,NOIDA WBO
2018-08-21,Chq Paid-MICR CTS-NO-RAJESH KUMAR,143238.73,D,000000350447,21/08/2018,NOIDA WBO
2018-08-21,Chq Paid-MICR CTS-NO-SECURXSYSTEMS,142662.00,D,000000351135,21/08/2018,NOIDA WBO
2018-08-21,Chq Paid-MICR CTS-NO-ALESN BUILDCOM,104816.52,D,000000351097,21/08/2018,NOIDA WBO
2018-08-21,Chq Paid-MICR CTS-NO-FALCON EQUIPMENTS,96689.20,D,000000351187,21/08/2018,NOIDA WBO
2018-08-21,Chq Paid-MICR CTS-NO-INDSU FORMS P L,87360.00,D,000000349352,21/08/2018,NOIDA WBO
2018-08-21,Chq Paid-MICR CTS-NO-SECURX SYSTEMS P L,59000.00,D,000000351136,21/08/2018,NOIDA WBO
2018-08-21,Chq Paid-MICR CTS-NO-ION WATER TECH,53866.66,D,000000348567,21/08/2018,NOIDA WBO
2018-08-21,Chq Paid-MICR CTS-NO-WANG PROFESSINALS,50740.00,D,000000350769,21/08/2018,NOIDA WBO
2018-08-21,Chq Paid-MICR CTS-NO-RPM TEXTIES,45675.00,D,000000350898,21/08/2018,NOIDA WBO
2018-08-21,Chq Paid-MICR CTS-NO-FLAVOURS HUB,42743.13,D,000000351098,21/08/2018,NOIDA WBO
2018-08-21,Chq Paid-MICR CTS-NO-SHAGUN AIR FILTERAT,42619.40,D,000000348764,21/08/2018,NOIDA WBO
2018-08-21,Chq Paid-MICR CTS-NO-P K SAINI ELECTRICA,416304.00,D,000000351213,21/08/2018,NOIDA WBO
2018-08-21,Chq Paid-MICR CTS-NO-VISUAL DISPLAY,505255.00,D,000000350846,21/08/2018,NOIDA WBO
2018-08-21,Chq Paid-MICR CTS-NO-G AD B ENTP,485273.26,D,000000348962,21/08/2018,NOIDA WBO
2018-08-21,Chq Paid-MICR CTS-NO-P K SAINI ELECTIRCA,513000.00,D,000000350999,21/08/2018,NOIDA WBO
2018-08-21,Chq Paid-MICR CTS-NO-GARG DISTRIBUTIROS,408665.86,D,000000350450,21/08/2018,NOIDA WBO
2018-08-21,Chq Paid-MICR CTS-NO-P K SAINI ELECTRICA,342000.00,D,000000351004,21/08/2018,NOIDA WBO
2018-08-21,NEFT Cr-CITI0000002-VIRGIN ATLANTIC AIRWAYS LTD-QA22-PVR LIMITED-CITIN18905613915,25000.00,C,CITIN18905613915,21/08/2018,FORT
2018-08-21,RTGS Cr-ICIC0000104-AHMEDABAD MUNICIPAL CORPORATION-PVR LTD-ICICR22018082100723804,347266.00,C,ICICR22018082100723804,21/08/2018,KANJUR MARG
2018-08-21,70003304TERMINAL 1 CARDS SETTL. 21/08/18,350967.56,C, ,21/08/2018,DB OPS MUMBAI
2018-08-21,RTGS Cr-BKID0000105-TRIGGER HAPPY ENTERTAINMENT PV-PVR LIMITED-BKIDR52018082100160622,2088000.00,C,BKIDR52018082100160622,21/08/2018,FORT
2018-08-21,70003304TERMINAL 1CREDIT VOUCHER21/08/18,67945.04,D, ,21/08/2018,DB OPS MUMBAI
2018-08-21,NEFT Cr-BOFA0MM6205-DOLBY TECHNOLOGY INDIA PRIVATE LIMI-PVR LIMITED-188KI0430I7I0Y37,75000.00,C,188KI0430I7I0Y37,21/08/2018,FORT
2018-08-21,1 DD ISS DT 21/08/2018,18050.00,D, ,21/08/2018,CMS TF WBO MUMBAI
2018-08-21,CITRUS PAYMENT-Citrus 19Aug C101552,1185560.22,C,808210901190,21/08/2018,NETBANK MUMBAI
2018-08-21,CITRUS PAYMENT-Citrus 19Aug C100656,357743.04,C,808210901146,21/08/2018,NETBANK MUMBAI
2018-08-21,NEFT Cr-SBIN0017879-CRUISE APPLIANCES PRIVATE LIMITED-PVR LTD-SBIN118233363760,259980.00,C,SBIN118233363760,21/08/2018,CMS TF WBO MUMBAI
2018-08-21,Chq Paid-TRANSFER IN-MIRA BHAYANDAR MUNC,7275.00,D,000000350290,21/08/2018,MUMBAI CLEARING
2018-08-21,Chq Paid-TRANSFER IN-OASIS,29148.00,D,000000348747,21/08/2018,MUMBAI CLEARING
2018-08-21,NEFT Cr-DEUT0784BBY-UTV SOFTWARE-PVR LTD-180821868GN00002,242788.00,C,180821868GN00002,21/08/2018,CMS TF WBO MUMBAI
2018-08-21,PVR LIMITED YES,10000000.00,D,N233180613754792,21/08/2018,NETBANK MUMBAI
2018-08-21,KPMG,365094.00,D,N233180613748706,21/08/2018,NETBANK MUMBAI
2018-08-21,PVR LIMITED YES,10000000.00,D,N233180613750581,21/08/2018,NETBANK MUMBAI
2018-08-21,PVR LIMITED YES,10000000.00,D,N233180613754825,21/08/2018,NETBANK MUMBAI
2018-08-21,PVR LIMITED YES,10000000.00,D,N233180613748737,21/08/2018,NETBANK MUMBAI
2018-08-21,PVR LIMITED YES,10000000.00,D,N233180613750606,21/08/2018,NETBANK MUMBAI
2018-08-21,ASTRUM MANAGEME,588600.00,D,N233180613748773,21/08/2018,NETBANK MUMBAI
2018-08-21,CARAT MEDIA SER,5262581.00,D,N233180613748763,21/08/2018,NETBANK MUMBAI
2018-08-21,PVR LIMITED YES,10000000.00,D,N233180613754869,21/08/2018,NETBANK MUMBAI
2018-08-21,PVR LIMITED YES,10000000.00,D,N233180613754875,21/08/2018,NETBANK MUMBAI
2018-08-21,PVR LIMITED YES,10000000.00,D,N233180613754889,21/08/2018,NETBANK MUMBAI
2018-08-21,PVR LIMITED YES,10000000.00,D,N233180613754883,21/08/2018,NETBANK MUMBAI
2018-08-21,PVR LIMITED YES,10000000.00,D,N233180613748814,21/08/2018,NETBANK MUMBAI
2018-08-21,Mohit Sharma,120000.00,D,808211349771,21/08/2018,NETBANK MUMBAI
2018-08-21,FT-3017FO0100491574-BPCL  E CMS (Fleet Business),27244.00,D,808211349774,21/08/2018,NETBANK MUMBAI
2018-08-21,TIMES INTERNET,621836.00,D,808211349778,21/08/2018,NETBANK MUMBAI
2018-08-21,AZB   PARTNERS,3254260.00,D,808211349773,21/08/2018,NETBANK MUMBAI
2018-08-21,NEFT Cr-ICIC0000104-ONE MOBIKWIK SYSTEMS PRIVATE LIMITED-PVR Limited-CMS893201659,5090.96,C,CMS893201659,21/08/2018,FORT
2018-08-21,Chq Paid-TRANSFER IN-COMMISSIONER PCMC,19850.00,D,000000350279,21/08/2018,MODEL COLONY-PUNE
2018-08-21,2 DD ISS DT 21/08/2018,548633.00,D, ,21/08/2018,CMS TF WBO MUMBAI
2018-08-21,00532320005145-174353,600335.96,C,808211243854,21/08/2018,NETBANK MUMBAI
2018-08-21,NEFT Cr-CBIN0280302-DELHI TOURISM TRANSPORTATION DEVELO-PVR LTD-CBINH18233138506,192540.00,C,CBINH18233138506,21/08/2018,CMS TF WBO MUMBAI
2018-08-21,FCY OUTWARD REMITTANCE,116124.18,D,003FT01182330051,21/08/2018,K G MARG
2018-08-21,FCY OUTWARD REMITTANCE,609917.29,D,003FT01182330054,21/08/2018,K G MARG
2018-08-21,NEFT Cr-UBIN0537896-HARIVATSA EDUCATION PVT LTD-PVR LTD-SAA382231154,11800.00,C,SAA382231154,21/08/2018,FORT
2018-08-21,Chq Paid-TRANSFER IN-NAV STAR HOSPITALIT,58766.46,D,000000351022,21/08/2018,NOIDA WBO
2018-08-21,Chq Paid-TRANSFER IN-GATECRASH MUSIC MAN,181116.00,D,000000351211,21/08/2018,NOIDA WBO
2018-08-21,NEFT Cr-UTIB0000034-PALSONS DERMA PVT LTD-PVR LTD.-AXEC182338551417,28547.00,C,AXEC182338551417,21/08/2018,FORT
2018-08-21,NEFT Cr-UTIB0000030-S S ADS-PVR LIMITED-AXIC182338555667,585634.00,C,AXIC182338555667,21/08/2018,FORT
2018-08-21,CHQ DEP - MICR CLG - ZOO ROAD GUWAHATI71744.00,C,000000110512,23/08/2018,ZOO ROAD GUWAHATI,
2018-08-21,NEFT Cr-ICIC0000104-TATA ASSET MANAGEMENT LIMITED-PVR Ltd-CMS893262811,10000.00,C,CMS893262811,21/08/2018,FORT
2018-08-21,Chq Paid-TRANSFER IN-STREAMLINE REFRIGER,15340.00,D,000000351062,21/08/2018,RICHMOND RD BLORE
2018-08-21,NEFT Cr-CITI0000002-ZOMATO MEDIA NODAL ACCOUNT-Pvr limited-CITIN18905976891,3140.90,C,CITIN18905976891,21/08/2018,FORT
2018-08-21,Chq Paid-TRANSFER IN-CHOICE MARKETING,61971.00,D,000000350500,21/08/2018,GHOD DOD ROAD-WBO
2018-08-21,NEFT Cr-BARB0NARIMA-INDIA CIRCUS RETAIL PRIVATE LIMITED-PVR LIMITED-BARBR18233678655,25424.00,C,BARBR18233678655,21/08/2018,FORT
2018-08-21,NEFT Cr-YESB0000001-PVR LIMITED-PVR LIMITED-N233180141304181,6000000.00,C,N233180141304181,21/08/2018,FORT
2018-08-21,NEFT Cr-YESB0000001-PVR LIMITED-PVR LIMITED-N233180141304176,6000000.00,C,N233180141304176,21/08/2018,FORT
2018-08-21,NEFT Cr-YESB0000001-PVR LIMITED-PVR LIMITED-N233180141304169,6000000.00,C,N233180141304169,21/08/2018,FORT
2018-08-21,NEFT Cr-YESB0000001-PVR LIMITED-PVR LIMITED-N233180141303877,1000000.00,C,N233180141303877,21/08/2018,FORT
2018-08-21,NEFT Cr-YESB0000001-PVR LIMITED-PVR LIMITED-N233180141303880,1000000.00,C,N233180141303880,21/08/2018,FORT
2018-08-21,Chq Paid-INWARD TRAN-NAV STAR HOSPITALIT,112037.30,D,000000346647,21/08/2018,NOIDA WBO
2018-08-21,Chq Paid-INWARD TRAN-PACKWELL AND CO,12760.00,D,000000350997,21/08/2018,NOIDA WBO
2018-08-21,Chq Paid-INWARD TRAN-EURONICS INDUSTRIES,149914.00,D,000000348616,21/08/2018,NOIDA WBO
2018-08-21,Chq Paid-INWARD TRAN-NETCORE SOLUTIONS P,383862.00,D,000000350558,21/08/2018,NOIDA WBO
2018-08-21,Chq Paid-INWARD TRAN-MARTECH SYSTEMS AND,323772.00,D,000000350770,21/08/2018,NOIDA WBO
2018-08-21,NEFT Cr-INDB0000006-PVR LIMITED-PVR LIMITED-000146013005,6900000.00,C,000146013005,21/08/2018,FORT
2018-08-21,NEFT Cr-ICIC0000031-ONE 97 COMMUNICATIONS LTD-PVR Limited-CMS893358232,213971.00,C,CMS893358232,21/08/2018,FORT
2018-08-21,Jigyasa Pahwa,30000.00,D,808211733270,21/08/2018,NETBANK MUMBAI
2018-08-21,Chandan Kumar S,2886.00,D,808211733275,21/08/2018,NETBANK MUMBAI
2018-08-21,NEFT Cr-SBIN0016411-PVR LIMITED-PVR HDFC 4897-SBIN218233006513,1000000.00,C,SBIN218233006513,21/08/2018,CMS TF WBO MUMBAI
2018-08-21,Chq Paid-INWARD TRAN-TRANSTECH CHEMICAL ,97515.00,D,000000350839,21/08/2018,MODEL COLONY-PUNE
2018-08-21,VAIBHAV MUNJAL,299700.00,D,808211826536,21/08/2018,NETBANK MUMBAI
2018-08-21,NEFT Cr-SBIN0016411-PVR LIMITED-PVR HDFC 4897-SBIN218233039022,5000000.00,C,SBIN218233039022,21/08/2018,CMS TF WBO MUMBAI
2018-08-21,NEFT Cr-SBIN0016411-PVR LIMITED-PVR HDFC 4897-SBIN218233040294,2500000.00,C,SBIN218233040294,21/08/2018,CMS TF WBO MUMBAI
2018-08-21,Chq Paid-INWARD TRAN-7 BEANSTALK CO,638890.00,D,000000350703,21/08/2018,NOIDA WBO
2018-08-21,Chq Paid-INWARD TRAN-RIELLO POWER INDIA ,20856.99,D,000000351039,21/08/2018,NOIDA WBO
2018-08-21,Chq Paid-INWARD TRAN-7 BEANSTALK CO,1903271.26,D,000000351086,21/08/2018,NOIDA WBO
2018-08-21,FCY OUTWARD REMITTANCE,90405.12,D,003FT01182330237,21/08/2018,K G MARG
2018-08-22,EOD SWEEP  00030330005137  ,63727335.00,C, ,21/08/2018,K G MARG
2018-08-22,EOD SWEEP  09290330000094  ,41901405.66,C, ,21/08/2018,CYBERCITY
2018-08-22,AUTO SWEEPOUT TO PVR LIMITED-NORTH 09290330000084  ,347201.92,C, ,22/08/2018,CYBERCITY
2018-08-22,AUTO SWEEPOUT TO PVR LIMITED-SOUTH 09290330000102  ,2956877.00,C, ,22/08/2018,CYBERCITY
2018-08-22,TERM LOAN LIQUIDATED AGAINST 003LN08173140086,25000000.00,D,003LN08173140086,22/08/2018,K G MARG
2018-08-22,TERM LOAN LIQUIDATED AGAINST 003LN08173140117,25000000.00,D,003LN08173140117,22/08/2018,K G MARG
2018-08-22,70003304TERMINAL 1 CARDS SETTL. 22/08/18,623095.11,C, ,22/08/2018,DB OPS MUMBAI
2018-08-22,70003304TERMINAL 1CREDIT VOUCHER22/08/18,2483.72,D, ,22/08/2018,DB OPS MUMBAI
2018-08-22,00022560003263-TPT-PVR LTD,85000.00,C,000169815032,22/08/2018,NETBANK MUMBAI
2018-08-22,00022560003263  -TPT-PVR LTD,277344.00,C,124164279A1,22/08/2018,NETBANK MUMBAI
2018-08-22,Kishor Sharma,20000.00,D,808222018097,22/08/2018,NETBANK MUMBAI
2018-08-22,PVR PICTURES L-PVR Limited,5000000.00,C,808222040004,22/08/2018,NETBANK MUMBAI
2018-08-22,PVR PICTURES L-PVR Limited,5000000.00,C,808222040005,22/08/2018,NETBANK MUMBAI
2018-08-22,Raju Shinde,17405.00,D,808222118491,22/08/2018,NETBANK MUMBAI
2018-08-22,Shivani Thapa,9625.00,D,808222118467,22/08/2018,NETBANK MUMBAI
2018-08-22,Chandni N Sachd,40745.00,D,808222118469,22/08/2018,NETBANK MUMBAI
2018-08-22,Yatin R Sharma,100272.00,D,808222118470,22/08/2018,NETBANK MUMBAI
2018-08-22,PS PRECIOUS HAN,1559077.00,D,808222118506,22/08/2018,NETBANK MUMBAI
2018-08-22,DLF LTD,4225715.00,D,808222118498,22/08/2018,NETBANK MUMBAI
2018-08-22,FLICKER PROJECT,1458847.00,D,808222118500,22/08/2018,NETBANK MUMBAI
2018-08-22,CSJ INFRASTRUCT,346500.00,D,808222118511,22/08/2018,NETBANK MUMBAI
2018-08-22,S Prabhu,11655.00,D,808222118480,22/08/2018,NETBANK MUMBAI
2018-08-22,Arun Sharma,10759.00,D,808222118486,22/08/2018,NETBANK MUMBAI
2018-08-22,Ajay Kumar,15712.00,D,808222118468,22/08/2018,NETBANK MUMBAI
2018-08-22,Abhilash A,389.00,D,808222118484,22/08/2018,NETBANK MUMBAI
2018-08-22,Raghu Hs,22802.00,D,808222118466,22/08/2018,NETBANK MUMBAI
2018-08-22,FLICKER PROJECT,467888.00,D,808222118501,22/08/2018,NETBANK MUMBAI
2018-08-22,PS PRECIOUS HAN,1106235.00,D,808222118497,22/08/2018,NETBANK MUMBAI
2018-08-22,LEX LAND SECURI,918654.00,D,808222118515,22/08/2018,NETBANK MUMBAI
2018-08-22,BHARTI REALTY H,438540.00,D,808222118509,22/08/2018,NETBANK MUMBAI
2018-08-22,Reliance Genera,200000.00,D,808222244819,22/08/2018,NETBANK MUMBAI
2018-08-22,Stop payment charges for 000000351893,100.00,D, ,22/08/2018,K G MARG
2018-08-22,Stop payment charges for 000000351894,100.00,D, ,22/08/2018,K G MARG
2018-08-22,EOD SWEEP  00030330005137  ,61467.60,C, ,22/08/2018,K G MARG
2018-08-22,EOD SWEEP  09290330000094  ,4862382.44,C, ,22/08/2018,CYBERCITY
