CB  D  520101036184078  100000           UPI D(RRN 715111154837)310517 2315          N          Y  715111154837
CB  C  520441015770862   60000           UPI Debit REV(RRN 715200576832)010617 0003  N          Y  715200576832
CB  D  520441015770862   60000           UPI D(RRN 715200576832)010617 0003          N          Y  715200576832
CB  C  520441015770862   60000           UPI Debit REV(RRN 715200940108)010617 0001  N          Y  715200940108
CB  D  520441015770862   60000           UPI D(RRN 715200940108)010617 0001          N          Y  715200940108
CB  C  520101007953123  800000           UPI Debit REV(RRN 715201081304)010617 1308  N          Y  715201081304
CB  D  520101007953123  800000           UPI D(RRN 715201081304)010617 1308          N          Y  715201081304
CB  C  520101007953123  800000           UPI Debit REV(RRN 715201121385)010617 1312  N          Y  715201121385
CB  D  520101007953123  800000           UPI D(RRN 715201121385)010617 1312          N          Y  715201121385
CB  C  520101007953123  800000           UPI Debit REV(RRN 715201155263)010617 1315  N          Y  715201155263
CB  D  520101007953123  800000           UPI D(RRN 715201155263)010617 1315          N          Y  715201155263
CB  C  565181000028165   20000           UPI Debit REV(RRN 715201155719)010617 1316  N          Y  715201155719
CB  D  565181000028165   20000           UPI D(RRN 715201155719)010617 1316          N          Y  715201155719
CB  C  565181000028165   20000           UPI Debit REV(RRN 715201182573)010617 1319  N          Y  715201182573
CB  D  565181000028165   20000           UPI D(RRN 715201182573)010617 1318          N          Y  715201182573
CB  C  565181000028165   20000           UPI Debit REV(RRN 715201334433)010617 1334  N          Y  715201334433
CB  D  565181000028165   20000           UPI D(RRN 715201334433)010617 1333          N          Y  715201334433
CB  C  520471000305492  160000           UPI Debit REV(RRN 715201334523)010617 1334  N          Y  715201334523
CB  D  520471000305492  160000           UPI D(RRN 715201334523)010617 1333          N          Y  715201334523
CB  C  520461000008749       2e+06       UPI Debit REV(RRN 715201335585)010617 1334  N          Y  715201335585
CB  D  520461000008749       2e+06       UPI D(RRN 715201335585)010617 1333          N          Y  715201335585
CB  C  520101000068493       2e+06       UPI Debit REV(RRN 715201405866)010617 1341  N          Y  715201405866
CB  D  520101000068493       2e+06       UPI D(RRN 715201405866)010617 1341          N          Y  715201405866
CB  C  520101034227756       1.194e+06   UPI Debit REV(RRN 715201413837)010617 1341  N          Y  715201413837
CB  D  520101034227756       1.194e+06   UPI D(RRN 715201413837)010617 1341          N          Y  715201413837
CB  C  520101019596134       2e+06       UPI Debit REV(RRN 715201501095)010617 1350  N          Y  715201501095
CB  D  520101019596134       2e+06       UPI D(RRN 715201501095)010617 1350          N          Y  715201501095
CB  C  520471002800369  200000           UPI Debit REV(RRN 715201560740)010617 1356  N          Y  715201560740
CB  D  520471002800369  200000           UPI D(RRN 715201560740)010617 1356          N          Y  715201560740
CB  C  520101032114105       2e+06       UPI Debit REV(RRN 715201581498)010617 1358  N          Y  715201581498
CB  D  520101032114105       2e+06       UPI D(RRN 715201581498)010617 1358          N          Y  715201581498
CB  C  520101032114105       2e+06       UPI Debit REV(RRN 715202001267)010617 1400  N          Y  715202001267
CB  D  520101032114105       2e+06       UPI D(RRN 715202001267)010617 1400          N          Y  715202001267
CB  C  520101019596134       2e+06       UPI Debit REV(RRN 715202053668)010617 1406  N          Y  715202053668
CB  D  520101019596134       2e+06       UPI D(RRN 715202053668)010617 1405          N          Y  715202053668
CB  C  520101025932965   89800           UPI Debit REV(RRN 715202062254)010617 1406  N          Y  715202062254
CB  D  520101025932965   89800           UPI D(RRN 715202062254)010617 1406          N          Y  715202062254
CB  C  520101025932965   89800           UPI Debit REV(RRN 715202084732)010617 1409  N          Y  715202084732
CB  D  520101025932965   89800           UPI D(RRN 715202084732)010617 1408          N          Y  715202084732
CB  C  520101032114105       2e+06       UPI Debit REV(RRN 715202105809)010617 1411  N          Y  715202105809
CB  D  520101032114105       2e+06       UPI D(RRN 715202105809)010617 1411          N          Y  715202105809
CB  C  520471002800369       2e+06       UPI Debit REV(RRN 715202121789)010617 1412  N          Y  715202121789
CB  D  520471002800369       2e+06       UPI D(RRN 715202121789)010617 1412          N          Y  715202121789
CB  C  520471002800369       2e+06       UPI Debit REV(RRN 715202173822)010617 1418  N          Y  715202173822
CB  D  520471002800369       2e+06       UPI D(RRN 715202173822)010617 1417          N          Y  715202173822
CB  C  520451000029509  100000           UPI Debit REV(RRN 715202183117)010617 1418  N          Y  715202183117
CB  D  520451000029509  100000           UPI D(RRN 715202183117)010617 1418          N          Y  715202183117
CB  C  520101003654210  200000           UPI Debit REV(RRN 715202364129)010617 1437  N          Y  715202364129
CB  D  520101003654210  200000           UPI D(RRN 715202364129)010617 1436          N          Y  715202364129
CB  C  520101003654210  100000           UPI Debit REV(RRN 715202431808)010617 1443  N          Y  715202431808
CB  D  520101003654210  100000           UPI D(RRN 715202431808)010617 1443          N          Y  715202431808
CB  C  520291001955417       1.4e+06     UPI Debit REV(RRN 715203035561)010617 1505  N          Y  715203035561
CB  D  520291001955417       1.4e+06     UPI D(RRN 715203035561)010617 1505          N          Y  715203035561
CB  C  520451007032637  600000           UPI Debit REV(RRN 715203171314)010617 1517  N          Y  715203171314
CB  D  520451007032637  600000           UPI D(RRN 715203171314)010617 1517          N          Y  715203171314
CB  C  520451000029509  100000           UPI Debit REV(RRN 715203383300)010617 1538  N          Y  715203383300
CB  D  520451000029509  100000           UPI D(RRN 715203383300)010617 1538          N          Y  715203383300
CB  C  520291006044651       1e+06       UPI Debit REV(RRN 715203525798)010617 1553  N          Y  715203525798
CB  D  520291006044651       1e+06       UPI D(RRN 715203525798)010617 1552          N          Y  715203525798
CB  C  520481015769392  244800           UPI Debit REV(RRN 715203545059)010617 1554  N          Y  715203545059
CB  D  520481015769392  244800           UPI D(RRN 715203545059)010617 1554          N          Y  715203545059
CB  C  520291006044651       1e+06       UPI Debit REV(RRN 715203553310)010617 1555  N          Y  715203553310
CB  D  520291006044651       1e+06       UPI D(RRN 715203553310)010617 1555          N          Y  715203553310
CB  C  520471002800369       2e+06       UPI Debit REV(RRN 715203575281)010617 1558  N          Y  715203575281
CB  D  520471002800369       2e+06       UPI D(RRN 715203575281)010617 1557          N          Y  715203575281
CB  C  520291006044651       1e+06       UPI Debit REV(RRN 715204001254)010617 1600  N          Y  715204001254
CB  D  520291006044651       1e+06       UPI D(RRN 715204001254)010617 1600          N          Y  715204001254
CB  C  520101041039692       2e+06       UPI Debit REV(RRN 715204043764)010617 1605  N          Y  715204043764
CB  D  520101041039692       2e+06       UPI D(RRN 715204043764)010617 1604          N          Y  715204043764
CB  C  520441023632899   40000           UPI Debit REV(RRN 715205223518)010617 1723  N          Y  715205223518
CB  D  520441023632899   40000           UPI D(RRN 715205223518)010617 1722          N          Y  715205223518
CB  C  520101029975251  400000           UPI Debit REV(RRN 715205272275)010617 1727  N          Y  715205272275
CB  D  520101029975251  400000           UPI D(RRN 715205272275)010617 1727          N          Y  715205272275
CB  C  520441022804688  400000           UPI Debit REV(RRN 715206064895)010617 0606  N          Y  715206064895
CB  D  520441022804688  400000           UPI D(RRN 715206064895)010617 0606          N          Y  715206064895
CB  C  520101002218972    4000           UPI Debit REV(RRN 715209250286)010617 0925  N          Y  715209250286
CB  D  520101002218972    4000           UPI D(RRN 715209250286)010617 0925          N          Y  715209250286
CB  C  520291000154623   10000           UPI Debit REV(RRN 715209342660)010617 0934  N          Y  715209342660
CB  D  520291000154623   10000           UPI D(RRN 715209342660)010617 0934          N          Y  715209342660
CB  C  520291013600562       2e+06       UPI Debit REV(RRN 715210004199)010617 1000  N          Y  715210004199
CB  D  520291013600562       2e+06       UPI D(RRN 715210004199)010617 1000          N          Y  715210004199
CB  C  520451000064754   20000           UPI Debit REV(RRN 715210425209)010617 1042  N          Y  715210425209
CB  D  520451000064754   20000           UPI D(RRN 715210425209)010617 1042          N          Y  715210425209
CB  C  520471000182234       7.2e+06     UPI Debit REV(RRN 715211024360)010617 1134  N          Y  715211024360
CB  D  520471000182234       7.2e+06     UPI D(RRN 715211024360)010617 1134          N          Y  715211024360
CB  C  520101042631250   20000           UPI Debit REV(RRN 715211472010)010617 1147  N          Y  715211472010
CB  D  520101042631250   20000           UPI D(RRN 715211472010)010617 1147          N          Y  715211472010
CB  C  510101001626115       4.6e+06     UPI Debit REV(RRN 715212034708)010617 1248  N          Y  715212034708
CB  D  510101001626115       4.6e+06     UPI D(RRN 715212034708)010617 1247          N          Y  715212034708
CB  C  510101001626115       4.6e+06     UPI Debit REV(RRN 715212036493)010617 1300  N          Y  715212036493
CB  D  510101001626115       4.6e+06     UPI D(RRN 715212036493)010617 1259          N          Y  715212036493
CB  C  520471002291421       1.2e+06     UPI Debit REV(RRN 715212060123)010617 0006  N          Y  715212060123
CB  D  520471002291421       1.2e+06     UPI D(RRN 715212060123)010617 0006          N          Y  715212060123
CB  C  520301000032241     200           UPI Debit REV(RRN 715212214383)010617 1222  N          Y  715212214383
CB  D  520301000032241     200           UPI D(RRN 715212214383)010617 1221          N          Y  715212214383
CB  C  520451000073941  380000           UPI Debit REV(RRN 715212263994)010617 1227  N          Y  715212263994
CB  D  520451000073941  380000           UPI D(RRN 715212263994)010617 1226          N          Y  715212263994
CB  C  520451007032637  600000           UPI Debit REV(RRN 715212355490)010617 1235  N          Y  715212355490
CB  D  520451007032637  600000           UPI D(RRN 715212355490)010617 1235          N          Y  715212355490
CB  C  520101024619112    2000           UPI Debit REV(RRN 715212395277)010617 1240  N          Y  715212395277
CB  D  520101024619112    2000           UPI D(RRN 715212395277)010617 1239          N          Y  715212395277
CB  C  520101000068493       2e+06       UPI Debit REV(RRN 715212402713)010617 1241  N          Y  715212402713
CB  D  520101000068493       2e+06       UPI D(RRN 715212402713)010617 1240          N          Y  715212402713
CB  C  520101000014504       2e+06       UPI Debit REV(RRN 715212422462)010617 1242  N          Y  715212422462
CB  D  520101000014504       2e+06       UPI D(RRN 715212422462)010617 1242          N          Y  715212422462
CB  C  520101000014504       2e+06       UPI Debit REV(RRN 715212470837)010617 1247  N          Y  715212470837
CB  D  520101000014504       2e+06       UPI D(RRN 715212470837)010617 1247          N          Y  715212470837
CB  C  520101001512117  440000           UPI Debit REV(RRN 715212473109)010617 1247  N          Y  715212473109
CB  D  520101001512117  440000           UPI D(RRN 715212473109)010617 1247          N          Y  715212473109
CB  C  520291013600562       2e+06       UPI Debit REV(RRN 715212563106)010617 1257  N          Y  715212563106
CB  D  520291013600562       2e+06       UPI D(RRN 715212563106)010617 1256          N          Y  715212563106
CB  C  520441023728322       1e+06       UPI Debit REV(RRN 715212573033)010617 1258  N          Y  715212573033
CB  D  520441023728322       1e+06       UPI D(RRN 715212573033)010617 1257          N          Y  715212573033
CB  C  520101008006993       1.9998e+06  UPI Debit REV(RRN 715212925169)010617 1257  N          Y  715212925169
CB  D  520101008006993       1.9998e+06  UPI D(RRN 715212925169)010617 1257          N          Y  715212925169
CB  C  520471002446158       2.1e+06     UPI Debit REV(RRN 715213043651)010617 1351  N          Y  715213043651
CB  D  520471002446158       2.1e+06     UPI D(RRN 715213043651)010617 1351          N          Y  715213043651
CB  C  520101012378859    2000           UPI Debit REV(RRN 715214936775)010617 1437  N          Y  715214936775
CB  D  520101012378859    2000           UPI D(RRN 715214936775)010617 1437          N          Y  715214936775
CB  C  520291028009032       1.1e+06     UPI Debit REV(RRN 715236637799)010617 1226  N          Y  715236637799
CB  D  520291028009032       1.1e+06     UPI D(RRN 715236637799)010617 1226          N          Y  715236637799