Name,MibName,OID,Scalar,Polling,Trap,TableName,Group,Metric,ValueMapper,Formatter
cdpCacheAddress,CISCO-CDP-MIB,1.3.6.1.4.1.9.9.23.1.2.1.1.4,0,0,0,Cdp,Neighbors,IpAddress,,prettyPrint
cdpCacheVersion,CISCO-CDP-MIB,1.3.6.1.4.1.9.9.23.1.2.1.1.5,0,0,0,Cdp,Neighbors,Version,,DisplayString
cdpCacheDeviceId,CISCO-CDP-MIB,1.3.6.1.4.1.9.9.23.1.2.1.1.6,0,0,0,Cdp,Neighbors,MacAddress,,DisplayString
cdpCacheDevicePort,CISCO-CDP-MIB,1.3.6.1.4.1.9.9.23.1.2.1.1.7,0,0,0,Cdp,Neighbors,Port,,DisplayString
