Participant ID,ACQ_CURRENCY_CODE,From Account Type,To Account Type,REFNUM,RESPCODE,PAN,Member Number,Approval Number,System Trace Audit Number,LOCAL_DATE,LOCAL_TIME,Merchant Category Code,Card Acceptor Settl Date,Card Acceptor ID,TERMID,Card Acceptor Term. Location,Aquirer ID,Acquirer Settlement Date,Transaction Currency Code,AMOUNT,Transaction Amount,Trans Activity Fee,Acquirer Stl Curr Code,Acquirer Settlement Amount,Acquirer Stl Fee,Acquirer Stl Proc Fee,Acquirer Stl Conv Rate,REMARKS,ORIGINAL CHANNEL,IFSC CODE,ACCTNUM,FEED_FILE_NAME,SOURCE,STATEMENT_DATE,System_Idx,CBS Match,LINK_ID,SWITCH Match
SSF,F3,10,,911319000371,00,9211001000100014702,1,000371,000000371831,2019-04-23,190637,4814,190423,SSF9146338467,SSF38467,SURYODAY SMALL FIN BANK  MOB9146338467IN,100294,190423,35600,7000.0,700000.0,0.0,356,000000000700000,000000000000000,000000000000000,000000000000000,remark,MOB,UTIB0000104,104010100014702,ACQRPSSF230419_1C.mSSF,NPCI,2019-04-23,12529657421621098080,UNMATCHED,,UNMATCHED
SSF,F3,10,,911223000496,00,9751001000000002912,1,182773,000000496714,2019-04-22,230140,4814,190423,SSF8422821868,SSF21868,SURYODAY SMALL FIN BANK  MOB8422821868IN,100294,190423,35600,1.0,100.0,0.0,356,000000000000100,000000000000000,000000000000000,000000000000000,remark,MOB,IDFB0040101,10000002912,ACQRPSSF230419_2C.mSSF,NPCI,2019-04-23,13177705931204572720,UNMATCHED,,UNMATCHED
SSF,F3,10,,911223000497,00,9751001000000002912,1,182959,000000497625,2019-04-22,230216,4829,190423,SSF8422821867,SSF21867,SURYODAY SMALL FIN BANK  MOB8422821867IN,100294,190423,35600,1.0,100.0,0.0,356,000000000000100,000000000000000,000000000000000,000000000000000,remark,INE,IDFB0040101,10000002912,ACQRPSSF230419_2C.mSSF,NPCI,2019-04-23,9580826381714210499,UNMATCHED,,UNMATCHED
SSF,F3,10,,911223000498,00,9751001000000043857,1,173733,000000498782,2019-04-22,230543,4814,190423,SSF9152780146,SSF80146,SURYODAY SMALL FIN BANK  MOB9152780146IN,100294,190423,35600,1.0,100.0,0.0,356,000000000000100,000000000000000,000000000000000,000000000000000,remark,MOB,IDFB0040101,10000043857,ACQRPSSF230419_2C.mSSF,NPCI,2019-04-23,12015279734635787031,UNMATCHED,,UNMATCHED
SSF,F3,10,,911223000499,00,8103001008100001985,1,135512,000000499762,2019-04-22,230929,4814,190423,SSF9112185608,SSF85608,SURYODAY SMALL FIN BANK  MOB9112185608IN,100294,190423,35600,2400.0,240000.0,0.0,356,000000000240000,000000000000000,000000000000000,000000000000000,remark,MOB,VSBL0000015,015128100001985,ACQRPSSF230419_2C.mSSF,NPCI,2019-04-23,13663595652381796834,UNMATCHED,,UNMATCHED
SSF,F3,10,,911223000500,00,9002001000083398980,1,882817,000000500563,2019-04-22,231637,4814,190423,SSF7709415293,SSF15293,SURYODAY SMALL FIN BANK  MOB7709415293IN,100294,190423,35600,120.0,12000.0,0.0,356,000000000012000,000000000000000,000000000000000,000000000000000,remark,MOB,SBIN0002271,20083398980,ACQRPSSF230419_2C.mSSF,NPCI,2019-04-23,10183376714087113900,UNMATCHED,,UNMATCHED
SSF,F3,10,,911223000501,00,9751001000000002912,1,188077,000000501447,2019-04-22,231654,4814,190423,SSF8422821868,SSF21868,SURYODAY SMALL FIN BANK  MOB8422821868IN,100294,190423,35600,1.0,100.0,0.0,356,000000000000100,000000000000000,000000000000000,000000000000000,remark,MOB,IDFB0040101,10000002912,ACQRPSSF230419_2C.mSSF,NPCI,2019-04-23,9290064944708256475,UNMATCHED,,UNMATCHED
SSF,F3,10,,911223000502,00,9751001000000002912,1,188159,000000502399,2019-04-22,231710,4829,190423,SSF8422821867,SSF21867,SURYODAY SMALL FIN BANK  MOB8422821867IN,100294,190423,35600,1.0,100.0,0.0,356,000000000000100,000000000000000,000000000000000,000000000000000,remark,INE,IDFB0040101,10000002912,ACQRPSSF230419_2C.mSSF,NPCI,2019-04-23,11599951748130591332,UNMATCHED,,UNMATCHED
SSF,F3,10,,911223000503,00,9751001000000043857,1,189690,000000503288,2019-04-22,232036,4814,190423,SSF9152780146,SSF80146,SURYODAY SMALL FIN BANK  MOB9152780146IN,100294,190423,35600,1.0,100.0,0.0,356,000000000000100,000000000000000,000000000000000,000000000000000,remark,MOB,IDFB0040101,10000043857,ACQRPSSF230419_2C.mSSF,NPCI,2019-04-23,13770866521897319225,UNMATCHED,,UNMATCHED
SSF,F3,10,,911223000504,00,9751001000000002912,1,199288,000000504188,2019-04-22,233142,4814,190423,SSF8422821868,SSF21868,SURYODAY SMALL FIN BANK  MOB8422821868IN,100294,190423,35600,1.0,100.0,0.0,356,000000000000100,000000000000000,000000000000000,000000000000000,remark,MOB,IDFB0040101,10000002912,ACQRPSSF230419_2C.mSSF,NPCI,2019-04-23,9598963765410424491,UNMATCHED,,UNMATCHED
SSF,F3,10,,911223000505,00,9751001000000002912,1,199328,000000505215,2019-04-22,233158,4829,190423,SSF8422821867,SSF21867,SURYODAY SMALL FIN BANK  MOB8422821867IN,100294,190423,35600,1.0,100.0,0.0,356,000000000000100,000000000000000,000000000000000,000000000000000,remark,INE,IDFB0040101,10000002912,ACQRPSSF230419_2C.mSSF,NPCI,2019-04-23,9363136588823049917,UNMATCHED,,UNMATCHED
SSF,F3,10,,911223000506,00,9229001006101512841,1,076810,000000506712,2019-04-22,233215,4814,190423,SSF9175868996,SSF68996,SURYODAY SMALL FIN BANK  MOB9175868996IN,100294,190423,35600,2600.0,260000.0,0.0,356,000000000260000,000000000000000,000000000000000,000000000000000,remark,MOB,ICIC0006461,646101512841,ACQRPSSF230419_2C.mSSF,NPCI,2019-04-23,11070348744721678415,UNMATCHED,,UNMATCHED
SSF,F3,10,,911223000507,00,9211001000100036227,1,000507,000000507549,2019-04-22,233711,4814,190423,SSF9993561488,SSF61488,SURYODAY SMALL FIN BANK  MOB9993561488IN,100294,190423,35600,50000.0,5000000.0,0.0,356,000000005000000,000000000000000,000000000000000,000000000000000,remark,MOB,UTIB0000093,093010100036227,ACQRPSSF230419_2C.mSSF,NPCI,2019-04-23,11736915651290424383,UNMATCHED,,UNMATCHED
SSF,F3,10,,911223000508,00,9751001000000043857,1,215363,000000508353,2019-04-22,233737,4814,190423,SSF9152780146,SSF80146,SURYODAY SMALL FIN BANK  MOB9152780146IN,100294,190423,35600,1.0,100.0,0.0,356,000000000000100,000000000000000,000000000000000,000000000000000,remark,MOB,IDFB0040101,10000043857,ACQRPSSF230419_2C.mSSF,NPCI,2019-04-23,11033166306310940990,UNMATCHED,,UNMATCHED
SSF,F3,10,,911223000509,00,9211001000007234721,1,000509,000000509742,2019-04-22,234304,4814,190423,SSF8600816652,SSF16652,SURYODAY SMALL FIN BANK  MOB8600816652IN,100294,190423,35600,11.0,1100.0,0.0,356,000000000001100,000000000000000,000000000000000,000000000000000,remark,MOB,UTIB0000862,915010007234721,ACQRPSSF230419_2C.mSSF,NPCI,2019-04-23,11697159261860561139,UNMATCHED,,UNMATCHED
SSF,F3,10,,911223000510,00,9751001000000002912,1,221353,000000510467,2019-04-22,234650,4829,190423,SSF8422821867,SSF21867,SURYODAY SMALL FIN BANK  MOB8422821867IN,100294,190423,35600,1.0,100.0,0.0,356,000000000000100,000000000000000,000000000000000,000000000000000,remark,INE,IDFB0040101,10000002912,ACQRPSSF230419_2C.mSSF,NPCI,2019-04-23,9517793107058946512,UNMATCHED,,UNMATCHED
SSF,F3,10,,911223000511,00,9751001000000002912,1,217935,000000511153,2019-04-22,234708,4814,190423,SSF8422821868,SSF21868,SURYODAY SMALL FIN BANK  MOB8422821868IN,100294,190423,35600,1.0,100.0,0.0,356,000000000000100,000000000000000,000000000000000,000000000000000,remark,MOB,IDFB0040101,10000002912,ACQRPSSF230419_2C.mSSF,NPCI,2019-04-23,13663106056026319424,UNMATCHED,,UNMATCHED
SSF,F3,10,,911223000512,00,9751001000000043857,1,218853,000000512080,2019-04-22,235034,4814,190423,SSF9152780146,SSF80146,SURYODAY SMALL FIN BANK  MOB9152780146IN,100294,190423,35600,1.0,100.0,0.0,356,000000000000100,000000000000000,000000000000000,000000000000000,remark,MOB,IDFB0040101,10000043857,ACQRPSSF230419_2C.mSSF,NPCI,2019-04-23,9683415063979175051,UNMATCHED,,UNMATCHED
SSF,F3,10,,911223000513,00,9002001003969841722,1,886359,000000513706,2019-04-22,235452,4814,190423,SSF7773933668,SSF33668,SURYODAY SMALL FIN BANK  MOB7773933668IN,100294,190423,35600,5000.0,500000.0,0.0,356,000000000500000,000000000000000,000000000000000,000000000000000,remark,MOB,SBIN0000283,33969841722,ACQRPSSF230419_2C.mSSF,NPCI,2019-04-23,9271563026299768511,UNMATCHED,,UNMATCHED
SSF,F3,10,,911317000319,00,9037001005470402442,1,012224,000000319145,2019-04-23,170935,4814,190423,SSF9003763080,SSF63080,SURYODAY SMALL FIN BANK  MOB9003763080IN,100294,190423,35600,5000.0,500000.0,0.0,356,000000000500000,000000000000000,000000000000000,000000000000000,remark,MOB,CITI0000003,5470402442,ACQRPSSF230419_4C.mSSF,NPCI,2019-04-23,9413780622083410682,UNMATCHED,,UNMATCHED
