BANK_CODE,txn_date,val_date,DEBIT_CREDIT_INDICATOR,Static value,AMOUNT,ACCOUNT_TYPE,TXT_5_001,ACCOUNT_NUMBER,zeroes_42,spaces_3,zeroes_3,spaces_7,zeroes_14,TXT_180_001,TXT_32_003,TXT_5_015
093,01062017,01062017,D,824603,800000.0,SB,01,009088,000000000000000000000000000000000000000000,   ,000,       ,00000000000000,RRN 715201095570/30431378489@SBIN00,715201095570,CBS
093,01062017,01062017,R,824603,800000.0,SB,01,009088,000000000000000000000000000000000000000000,   ,000,       ,00000000000000,RRN 715201095570/30431378489@SBIN00,715201095570,CBS
341,01062017,01062017,D,824603,180000.0,SB,01,037997,000000000000000000000000000000000000000000,   ,000,       ,00000000000000,RRN 715201100370/8904601019@upi/(SA,715201100370,CBS
341,01062017,01062017,R,824603,180000.0,SB,01,037997,000000000000000000000000000000000000000000,   ,000,       ,00000000000000,RRN 715201100370/8904601019@upi/(SA,715201100370,CBS
1803,01062017,01062017,D,824603,2000000.0,SB,01,003079,000000000000000000000000000000000000000000,   ,000,       ,00000000000000,RRN 715201193238/61062758353@SBIN00,715201193238,CBS
1803,01062017,01062017,R,824603,2000000.0,SB,01,003079,000000000000000000000000000000000000000000,   ,000,       ,00000000000000,RRN 715201193238/61062758353@SBIN00,715201193238,CBS
218,01062017,01062017,D,824603,2000000.0,SB,01,007561,000000000000000000000000000000000000000000,   ,000,       ,00000000000000,RRN 715201224034/20151170367@SBIN00,715201224034,CBS
218,01062017,01062017,R,824603,2000000.0,SB,01,007561,000000000000000000000000000000000000000000,   ,000,       ,00000000000000,RRN 715201224034/20151170367@SBIN00,715201224034,CBS
148,01062017,01062017,D,824603,2000.0,SB,01,016126,000000000000000000000000000000000000000000,   ,000,       ,00000000000000,RRN 715201321293/016701014258@CORP0,715201321293,CBS
148,01062017,01062017,R,824603,2000.0,SB,01,016126,000000000000000000000000000000000000000000,   ,000,       ,00000000000000,RRN 715201321293/016701014258@CORP0,715201321293,CBS
133,01062017,01062017,D,824603,2000000.0,SB,01,057679,000000000000000000000000000000000000000000,   ,000,       ,00000000000000,RRN 715201425859/64099420208@SBIN00,715201425859,CBS
133,01062017,01062017,R,824603,2000000.0,SB,01,057679,000000000000000000000000000000000000000000,   ,000,       ,00000000000000,RRN 715201425859/64099420208@SBIN00,715201425859,CBS
143,01062017,01062017,D,824603,20000.0,SB,01,041699,000000000000000000000000000000000000000000,   ,000,       ,00000000000000,RRN 715201440051/8105303600@upi/(Mr,715201440051,CBS
143,01062017,01062017,R,824603,20000.0,SB,01,041699,000000000000000000000000000000000000000000,   ,000,       ,00000000000000,RRN 715201440051/8105303600@upi/(Mr,715201440051,CBS
005,01062017,01062017,D,824603,200000.0,SB,01,021027,000000000000000000000000000000000000000000,   ,000,       ,00000000000000,RRN 715201444569/20284056426@SBIN00,715201444569,CBS
005,01062017,01062017,R,824603,200000.0,SB,01,021027,000000000000000000000000000000000000000000,   ,000,       ,00000000000000,RRN 715201444569/20284056426@SBIN00,715201444569,CBS
133,01062017,01062017,D,824603,2000000.0,SB,01,057679,000000000000000000000000000000000000000000,   ,000,       ,00000000000000,RRN 715201473921/64099420208@SBIN00,715201473921,CBS
133,01062017,01062017,R,824603,2000000.0,SB,01,057679,000000000000000000000000000000000000000000,   ,000,       ,00000000000000,RRN 715201473921/64099420208@SBIN00,715201473921,CBS
005,01062017,01062017,D,824603,200000.0,SB,01,021027,000000000000000000000000000000000000000000,   ,000,       ,00000000000000,RRN 715201495873/20284056426@SBIN00,715201495873,CBS
005,01062017,01062017,R,824603,200000.0,SB,01,021027,000000000000000000000000000000000000000000,   ,000,       ,00000000000000,RRN 715201495873/20284056426@SBIN00,715201495873,CBS
175,01062017,01062017,D,824603,1000000.0,SB,01,048907,000000000000000000000000000000000000000000,   ,000,       ,00000000000000,RRN 715201501732/9620400697@upi/(HA,715201501732,CBS
175,01062017,01062017,R,824603,1000000.0,SB,01,048907,000000000000000000000000000000000000000000,   ,000,       ,00000000000000,RRN 715201501732/9620400697@upi/(HA,715201501732,CBS
175,01062017,01062017,D,824603,1000000.0,SB,01,048907,000000000000000000000000000000000000000000,   ,000,       ,00000000000000,RRN 715201530604/9620400697@upi/(HA,715201530604,CBS
175,01062017,01062017,R,824603,1000000.0,SB,01,048907,000000000000000000000000000000000000000000,   ,000,       ,00000000000000,RRN 715201530604/9620400697@upi/(HA,715201530604,CBS
087,01062017,01062017,D,824603,1240000.0,SB,01,055709,000000000000000000000000000000000000000000,   ,000,       ,00000000000000,RRN 715202022258/31568333535@SBIN00,715202022258,CBS
087,01062017,01062017,R,824603,1240000.0,SB,01,055709,000000000000000000000000000000000000000000,   ,000,       ,00000000000000,RRN 715202022258/31568333535@SBIN00,715202022258,CBS
087,01062017,01062017,D,824603,1240000.0,SB,01,055709,000000000000000000000000000000000000000000,   ,000,       ,00000000000000,RRN 715202050361/31568333535@SBINOO,715202050361,CBS
087,01062017,01062017,R,824603,1240000.0,SB,01,055709,000000000000000000000000000000000000000000,   ,000,       ,00000000000000,RRN 715202050361/31568333535@SBINOO,715202050361,CBS
659,01062017,01062017,D,824603,600000.0,SB,01,006119,000000000000000000000000000000000000000000,   ,000,       ,00000000000000,RRN 715202050720/64084949931@SBIN00,715202050720,CBS
659,01062017,01062017,R,824603,600000.0,SB,01,006119,000000000000000000000000000000000000000000,   ,000,       ,00000000000000,RRN 715202050720/64084949931@SBIN00,715202050720,CBS
659,01062017,01062017,D,824603,600000.0,SB,01,006119,000000000000000000000000000000000000000000,   ,000,       ,00000000000000,RRN 715202073818/64084949931@SBIN00,715202073818,CBS
659,01062017,01062017,R,824603,600000.0,SB,01,006119,000000000000000000000000000000000000000000,   ,000,       ,00000000000000,RRN 715202073818/64084949931@SBIN00,715202073818,CBS
144,01062017,01062017,D,824603,400000.0,SB,02,001616,000000000000000000000000000000000000000000,   ,000,       ,00000000000000,RRN 715202100308/20255273933@SBIN00,715202100308,CBS
144,01062017,01062017,R,824603,400000.0,SB,02,001616,000000000000000000000000000000000000000000,   ,000,       ,00000000000000,RRN 715202100308/20255273933@SBIN00,715202100308,CBS
1975,01062017,01062017,D,824603,80000.0,SB,01,000333,000000000000000000000000000000000000000000,   ,000,       ,00000000000000,RRN 715202100634/31257472607@SBIN00,715202100634,CBS
1975,01062017,01062017,R,824603,80000.0,SB,01,000333,000000000000000000000000000000000000000000,   ,000,       ,00000000000000,RRN 715202100634/31257472607@SBIN00,715202100634,CBS
659,01062017,01062017,D,824603,600000.0,SB,01,006119,000000000000000000000000000000000000000000,   ,000,       ,00000000000000,RRN 715202133194/64084949931@SBIN00,715202133194,CBS
659,01062017,01062017,R,824603,600000.0,SB,01,006119,000000000000000000000000000000000000000000,   ,000,       ,00000000000000,RRN 715202133194/64084949931@SBIN00,715202133194,CBS
659,01062017,01062017,D,824603,600000.0,SB,01,006119,000000000000000000000000000000000000000000,   ,000,       ,00000000000000,RRN 715202145271/20225375578@SBIN00,715202145271,CBS
659,01062017,01062017,R,824603,600000.0,SB,01,006119,000000000000000000000000000000000000000000,   ,000,       ,00000000000000,RRN 715202145271/20225375578@SBIN00,715202145271,CBS
3000,01062017,01062017,D,824603,1000000.0,SB,01,000889,000000000000000000000000000000000000000000,   ,000,       ,00000000000000,RRN 715202350846/44130100001001@BAR,715202350846,CBS
3000,01062017,01062017,R,824603,1000000.0,SB,01,000889,000000000000000000000000000000000000000000,   ,000,       ,00000000000000,RRN 715202350846/44130100001001@BAR,715202350846,CBS
1154,01062017,01062017,D,824603,1020000.0,SB,01,006803,000000000000000000000000000000000000000000,   ,000,       ,00000000000000,RRN 715202351922/10160627669@SBIN00,715202351922,CBS
1154,01062017,01062017,R,824603,1020000.0,SB,01,006803,000000000000000000000000000000000000000000,   ,000,       ,00000000000000,RRN 715202351922/10160627669@SBIN00,715202351922,CBS
671,01062017,01062017,D,824603,1000000.0,SB,01,009536,000000000000000000000000000000000000000000,   ,000,       ,00000000000000,RRN 715202414290/34439304849@SBIN00,715202414290,CBS
671,01062017,01062017,R,824603,1000000.0,SB,01,009536,000000000000000000000000000000000000000000,   ,000,       ,00000000000000,RRN 715202414290/34439304849@SBIN00,715202414290,CBS
1655,01062017,01062017,D,824603,2000.0,SB,01,002481,000000000000000000000000000000000000000000,   ,000,       ,00000000000000,RRN 715202421385/524349231666@aadha,715202421385,CBS
1655,01062017,01062017,R,824603,2000.0,SB,01,002481,000000000000000000000000000000000000000000,   ,000,       ,00000000000000,RRN 715202421385/524349231666@aadha,715202421385,CBS
671,01062017,01062017,D,824603,1000000.0,SB,01,009536,000000000000000000000000000000000000000000,   ,000,       ,00000000000000,RRN 715202442491/34439304849@SBIN00,715202442491,CBS
671,01062017,01062017,R,824603,1000000.0,SB,01,009536,000000000000000000000000000000000000000000,   ,000,       ,00000000000000,RRN 715202442491/34439304849@SBIN00,715202442491,CBS
133,01062017,01062017,D,824603,600000.0,SB,01,057426,000000000000000000000000000000000000000000,   ,000,       ,00000000000000,RRN 715202481572/31048470313@SBIN00,715202481572,CBS
133,01062017,01062017,R,824603,600000.0,SB,01,057426,000000000000000000000000000000000000000000,   ,000,       ,00000000000000,RRN 715202481572/31048470313@SBIN00,715202481572,CBS
280,01062017,01062017,D,824603,400000.0,SB,01,022155,000000000000000000000000000000000000000000,   ,000,       ,00000000000000,RRN 715204063837/0280001010140040@C,715204063837,CBS
280,01062017,01062017,R,824603,400000.0,SB,01,022155,000000000000000000000000000000000000000000,   ,000,       ,00000000000000,RRN 715204063837/0280001010140040@C,715204063837,CBS
3369,01062017,01062017,D,824603,200.0,SB,01,000006,000000000000000000000000000000000000000000,   ,000,       ,00000000000000,RRN 715204305787/9904031144@upi/(AR,715204305787,CBS
3369,01062017,01062017,R,824603,200.0,SB,01,000006,000000000000000000000000000000000000000000,   ,000,       ,00000000000000,RRN 715204305787/9904031144@upi/(AR,715204305787,CBS
774,01062017,01062017,D,824603,600000.0,SB,01,007942,000000000000000000000000000000000000000000,   ,000,       ,00000000000000,RRN 715204323923/30033566848@SBIN00,715204323923,CBS
774,01062017,01062017,R,824603,600000.0,SB,01,007942,000000000000000000000000000000000000000000,   ,000,       ,00000000000000,RRN 715204323923/30033566848@SBIN00,715204323923,CBS
774,01062017,01062017,D,824603,600000.0,SB,01,007942,000000000000000000000000000000000000000000,   ,000,       ,00000000000000,RRN 715204364351/30033566848@SBIN00,715204364351,CBS
774,01062017,01062017,R,824603,600000.0,SB,01,007942,000000000000000000000000000000000000000000,   ,000,       ,00000000000000,RRN 715204364351/30033566848@SBIN00,715204364351,CBS
3369,01062017,01062017,D,824603,200.0,SB,01,000006,000000000000000000000000000000000000000000,   ,000,       ,00000000000000,RRN 715204374478/9904031144@upi/(AR,715204374478,CBS
3369,01062017,01062017,R,824603,200.0,SB,01,000006,000000000000000000000000000000000000000000,   ,000,       ,00000000000000,RRN 715204374478/9904031144@upi/(AR,715204374478,CBS
3369,01062017,01062017,D,824603,200.0,SB,01,000006,000000000000000000000000000000000000000000,   ,000,       ,00000000000000,RRN 715205122420/9904031144@upi/(AR,715205122420,CBS
3369,01062017,01062017,R,824603,200.0,SB,01,000006,000000000000000000000000000000000000000000,   ,000,       ,00000000000000,RRN 715205122420/9904031144@upi/(AR,715205122420,CBS
659,01062017,01062017,D,824603,600000.0,SB,01,006119,000000000000000000000000000000000000000000,   ,000,       ,00000000000000,RRN 715205204799/64084949931@SBIN00,715205204799,CBS
659,01062017,01062017,R,824603,600000.0,SB,01,006119,000000000000000000000000000000000000000000,   ,000,       ,00000000000000,RRN 715205204799/64084949931@SBIN00,715205204799,CBS
064,01062017,01062017,D,824603,400000.0,SB,01,035997,000000000000000000000000000000000000000000,   ,000,       ,00000000000000,RRN 715205453938/30856602588@SBIN00,715205453938,CBS
064,01062017,01062017,R,824603,400000.0,SB,01,035997,000000000000000000000000000000000000000000,   ,000,       ,00000000000000,RRN 715205453938/30856602588@SBIN00,715205453938,CBS
440,01062017,01062017,D,824603,800000.0,SB,01,023402,000000000000000000000000000000000000000000,   ,000,       ,00000000000000,RRN 715205470934/33327168333@CBIN02,715205470934,CBS
440,01062017,01062017,R,824603,800000.0,SB,01,023402,000000000000000000000000000000000000000000,   ,000,       ,00000000000000,RRN 715205470934/33327168333@CBIN02,715205470934,CBS
1847,01062017,01062017,D,824603,224200.0,SB,01,002508,000000000000000000000000000000000000000000,   ,000,       ,00000000000000,RRN 715205473651/35012422147@SBIN00,715205473651,CBS
1847,01062017,01062017,R,824603,224200.0,SB,01,002508,000000000000000000000000000000000000000000,   ,000,       ,00000000000000,RRN 715205473651/35012422147@SBIN00,715205473651,CBS
1744,01062017,01062017,D,824603,50000.0,SB,01,002004,000000000000000000000000000000000000000000,   ,000,       ,00000000000000,RRN 715205590671/31742653398@SBIN00,715205590671,CBS
1744,01062017,01062017,R,824603,50000.0,SB,01,002004,000000000000000000000000000000000000000000,   ,000,       ,00000000000000,RRN 715205590671/31742653398@SBIN00,715205590671,CBS
1503,01062017,01062017,D,824603,1300000.0,SB,01,000430,000000000000000000000000000000000000000000,   ,000,       ,00000000000000,RRN 715206200204/8508644183@upi/(JO,715206200204,CBS
1503,01062017,01062017,R,824603,1300000.0,SB,01,000430,000000000000000000000000000000000000000000,   ,000,       ,00000000000000,RRN 715206200204/8508644183@upi/(JO,715206200204,CBS
1503,01062017,01062017,D,824603,1300000.0,SB,01,000430,000000000000000000000000000000000000000000,   ,000,       ,00000000000000,RRN 715206220813/8508644183@upi/(JO,715206220813,CBS
1503,01062017,01062017,R,824603,1300000.0,SB,01,000430,000000000000000000000000000000000000000000,   ,000,       ,00000000000000,RRN 715206220813/8508644183@upi/(JO,715206220813,CBS
1420,01062017,01062017,D,824603,20000.0,SB,02,000018,000000000000000000000000000000000000000000,   ,000,       ,00000000000000,RRN 715206310168/192102001000786@CO,715206310168,CBS
1420,01062017,01062017,R,824603,20000.0,SB,02,000018,000000000000000000000000000000000000000000,   ,000,       ,00000000000000,RRN 715206310168/192102001000786@CO,715206310168,CBS
1743,01062017,01062017,D,824603,1000000.0,SB,02,000008,000000000000000000000000000000000000000000,   ,000,       ,00000000000000,RRN 715206410272/71990100006281@PUN,715206410272,CBS
1743,01062017,01062017,R,824603,1000000.0,SB,02,000008,000000000000000000000000000000000000000000,   ,000,       ,00000000000000,RRN 715206410272/71990100006281@PUN,715206410272,CBS
1403,01062017,01062017,D,824603,1600000.0,SB,01,003958,000000000000000000000000000000000000000000,   ,000,       ,00000000000000,RRN 715206621248/393800010113302@PU,715206621248,CBS
1403,01062017,01062017,R,824603,1600000.0,SB,01,003958,000000000000000000000000000000000000000000,   ,000,       ,00000000000000,RRN 715206621248/393800010113302@PU,715206621248,CBS
052,01062017,01062017,D,824603,600000.0,SB,01,024007,000000000000000000000000000000000000000000,   ,000,       ,00000000000000,RRN 715207014393/003410100002333@CN,715207014393,CBS
052,01062017,01062017,R,824603,600000.0,SB,01,024007,000000000000000000000000000000000000000000,   ,000,       ,00000000000000,RRN 715207014393/003410100002333@CN,715207014393,CBS
1970,01062017,01062017,D,824603,20000.0,CPSB,01,001135,000000000000000000000000000000000000000000,   ,000,       ,00000000000000,RRN 715207173484/8802332950@upi/(JA,715207173484,CBS
1970,01062017,01062017,R,824603,20000.0,CPSB,01,001135,000000000000000000000000000000000000000000,   ,000,       ,00000000000000,RRN 715207173484/8802332950@upi/(JA,715207173484,CBS
1262,01062017,01062017,D,824603,200.0,SB,01,003333,000000000000000000000000000000000000000000,   ,000,       ,00000000000000,RRN 715207255051/218855560362@aadha,715207255051,CBS
1262,01062017,01062017,R,824603,200.0,SB,01,003333,000000000000000000000000000000000000000000,   ,000,       ,00000000000000,RRN 715207255051/218855560362@aadha,715207255051,CBS
056,01062017,01062017,D,824603,1000000.0,SB,01,055031,000000000000000000000000000000000000000000,   ,000,       ,00000000000000,RRN 715207315639/91101001682045@UTI,715207315639,CBS
056,01062017,01062017,R,824603,1000000.0,SB,01,055031,000000000000000000000000000000000000000000,   ,000,       ,00000000000000,RRN 715207315639/91101001682045@UTI,715207315639,CBS
122,01062017,01062017,D,824603,2000000.0,SB,01,020540,000000000000000000000000000000000000000000,   ,000,       ,00000000000000,RRN 715207430246/33300161837@SBIN00,715207430246,CBS
122,01062017,01062017,R,824603,2000000.0,SB,01,020540,000000000000000000000000000000000000000000,   ,000,       ,00000000000000,RRN 715207430246/33300161837@SBIN00,715207430246,CBS
2911,01062017,01062017,D,824603,1600000.0,ECOD,02,170001,000000000000000000000000000000000000000000,   ,000,       ,00000000000000,RRN 715208142378/44580010069827@PUN,715208142378,CBS
2911,01062017,01062017,R,824603,1600000.0,ECOD,02,170001,000000000000000000000000000000000000000000,   ,000,       ,00000000000000,RRN 715208142378/44580010069827@PUN,715208142378,CBS
526,01062017,01062017,D,824603,12000.0,SB,02,002429,000000000000000000000000000000000000000000,   ,000,       ,00000000000000,RRN 715208190829/36440207005904@UBI,715208190829,CBS
526,01062017,01062017,R,824603,12000.0,SB,02,002429,000000000000000000000000000000000000000000,   ,000,       ,00000000000000,RRN 715208190829/36440207005904@UBI,715208190829,CBS
1800,01062017,01062017,D,824603,400000.0,SB,01,160016,000000000000000000000000000000000000000000,   ,000,       ,00000000000000,RRN 715208320701/3649000100064290@P,715208320701,CBS
1800,01062017,01062017,R,824603,400000.0,SB,01,160016,000000000000000000000000000000000000000000,   ,000,       ,00000000000000,RRN 715208320701/3649000100064290@P,715208320701,CBS
677,01062017,01062017,D,824603,200.0,CBCA,01,000161,000000000000000000000000000000000000000000,   ,000,       ,00000000000000,RRN 715208345395/0677101009821@CORP,715208345395,CBS
677,01062017,01062017,R,824603,200.0,CBCA,01,000161,000000000000000000000000000000000000000000,   ,000,       ,00000000000000,RRN 715208345395/0677101009821@CORP,715208345395,CBS
081,01062017,01062017,D,824603,2000.0,SB,01,025216,000000000000000000000000000000000000000000,   ,000,       ,00000000000000,RRN 715208390318/485658206264@aadha,715208390318,CBS
081,01062017,01062017,R,824603,2000.0,SB,01,025216,000000000000000000000000000000000000000000,   ,000,       ,00000000000000,RRN 715208390318/485658206264@aadha,715208390318,CBS
2112,01062017,01062017,D,824603,12200.0,SB,01,004026,000000000000000000000000000000000000000000,   ,000,       ,00000000000000,RRN 715208515081/9818309772@upi/(AV,715208515081,CBS
2112,01062017,01062017,R,824603,12200.0,SB,01,004026,000000000000000000000000000000000000000000,   ,000,       ,00000000000000,RRN 715208515081/9818309772@upi/(AV,715208515081,CBS
2112,01062017,01062017,D,824603,12200.0,SB,01,004026,000000000000000000000000000000000000000000,   ,000,       ,00000000000000,RRN 715208523380/9818309772@upi/(AV,715208523380,CBS
2112,01062017,01062017,R,824603,12200.0,SB,01,004026,000000000000000000000000000000000000000000,   ,000,       ,00000000000000,RRN 715208523380/9818309772@upi/(AV,715208523380,CBS
546,01062017,01062017,D,824603,200.0,SB,01,019802,000000000000000000000000000000000000000000,   ,000,       ,00000000000000,RRN 715208791491/916060045671638@UT,715208791491,CBS
546,01062017,01062017,R,824603,200.0,SB,01,019802,000000000000000000000000000000000000000000,   ,000,       ,00000000000000,RRN 715208791491/916060045671638@UT,715208791491,CBS
705,01062017,01062017,D,824603,200000.0,SB,01,028377,000000000000000000000000000000000000000000,   ,000,       ,00000000000000,RRN 715209191101/431855267058@aadha,715209191101,CBS
705,01062017,01062017,R,824603,200000.0,SB,01,028377,000000000000000000000000000000000000000000,   ,000,       ,00000000000000,RRN 715209191101/431855267058@aadha,715209191101,CBS
1233,01062017,01062017,D,824603,16000.0,SB,02,000050,000000000000000000000000000000000000000000,   ,000,       ,00000000000000,RRN 715209291462/9415591186@upi/(AS,715209291462,CBS
1233,01062017,01062017,R,824603,16000.0,SB,02,000050,000000000000000000000000000000000000000000,   ,000,       ,00000000000000,RRN 715209291462/9415591186@upi/(AS,715209291462,CBS
1400,01062017,01062017,D,824603,640000.0,SB,01,001712,000000000000000000000000000000000000000000,   ,000,       ,00000000000000,RRN 715209381078/53462210000032@SYN,715209381078,CBS
1400,01062017,01062017,R,824603,640000.0,SB,01,001712,000000000000000000000000000000000000000000,   ,000,       ,00000000000000,RRN 715209381078/53462210000032@SYN,715209381078,CBS
133,01062017,01062017,D,824603,200000.0,SB,01,057416,000000000000000000000000000000000000000000,   ,000,       ,00000000000000,RRN 715209400420/08222210036724@SYN,715209400420,CBS
133,01062017,01062017,R,824603,200000.0,SB,01,057416,000000000000000000000000000000000000000000,   ,000,       ,00000000000000,RRN 715209400420/08222210036724@SYN,715209400420,CBS
133,01062017,01062017,D,824603,200000.0,SB,01,057416,000000000000000000000000000000000000000000,   ,000,       ,00000000000000,RRN 715209415350/08222210036724@SYN,715209415350,CBS
133,01062017,01062017,R,824603,200000.0,SB,01,057416,000000000000000000000000000000000000000000,   ,000,       ,00000000000000,RRN 715209415350/08222210036724@SYN,715209415350,CBS
619,01062017,01062017,D,824603,10000.0,SB,01,004012,000000000000000000000000000000000000000000,   ,000,       ,00000000000000,RRN 715210193202/061900101004012@CO,715210193202,CBS
619,01062017,01062017,R,824603,10000.0,SB,01,004012,000000000000000000000000000000000000000000,   ,000,       ,00000000000000,RRN 715210193202/061900101004012@CO,715210193202,CBS
332,01062017,01062017,D,824603,2000000.0,SB,01,295510,000000000000000000000000000000000000000000,   ,000,       ,00000000000000,RRN 715210909673/00600340000546@hdf,715210909673,CBS
332,01062017,01062017,R,824603,2000000.0,SB,01,295510,000000000000000000000000000000000000000000,   ,000,       ,00000000000000,RRN 715210909673/00600340000546@hdf,715210909673,CBS
332,01062017,01062017,D,824603,2000000.0,SB,01,295510,000000000000000000000000000000000000000000,   ,000,       ,00000000000000,RRN 715210910032/00600340000546@hdf,715210910032,CBS
332,01062017,01062017,R,824603,2000000.0,SB,01,295510,000000000000000000000000000000000000000000,   ,000,       ,00000000000000,RRN 715210910032/00600340000546@hdf,715210910032,CBS
762,01062017,01062017,D,824603,20000.0,SB,01,003721,000000000000000000000000000000000000000000,   ,000,       ,00000000000000,RRN 715211104082/076200101003043@CO,715211104082,CBS
762,01062017,01062017,R,824603,20000.0,SB,01,003721,000000000000000000000000000000000000000000,   ,000,       ,00000000000000,RRN 715211104082/076200101003043@CO,715211104082,CBS
3210,01062017,01062017,D,824603,400000.0,SB,01,005429,000000000000000000000000000000000000000000,   ,000,       ,00000000000000,RRN 715211362329/1040010100434@UTBI,715211362329,CBS
3210,01062017,01062017,R,824603,400000.0,SB,01,005429,000000000000000000000000000000000000000000,   ,000,       ,00000000000000,RRN 715211362329/1040010100434@UTBI,715211362329,CBS
507,01062017,01062017,D,824603,30000.0,SB,01,019648,000000000000000000000000000000000000000000,   ,000,       ,00000000000000,RRN 715211524236/9538194738@upi/(SH,715211524236,CBS
507,01062017,01062017,R,824603,30000.0,SB,01,019648,000000000000000000000000000000000000000000,   ,000,       ,00000000000000,RRN 715211524236/9538194738@upi/(SH,715211524236,CBS
332,01062017,01062017,D,824603,2000000.0,SB,01,295510,000000000000000000000000000000000000000000,   ,000,       ,00000000000000,RRN 715211912575/00600340000546@hdf,715211912575,CBS
332,01062017,01062017,R,824603,2000000.0,SB,01,295510,000000000000000000000000000000000000000000,   ,000,       ,00000000000000,RRN 715211912575/00600340000546@hdf,715211912575,CBS
332,01062017,01062017,D,824603,2000000.0,SB,01,295510,000000000000000000000000000000000000000000,   ,000,       ,00000000000000,RRN 715211917822/00600340000546@hdf,715211917822,CBS
332,01062017,01062017,R,824603,2000000.0,SB,01,295510,000000000000000000000000000000000000000000,   ,000,       ,00000000000000,RRN 715211917822/00600340000546@hdf,715211917822,CBS
287,01062017,01062017,D,824603,100000.0,CA,01,002277,000000000000000000000000000000000000000000,   ,000,       ,00000000000000,RRN 715212002103/150905708@HSBC0560,715212002103,CBS
287,01062017,01062017,R,824603,100000.0,CA,01,002277,000000000000000000000000000000000000000000,   ,000,       ,00000000000000,RRN 715212002103/150905708@HSBC0560,715212002103,CBS
280,01062017,01062017,D,824603,10000.0,SB,01,022155,000000000000000000000000000000000000000000,   ,000,       ,00000000000000,RRN 715212150360/02800010114004@COR,715212150360,CBS
280,01062017,01062017,R,824603,10000.0,SB,01,022155,000000000000000000000000000000000000000000,   ,000,       ,00000000000000,RRN 715212150360/02800010114004@COR,715212150360,CBS
280,01062017,01062017,D,824603,400000.0,SB,01,022155,000000000000000000000000000000000000000000,   ,000,       ,00000000000000,RRN 715212180224/028000101140040@CO,715212180224,CBS
280,01062017,01062017,R,824603,400000.0,SB,01,022155,000000000000000000000000000000000000000000,   ,000,       ,00000000000000,RRN 715212180224/028000101140040@CO,715212180224,CBS
1105,01062017,01062017,D,824603,2000.0,SB,01,002665,000000000000000000000000000000000000000000,   ,000,       ,00000000000000,RRN 715212214724/110500101009713@CO,715212214724,CBS
1105,01062017,01062017,R,824603,2000.0,SB,01,002665,000000000000000000000000000000000000000000,   ,000,       ,00000000000000,RRN 715212214724/110500101009713@CO,715212214724,CBS
3280,01062017,01062017,D,824603,200000.0,SB,01,001289,000000000000000000000000000000000000000000,   ,000,       ,00000000000000,RRN 715212224062/20146500316@SBIN00,715212224062,CBS
3280,01062017,01062017,R,824603,200000.0,SB,01,001289,000000000000000000000000000000000000000000,   ,000,       ,00000000000000,RRN 715212224062/20146500316@SBIN00,715212224062,CBS
1274,01062017,01062017,D,824603,490000.0,SB,01,013555,000000000000000000000000000000000000000000,   ,000,       ,00000000000000,RRN 715212260875/32937767126@SBIN00,715212260875,CBS
1274,01062017,01062017,R,824603,490000.0,SB,01,013555,000000000000000000000000000000000000000000,   ,000,       ,00000000000000,RRN 715212260875/32937767126@SBIN00,715212260875,CBS
2111,01062017,01062017,D,824603,182400.0,SB,01,005125,000000000000000000000000000000000000000000,   ,000,       ,00000000000000,RRN 715212310010/sachinkjayan@upi/(,715212310010,CBS
2111,01062017,01062017,R,824603,182400.0,SB,01,005125,000000000000000000000000000000000000000000,   ,000,       ,00000000000000,RRN 715212310010/sachinkjayan@upi/(,715212310010,CBS
705,01062017,01062017,D,824603,2000000.0,SB,01,030629,000000000000000000000000000000000000000000,   ,000,       ,00000000000000,RRN 715212352416/32214832087@SBIN00,715212352416,CBS
705,01062017,01062017,R,824603,2000000.0,SB,01,030629,000000000000000000000000000000000000000000,   ,000,       ,00000000000000,RRN 715212352416/32214832087@SBIN00,715212352416,CBS
1262,01062017,01062017,D,824603,200.0,SB,01,003333,000000000000000000000000000000000000000000,   ,000,       ,00000000000000,RRN 715212354680/218855560362@aadha,715212354680,CBS
1262,01062017,01062017,R,824603,200.0,SB,01,003333,000000000000000000000000000000000000000000,   ,000,       ,00000000000000,RRN 715212354680/218855560362@aadha,715212354680,CBS
774,01062017,01062017,D,824603,600000.0,SB,01,012879,000000000000000000000000000000000000000000,   ,000,       ,00000000000000,RRN 715212363618/7843041101@upi/(Mr,715212363618,CBS
774,01062017,01062017,R,824603,600000.0,SB,01,012879,000000000000000000000000000000000000000000,   ,000,       ,00000000000000,RRN 715212363618/7843041101@upi/(Mr,715212363618,CBS
1262,01062017,01062017,D,824603,200.0,SB,01,003333,000000000000000000000000000000000000000000,   ,000,       ,00000000000000,RRN 715212365149/218855560362@aadha,715212365149,CBS
1262,01062017,01062017,R,824603,200.0,SB,01,003333,000000000000000000000000000000000000000000,   ,000,       ,00000000000000,RRN 715212365149/218855560362@aadha,715212365149,CBS
1726,01062017,01062017,D,824603,2000.0,SB,01,004564,000000000000000000000000000000000000000000,   ,000,       ,00000000000000,RRN 715212393311/8095925419@upi/(KA,715212393311,CBS
1726,01062017,01062017,R,824603,2000.0,SB,01,004564,000000000000000000000000000000000000000000,   ,000,       ,00000000000000,RRN 715212393311/8095925419@upi/(KA,715212393311,CBS
190,01062017,01062017,D,824603,100000.0,SB,01,009910,000000000000000000000000000000000000000000,   ,000,       ,00000000000000,RRN 715212402868/20195997793@SBIN00,715212402868,CBS
190,01062017,01062017,R,824603,100000.0,SB,01,009910,000000000000000000000000000000000000000000,   ,000,       ,00000000000000,RRN 715212402868/20195997793@SBIN00,715212402868,CBS
323,01062017,01062017,D,824603,60000.0,SB,01,026912,000000000000000000000000000000000000000000,   ,000,       ,00000000000000,RRN 715212422334/8083402772@ybl/(DH,715212422334,CBS
323,01062017,01062017,R,824603,60000.0,SB,01,026912,000000000000000000000000000000000000000000,   ,000,       ,00000000000000,RRN 715212422334/8083402772@ybl/(DH,715212422334,CBS
450,01062017,01062017,D,824603,1000000.0,SB,01,018624,000000000000000000000000000000000000000000,   ,000,       ,00000000000000,RRN 715212425678/30808071823@SBIN00,715212425678,CBS
450,01062017,01062017,R,824603,1000000.0,SB,01,018624,000000000000000000000000000000000000000000,   ,000,       ,00000000000000,RRN 715212425678/30808071823@SBIN00,715212425678,CBS
1419,01062017,01062017,D,824603,2000000.0,ECOD,02,160001,000000000000000000000000000000000000000000,   ,000,       ,00000000000000,RRN 715212432099/10370703176@SBIN00,715212432099,CBS
1419,01062017,01062017,R,824603,2000000.0,ECOD,02,160001,000000000000000000000000000000000000000000,   ,000,       ,00000000000000,RRN 715212432099/10370703176@SBIN00,715212432099,CBS
506,01062017,01062017,D,824603,500000.0,SB,01,009484,000000000000000000000000000000000000000000,   ,000,       ,00000000000000,RRN 715212452101/9211221171@upi/(PO,715212452101,CBS
506,01062017,01062017,R,824603,500000.0,SB,01,009484,000000000000000000000000000000000000000000,   ,000,       ,00000000000000,RRN 715212452101/9211221171@upi/(PO,715212452101,CBS
1433,01062017,01062017,D,824603,400000.0,CBCA,01,000396,000000000000000000000000000000000000000000,   ,000,       ,00000000000000,RRN 715212454102/11620924039@SBIN00,715212454102,CBS
1433,01062017,01062017,D,824603,400000.0,CBCA,01,000396,000000000000000000000000000000000000000000,   ,000,       ,00000000000000,RRN 715212454102/11620924039@SBIN00,715212454102,CBS
1433,01062017,01062017,R,824603,400000.0,CBCA,01,000396,000000000000000000000000000000000000000000,   ,000,       ,00000000000000,RRN 715212454102/11620924039@SBIN00,715212454102,CBS
1433,01062017,01062017,R,824603,400000.0,CBCA,01,000396,000000000000000000000000000000000000000000,   ,000,       ,00000000000000,RRN 715212454102/11620924039@SBIN00,715212454102,CBS
1726,01062017,01062017,D,824603,2000.0,SB,01,004564,000000000000000000000000000000000000000000,   ,000,       ,00000000000000,RRN 715212474495/8095925419@upi/(KA,715212474495,CBS
1726,01062017,01062017,R,824603,2000.0,SB,01,004564,000000000000000000000000000000000000000000,   ,000,       ,00000000000000,RRN 715212474495/8095925419@upi/(KA,715212474495,CBS
506,01062017,01062017,D,824603,500000.0,SB,01,009484,000000000000000000000000000000000000000000,   ,000,       ,00000000000000,RRN 715212475789/9211221171@upi/(PO,715212475789,CBS
506,01062017,01062017,R,824603,500000.0,SB,01,009484,000000000000000000000000000000000000000000,   ,000,       ,00000000000000,RRN 715212475789/9211221171@upi/(PO,715212475789,CBS
474,01062017,01062017,D,824603,1000000.0,SB,01,013618,000000000000000000000000000000000000000000,   ,000,       ,00000000000000,RRN 715212490618/33965364886@SBIN00,715212490618,CBS
474,01062017,01062017,R,824603,1000000.0,SB,01,013618,000000000000000000000000000000000000000000,   ,000,       ,00000000000000,RRN 715212490618/33965364886@SBIN00,715212490618,CBS
1998,01062017,01062017,D,824603,2000000.0,CBCA,01,000090,000000000000000000000000000000000000000000,   ,000,       ,00000000000000,RRN 715212919504/32965986021@sbin00,715212919504,CBS
1998,01062017,01062017,R,824603,2000000.0,CBCA,01,000090,000000000000000000000000000000000000000000,   ,000,       ,00000000000000,RRN 715212919504/32965986021@sbin00,715212919504,CBS
1998,01062017,01062017,D,824603,2000000.0,CBCA,01,000090,000000000000000000000000000000000000000000,   ,000,       ,00000000000000,RRN 715212921777/32965986021@sbin00,715212921777,CBS
1998,01062017,01062017,R,824603,2000000.0,CBCA,01,000090,000000000000000000000000000000000000000000,   ,000,       ,00000000000000,RRN 715212921777/32965986021@sbin00,715212921777,CBS
419,01062017,01062017,D,824603,200.0,SB,01,017348,000000000000000000000000000000000000000000,   ,000,       ,00000000000000,RRN 715214933754/30179407156@sbin00,715214933754,CBS
419,01062017,01062017,R,824603,200.0,SB,01,017348,000000000000000000000000000000000000000000,   ,000,       ,00000000000000,RRN 715214933754/30179407156@sbin00,715214933754,CBS
705,01062017,01062017,D,824603,4000000.0,SB,01,001684,000000000000000000000000000000000000000000,   ,000,       ,00000000000000,RRN 715217069613/7259965657@upi/(SA,715217069613,CBS
705,01062017,01062017,R,824603,4000000.0,SB,01,001684,000000000000000000000000000000000000000000,   ,000,       ,00000000000000,RRN 715217069613/7259965657@upi/(SA,715217069613,CBS
705,01062017,01062017,D,824603,4000000.0,SB,01,001684,000000000000000000000000000000000000000000,   ,000,       ,00000000000000,RRN 715217069914/7259965657@upi/(SA,715217069914,CBS
705,01062017,01062017,R,824603,4000000.0,SB,01,001684,000000000000000000000000000000000000000000,   ,000,       ,00000000000000,RRN 715217069914/7259965657@upi/(SA,715217069914,CBS
1403,01062017,01062017,D,824603,1600000.0,SB,01,003958,000000000000000000000000000000000000000000,   ,000,       ,00000000000000,RRN 715218463719/393800010113302@PU,715218463719,CBS
1403,01062017,01062017,R,824603,1600000.0,SB,01,003958,000000000000000000000000000000000000000000,   ,000,       ,00000000000000,RRN 715218463719/393800010113302@PU,715218463719,CBS
056,01062017,01062017,D,824603,1206600.0,SB,01,050771,000000000000000000000000000000000000000000,   ,000,       ,00000000000000,RRN 715219706701/000004142210002407,715219706701,CBS
056,01062017,01062017,R,824603,1206600.0,SB,01,050771,000000000000000000000000000000000000000000,   ,000,       ,00000000000000,RRN 715219706701/000004142210002407,715219706701,CBS
3454,01062017,01062017,D,824603,60000.0,SB,01,001597,000000000000000000000000000000000000000000,   ,000,       ,00000000000000,RRN 715220367829/7339096991@ybl/(SI,715220367829,CBS
3454,01062017,01062017,R,824603,60000.0,SB,01,001597,000000000000000000000000000000000000000000,   ,000,       ,00000000000000,RRN 715220367829/7339096991@ybl/(SI,715220367829,CBS
3454,01062017,01062017,D,824603,20000.0,SB,01,001597,000000000000000000000000000000000000000000,   ,000,       ,00000000000000,RRN 715221030287/7339096991@ybl/(SI,715221030287,CBS
3454,01062017,01062017,R,824603,20000.0,SB,01,001597,000000000000000000000000000000000000000000,   ,000,       ,00000000000000,RRN 715221030287/7339096991@ybl/(SI,715221030287,CBS
056,01062017,01062017,D,824603,1206600.0,SB,01,050771,000000000000000000000000000000000000000000,   ,000,       ,00000000000000,RRN 715222063080/000004142210002407,715222063080,CBS
056,01062017,01062017,R,824603,1206600.0,SB,01,050771,000000000000000000000000000000000000000000,   ,000,       ,00000000000000,RRN 715222063080/000004142210002407,715222063080,CBS
532,01062017,01062017,D,824603,1000000.0,SB,01,038209,000000000000000000000000000000000000000000,   ,000,       ,00000000000000,RRN 715222268027/141810000000000039,715222268027,CBS
532,01062017,01062017,R,824603,1000000.0,SB,01,038209,000000000000000000000000000000000000000000,   ,000,       ,00000000000000,RRN 715222268027/141810000000000039,715222268027,CBS
1311,01062017,01062017,D,824603,200.0,SB,01,010307,000000000000000000000000000000000000000000,   ,000,       ,00000000000000,RRN 715222806833/82380100008442@PUN,715222806833,CBS
1311,01062017,01062017,R,824603,200.0,SB,01,010307,000000000000000000000000000000000000000000,   ,000,       ,00000000000000,RRN 715222806833/82380100008442@PUN,715222806833,CBS
056,01062017,01062017,D,824603,1206600.0,SB,01,050771,000000000000000000000000000000000000000000,   ,000,       ,00000000000000,RRN 715222808738/000004142210002407,715222808738,CBS
056,01062017,01062017,R,824603,1206600.0,SB,01,050771,000000000000000000000000000000000000000000,   ,000,       ,00000000000000,RRN 715222808738/000004142210002407,715222808738,CBS
429,01062017,01062017,D,824603,2000000.0,SB,01,070299,000000000000000000000000000000000000000000,   ,000,       ,00000000000000,RRN 715234530742/gaikwadnikhil@ybl/,715234530742,CBS
260,01062017,01062017,D,824603,2000000.0,SB,01,012228,000000000000000000000000000000000000000000,   ,000,       ,00000000000000,RRN 715236554885/20326894454@SBIN00,715236554885,CBS
260,01062017,01062017,R,824603,2000000.0,SB,01,012228,000000000000000000000000000000000000000000,   ,000,       ,00000000000000,RRN 715236554885/20326894454@SBIN00,715236554885,CBS
3454,01062017,01062017,D,824603,60000.0,SB,01,001597,000000000000000000000000000000000000000000,   ,000,       ,00000000000000,RRN 715240030557/7339096991@ybl/(SI,715240030557,CBS
3454,01062017,01062017,R,824603,60000.0,SB,01,001597,000000000000000000000000000000000000000000,   ,000,       ,00000000000000,RRN 715240030557/7339096991@ybl/(SI,715240030557,CBS
3454,01062017,01062017,D,824603,60000.0,SB,01,001597,000000000000000000000000000000000000000000,   ,000,       ,00000000000000,RRN 715240345117/7339096991@ybl/(SI,715240345117,CBS
3454,01062017,01062017,R,824603,60000.0,SB,01,001597,000000000000000000000000000000000000000000,   ,000,       ,00000000000000,RRN 715240345117/7339096991@ybl/(SI,715240345117,CBS
2935,01062017,01062017,D,824603,20000.0,SB,01,004003,000000000000000000000000000000000000000000,   ,000,       ,00000000000000,RRN 715240777867/36821290360@SBIN00,715240777867,CBS
2935,01062017,01062017,R,824603,20000.0,SB,01,004003,000000000000000000000000000000000000000000,   ,000,       ,00000000000000,RRN 715240777867/36821290360@SBIN00,715240777867,CBS
203,01062017,01062017,D,824603,100000.0,SB,01,012160,000000000000000000000000000000000000000000,   ,000,       ,00000000000000,RRN 715251898502/9010500270@ybl/(KU,715251898502,CBS
203,01062017,01062017,R,824603,100000.0,SB,01,012160,000000000000000000000000000000000000000000,   ,000,       ,00000000000000,RRN 715251898502/9010500270@ybl/(KU,715251898502,CBS
1407,01062017,01062017,D,824603,100.0,SB,01,003275,000000000000000000000000000000000000000000,   ,000,       ,00000000000000,RRN 715257507364/8602116221@ybl/(Mr,715257507364,CBS
2935,01062017,01062017,D,824603,20000.0,SB,01,004003,000000000000000000000000000000000000000000,   ,000,       ,00000000000000,RRN 715260667208/33994283049@SBIN00,715260667208,CBS
2935,01062017,01062017,R,824603,20000.0,SB,01,004003,000000000000000000000000000000000000000000,   ,000,       ,00000000000000,RRN 715260667208/33994283049@SBIN00,715260667208,CBS
3454,01062017,01062017,D,824603,60000.0,SB,01,001597,000000000000000000000000000000000000000000,   ,000,       ,00000000000000,RRN 715260682038/7339096991@ybl/(SI,715260682038,CBS
3454,01062017,01062017,R,824603,60000.0,SB,01,001597,000000000000000000000000000000000000000000,   ,000,       ,00000000000000,RRN 715260682038/7339096991@ybl/(SI,715260682038,CBS
440,01062017,01062017,D,824603,1000000.0,SB,01,101583,000000000000000000000000000000000000000000,   ,000,       ,00000000000000,RRN 715266205714/20071185681@SBIN00,715266205714,CBS
440,01062017,01062017,R,824603,1000000.0,SB,01,101583,000000000000000000000000000000000000000000,   ,000,       ,00000000000000,RRN 715266205714/20071185681@SBIN00,715266205714,CBS
424,01062017,01062017,D,824603,300000.0,SB,01,008524,000000000000000000000000000000000000000000,   ,000,       ,00000000000000,RRN 715268080313/1695001010000005@C,715268080313,CBS
424,01062017,01062017,R,824603,300000.0,SB,01,008524,000000000000000000000000000000000000000000,   ,000,       ,00000000000000,RRN 715268080313/1695001010000005@C,715268080313,CBS
1573,01062017,01062017,D,824603,1000000.0,SB,01,002960,000000000000000000000000000000000000000000,   ,000,       ,00000000000000,RRN 715268363061/34313918901@SBIN00,715268363061,CBS
1573,01062017,01062017,R,824603,1000000.0,SB,01,002960,000000000000000000000000000000000000000000,   ,000,       ,00000000000000,RRN 715268363061/34313918901@SBIN00,715268363061,CBS
056,01062017,01062017,D,824603,1206600.0,SB,01,050771,000000000000000000000000000000000000000000,   ,000,       ,00000000000000,RRN 715276123895/000004142210002407,715276123895,CBS
056,01062017,01062017,R,824603,1206600.0,SB,01,050771,000000000000000000000000000000000000000000,   ,000,       ,00000000000000,RRN 715276123895/000004142210002407,715276123895,CBS
