TRANSACTION_DATE|BRANCH_CODE|BRANCH_NAME|TO_ACCOUNT_NUMBER|SARVATHRA_ACCOUNT_NO|TRANSACTION_DESCRIPTION|VALUE_DATE|AMOUNT|CREDIT_DEBIT|REF_TXN_NO|CBS_PROCESSING_TIME|CRTD_DATE
07-07-2018 16:33:21|9999|HEAD OFFICE|200000557125    |200000508890    |IMP 818816240335 Toll Dr - 200000557125 - ELAYARAJA  R|07-07-2018|20000|D|FOS2018070716332095540335               |07-07-2018 16:33:21
07-07-2018 15:45:04|9999|HEAD OFFICE|100000648358    |200000508890    |IMP 818815428430 P2A Dr - 100000648358 - GUNASEKARAN K|07-07-2018|500|D|FOS2018070715450316228430               |07-07-2018 15:45:04
07-07-2018 15:04:31|9999|HEAD OFFICE|100003464116    |200000508890    |IMP 818815237140 TEST Dr - 100003464116 - ANIL KUMAR|07-07-2018|1|D|FOS2018070715043140937140               |07-07-2018 15:04:31
07-07-2018 14:59:25|9999|HEAD OFFICE|100001906355    |200000508890    |IMP 818814412628 P2A Dr - 100001906355 - M  RAJKUMAR|07-07-2018|60000|D|FOS2018070714592442412628               |07-07-2018 14:59:25
07-07-2018 14:30:50|9999|HEAD OFFICE|100003427629    |200000508890    |IMP 818814199143 karthi Dr - 100003427629 - KARTHIKEYAN  R|07-07-2018|5000|D|FOS2018070714295340399143               |07-07-2018 14:30:50
07-07-2018 17:00:51|9999|HEAD OFFICE|100003032934    |200000508890    |IMP 818817788948 MOBUA77292561 Dr - 100003032934 - PARVEEN|07-07-2018|1050|D|FOS2018070717004907188948               |07-07-2018 17:00:51
07-07-2018 16:42:10|9999|HEAD OFFICE|100000993199    |200000508890    |IMP 818816447719 madan Dr - 100000993199 - MADAN LAL SAINI|07-07-2018|6000|D|FOS2018070716420945247719               |07-07-2018 16:42:10
07-07-2018 15:48:31|9999|HEAD OFFICE|200000542542    |200000508890    |IMP 818815123530 Deposit Dr - 200000542542 - KRISHNA TEXTILES READYMADES|07-07-2018|3000|D|FOS2018070715483067223530               |07-07-2018 15:48:31
07-07-2018 14:25:48|9999|HEAD OFFICE|100003239750    |200000508890    |IMP 818814734487 INETIMPS00057931390 Dr - 100003239750 - LINGESH S|07-07-2018|1000|D|FOS2018070714254650834487               |07-07-2018 14:25:48
07-07-2018 17:24:38|9999|HEAD OFFICE|100001879292    |200000508890    |IMP 818817258219 Anand Dr - 100001879292 - RAKASH RAJA|07-07-2018|6000|D|FOS2018070717243770458219               |07-07-2018 17:24:38
07-07-2018 15:18:28|9999|HEAD OFFICE|200000225829    |200000508890    |IMP 818815003335 Account validation Dr - 200000225829 - DURGA LAL GURJAR|07-07-2018|1|D|FOS2018070715182760603335               |07-07-2018 15:18:28
07-07-2018 15:20:46|9999|HEAD OFFICE|200000225829    |200000508890    |IMP 818815003733 190321074 Dr - 200000225829 - DURGA LAL GURJAR|07-07-2018|5000|D|FOS2018070715204186903733               |07-07-2018 15:20:46
07-07-2018 14:13:47|9999|HEAD OFFICE|100003560569    |200000508890    |IMP 818814050999 IMPS Dr - 100003560569 - MICHAEL VALAN|07-07-2018|1|D|FOS2018070714134541250999               |07-07-2018 14:13:47
07-07-2018 16:18:24|9999|HEAD OFFICE|100000918144    |200000508890    |IMP 818816203319 IMPS P2A null Dr - 100000918144 - AASTHA CREDIT CO OPERATIVE SOCIETY LTD|07-07-2018|2300|D|FOS2018070716182298003319               |07-07-2018 16:18:24
07-07-2018 17:03:33|9999|HEAD OFFICE|100003679030    |200000508890    |IMP 818817454737 P2A Dr - 100003679030 - SATHISHKUMAR SIVASUBRAMANIYAM|07-07-2018|7000|D|FOS2018070717032538454737               |07-07-2018 17:03:33
07-07-2018 17:03:00|9999|HEAD OFFICE|200000510717    |200000508890    |IMP 818817789821 MOBUA77293167 Dr - 200000510717 - BHUVAN MILK PARLOR|07-07-2018|11960|D|FOS2018070717030046589821               |07-07-2018 17:03:00
07-07-2018 16:33:14|9999|HEAD OFFICE|100000898105    |200000508890    |IMP 818816260761 P2A Dr - 100000898105 - VIGNESH PRABHU M|07-07-2018|4000|D|FOS2018070716331340260761               |07-07-2018 16:33:14
07-07-2018 14:06:53|9999|HEAD OFFICE|100000256661    |200000508890    |IMP 818814727758 INETIMPS00057929073 Dr - 100000256661 - LAKSHMI  R|07-07-2018|6500|D|FOS2018070714064122227758               |07-07-2018 14:06:53
07-07-2018 17:28:26|9999|HEAD OFFICE|100003480340    |200000508890    |IMP 818817177202 Saving Dr - 100003480340 - DEEPTI KIRAN PARIYA|07-07-2018|50000|D|FOS2018070717282537877202               |07-07-2018 17:28:26
07-07-2018 16:07:32|9999|HEAD OFFICE|100003144374    |200000508890    |IMP 818816300994 P2A Dr - 100003144374 - VIJAYA KUMAR KAJA|07-07-2018|2500|D|FOS2018070716073219300994               |07-07-2018 16:07:32
07-07-2018 16:10:24|9999|HEAD OFFICE|100001198574    |200000508890    |IMP 818816766741 REFUND FROM MYNTRA Dr - 100001198574 - AGNA JAYESH KUMAR CH|07-07-2018|544.95|D|FOS2018070716101934166741               |07-07-2018 16:10:24
07-07-2018 16:34:26|9999|HEAD OFFICE|200000564758    |200000508890    |IMP 818816427515 P2A Dr - 200000564758 - SRI SAI GANESH PAPERS|07-07-2018|50000|D|FOS2018070716342524227515               |07-07-2018 16:34:26
07-07-2018 14:01:51|9999|HEAD OFFICE|100003309923    |200000508890    |IMP 818814392394 P2A Dr - 100003309923 - ANITA RAHUL DESHPANDE|07-07-2018|6500|D|FOS2018070714014944292394               |07-07-2018 14:01:51
07-07-2018 14:19:49|9999|HEAD OFFICE|100003229199    |200000508890    |IMP 818814398644 P2A Dr - 100003229199 - MANOHARAN  P|07-07-2018|30000|D|FOS2018070714194945198644               |07-07-2018 14:19:49
07-07-2018 14:28:49|9999|HEAD OFFICE|200000486652    |200000508890    |IMP 818814778652 dharma Dr - 200000486652 - THAMARAIKKANNI M|07-07-2018|1350|D|FOS2018070714284869778652               |07-07-2018 14:28:49
07-07-2018 16:56:36|9999|HEAD OFFICE|100000897184    |200000508890    |IMP 818816452162 P2A Dr - 100000897184 - PRAGADEESH  S|07-07-2018|2000|D|FOS2018070716554712352162               |07-07-2018 16:56:36
07-07-2018 15:18:58|9999|HEAD OFFICE|100003149060    |200000508890    |IMP 818815072086 to Benchmark Dr - 100003149060 - MANIVANNAN M|07-07-2018|20000|D|FOS2018070715185249572086               |07-07-2018 15:18:58
07-07-2018 14:18:16|9999|HEAD OFFICE|100003750870    |200000508890    |IMP 818814398102 P2A Dr - 100003750870 - UJWALA CHANDRAKANT KORE|07-07-2018|5000|D|FOS2018070714181045398102               |07-07-2018 14:18:16
07-07-2018 15:06:23|9999|HEAD OFFICE|100002561926    |200000508890    |IMP 818815211206 ESFB Dr - 100002561926 - CHINNA VENKATA REDDY VENNA|07-07-2018|300|D|FOS2018070715062200411206               |07-07-2018 15:06:23
07-07-2018 16:02:15|9999|HEAD OFFICE|200000601930    |200000508890    |IMP 818816769902 MOBUA77276431 Dr - 200000601930 - THE UNORGANISED EMPL|07-07-2018|10000|D|FOS2018070716015831969902               |07-07-2018 16:02:15
07-07-2018 17:00:30|9999|HEAD OFFICE|100003055014    |200000508890    |IMP 818817245602 labour payment Dr - 100003055014 - ARUNRAJ  S|07-07-2018|17150|D|FOS2018070717003029645602               |07-07-2018 17:00:30
07-07-2018 15:43:21|9999|HEAD OFFICE|100000131722    |200000508890    |IMP 818815427933 P2A Dr - 100000131722 - RANGASAMY  R|07-07-2018|1000|D|FOS2018070715432069127933               |07-07-2018 15:43:21
07-07-2018 17:04:46|9999|HEAD OFFICE|100001967000    |200000508890    |IMP 818817009352 comments Dr - 100001967000 - KAMDEV  GOSWAMI|07-07-2018|10000|D|FOS2018070717044505309352               |07-07-2018 17:04:46
07-07-2018 14:04:56|9999|HEAD OFFICE|100000530555    |200000508890    |IMP 818814588720 P2A Dr - 100000530555 - SANJAY  PATLE|07-07-2018|62400|D|FOS2018070714045341088720               |07-07-2018 14:04:56
07-07-2018 15:47:28|9999|HEAD OFFICE|200000523083    |200000508890    |IMP 818815471893 SA Dr - 200000523083 - GLOBAL A R S FASHION|07-07-2018|20000|D|FOS2018070715472584571893               |07-07-2018 15:47:28
07-07-2018 16:53:29|9999|HEAD OFFICE|100002570207    |200000508890    |IMP 818816348339 trf Dr - 100002570207 - JOHN  D|07-07-2018|13000|D|FOS2018070716525498748339               |07-07-2018 16:53:29
07-07-2018 16:44:36|9999|HEAD OFFICE|200000207805    |200000508890    |IMP 818816239783 P2A Dr - 200000207805 - MURUVAMMAL THANGARAJ|07-07-2018|5000|D|FOS2018070716443474339783               |07-07-2018 16:44:36
07-07-2018 16:44:40|9999|HEAD OFFICE|200000207805    |200000508890    |IMP 818816200503 P2A Dr - 200000207805 - MURUVAMMAL THANGARAJ|07-07-2018|1000|D|FOS2018070716443983000503               |07-07-2018 16:44:40
07-07-2018 16:34:13|9999|HEAD OFFICE|100000163621    |200000508890    |IMP 818816445032 P2A Dr - 100000163621 - SELVENDRAN  P|07-07-2018|1000|D|FOS2018070716341213545032               |07-07-2018 16:34:13
07-07-2018 16:57:40|9999|HEAD OFFICE|200000555940    |200000508890    |IMP 818816150251 EQ Dr - 200000555940 - RAJAMURUGAN  TRANSPORT|07-07-2018|50000|D|FOS2018070716573816450251               |07-07-2018 16:57:40
07-07-2018 14:51:45|9999|HEAD OFFICE|100003841846    |200000508890    |IMP 818814590144 GG2815309552769884240 Dr - 100003841846 - HANSRAJ CHOUDHARY|07-07-2018|1.11|D|FOS2018070714512224590144               |07-07-2018 14:51:45
07-07-2018 14:46:22|9999|HEAD OFFICE|100003841846    |200000508890    |IMP 818814576279 GG22415309549689382275 Dr - 100003841846 - HANSRAJ CHOUDHARY|07-07-2018|1.60|D|FOS2018070714461463976279               |07-07-2018 14:46:22
07-07-2018 14:20:06|9999|HEAD OFFICE|100003841846    |200000508890    |IMP 818814505217 GG8915309533986614894 Dr - 100003841846 - HANSRAJ CHOUDHARY|07-07-2018|1.75|D|FOS2018070714200440805217               |07-07-2018 14:20:06
07-07-2018 14:00:54|9999|HEAD OFFICE|100003646182    |200000508890    |IMP 818814449442 Cheked Dr - 100003646182 - MO HARUN NURULLAH ANSARI|07-07-2018|100|D|FOS2018070714005337749442               |07-07-2018 14:00:54
07-07-2018 17:00:28|9999|HEAD OFFICE|200000129608    |200000508890    |IMP 818817157159 abacus Dr - 200000129608 - UNIVERSAL  COMPUTERS|07-07-2018|760|D|FOS2018070717002455757159               |07-07-2018 17:00:28
07-07-2018 14:11:34|9999|HEAD OFFICE|100000190030    |200000508890    |IMP 818814573190 Arul Dr - 100000190030 - AJITH  A|07-07-2018|15900|D|FOS2018070714113243273190               |07-07-2018 14:11:34
07-07-2018 16:07:52|9999|HEAD OFFICE|100000743100    |200000508890    |IMP 818816796645 Family Dr - 100000743100 - NARAYAN SUBHASH POPL|07-07-2018|300|D|FOS2018070716075022796645               |07-07-2018 16:07:52
07-07-2018 17:07:28|9999|HEAD OFFICE|100000160420    |200000508890    |IMP 818817456086 P2A Dr - 100000160420 - SANKARA PANDIAMMAL  RM|07-07-2018|63|D|FOS2018070717072727256086               |07-07-2018 17:07:28
07-07-2018 16:22:46|9999|HEAD OFFICE|100000485720    |200000508890    |IMP 818816136624 spouse Dr - 100000485720 - SHANMUGAPRIYA  R|07-07-2018|7000|D|FOS2018070716224306036624               |07-07-2018 16:22:46
07-07-2018 15:40:11|9999|HEAD OFFICE|100001313495    |200000508890    |IMP 818815233900 m Dr - 100001313495 - B C RAVI|07-07-2018|8000|D|FOS2018070715400984433900               |07-07-2018 15:40:11
07-07-2018 15:52:14|9999|HEAD OFFICE|100001962472    |200000508890    |IMP 818815753685 FT180707155155964362 Dr - 100001962472 - MADHU P S|07-07-2018|769|D|FOS2018070715520069953685               |07-07-2018 15:52:14
07-07-2018 14:04:20|9999|HEAD OFFICE|100003345856    |200000508890    |IMP 818814891672 P2A Dr - 100003345856 - AKASH  RATHORE|07-07-2018|550|D|FOS2018070714041739291672               |07-07-2018 14:04:20
07-07-2018 14:24:49|9999|HEAD OFFICE|200000549480    |200000508890    |IMP 818814193925 TptKalptaru Rdlins Dr - 200000549480 - DOMESTIC ROAD CARRIERS|07-07-2018|14360|D|FOS2018070714244858693925               |07-07-2018 14:24:49
07-07-2018 16:09:30|9999|HEAD OFFICE|200000405054    |200000508890    |IMP 818816012191 14567218 Dr - 200000405054 - SIVA ATHIKESAVAN|07-07-2018|2765|D|FOS2018070716092941512191               |07-07-2018 16:09:30
07-07-2018 16:09:30|9999|HEAD OFFICE|200000405054    |200000508890    |IMP 818816012190 14567219 Dr - 200000405054 - SIVA ATHIKESAVAN|07-07-2018|2765|D|FOS2018070716092939812190               |07-07-2018 16:09:30
07-07-2018 15:40:11|9999|HEAD OFFICE|100002133118    |200000508890    |IMP 818815119858 DevanshSurana Dr - 100002133118 - BHANWAR  LAL|07-07-2018|6000|D|FOS2018070715400966819858               |07-07-2018 15:40:11
07-07-2018 16:11:52|9999|HEAD OFFICE|100000346326    |200000508890    |IMP 818816437686 P2A Dr - 100000346326 - NALINI GANDHI D|07-07-2018|10000|D|FOS2018070716115013637686               |07-07-2018 16:11:52
07-07-2018 15:54:15|9999|HEAD OFFICE|200000549103    |200000508890    |IMP 818815580305 MB UDHAR Dr - 200000549103 - MALIK TRADING COMPANY|07-07-2018|50000|D|FOS2018070715541479380305               |07-07-2018 15:54:15
07-07-2018 14:53:55|9999|HEAD OFFICE|100002729913    |200000508890    |IMP 818814745009 INETIMPS00057934021 Dr - 100002729913 - PRAKASH G R|07-07-2018|88740|D|FOS2018070714535528445009               |07-07-2018 14:53:55
07-07-2018 17:15:46|9999|HEAD OFFICE|100001764281    |200000508890    |IMP 818817153879 Sp Dr - 100001764281 - RADHAKRISHNAIAH  N|07-07-2018|4000|D|FOS2018070717154401853879               |07-07-2018 17:15:46
07-07-2018 14:43:27|9999|HEAD OFFICE|100002755653    |200000508890    |IMP 818814236113 sathya Dr - 100002755653 - ARUN A|07-07-2018|2900|D|FOS2018070714432522636113               |07-07-2018 14:43:27
07-07-2018 16:44:45|9999|HEAD OFFICE|200000333140    |200000508890    |IMP 818816896056 P2A Dr - 200000333140 - A D R  SUPPLIERS|07-07-2018|15000|D|FOS2018070716444552096056               |07-07-2018 16:44:45
07-07-2018 16:59:52|9999|HEAD OFFICE|200000703940    |200000508890    |IMP 818816350689 Invoice amount Dr - 200000703940 - I STEELS AND SCRAP TRADERS|07-07-2018|50000|D|FOS2018070716595007650689               |07-07-2018 16:59:52
07-07-2018 14:23:24|9999|HEAD OFFICE|200000710680    |200000508890    |IMP 818814863567 P2A Dr - 200000710680 - THAMARAISELVI PICHAI|07-07-2018|5000|D|FOS2018070714232436663567               |07-07-2018 14:23:24
07-07-2018 15:29:54|9999|HEAD OFFICE|200000540111    |200000508890    |IMP 818815423225 P2A Dr - 200000540111 - DHEERAN CRACKER SHOP|07-07-2018|67000|D|FOS2018070715295414223225               |07-07-2018 15:29:54
07-07-2018 15:53:02|9999|HEAD OFFICE|100003118382    |200000508890    |IMP 818815755895 Investment Dr - 100003118382 - PRIYADHARSHINI  R|07-07-2018|2000|D|FOS2018070715525510355895               |07-07-2018 15:53:02
07-07-2018 17:22:43|9999|HEAD OFFICE|100003256858    |200000508890    |IMP 818817257220 P2A Dr - 100003256858 - SANKARALINGAM  S|07-07-2018|10000|D|FOS2018070717224143857220               |07-07-2018 17:22:43
07-07-2018 14:46:48|9999|HEAD OFFICE|100002049974    |200000508890    |IMP 818814407991 P2A Dr - 100002049974 - NITIN BABARAO KATHOKE|07-07-2018|1000|D|FOS2018070714464532707991               |07-07-2018 14:46:48
07-07-2018 16:58:01|9999|HEAD OFFICE|100001993661    |200000508890    |IMP 818816980775 4464 Dr - 100001993661 - MANJUNATHA J|07-07-2018|1000|D|FOS2018070716575974080775               |07-07-2018 16:58:01
07-07-2018 15:41:03|9999|HEAD OFFICE|100000464895    |200000508890    |IMP 818815723830 Shopping Dr - 100000464895 - ANIL KUMAR B|07-07-2018|1600|D|FOS2018070715410292023830               |07-07-2018 15:41:03
07-07-2018 14:44:27|9999|HEAD OFFICE|200000528293    |200000508890    |IMP 818814450212 Ibuild teck pay Buildtech Dr - 200000528293 - BUILD TECH ENTERPRISES|07-07-2018|100000|D|FOS2018070714441494550212               |07-07-2018 14:44:27
07-07-2018 15:53:15|9999|HEAD OFFICE|100000227936    |200000508890    |IMP 818815431349 P2A Dr - 100000227936 - THIRUMENI  C|07-07-2018|800|D|FOS2018070715531362531349               |07-07-2018 15:53:15
07-07-2018 16:14:38|9999|HEAD OFFICE|100001302284    |200000508890    |IMP 818816773989 INETIMPS00057942591 Dr - 100001302284 - PONMUTHU RAMALINGAM |07-07-2018|2000|D|FOS2018070716142991273989               |07-07-2018 16:14:38
07-07-2018 16:52:08|9999|HEAD OFFICE|100001909121    |200000508890    |IMP 818816450922 hla Dr - 100001909121 - GAJANAN SHARAD TAMBA|07-07-2018|17000|D|FOS2018070716515941250922               |07-07-2018 16:52:08
07-07-2018 16:10:16|9999|HEAD OFFICE|100000346326    |200000508890    |IMP 818816437118 P2A Dr - 100000346326 - NALINI GANDHI D|07-07-2018|60400|D|FOS2018070716100645037118               |07-07-2018 16:10:16
07-07-2018 15:58:36|9999|HEAD OFFICE|200000549103    |200000508890    |IMP 818815581349 MB UDHAR Dr - 200000549103 - MALIK TRADING COMPANY|07-07-2018|50000|D|FOS2018070715583059681349               |07-07-2018 15:58:36
07-07-2018 15:43:03|9999|HEAD OFFICE|200000571996    |200000508890    |IMP 818815729590 for loan Dr - 200000571996 - DEUCE  ACADEMIES|07-07-2018|10000|D|FOS2018070715430249329590               |07-07-2018 15:43:03
07-07-2018 15:28:04|9999|HEAD OFFICE|200000463648    |200000508890    |IMP 818815107418 mk Dr - 200000463648 - VERY NICE KIDS ZONE AND GIFT HOUSE|07-07-2018|1000|D|FOS2018070715280435007418               |07-07-2018 15:28:04
07-07-2018 14:51:27|9999|HEAD OFFICE|100002524751    |200000508890    |IMP 818814409658 P2A Dr - 100002524751 - ZAHIDA|07-07-2018|1500|D|FOS2018070714512697009658               |07-07-2018 14:51:27
07-07-2018 14:01:08|9999|HEAD OFFICE|100000155052    |200000508890    |IMP 818814385800 emrg Dr - 100000155052 - KARTHIK  M|07-07-2018|300|D|FOS2018070714010637285800               |07-07-2018 14:01:08
07-07-2018 16:18:41|9999|HEAD OFFICE|200000742693    |200000508890    |IMP 818816826848 Ad EMC site Dr - 200000742693 - NOOR TRADERS|07-07-2018|50000|D|FOS2018070716183939526848               |07-07-2018 16:18:41
07-07-2018 14:38:32|9999|HEAD OFFICE|100002693510    |200000508890    |IMP 818814405221 P2A Dr - 100002693510 - SUNIL  RANA|07-07-2018|450|D|FOS2018070714382916105221               |07-07-2018 14:38:32
07-07-2018 16:05:27|9999|HEAD OFFICE|200000800418    |200000508890    |IMP 818816214631 Others Dr - 200000800418 - AGARWAL ELECTRONICS|07-07-2018|5700|D|FOS2018070716052742214631               |07-07-2018 16:05:27
07-07-2018 15:11:40|9999|HEAD OFFICE|200000364971    |200000508890    |IMP 818815192703 P2A Dr - 200000364971 - LAKSHMI CHANDRASEKAR|07-07-2018|4200|D|FOS2018070715113800392703               |07-07-2018 15:11:40
07-07-2018 17:28:19|9999|HEAD OFFICE|200000377520    |200000508890    |IMP 818817782868 P2A Dr - 200000377520 - J K  FURNITURES|07-07-2018|1700|D|FOS2018070717280284182868               |07-07-2018 17:28:19
07-07-2018 16:38:46|9999|HEAD OFFICE|200000244820    |200000508890    |IMP 818816313314 P2A Dr - 200000244820 - VIMALKUMAR JAYARAMAN|07-07-2018|1|D|FOS2018070716384463613314               |07-07-2018 16:38:46
07-07-2018 17:02:08|9999|HEAD OFFICE|100002346139    |200000508890    |IMP 818817246411 salary Dr - 100002346139 - PRAKASH  A|07-07-2018|1000|D|FOS2018070717020093446411               |07-07-2018 17:02:08
07-07-2018 15:46:36|9999|HEAD OFFICE|100000131722    |200000508890    |IMP 818815429002 P2A Dr - 100000131722 - RANGASAMY  R|07-07-2018|199000|D|FOS2018070715463500429002               |07-07-2018 15:46:36
07-07-2018 14:38:56|9999|HEAD OFFICE|100000000133    |200000508890    |IMP 818814186728 P2A Dr - 100000000133 - KAMAKSHINATHAN  ELAVAZHAGAN|07-07-2018|3000|D|FOS2018070714385428786728               |07-07-2018 14:38:56
07-07-2018 17:14:22|9999|HEAD OFFICE|200000473986    |200000508890    |IMP 818817458465 P2A Dr - 200000473986 - ZOOM  INN|07-07-2018|500|D|FOS2018070717141992258465               |07-07-2018 17:14:22
07-07-2018 15:37:20|9999|HEAD OFFICE|100003086886    |200000508890    |IMP 818815843610 tfr Dr - 100003086886 - SEEMA  KAPOOR|07-07-2018|5000|D|FOS2018070715371830243610               |07-07-2018 15:37:20
07-07-2018 14:16:05|9999|HEAD OFFICE|100001950974    |200000508890    |IMP 818814397330 P2A Dr - 100001950974 - MUTHAZHAGU  J|07-07-2018|5000|D|FOS2018070714160405397330               |07-07-2018 14:16:05
07-07-2018 14:20:22|9999|HEAD OFFICE|100000007275    |200000508890    |IMP 818814394085 Trf Dr - 100000007275 - SIVA KUMAR  M|07-07-2018|7500|D|FOS2018070714202129794085               |07-07-2018 14:20:22
07-07-2018 14:06:52|9999|HEAD OFFICE|200000300710    |200000508890    |IMP 818814734970 suman Dr - 200000300710 - SUMAN R|07-07-2018|10000|D|FOS2018070714060496934970               |07-07-2018 14:06:52
07-07-2018 14:19:32|9999|HEAD OFFICE|200000101478    |200000508890    |IMP 818814732086 MOBUA77242401 Dr - 200000101478 - PALPANDI R|07-07-2018|12000|D|FOS2018070714193108632086               |07-07-2018 14:19:32
07-07-2018 15:34:32|9999|HEAD OFFICE|200000447072    |200000508890    |IMP 818815203857 P2A Dr - 200000447072 - R V  STEEL|07-07-2018|34000|D|FOS2018070715342237903857               |07-07-2018 15:34:32
07-07-2018 14:13:27|9999|HEAD OFFICE|100003841846    |200000508890    |IMP 818814486726 GG8915309529990274818 Dr - 100003841846 - HANSRAJ CHOUDHARY|07-07-2018|1.96|D|FOS2018070714132556786726               |07-07-2018 14:13:27
07-07-2018 14:34:14|9999|HEAD OFFICE|100003841846    |200000508890    |IMP 818814542505 GG5915309542379972204 Dr - 100003841846 - HANSRAJ CHOUDHARY|07-07-2018|1.38|D|FOS2018070714340317842505               |07-07-2018 14:34:14
07-07-2018 14:40:11|9999|HEAD OFFICE|100003841846    |200000508890    |IMP 818814560495 GG8915309546026755110 Dr - 100003841846 - HANSRAJ CHOUDHARY|07-07-2018|1.24|D|FOS2018070714400798760495               |07-07-2018 14:40:11
07-07-2018 16:58:49|9999|HEAD OFFICE|200000791926    |200000508890    |IMP 818816453080 P2A Dr - 200000791926 - SKILL EDUCATION AND DEVELOPMENT ASSOCIAT|07-07-2018|2000|D|FOS2018070716582642153080               |07-07-2018 16:58:49
07-07-2018 15:27:42|9999|HEAD OFFICE|200000523834    |200000508890    |IMP 818815200593 tag Dr - 200000523834 - SRI SIVAM  TRANSPORT|07-07-2018|15000|D|FOS2018070715273460500593               |07-07-2018 15:27:42
07-07-2018 17:23:45|9999|HEAD OFFICE|200000027182    |200000508890    |IMP 818817233758 P2A Dr - 200000027182 - PREMKUMAR  M|07-07-2018|1500|D|FOS2018070717234311733758               |07-07-2018 17:23:45
07-07-2018 15:34:58|9999|HEAD OFFICE|100001937557    |200000508890    |IMP 818815756840 Viswanathan Dr - 100001937557 - VISWANATHAN  S|07-07-2018|1000|D|FOS2018070715345704156840               |07-07-2018 15:34:58
07-07-2018 15:29:45|9999|HEAD OFFICE|200000712530    |200000508890    |IMP 818815758092 MOBUA77265763 Dr - 200000712530 - P  CHINNAKKANNAN|07-07-2018|8300|D|FOS2018070715294438958092               |07-07-2018 15:29:45
07-07-2018 16:14:56|9999|HEAD OFFICE|100002181575    |200000508890    |IMP 818816240001 Dr - 100002181575 - AMZATH ALI S|07-07-2018|20000|D|FOS2018070716145503940001               |07-07-2018 16:14:56
07-07-2018 14:07:58|9999|HEAD OFFICE|200000529693    |200000508890    |IMP 818814728090 MOBUA77238922 Dr - 200000529693 - UNIQUE  STUDIO|07-07-2018|10000|D|FOS2018070714074419228090               |07-07-2018 14:07:58
07-07-2018 15:18:47|9999|HEAD OFFICE|100002694286    |200000508890    |IMP 818815664595 Monthly Dr - 100002694286 - RUSHIKESH PRAVIN DAGA|07-07-2018|3000|D|FOS2018070715184645964595               |07-07-2018 15:18:47
07-07-2018 14:47:23|9999|HEAD OFFICE|200000391207    |200000508890    |IMP 818814040422 IO6AD651 Dr - 200000391207 - ANBAZAGAN PERIYASAMI|07-07-2018|4000|D|FOS2018070714472217440422               |07-07-2018 14:47:23
07-07-2018 14:18:06|9999|HEAD OFFICE|100000145649    |200000508890    |IMP 818814167118 shankar Dr - 100000145649 - SHANKAR GANESH  P|07-07-2018|3000|D|FOS2018070714180520867118               |07-07-2018 14:18:06
07-07-2018 15:13:56|9999|HEAD OFFICE|100003094928    |200000508890    |IMP 818815263649 P2A Dr - 100003094928 - VARAPRASAD  PERAVALI|07-07-2018|300|D|FOS2018070715134609763649               |07-07-2018 15:13:56
07-07-2018 17:27:29|9999|HEAD OFFICE|200000555120    |200000508890    |IMP 818817272333 fastag Dr - 200000555120 - MONISHA  TRANS|07-07-2018|15000|D|FOS2018070717272881672333               |07-07-2018 17:27:29
07-07-2018 16:09:07|9999|HEAD OFFICE|100001773710    |200000508890    |IMP 818816780936 4146 Dr - 100001773710 - ANBAZHAGAN C|07-07-2018|13662|D|FOS2018070716090610180936               |07-07-2018 16:09:07
07-07-2018 16:36:35|9999|HEAD OFFICE|100000286730    |200000508890    |IMP 818816445803 P2A Dr - 100000286730 - PUSHPARAJAN  S|07-07-2018|300|D|FOS2018070716363322545803               |07-07-2018 16:36:35
07-07-2018 17:03:02|9999|HEAD OFFICE|100000022514    |200000508890    |IMP 818817149868 None Dr - 100000022514 - SAI SHANKAR GADEPALLI|07-07-2018|7108.60|D|FOS2018070717030158349868               |07-07-2018 17:03:02
07-07-2018 16:55:57|9999|HEAD OFFICE|100003362632    |200000508890    |IMP 818816925730 P2A Dr - 100003362632 - PRAHLAD  JAT|07-07-2018|5000|D|FOS2018070716554744625730               |07-07-2018 16:55:57
07-07-2018 16:22:20|9999|HEAD OFFICE|200000783461    |200000508890    |IMP 818816441151 P2A Dr - 200000783461 - D CHARU MOBILES|07-07-2018|27000|D|FOS2018070716221844141151               |07-07-2018 16:22:20
07-07-2018 14:07:10|9999|HEAD OFFICE|100003841846    |200000508890    |IMP 818814467120 GG8915309526146654746 Dr - 100003841846 - HANSRAJ CHOUDHARY|07-07-2018|1.21|D|FOS2018070714070055167120               |07-07-2018 14:07:10
07-07-2018 17:08:13|9999|HEAD OFFICE|200000292851    |200000508890    |IMP 818817249538 P2A Dr - 200000292851 - NATARAJAN  K|07-07-2018|15000|D|FOS2018070717081301149538               |07-07-2018 17:08:13
07-07-2018 14:07:16|9999|HEAD OFFICE|100003841846    |200000508890    |IMP 818814468026 GG8915309526279554749 Dr - 100003841846 - HANSRAJ CHOUDHARY|07-07-2018|1.52|D|FOS2018070714071578968026               |07-07-2018 14:07:16
07-07-2018 14:46:16|9999|HEAD OFFICE|100003841846    |200000508890    |IMP 818814575896 GG5915309549579462307 Dr - 100003841846 - HANSRAJ CHOUDHARY|07-07-2018|1.91|D|FOS2018070714460460975896               |07-07-2018 14:46:16
07-07-2018 14:56:44|9999|HEAD OFFICE|100003841846    |200000508890    |IMP 818814605548 GG22415309555976392360 Dr - 100003841846 - HANSRAJ CHOUDHARY|07-07-2018|1.41|D|FOS2018070714564351105548               |07-07-2018 14:56:44
07-07-2018 14:51:17|9999|HEAD OFFICE|100003841846    |200000508890    |IMP 818814589948 GG8915309552702805213 Dr - 100003841846 - HANSRAJ CHOUDHARY|07-07-2018|1.53|D|FOS2018070714511576089948               |07-07-2018 14:51:17
07-07-2018 14:26:29|9999|HEAD OFFICE|100003841846    |200000508890    |IMP 818814521309 GG5915309537728052130 Dr - 100003841846 - HANSRAJ CHOUDHARY|07-07-2018|1.07|D|FOS2018070714261835421309               |07-07-2018 14:26:29
07-07-2018 14:34:13|9999|HEAD OFFICE|100003841846    |200000508890    |IMP 818814543498 GG5915309542452002206 Dr - 100003841846 - HANSRAJ CHOUDHARY|07-07-2018|1.15|D|FOS2018070714341009743498               |07-07-2018 14:34:13
07-07-2018 15:47:06|9999|HEAD OFFICE|100000316305    |200000508890    |IMP 818815725114 Miscellaneous Dr - 100000316305 - MURUGAN K|07-07-2018|1500|D|FOS2018070715470494025114               |07-07-2018 15:47:06
07-07-2018 17:24:10|9999|HEAD OFFICE|100000104295    |200000508890    |IMP 818817461949 P2A Dr - 100000104295 - TAMMISETTI  CHANDRASEKHAR|07-07-2018|25000|D|FOS2018070717240802461949               |07-07-2018 17:24:10
07-07-2018 16:45:03|9999|HEAD OFFICE|200000026050    |200000508890    |IMP 818816448630 P2A Dr - 200000026050 - VIGNESH  ENTERPRISES|07-07-2018|17000|D|FOS2018070716450283448630               |07-07-2018 16:45:03
07-07-2018 16:19:14|9999|HEAD OFFICE|100000839176    |200000508890    |IMP 818816827663 Type your own Dr - 100000839176 - BHAGCHAND JAT|07-07-2018|8000|D|FOS2018070716191418027663               |07-07-2018 16:19:14
07-07-2018 14:46:00|9999|HEAD OFFICE|100002652201    |200000508890    |IMP 818814593261 ngshvec Dr - 100002652201 - MOHAMMED RAFI|07-07-2018|3000|D|FOS2018070714455431793261               |07-07-2018 14:46:00
07-07-2018 14:25:38|9999|HEAD OFFICE|100001173243    |200000508890    |IMP 818814145566 P2A Dr - 100001173243 - THANDAPANI S|07-07-2018|3000|D|FOS2018070714253696245566               |07-07-2018 14:25:38
07-07-2018 17:04:08|9999|HEAD OFFICE|200000744190    |200000508890    |IMP 818817948159 RJ014756 Dr - 200000744190 - BABU  CHEETA|07-07-2018|4000|D|FOS2018070717040641148159               |07-07-2018 17:04:08
07-07-2018 16:22:40|9999|HEAD OFFICE|200000688065    |200000508890    |IMP 818816776713 INETIMPS00003670955 Dr - 200000688065 - MARUTI TECH VISION|07-07-2018|15000|D|FOS2018070716223019376713               |07-07-2018 16:22:40
07-07-2018 16:33:46|9999|HEAD OFFICE|100003505800    |200000508890    |IMP 818816867306 Ser Dr - 100003505800 - RAM NARESH|07-07-2018|150000|D|FOS2018070716334539167306               |07-07-2018 16:33:46
07-07-2018 16:39:47|9999|HEAD OFFICE|200000244820    |200000508890    |IMP 818816536044 P2A Dr - 200000244820 - VIMALKUMAR JAYARAMAN|07-07-2018|1|D|FOS2018070716385431136044               |07-07-2018 16:39:47
07-07-2018 17:23:46|9999|HEAD OFFICE|100003313985    |200000508890    |IMP 818817604806 MB POSTER Dr - 100003313985 - AAKASH ANIL BORUDE|07-07-2018|1000|D|FOS2018070717233782704806               |07-07-2018 17:23:46
07-07-2018 15:58:09|9999|HEAD OFFICE|100003233767    |200000508890    |IMP 818815770060 Saving Dr - 100003233767 - J  MANOJ KUMAR|07-07-2018|26000|D|FOS2018070715580344270060               |07-07-2018 15:58:09
07-07-2018 17:16:16|9999|HEAD OFFICE|100000947099    |200000508890    |IMP 818817354628 personal Dr - 100000947099 - MANISH  BHURE|07-07-2018|8000|D|FOS2018070717161030554628               |07-07-2018 17:16:16
07-07-2018 14:08:00|9999|HEAD OFFICE|200000126905    |200000508890    |IMP 818814395675 Brick payment Dr - 200000126905 - SELVAN  AGENCIES|07-07-2018|34400|D|FOS2018070714075905395675               |07-07-2018 14:08:00
07-07-2018 17:11:01|9999|HEAD OFFICE|100003233739    |200000508890    |IMP 818817105611 Toll Charges Dr - 100003233739 - S SATHYA|07-07-2018|5000|D|FOS2018070717105840805611               |07-07-2018 17:11:01
07-07-2018 14:33:29|9999|HEAD OFFICE|100003087219    |200000508890    |IMP 818814235633 for Pradeep Dr - 100003087219 - SARASWATHI|07-07-2018|14000|D|FOS2018070714331525735633               |07-07-2018 14:33:29
07-07-2018 15:55:04|9999|HEAD OFFICE|200000252151    |200000508890    |IMP 818815310708 P2A Dr - 200000252151 - CHRIST HOLIDAYS AND TRAVELS|07-07-2018|15000|D|FOS2018070715550404110708               |07-07-2018 15:55:04
07-07-2018 16:53:00|9999|HEAD OFFICE|200000462340    |200000508890    |IMP 818816000032 P2A Dr - 200000462340 - ROYAL WELDING WORKS|07-07-2018|20000|D|FOS2018070716510703700032               |07-07-2018 16:53:00
07-07-2018 14:20:07|9999|HEAD OFFICE|100003841846    |200000508890    |IMP 818814505369 GG2815309534023633878 Dr - 100003841846 - HANSRAJ CHOUDHARY|07-07-2018|1.10|D|FOS2018070714200721005369               |07-07-2018 14:20:07
07-07-2018 14:34:10|9999|HEAD OFFICE|100003841846    |200000508890    |IMP 818814543165 GG8915309542309585053 Dr - 100003841846 - HANSRAJ CHOUDHARY|07-07-2018|1.71|D|FOS2018070714335619443165               |07-07-2018 14:34:10
07-07-2018 14:12:03|9999|HEAD OFFICE|100002754648    |200000508890    |IMP 818814481988 Account validation by Aditya Birla Mutual Fund Dr - 100002754648 - JAJULA HEMA SRI|07-07-2018|1|D|FOS2018070714120214581988               |07-07-2018 14:12:03
07-07-2018 14:26:54|9999|HEAD OFFICE|100003841846    |200000508890    |IMP 818814522502 GG5915309537763722134 Dr - 100003841846 - HANSRAJ CHOUDHARY|07-07-2018|1.19|D|FOS2018070714262125122502               |07-07-2018 14:26:54
07-07-2018 14:13:32|9999|HEAD OFFICE|100003841846    |200000508890    |IMP 818814486893 GG5915309530061541963 Dr - 100003841846 - HANSRAJ CHOUDHARY|07-07-2018|1.49|D|FOS2018070714133201486893               |07-07-2018 14:13:32
07-07-2018 14:40:50|9999|HEAD OFFICE|100003841846    |200000508890    |IMP 818814560885 GG22415309546126782241 Dr - 100003841846 - HANSRAJ CHOUDHARY|07-07-2018|1.27|D|FOS2018070714401836060885               |07-07-2018 14:40:50
07-07-2018 14:34:15|9999|HEAD OFFICE|100003841846    |200000508890    |IMP 818814544584 GG8915309542486095061 Dr - 100003841846 - HANSRAJ CHOUDHARY|07-07-2018|1.18|D|FOS2018070714341510544584               |07-07-2018 14:34:15
07-07-2018 14:34:17|9999|HEAD OFFICE|100003841846    |200000508890    |IMP 818814543241 GG8915309542345865055 Dr - 100003841846 - HANSRAJ CHOUDHARY|07-07-2018|1.94|D|FOS2018070714340017743241               |07-07-2018 14:34:17
07-07-2018 14:57:04|9999|HEAD OFFICE|100003841846    |200000508890    |IMP 818814604589 GG5915309555936752420 Dr - 100003841846 - HANSRAJ CHOUDHARY|07-07-2018|1.29|D|FOS2018070714563937004589               |07-07-2018 14:57:04
07-07-2018 16:30:44|9999|HEAD OFFICE|200000533810    |200000508890    |IMP 818816108476 Sonu enterprise Dr - 200000533810 - SONU  ENTERPRISES|07-07-2018|10000|D|FOS2018070716300656608476               |07-07-2018 16:30:44
07-07-2018 14:25:48|9999|HEAD OFFICE|100002483000    |200000508890    |IMP 818814254393 P2A Dr - 100002483000 - CHIRANTH GOWDA M|07-07-2018|110|D|FOS2018070714254443154393               |07-07-2018 14:25:48
07-07-2018 15:25:19|9999|HEAD OFFICE|200000538007    |200000508890    |IMP 818815255891 business Dr - 200000538007 - MAHAVEER COTTON MILLS|07-07-2018|5000|D|FOS2018070715251691255891               |07-07-2018 15:25:19
07-07-2018 14:25:07|9999|HEAD OFFICE|100001977875    |200000508890    |IMP 818814518822 P2A Dr - 100001977875 - RAJENDRAN  P|07-07-2018|5000|D|FOS2018070714250653318822               |07-07-2018 14:25:07
07-07-2018 16:55:05|9999|HEAD OFFICE|200000129608    |200000508890    |IMP 818816153216 universal Dr - 200000129608 - UNIVERSAL  COMPUTERS|07-07-2018|5000|D|FOS2018070716544994653216               |07-07-2018 16:55:05
07-07-2018 15:46:06|9999|HEAD OFFICE|200000687607    |200000508890    |IMP 818815578262 MB TALMU BHAI KO DIYE Dr - 200000687607 - SHRI GIRIJA KISHORI COLLECTION|07-07-2018|8000|D|FOS2018070715460614278262               |07-07-2018 15:46:06
07-07-2018 16:04:58|9999|HEAD OFFICE|100003292062    |200000508890    |IMP 818816218858 cash Dr - 100003292062 - P TAMILALAGAN|07-07-2018|8500|D|FOS2018070716045743118858               |07-07-2018 16:04:58
07-07-2018 14:15:42|9999|HEAD OFFICE|200000350569    |200000508890    |IMP 818814397207 P2A Dr - 200000350569 - MAHALINGAM K|07-07-2018|4260|D|FOS2018070714154101297207               |07-07-2018 14:15:42
07-07-2018 17:07:36|9999|HEAD OFFICE|100002712632    |200000508890    |IMP 818817956939 Rent Dr - 100002712632 - SOUNDARYAN RAJARAM|07-07-2018|2000|D|FOS2018070717073445656939               |07-07-2018 17:07:36
07-07-2018 16:13:10|9999|HEAD OFFICE|100003378261    |200000508890    |IMP 818816811783 Trasfer to faridha eq acc Dr - 100003378261 - FARIDHA  B|07-07-2018|20000|D|FOS2018070716131036511783               |07-07-2018 16:13:10
07-07-2018 15:17:03|9999|HEAD OFFICE|100002422608    |200000508890    |IMP 818815211827 loanamount Dr - 100002422608 - CHARLES ANTONY S|07-07-2018|4000|D|FOS2018070715170142911827               |07-07-2018 15:17:03
07-07-2018 16:56:25|9999|HEAD OFFICE|100001993661    |200000508890    |IMP 818816208471 4464 Dr - 100001993661 - MANJUNATHA J|07-07-2018|1000|D|FOS2018070716560893608471               |07-07-2018 16:56:25
07-07-2018 15:58:33|9999|HEAD OFFICE|100001962472    |200000508890    |IMP 818815771097 FT180707155805216516 Dr - 100001962472 - MADHU P S|07-07-2018|273|D|FOS2018070715581152771097               |07-07-2018 15:58:33
07-07-2018 16:07:27|9999|HEAD OFFICE|200000541509    |200000508890    |IMP 818816972143 P2A Dr - 200000541509 - ARIHANT GOLD MART|07-07-2018|4000|D|FOS2018070716072658072143               |07-07-2018 16:07:27
07-07-2018 14:31:37|9999|HEAD OFFICE|100000151023    |200000508890    |IMP 818814535491 Family Dr - 100000151023 - NATARAJAN  V|07-07-2018|10000|D|FOS2018070714311811735491               |07-07-2018 14:31:37
07-07-2018 16:26:16|9999|HEAD OFFICE|200000207668    |200000508890    |IMP 818816228639 Nil Dr - 200000207668 - KOMATHI SIVAKUMAR|07-07-2018|2050|D|FOS2018070716260095328639               |07-07-2018 16:26:16
07-07-2018 16:56:39|9999|HEAD OFFICE|100001746092    |200000508890    |IMP 818816452369 P2A Dr - 100001746092 - DINESH R|07-07-2018|4000|D|FOS2018070716562351452369               |07-07-2018 16:56:39
07-07-2018 15:38:29|9999|HEAD OFFICE|200000070768    |200000508890    |IMP 818815717663 SGEL EQUITAS Dr - 200000070768 - SARAVANA GLOBAL ENERGY LIMITED|07-07-2018|70000|D|FOS2018070715382175117663               |07-07-2018 15:38:29
07-07-2018 17:11:49|9999|HEAD OFFICE|100001859512    |200000508890    |IMP 818817039757 P2A Dr - 100001859512 - ARAVINDHAN E|07-07-2018|5000|D|FOS2018070717114688639757               |07-07-2018 17:11:49
07-07-2018 15:22:59|9999|HEAD OFFICE|200000250039    |200000508890    |IMP 818815420783 P2A Dr - 200000250039 - SPARKLERS BADMINTON ACADEMY|07-07-2018|4000|D|FOS2018070715225748120783               |07-07-2018 15:22:59
07-07-2018 16:01:44|9999|HEAD OFFICE|100001905719    |200000508890    |IMP 818816434145 P2A Dr - 100001905719 - ARUNKUMAR ARUMUGAM|07-07-2018|8700|D|FOS2018070716012699434145               |07-07-2018 16:01:44
07-07-2018 14:46:03|9999|HEAD OFFICE|100003157374    |200000508890    |IMP 818814919212 comments Dr - 100003157374 - KAMINI  KUMARI|07-07-2018|3000|D|FOS2018070714451531219212               |07-07-2018 14:46:03
07-07-2018 15:48:15|9999|HEAD OFFICE|100002465466    |200000508890    |IMP 818815325322 Chit Dr - 100002465466 - VISHWA  J|07-07-2018|50000|D|FOS2018070715481063125322               |07-07-2018 15:48:15
07-07-2018 14:23:54|9999|HEAD OFFICE|100000491528    |200000508890    |IMP 818814234658 P2A Dr - 100000491528 - CHIRANJEEVI  S M|07-07-2018|1000|D|FOS2018070714235392934658               |07-07-2018 14:23:54
07-07-2018 16:13:09|9999|HEAD OFFICE|100000124566    |200000508890    |IMP 818816426752 chandrasekar Dr - 100000124566 - CHANDRASEKAR  D|07-07-2018|2000|D|FOS2018070716125764926752               |07-07-2018 16:13:09
07-07-2018 15:38:44|9999|HEAD OFFICE|100000800428    |200000508890    |IMP 818815757718 Fund Transfer Dr - 100000800428 - YANA HARYANI|07-07-2018|1|D|FOS2018070715384225157718               |07-07-2018 15:38:44
07-07-2018 14:12:29|9999|HEAD OFFICE|100000127640    |200000508890    |IMP 818814396107 P2A Dr - 100000127640 - SIVARAJ  U|07-07-2018|4220|D|FOS2018070714122838396107               |07-07-2018 14:12:29
07-07-2018 15:04:28|9999|HEAD OFFICE|100000155052    |200000508890    |IMP 818815109383 From Prabhakaran Dr - 100000155052 - KARTHIK  M|07-07-2018|500|D|FOS2018070715042807209383               |07-07-2018 15:04:28
07-07-2018 17:27:02|9999|HEAD OFFICE|100001011489    |200000508890    |IMP 818817463044 P2A Dr - 100001011489 - MOHAMMED LUKHMAN S K|07-07-2018|1500|D|FOS2018070717270201563044               |07-07-2018 17:27:02
07-07-2018 14:24:15|9999|HEAD OFFICE|200000627354    |200000508890    |IMP 818814557089 P2A Dr - 200000627354 - ROCKDALE HOTEL AND RESORT|07-07-2018|1000|D|FOS2018070714241129557089               |07-07-2018 14:24:15
07-07-2018 17:19:21|9999|HEAD OFFICE|100001777943    |200000508890    |IMP 818817288812 52 Dr - 100001777943 - ROY ISPAT|07-07-2018|30000|D|FOS2018070717191939588812               |07-07-2018 17:19:21
07-07-2018 15:48:28|9999|HEAD OFFICE|100002470449    |200000508890    |IMP 818815429646 P2A Dr - 100002470449 - NARASIMHA RAO GANGAVARAPU|07-07-2018|50000|D|FOS2018070715482679629646               |07-07-2018 15:48:28
07-07-2018 16:38:37|9999|HEAD OFFICE|200000244820    |200000508890    |IMP 818816190775 P2A Dr - 200000244820 - VIMALKUMAR JAYARAMAN|07-07-2018|1|D|FOS2018070716383586790775               |07-07-2018 16:38:37
07-07-2018 17:29:13|9999|HEAD OFFICE|200000556033    |200000508890    |IMP 818817360636 Trns Dr - 200000556033 - THE  FRAME SHOP|07-07-2018|2000|D|FOS2018070717285602260636               |07-07-2018 17:29:13
07-07-2018 14:06:26|9999|HEAD OFFICE|100000381803    |200000508890    |IMP 818814552104 2c9f98df64409e6901644633bf2f385faver Dr - 100000381803 - HAFIJUL LASKAR|07-07-2018|1|D|FOS2018070714062633452104               |07-07-2018 14:06:26
07-07-2018 14:26:59|9999|HEAD OFFICE|100003841846    |200000508890    |IMP 818814523114 GG22415309538007022109 Dr - 100003841846 - HANSRAJ CHOUDHARY|07-07-2018|1.56|D|FOS2018070714264616923114               |07-07-2018 14:26:59
07-07-2018 14:46:34|9999|HEAD OFFICE|100003841846    |200000508890    |IMP 818814576600 GG22415309549796162277 Dr - 100003841846 - HANSRAJ CHOUDHARY|07-07-2018|1.57|D|FOS2018070714462528876600               |07-07-2018 14:46:34
07-07-2018 14:26:40|9999|HEAD OFFICE|100003841846    |200000508890    |IMP 818814523587 GG5915309537886272138 Dr - 100003841846 - HANSRAJ CHOUDHARY|07-07-2018|1.61|D|FOS2018070714263410423587               |07-07-2018 14:26:40
07-07-2018 17:09:30|9999|HEAD OFFICE|200000550961    |200000508890    |IMP 818817456781 P2A Dr - 200000550961 - KALIGAMBAL  AGENCY|07-07-2018|9000|D|FOS2018070717092857256781               |07-07-2018 17:09:30
07-07-2018 15:19:09|9999|HEAD OFFICE|100002669317    |200000508890    |IMP 818815665064 Family Dr - 100002669317 - PANKAJ  KUMAR|07-07-2018|15000|D|FOS2018070715190825465064               |07-07-2018 15:19:09
07-07-2018 14:09:45|9999|HEAD OFFICE|100001183197    |200000508890    |IMP 818814178630 P2A Dr - 100001183197 - LAKSHMINARAYANAN P|07-07-2018|600|D|FOS2018070714094470278630               |07-07-2018 14:09:45
07-07-2018 14:02:25|9999|HEAD OFFICE|100003646182    |200000508890    |IMP 818814454877 Cash withdral Dr - 100003646182 - MO HARUN NURULLAH ANSARI|07-07-2018|40000|D|FOS2018070714021845054877               |07-07-2018 14:02:25
07-07-2018 16:12:55|9999|HEAD OFFICE|100003171519    |200000508890    |IMP 818816438012 hi Dr - 100003171519 - DURGADEVI B|07-07-2018|200|D|FOS2018070716124793438012               |07-07-2018 16:12:55
07-07-2018 15:19:28|9999|HEAD OFFICE|200000740400    |200000508890    |IMP 818815424663 Jgr Dr - 200000740400 - J G  RANJITH|07-07-2018|7000|D|FOS2018070715192640524663               |07-07-2018 15:19:28
07-07-2018 17:27:45|9999|HEAD OFFICE|200000740400    |200000508890    |IMP 818817112333 Payone Dr - 200000740400 - J G  RANJITH|07-07-2018|35000|D|FOS2018070717274246612333               |07-07-2018 17:27:45
07-07-2018 15:40:33|9999|HEAD OFFICE|200000337317    |200000508890    |IMP 818815425522 eq Dr - 200000337317 - ANU  TRANSPORT|07-07-2018|3109|D|FOS2018070715403336325522               |07-07-2018 15:40:33
07-07-2018 15:17:11|9999|HEAD OFFICE|100003577106    |200000508890    |IMP 818815753351 MOBLT0707151723576 Dr - 100003577106 - k VIJAYAKUMAR|07-07-2018|100000|D|FOS2018070715171140853351               |07-07-2018 15:17:11
07-07-2018 14:43:24|9999|HEAD OFFICE|100000639346    |200000508890    |IMP 818814406817 P2A Dr - 100000639346 - PRITHIVIRAJ RAJENDRA|07-07-2018|3000|D|FOS2018070714431345906817               |07-07-2018 14:43:24
07-07-2018 16:27:08|9999|HEAD OFFICE|100003110378    |200000508890    |IMP 818816848998 cash Dr - 100003110378 - BHAWNA  CHOUHAN|07-07-2018|8000|D|FOS2018070716265418348998               |07-07-2018 16:27:08
07-07-2018 15:31:40|9999|HEAD OFFICE|200000784067    |200000508890    |IMP 818815224625 1234 Dr - 200000784067 - HI FASHION|07-07-2018|5000|D|FOS2018070715313936624625               |07-07-2018 15:31:40
07-07-2018 15:56:13|9999|HEAD OFFICE|100002932453    |200000508890    |IMP 818815284948 52 Dr - 100002932453 - JAGAN  MANDA|07-07-2018|1000|D|FOS2018070715561225184948               |07-07-2018 15:56:13
07-07-2018 15:06:40|9999|HEAD OFFICE|100002760384    |200000508890    |IMP 818815631847 Investment Dr - 100002760384 - PAWAN  KUMAR|07-07-2018|20000|D|FOS2018070715064036131847               |07-07-2018 15:06:40
07-07-2018 15:28:40|9999|HEAD OFFICE|100003584795    |200000508890    |IMP 818815755417 Own fund Dr - 100003584795 - MANISH AGARWAL|07-07-2018|50000|D|FOS2018070715283837055417               |07-07-2018 15:28:40
07-07-2018 17:09:02|9999|HEAD OFFICE|100001859512    |200000508890    |IMP 818817154522 P2A Dr - 100001859512 - ARAVINDHAN E|07-07-2018|1|D|FOS2018070717090067254522               |07-07-2018 17:09:02
07-07-2018 15:59:19|9999|HEAD OFFICE|100002378346    |200000508890    |IMP 818815771731 P2P Dr - 100002378346 - AKARAPU  MONIKA|07-07-2018|100|D|FOS2018070715583557071731               |07-07-2018 15:59:19
07-07-2018 16:32:29|9999|HEAD OFFICE|100003345049    |200000508890    |IMP 818816140102 payment Dr - 100003345049 - K  SRINIVASA|07-07-2018|12000|D|FOS2018070716322238240102               |07-07-2018 16:32:29
07-07-2018 15:17:36|9999|HEAD OFFICE|100001909150    |200000508890    |IMP 818815607390 Jaanu L Akhade Dr - 100001909150 - JAANU LAXMAN AKHADE|07-07-2018|5000|D|FOS2018070715173524607390               |07-07-2018 15:17:36
07-07-2018 15:30:53|9999|HEAD OFFICE|100002815325    |200000508890    |IMP 818815554191 P2A Dr - 100002815325 - SEJAL GAURAV CHOKSHI|07-07-2018|10000|D|FOS2018070715305310154191               |07-07-2018 15:30:53
07-07-2018 16:27:08|9999|HEAD OFFICE|100002789866    |200000508890    |IMP 818816228878 self Dr - 100002789866 - T  RAMMURUGAN|07-07-2018|8800|D|FOS2018070716262978328878               |07-07-2018 16:27:08
07-07-2018 14:53:57|9999|HEAD OFFICE|200000781787    |200000508890    |IMP 818814423808 Mater Dr - 200000781787 - EKTA  BUILDING MATERIAL SUPPLIER|07-07-2018|33500|D|FOS2018070714535536323808               |07-07-2018 14:53:57
07-07-2018 14:29:18|9999|HEAD OFFICE|200000724346    |200000508890    |IMP 818814172427 sri balaji agencies Dr - 200000724346 - NOVO HEALTH AND HYGIENE PRIVATE LIMITED|07-07-2018|20000|D|FOS2018070714284115772427               |07-07-2018 14:29:18
07-07-2018 14:15:05|9999|HEAD OFFICE|200000345326    |200000508890    |IMP 818814389745 then s Dr - 200000345326 - BESTIR  PHARMACEUTICALS|07-07-2018|3500|D|FOS2018070714150395089745               |07-07-2018 14:15:05
07-07-2018 16:06:10|9999|HEAD OFFICE|200000601930    |200000508890    |IMP 818816771201 MOBUA77277417 Dr - 200000601930 - THE UNORGANISED EMPL|07-07-2018|10000|D|FOS2018070716060954871201               |07-07-2018 16:06:10
07-07-2018 14:03:52|9999|HEAD OFFICE|200000559340    |200000508890    |IMP 818814448257 P2A Dr - 200000559340 - MISHRA PERIPHERAL  STORE|07-07-2018|40000|D|FOS2018070714034939848257               |07-07-2018 14:03:52
07-07-2018 17:06:56|9999|HEAD OFFICE|100001180132    |200000508890    |IMP 818817955409 Friends Dr - 100001180132 - SUBASH SWAMINATHAN A|07-07-2018|5000|D|FOS2018070717065597355409               |07-07-2018 17:06:56
07-07-2018 15:26:02|9999|HEAD OFFICE|100001894572    |200000508890    |IMP 818815842799 P2A Dr - 100001894572 - VIJAY  K|07-07-2018|50000|D|FOS2018070715260177842799               |07-07-2018 15:26:02
07-07-2018 14:14:49|9999|HEAD OFFICE|100002297255    |200000508890    |IMP 818814500718 P2A Dr - 100002297255 - ASHIQ ALI  S K L|07-07-2018|1000|D|FOS2018070714144757400718               |07-07-2018 14:14:49
07-07-2018 15:13:50|9999|HEAD OFFICE|100003066587    |200000508890    |IMP 818815936673 comments Dr - 100003066587 - HARSAN  LAL|07-07-2018|1850|D|FOS2018070715131118836673               |07-07-2018 15:13:50
07-07-2018 14:37:26|9999|HEAD OFFICE|200000475699    |200000508890    |IMP 818814084485 2225824487136276V V Enterprises Dr - 200000475699 - V V  ENTERPRISES|07-07-2018|17.79|D|FOS2018070714372259684485               |07-07-2018 14:37:26
07-07-2018 14:34:40|9999|HEAD OFFICE|100003841846    |200000508890    |IMP 818814543413 GG5915309542416132205 Dr - 100003841846 - HANSRAJ CHOUDHARY|07-07-2018|1.48|D|FOS2018070714340713043413               |07-07-2018 14:34:40
07-07-2018 14:07:18|9999|HEAD OFFICE|100003841846    |200000508890    |IMP 818814467417 GG5915309526316681911 Dr - 100003841846 - HANSRAJ CHOUDHARY|07-07-2018|1.84|D|FOS2018070714071810367417               |07-07-2018 14:07:18
07-07-2018 14:13:28|9999|HEAD OFFICE|100003841846    |200000508890    |IMP 818814486802 GG8915309530026894820 Dr - 100003841846 - HANSRAJ CHOUDHARY|07-07-2018|1.25|D|FOS2018070714132840386802               |07-07-2018 14:13:28
07-07-2018 14:56:38|9999|HEAD OFFICE|100003841846    |200000508890    |IMP 818814604544 GG8915309555895925265 Dr - 100003841846 - HANSRAJ CHOUDHARY|07-07-2018|1.04|D|FOS2018070714563665304544               |07-07-2018 14:56:38
07-07-2018 14:54:00|9999|HEAD OFFICE|200000705510    |200000508890    |IMP 818814565103 P2A Dr - 200000705510 - K  SENTHILKUMAR|07-07-2018|10000|D|FOS2018070714540036565103               |07-07-2018 14:54:00
07-07-2018 15:02:33|9999|HEAD OFFICE|100003036683    |200000508890    |IMP 818815304750 CRA Dr - 100003036683 - ANNAMALAI  R|07-07-2018|1000|D|FOS2018070715020785004750               |07-07-2018 15:02:33
07-07-2018 17:19:21|9999|HEAD OFFICE|100003668782    |200000508890    |IMP 818817460310 P2A Dr - 100003668782 - S PANDIYARAJ|07-07-2018|3000|D|FOS2018070717191937560310               |07-07-2018 17:19:21
07-07-2018 14:07:08|9999|HEAD OFFICE|100003841846    |200000508890    |IMP 818814467042 GG8915309526109684745 Dr - 100003841846 - HANSRAJ CHOUDHARY|07-07-2018|1.17|D|FOS2018070714065636667042               |07-07-2018 14:07:08
07-07-2018 14:18:45|9999|HEAD OFFICE|100000438452    |200000508890    |IMP 818814234852 anbu Dr - 100000438452 - ABDUL LADHEEP JABAR |07-07-2018|500|D|FOS2018070714184382734852               |07-07-2018 14:18:45
07-07-2018 14:26:49|9999|HEAD OFFICE|100003841846    |200000508890    |IMP 818814522906 GG8915309537921924977 Dr - 100003841846 - HANSRAJ CHOUDHARY|07-07-2018|1.12|D|FOS2018070714263738022906               |07-07-2018 14:26:49
07-07-2018 16:42:40|9999|HEAD OFFICE|100003644400    |200000508890    |IMP 818816743536 Miscellaneous Dr - 100003644400 - UMAPATHY|07-07-2018|5000|D|FOS2018070716423836143536               |07-07-2018 16:42:40
07-07-2018 14:46:23|9999|HEAD OFFICE|100003841846    |200000508890    |IMP 818814576053 GG5915309549624912308 Dr - 100003841846 - HANSRAJ CHOUDHARY|07-07-2018|1.86|D|FOS2018070714460854376053               |07-07-2018 14:46:23
07-07-2018 14:46:33|9999|HEAD OFFICE|100003841846    |200000508890    |IMP 818814576568 GG5915309549756872310 Dr - 100003841846 - HANSRAJ CHOUDHARY|07-07-2018|1.93|D|FOS2018070714462257876568               |07-07-2018 14:46:33
07-07-2018 14:46:30|9999|HEAD OFFICE|100003841846    |200000508890    |IMP 818814574489 GG2815309549656754175 Dr - 100003841846 - HANSRAJ CHOUDHARY|07-07-2018|1.52|D|FOS2018070714461161374489               |07-07-2018 14:46:30
07-07-2018 15:25:49|9999|HEAD OFFICE|100000736618    |200000508890    |IMP 818815683008 To Bablu for Amar n transport Dr - 100000736618 - DADHICH KUMAR SINGH|07-07-2018|5640|D|FOS2018070715254716183008               |07-07-2018 15:25:49
07-07-2018 17:01:44|9999|HEAD OFFICE|100003674816    |200000508890    |IMP 818817188723 P2A Dr - 100003674816 - KAPIL DEV SHARMA|07-07-2018|20000|D|FOS2018070717014246088723               |07-07-2018 17:01:44
07-07-2018 15:37:18|9999|HEAD OFFICE|100003674816    |200000508890    |IMP 818815187556 P2A Dr - 100003674816 - KAPIL DEV SHARMA|07-07-2018|18000|D|FOS2018070715371649987556               |07-07-2018 15:37:18
07-07-2018 14:51:59|9999|HEAD OFFICE|100002001934    |200000508890    |IMP 818814744182 MOBUA77253201 Dr - 100002001934 - AKSHAY VASANT MAHALE|07-07-2018|10000|D|FOS2018070714515773644182               |07-07-2018 14:51:59
07-07-2018 14:49:13|9999|HEAD OFFICE|100002001934    |200000508890    |IMP 818814743034 MOBUA77252114 Dr - 100002001934 - AKSHAY VASANT MAHALE|07-07-2018|10000|D|FOS2018070714485947343034               |07-07-2018 14:49:13
07-07-2018 14:22:34|9999|HEAD OFFICE|100000957997    |200000508890    |IMP 818814511426 SURESH DEVI Dr - 100000957997 - SURESH  DEVI|07-07-2018|17500|D|FOS2018070714223295411426               |07-07-2018 14:22:34
07-07-2018 15:09:36|9999|HEAD OFFICE|100001178412    |200000508890    |IMP 818815750521 INETIMPS00057935800 Dr - 100001178412 - MAYILSAMY D|07-07-2018|139000|D|FOS2018070715093438650521               |07-07-2018 15:09:36
07-07-2018 15:41:05|9999|HEAD OFFICE|100003092696    |200000508890    |IMP 818815955377 comments Dr - 100003092696 - MAYANK  KUMAWAT|07-07-2018|420|D|FOS2018070715410389655377               |07-07-2018 15:41:05
07-07-2018 17:26:58|9999|HEAD OFFICE|100002199054    |200000508890    |IMP 818817360341 My friend Dr - 100002199054 - SARAVANAN  P|07-07-2018|12000|D|FOS2018070717265792760341               |07-07-2018 17:26:58
07-07-2018 15:30:23|9999|HEAD OFFICE|100002367894    |200000508890    |IMP 818815423407 P2A Dr - 100002367894 - VASUDEV ASHOK SURYAVANSHI|07-07-2018|7000|D|FOS2018070715302151423407               |07-07-2018 15:30:23
07-07-2018 15:08:52|9999|HEAD OFFICE|100003464116    |200000508890    |IMP 818815237380 hitech exp Dr - 100003464116 - ANIL KUMAR|07-07-2018|30000|D|FOS2018070715085245637380               |07-07-2018 15:08:52
07-07-2018 15:56:57|9999|HEAD OFFICE|100002965110    |200000508890    |IMP 818815766887 FT180707155644269382 Dr - 100002965110 - KIRUTHIKA  ELANGOVAN|07-07-2018|169|D|FOS2018070715565082266887               |07-07-2018 15:56:57
07-07-2018 14:46:51|9999|HEAD OFFICE|100000288237    |200000508890    |IMP 818814576661 JAIEQUITAS Dr - 100000288237 - JAI  PRAKASH|07-07-2018|100000|D|FOS2018070714463722276661               |07-07-2018 14:46:51
07-07-2018 16:04:10|9999|HEAD OFFICE|200000405054    |200000508890    |IMP 818816011245 Account validation Dr - 200000405054 - SIVA ATHIKESAVAN|07-07-2018|1|D|FOS2018070716040539011245               |07-07-2018 16:04:10
07-07-2018 15:59:36|9999|HEAD OFFICE|100000234176    |200000508890    |IMP 818815773827 Family Dr - 100000234176 - KAMARAJ  S|07-07-2018|8500|D|FOS2018070715592366573827               |07-07-2018 15:59:36
07-07-2018 14:06:41|9999|HEAD OFFICE|100003331688    |200000508890    |IMP 818814466099 Hand lone Dr - 100003331688 - MOHAMMED FAISAL VAPRIYA|07-07-2018|50000|D|FOS2018070714063542066099               |07-07-2018 14:06:41
07-07-2018 16:26:20|9999|HEAD OFFICE|100003364885    |200000508890    |IMP 818816497402 myself Dr - 100003364885 - VASANTH S|07-07-2018|10000|D|FOS2018070716253545497402               |07-07-2018 16:26:20
07-07-2018 14:04:39|9999|HEAD OFFICE|200000506765    |200000508890    |IMP 818814188047 EQUITAS Dr - 200000506765 - H G OIL CARRIERS|07-07-2018|150000|D|FOS2018070714040952488047               |07-07-2018 14:04:39
07-07-2018 15:53:13|9999|HEAD OFFICE|100003725252    |200000508890    |IMP 818815212965 fastag Dr - 100003725252 - P BOOPATHY|07-07-2018|4000|D|FOS2018070715531138812965               |07-07-2018 15:53:13
07-07-2018 16:56:09|9999|HEAD OFFICE|100001019615    |200000508890    |IMP 818816148965 fund transfer Dr - 100001019615 - SUGANYA R M|07-07-2018|3018|D|FOS2018070716560891048965               |07-07-2018 16:56:09
07-07-2018 14:15:52|9999|HEAD OFFICE|100003560569    |200000508890    |IMP 818814051057 IMPS Dr - 100003560569 - MICHAEL VALAN|07-07-2018|5000|D|FOS2018070714154646751057               |07-07-2018 14:15:52
07-07-2018 15:34:05|9999|HEAD OFFICE|100003726960    |200000508890    |IMP 818815759670 INETIMPS00057938593 Dr - 100003726960 - SANKARANARAYANAN  J|07-07-2018|8000|D|FOS2018070715335839359670               |07-07-2018 15:34:05
07-07-2018 15:28:44|9999|HEAD OFFICE|100003430237    |200000508890    |IMP 818815690673 P2A Dr - 100003430237 - SANJAY KUMAR MANESHWAR|07-07-2018|39128|D|FOS2018070715284439590673               |07-07-2018 15:28:44
07-07-2018 17:24:03|9999|HEAD OFFICE|200000556573    |200000508890    |IMP 818817604927 MB FASTTAG Dr - 200000556573 - SARAVANAKUMAR  K|07-07-2018|20000|D|FOS2018070717240316104927               |07-07-2018 17:24:03
07-07-2018 15:32:40|9999|HEAD OFFICE|100000423867    |200000508890    |IMP 818815701123 MT Dr - 100000423867 - CHITHAIYAN R|07-07-2018|4400|D|FOS2018070715323862101123               |07-07-2018 15:32:40
07-07-2018 14:29:59|9999|HEAD OFFICE|200000795930    |200000508890    |IMP 818814909024 P2A Dr - 200000795930 - SATHISH|07-07-2018|100|D|FOS2018070714294637709024               |07-07-2018 14:29:59
07-07-2018 17:00:30|9999|HEAD OFFICE|200000791926    |200000508890    |IMP 818817453682 P2A Dr - 200000791926 - SKILL EDUCATION AND DEVELOPMENT ASSOCIAT|07-07-2018|1|D|FOS2018070717000437453682               |07-07-2018 17:00:30
07-07-2018 16:33:38|9999|HEAD OFFICE|100002176742    |200000508890    |IMP 818816396864 Cash Dr - 100002176742 - RAMESH CHANDRA VAISHNAV|07-07-2018|9999.70|D|FOS2018070716333764996864               |07-07-2018 16:33:38
07-07-2018 15:23:23|9999|HEAD OFFICE|100000402695    |200000508890    |IMP 818815676220 Investment Dr - 100000402695 - KARTHICKUMAR P|07-07-2018|9500|D|FOS2018070715231805176220               |07-07-2018 15:23:23
07-07-2018 16:56:23|9999|HEAD OFFICE|100002479020    |200000508890    |IMP 818816710558 ARUN KUMAR YADAV Dr - 100002479020 - PAPPU RAJBHAR|07-07-2018|3000|D|FOS2018070716560535710558               |07-07-2018 16:56:23
07-07-2018 15:49:36|9999|HEAD OFFICE|100000208334    |200000508890    |IMP 818815324849 Payment Dr - 100000208334 - Kapil Giriraj Chhangani|07-07-2018|2000|D|FOS2018070715493516024849               |07-07-2018 15:49:36
07-07-2018 15:06:34|9999|HEAD OFFICE|100000304527    |200000508890    |IMP 818815602383 P2A Dr - 100000304527 - DURAIRAJ R|07-07-2018|3200|D|FOS2018070715063303002383               |07-07-2018 15:06:34
07-07-2018 16:00:05|9999|HEAD OFFICE|200000528777    |200000508890    |IMP 818815775241 NA Dr - 200000528777 - GALAXY  ENTERPRISES|07-07-2018|3000|D|FOS2018070715595905275241               |07-07-2018 16:00:05
07-07-2018 15:59:40|9999|HEAD OFFICE|200000528777    |200000508890    |IMP 818815772390 NA Dr - 200000528777 - GALAXY  ENTERPRISES|07-07-2018|5000|D|FOS2018070715590997072390               |07-07-2018 15:59:40
07-07-2018 16:16:11|9999|HEAD OFFICE|100001832767    |200000508890    |IMP 818816647739 BharathPondyexpenses Dr - 100001832767 - BHARATHKUMAR S|07-07-2018|500|D|FOS2018070716160880347739               |07-07-2018 16:16:11
07-07-2018 16:39:19|9999|HEAD OFFICE|200000244820    |200000508890    |IMP 818816379040 P2A Dr - 200000244820 - VIMALKUMAR JAYARAMAN|07-07-2018|1|D|FOS2018070716390100279040               |07-07-2018 16:39:19
07-07-2018 14:06:03|9999|HEAD OFFICE|200000655237    |200000508890    |IMP 818814422068 for cash Dr - 200000655237 - NILAWAR ELECTRONICS SALES AND SERVICES|07-07-2018|23000|D|FOS2018070714060082722068               |07-07-2018 14:06:03
07-07-2018 17:16:02|9999|HEAD OFFICE|200000556033    |200000508890    |IMP 818817355935 Trns Dr - 200000556033 - THE  FRAME SHOP|07-07-2018|4000|D|FOS2018070717160067655935               |07-07-2018 17:16:02
07-07-2018 14:07:41|9999|HEAD OFFICE|100001346111    |200000508890    |IMP 818814417495 Transfer Dr - 100001346111 - PRATHEEF  M|07-07-2018|1900|D|FOS2018070714074067517495               |07-07-2018 14:07:41
07-07-2018 16:25:47|9999|HEAD OFFICE|100003130801    |200000508890    |IMP 818816579960 Narhe Dr - 100003130801 - JOSE FRANCISE KANGIRATHINGAL|07-07-2018|10000|D|FOS2018070716254492379960               |07-07-2018 16:25:47
07-07-2018 15:01:26|9999|HEAD OFFICE|100003316033    |200000508890    |IMP 818815413333 P2A Dr - 100003316033 - SHIVANAND BHIMASHANKAR BAGALI|07-07-2018|50|D|FOS2018070715012534813333               |07-07-2018 15:01:26
07-07-2018 14:04:58|9999|HEAD OFFICE|100001858589    |200000508890    |IMP 818814393394 P2A Dr - 100001858589 - SELVI S|07-07-2018|3500|D|FOS2018070714045609793394               |07-07-2018 14:04:58
07-07-2018 14:52:56|9999|HEAD OFFICE|200000486884    |200000508890    |IMP 818814779165 P2A Dr - 200000486884 - MALLIKA K|07-07-2018|5300|D|FOS2018070714525522179165               |07-07-2018 14:52:56
07-07-2018 16:46:14|9999|HEAD OFFICE|100002160538    |200000508890    |IMP 818816238520 mariyappan Dr - 100002160538 - MARIAPPAN P|07-07-2018|6500|D|FOS2018070716461301838520               |07-07-2018 16:46:14
07-07-2018 14:07:49|9999|HEAD OFFICE|200000173025    |200000508890    |IMP 818814789114 Miscellaneous Dr - 200000173025 - JAGADEESH B|07-07-2018|4000|D|FOS2018070714073476789114               |07-07-2018 14:07:49
07-07-2018 14:09:14|9999|HEAD OFFICE|100000949639    |200000508890    |IMP 818814472855 Account validation by Aditya Birla Mutual Fund Dr - 100000949639 - MONU VIPIN KUMAR|07-07-2018|1|D|FOS2018070714091320072855               |07-07-2018 14:09:14
07-07-2018 14:46:18|9999|HEAD OFFICE|100003841846    |200000508890    |IMP 818814576390 GG2815309549722104177 Dr - 100003841846 - HANSRAJ CHOUDHARY|07-07-2018|1.13|D|FOS2018070714461712576390               |07-07-2018 14:46:18
07-07-2018 14:51:19|9999|HEAD OFFICE|100003841846    |200000508890    |IMP 818814588412 GG8915309552737365214 Dr - 100003841846 - HANSRAJ CHOUDHARY|07-07-2018|1.13|D|FOS2018070714511944188412               |07-07-2018 14:51:19
07-07-2018 15:48:12|9999|HEAD OFFICE|100003674816    |200000508890    |IMP 818815187735 P2A Dr - 100003674816 - KAPIL DEV SHARMA|07-07-2018|17000|D|FOS2018070715481145587735               |07-07-2018 15:48:12
07-07-2018 16:39:48|9999|HEAD OFFICE|100002220090    |200000508890    |IMP 818816393917 P2A Dr - 100002220090 - SUMITHRA B K|07-07-2018|5000|D|FOS2018070716394654893917               |07-07-2018 16:39:48
07-07-2018 16:51:13|9999|HEAD OFFICE|200000129608    |200000508890    |IMP 818816150505 abacus Dr - 200000129608 - UNIVERSAL  COMPUTERS|07-07-2018|1840|D|FOS2018070716504941650505               |07-07-2018 16:51:13
07-07-2018 17:06:37|9999|HEAD OFFICE|200000058460    |200000508890    |IMP 818817241012 L RAJENDRAN Dr - 200000058460 - A K  RAMESH|07-07-2018|15000|D|FOS2018070717063665841012               |07-07-2018 17:06:37
07-07-2018 15:33:41|9999|HEAD OFFICE|100002878263    |200000508890    |IMP 818815528277 fastag Dr - 100002878263 - ASHOK  C|07-07-2018|1000|D|FOS2018070715334155928277               |07-07-2018 15:33:41
07-07-2018 14:41:29|9999|HEAD OFFICE|100000430257    |200000508890    |IMP 818814561718 MB GOLD LOAN Dr - 100000430257 - BENAKA RAVI B|07-07-2018|19366|D|FOS2018070714411092961718               |07-07-2018 14:41:29
07-07-2018 17:13:25|9999|HEAD OFFICE|100003447180    |200000508890    |IMP 818817793709 MOBLT0707171362122 Dr - 100003447180 - RAMANAIDU YEGI|07-07-2018|50000|D|FOS2018070717132345693709               |07-07-2018 17:13:25
07-07-2018 16:33:56|9999|HEAD OFFICE|100001754646    |200000508890    |IMP 818816232353 P2A Dr - 100001754646 - MANOKAR S|07-07-2018|2000|D|FOS2018070716335477132353               |07-07-2018 16:33:56
07-07-2018 14:55:03|9999|HEAD OFFICE|100002421353    |200000508890    |IMP 818814526660 P2A Dr - 100002421353 - THIRUVARULSELVAN N|07-07-2018|5000|D|FOS2018070714550140226660               |07-07-2018 14:55:03
07-07-2018 15:25:49|9999|HEAD OFFICE|100002805308    |200000508890    |IMP 818815421696 P2A Dr - 100002805308 - SUTHAKAR  P|07-07-2018|20000|D|FOS2018070715254199521696               |07-07-2018 15:25:49
07-07-2018 14:11:36|9999|HEAD OFFICE|100000341980    |200000508890    |IMP 818814395768 BLR Dr - 100000341980 - BABU P|07-07-2018|2000|D|FOS2018070714113410595768               |07-07-2018 14:11:36
07-07-2018 14:46:30|9999|HEAD OFFICE|200000315860    |200000508890    |IMP 818814450338 Appa Dr - 200000315860 - SAMINATHAN DHANDABAN|07-07-2018|3000|D|FOS2018070714462249750338               |07-07-2018 14:46:30
07-07-2018 14:15:55|9999|HEAD OFFICE|100003560569    |200000508890    |IMP 818814051061 IMPS Dr - 100003560569 - MICHAEL VALAN|07-07-2018|1430|D|FOS2018070714155542051061               |07-07-2018 14:15:55
07-07-2018 16:42:16|9999|HEAD OFFICE|100003562332    |200000508890    |IMP 818816889303 P2A Dr - 100003562332 - SANDEEP KHANNA|07-07-2018|100|D|FOS2018070716421639189303               |07-07-2018 16:42:16
07-07-2018 14:16:06|9999|HEAD OFFICE|100003228407    |200000508890    |IMP 818814736603 Fund Transfer Dr - 100003228407 - SAJIDALI ANSARI|07-07-2018|1|D|FOS2018070714160584736603               |07-07-2018 14:16:06
07-07-2018 16:22:01|9999|HEAD OFFICE|100002667174    |200000508890    |IMP 818816240124 transfer Dr - 100002667174 - BENJAMINABEL|07-07-2018|200|D|FOS2018070716220096940124               |07-07-2018 16:22:01
07-07-2018 14:23:32|9999|HEAD OFFICE|200000710680    |200000508890    |IMP 818814944804 P2A Dr - 200000710680 - THAMARAISELVI PICHAI|07-07-2018|630|D|FOS2018070714232839744804               |07-07-2018 14:23:32
07-07-2018 14:50:21|9999|HEAD OFFICE|100002554143    |200000508890    |IMP 818814409270 P2A Dr - 100002554143 - PRIYANKA  SHARMA|07-07-2018|500|D|FOS2018070714502045709270               |07-07-2018 14:50:21
07-07-2018 14:11:39|9999|HEAD OFFICE|100003439298    |200000508890    |IMP 818814481421 Account validation by Aditya Birla Mutual Fund Dr - 100003439298 - MUNGAMURI NEELIMA SPANDANA|07-07-2018|1|D|FOS2018070714113940381421               |07-07-2018 14:11:39
07-07-2018 14:48:08|9999|HEAD OFFICE|200000587994    |200000508890    |IMP 818814450452 DURAIRAJ EQ Dr - 200000587994 - DURAIRAJ|07-07-2018|8000|D|FOS2018070714480578950452               |07-07-2018 14:48:08
07-07-2018 14:29:23|9999|HEAD OFFICE|100003441950    |200000508890    |IMP 818814009951 P2A Dr - 100003441950 - SHEKHAR  GHYAR|07-07-2018|59|D|FOS2018070714291642409951               |07-07-2018 14:29:23
07-07-2018 17:22:55|9999|HEAD OFFICE|100003463202    |200000508890    |IMP 818817461439 P2A Dr - 100003463202 - GAURAV RAMESHALAL SOLANKI|07-07-2018|10000|D|FOS2018070717223540361439               |07-07-2018 17:22:55
07-07-2018 17:18:19|9999|HEAD OFFICE|200000760006    |200000508890    |IMP 818817459916 P2A Dr - 200000760006 - RAMALINGAM GOBAL|07-07-2018|5100|D|FOS2018070717181638059916               |07-07-2018 17:18:19
07-07-2018 16:51:17|9999|HEAD OFFICE|200000437964    |200000508890    |IMP 818816017238 P2A Dr - 200000437964 - MAHESWARI PANNEERSEL|07-07-2018|4000|D|FOS2018070716511447117238               |07-07-2018 16:51:17
07-07-2018 14:08:06|9999|HEAD OFFICE|200000505393    |200000508890    |IMP 818814388603 Personal Dr - 200000505393 - VIVETHA  INTERIORS|07-07-2018|60000|D|FOS2018070714080580388603               |07-07-2018 14:08:06
07-07-2018 15:37:37|9999|HEAD OFFICE|100001007722    |200000508890    |IMP 818815087477 1295537767371990Mahashree Mishra Dr - 100001007722 - GAYATRI  MAHAPATRA|07-07-2018|549|D|FOS2018070715373536987477               |07-07-2018 15:37:37
07-07-2018 16:54:50|9999|HEAD OFFICE|200000539305    |200000508890    |IMP 818816346970 Manu Dr - 200000539305 - ROYAL  NUTRITIONS|07-07-2018|10000|D|FOS2018070716543680046970               |07-07-2018 16:54:50
07-07-2018 14:16:58|9999|HEAD OFFICE|100000969248    |200000508890    |IMP 818814397645 P2A Dr - 100000969248 - AMALRAJ  S|07-07-2018|7500|D|FOS2018070714165694297645               |07-07-2018 14:16:58
07-07-2018 17:00:56|9999|HEAD OFFICE|100000873546    |200000508890    |IMP 818817461076 ashok Dr - 100000873546 - ASHOK|07-07-2018|4800|D|FOS2018070717005408861076               |07-07-2018 17:00:56
07-07-2018 16:01:08|9999|HEAD OFFICE|200000523083    |200000508890    |IMP 818816581923 P2A Dr - 200000523083 - GLOBAL A R S FASHION|07-07-2018|7000|D|FOS2018070716004996581923               |07-07-2018 16:01:08
07-07-2018 14:24:54|9999|HEAD OFFICE|100000128908    |200000508890    |IMP 818814395758 medical Dr - 100000128908 - KARTHIK  P|07-07-2018|580|D|FOS2018070714245408795758               |07-07-2018 14:24:54
07-07-2018 15:04:43|9999|HEAD OFFICE|100002825383    |200000508890    |IMP 818815308574 Vinayak Dr - 100002825383 - VINAYAK  DWIVEDI|07-07-2018|35000|D|FOS2018070715044207308574               |07-07-2018 15:04:43
07-07-2018 15:43:13|9999|HEAD OFFICE|200000668087    |200000508890    |IMP 818815618960 trf Dr - 200000668087 - PRINCE  ROADLINES|07-07-2018|25000|D|FOS2018070715431230318960               |07-07-2018 15:43:13
07-07-2018 14:06:18|9999|HEAD OFFICE|100000212997    |200000508890    |IMP 818814393852 P2A Dr - 100000212997 - MATHIVANAN  M|07-07-2018|14000|D|FOS2018070714061636593852               |07-07-2018 14:06:18
07-07-2018 14:28:27|9999|HEAD OFFICE|100000430183    |200000508890    |IMP 818814401520 P2A Dr - 100000430183 - RAGHAVENDRA N|07-07-2018|500|D|FOS2018070714281114901520               |07-07-2018 14:28:27
07-07-2018 17:02:04|9999|HEAD OFFICE|100000160651    |200000508890    |IMP 818817940315 Friends Dr - 100000160651 - AZADBASHA  B|07-07-2018|2700|D|FOS2018070717014372340315               |07-07-2018 17:02:04
07-07-2018 14:02:10|9999|HEAD OFFICE|200000173025    |200000508890    |IMP 818814784709 Miscellaneous Dr - 200000173025 - JAGADEESH B|07-07-2018|10000|D|FOS2018070714020728284709               |07-07-2018 14:02:10
07-07-2018 17:21:56|9999|HEAD OFFICE|100000936934    |200000508890    |IMP 818817359033 Cash Dr - 100000936934 - RAHUL KASHIRAM GAWAI|07-07-2018|1000|D|FOS2018070717215359559033               |07-07-2018 17:21:56
07-07-2018 16:46:03|9999|HEAD OFFICE|100000999898    |200000508890    |IMP 818816899024 Misc Dr - 100000999898 - KALPESH DOLATRAI JANI|07-07-2018|5000|D|FOS2018070716460230799024               |07-07-2018 16:46:03
07-07-2018 14:20:11|9999|HEAD OFFICE|100003841846    |200000508890    |IMP 818814505502 GG8915309534061104898 Dr - 100003841846 - HANSRAJ CHOUDHARY|07-07-2018|1.77|D|FOS2018070714201119305502               |07-07-2018 14:20:11
07-07-2018 14:26:28|9999|HEAD OFFICE|100003841846    |200000508890    |IMP 818814521439 GG5915309537798262135 Dr - 100003841846 - HANSRAJ CHOUDHARY|07-07-2018|1.40|D|FOS2018070714262516921439               |07-07-2018 14:26:28
07-07-2018 14:07:15|9999|HEAD OFFICE|100003841846    |200000508890    |IMP 818814467185 GG8915309526185074747 Dr - 100003841846 - HANSRAJ CHOUDHARY|07-07-2018|1.08|D|FOS2018070714070406967185               |07-07-2018 14:07:15
07-07-2018 15:45:36|9999|HEAD OFFICE|200000767586    |200000508890    |IMP 818815736505 Plates purchase export Dr - 200000767586 - TIN TOY ENTERPRISES|07-07-2018|10000|D|FOS2018070715453444636505               |07-07-2018 15:45:36
07-07-2018 16:20:56|9999|HEAD OFFICE|200000787228    |200000508890    |IMP 818816203897 IMPS P2A null Dr - 200000787228 - SRI MEENAKSHI TIMBER|07-07-2018|12500|D|FOS2018070716205542603897               |07-07-2018 16:20:56
07-07-2018 14:07:20|9999|HEAD OFFICE|100003841846    |200000508890    |IMP 818814468256 GG2815309526350943720 Dr - 100003841846 - HANSRAJ CHOUDHARY|07-07-2018|1.29|D|FOS2018070714072004168256               |07-07-2018 14:07:20
07-07-2018 14:40:21|9999|HEAD OFFICE|100003841846    |200000508890    |IMP 818814557955 GG2815309546061594114 Dr - 100003841846 - HANSRAJ CHOUDHARY|07-07-2018|1.30|D|FOS2018070714401110857955               |07-07-2018 14:40:21
07-07-2018 15:01:33|9999|HEAD OFFICE|100003674816    |200000508890    |IMP 818815187066 P2A Dr - 100003674816 - KAPIL DEV SHARMA|07-07-2018|20000|D|FOS2018070715013140487066               |07-07-2018 15:01:33
07-07-2018 16:27:28|9999|HEAD OFFICE|200000533810    |200000508890    |IMP 818816108436 Sonu enterprise Dr - 200000533810 - SONU  ENTERPRISES|07-07-2018|20000|D|FOS2018070716272529408436               |07-07-2018 16:27:28
07-07-2018 17:28:24|9999|HEAD OFFICE|100002669317    |200000508890    |IMP 818817012558 Family Dr - 100002669317 - PANKAJ  KUMAR|07-07-2018|7001|D|FOS2018070717280838312558               |07-07-2018 17:28:24
07-07-2018 15:26:37|9999|HEAD OFFICE|200000541422    |200000508890    |IMP 818815779912 I Dr - 200000541422 - HARITHRA  TEXTILES|07-07-2018|1000|D|FOS2018070715263586479912               |07-07-2018 15:26:37
07-07-2018 15:14:52|9999|HEAD OFFICE|100002422608    |200000508890    |IMP 818815211679 loanamount Dr - 100002422608 - CHARLES ANTONY S|07-07-2018|5000|D|FOS2018070715144438011679               |07-07-2018 15:14:52
07-07-2018 17:00:25|9999|HEAD OFFICE|100001987441    |200000508890    |IMP 818817000995 P2A Dr - 100001987441 - VIJAYAKUMARA B V|07-07-2018|60000|D|FOS2018070717001588500995               |07-07-2018 17:00:25
07-07-2018 14:39:18|9999|HEAD OFFICE|100002049974    |200000508890    |IMP 818814405461 P2A Dr - 100002049974 - NITIN BABARAO KATHOKE|07-07-2018|1000|D|FOS2018070714391567605461               |07-07-2018 14:39:18
07-07-2018 14:00:34|9999|HEAD OFFICE|100003032613    |200000508890    |IMP 818814449700 EQUITAS NIRMAL Dr - 100003032613 - NIRMALKUMAR RAMNARAYAN AGRAWAL|07-07-2018|9000|D|FOS2018070714003368449700               |07-07-2018 14:00:34
07-07-2018 14:38:30|9999|HEAD OFFICE|200000114923    |200000508890    |IMP 818814449951 Raju Tarade Dr - 200000114923 - RAJU BHAURAOJI TARAL|07-07-2018|4000|D|FOS2018070714382914149951               |07-07-2018 14:38:30
07-07-2018 15:08:48|9999|HEAD OFFICE|100003108454    |200000508890    |IMP 818815237362 Tfr To Equitas Dr - 100003108454 - T  MURUGAN|07-07-2018|723|D|FOS2018070715084082937362               |07-07-2018 15:08:48
07-07-2018 14:03:56|9999|HEAD OFFICE|200000500094    |200000508890    |IMP 818814891414 comments Dr - 200000500094 - EURO FORBES  SERVICES|07-07-2018|2230|D|FOS2018070714035372691414               |07-07-2018 14:03:56
07-07-2018 15:03:58|9999|HEAD OFFICE|200000059196    |200000508890    |IMP 818815189204 bill Dr - 200000059196 - NEW CHITRA  STORES|07-07-2018|1810|D|FOS2018070715035746489204               |07-07-2018 15:03:58
07-07-2018 15:12:27|9999|HEAD OFFICE|100000533321    |200000508890    |IMP 818815417194 P2A Dr - 100000533321 - MAYURKUMAR JITENDRABHAI BRAHMBHATT|07-07-2018|5000|D|FOS2018070715122524417194               |07-07-2018 15:12:27
07-07-2018 14:20:50|9999|HEAD OFFICE|100002612833    |200000508890    |IMP 818814507108 Rajkumar Dr - 100002612833 - B  RAJKUMAR|07-07-2018|20000|D|FOS2018070714204989407108               |07-07-2018 14:20:50
07-07-2018 17:02:59|9999|HEAD OFFICE|100002427846    |200000508890    |IMP 818817943293 Interest Dr - 100002427846 - SIVASUNDAR  KUMARAVEL|07-07-2018|5600|D|FOS2018070717025882243293               |07-07-2018 17:02:59
07-07-2018 16:34:18|9999|HEAD OFFICE|200000075262    |200000508890    |IMP 818816771828 Hfgjjf Dr - 200000075262 - OM SAI THREAD|07-07-2018|6200|D|FOS2018070716335080371828               |07-07-2018 16:34:18
07-07-2018 15:44:41|9999|HEAD OFFICE|200000706628    |200000508890    |IMP 818815733496 Reliance securities June payout Dr - 200000706628 - GEETA  CONSULTANCY|07-07-2018|9240|D|FOS2018070715444122133496               |07-07-2018 15:44:41
07-07-2018 14:12:07|9999|HEAD OFFICE|100002164144    |200000508890    |IMP 818814778270 S Dr - 100002164144 - PRAKASH A|07-07-2018|5000|D|FOS2018070714120724278270               |07-07-2018 14:12:07
07-07-2018 15:20:06|9999|HEAD OFFICE|200000225829    |200000508890    |IMP 818815003623 190320816 Dr - 200000225829 - DURGA LAL GURJAR|07-07-2018|5000|D|FOS2018070715200527603623               |07-07-2018 15:20:06
07-07-2018 15:48:58|9999|HEAD OFFICE|200000793231    |200000508890    |IMP 818815126011 P2A Dr - 200000793231 - SARASWATHI DAIRY FRESH|07-07-2018|4600|D|FOS2018070715485836926011               |07-07-2018 15:48:58
07-07-2018 15:48:05|9999|HEAD OFFICE|200000793231    |200000508890    |IMP 818815589667 P2A Dr - 200000793231 - SARASWATHI DAIRY FRESH|07-07-2018|1|D|FOS2018070715480344489667               |07-07-2018 15:48:05
07-07-2018 16:17:46|9999|HEAD OFFICE|100003319953    |200000508890    |IMP 818816978374 comments Dr - 100003319953 - UPPARA HANUMANTHU|07-07-2018|194|D|FOS2018070716174437878374               |07-07-2018 16:17:46
07-07-2018 15:57:33|9999|HEAD OFFICE|100000986358    |200000508890    |IMP 818815128161 Kovil muthumaariamman temple Dr - 100000986358 - S MOHAMED EBRAHIM|07-07-2018|4000|D|FOS2018070715573058428161               |07-07-2018 15:57:33
07-07-2018 16:29:09|9999|HEAD OFFICE|200000504026    |200000508890    |IMP 818816778650 INETIMPS00003671058 Dr - 200000504026 - UGAM  TELECOM|07-07-2018|27500|D|FOS2018070716281181078650               |07-07-2018 16:29:09
07-07-2018 17:03:12|9999|HEAD OFFICE|100000670494    |200000508890    |IMP 818817789845 MOBUA77293225 Dr - 100000670494 - YASHIN MOHAMMED GULA|07-07-2018|50|D|FOS2018070717030948789845               |07-07-2018 17:03:12
07-07-2018 14:23:20|9999|HEAD OFFICE|200000710680    |200000508890    |IMP 818814011846 P2A Dr - 200000710680 - THAMARAISELVI PICHAI|07-07-2018|5000|D|FOS2018070714231943211846               |07-07-2018 14:23:20
07-07-2018 15:04:34|9999|HEAD OFFICE|200000510233    |200000508890    |IMP 818815189437 Msand Payment Dr - 200000510233 - PK ENTERPRISES|07-07-2018|50371|D|FOS2018070715043382389437               |07-07-2018 15:04:34
07-07-2018 14:41:39|9999|HEAD OFFICE|200000471514    |200000508890    |IMP 818814741433 stitching Dr - 200000471514 - KING  TAILORS|07-07-2018|7500|D|FOS2018070714413799141433               |07-07-2018 14:41:39
07-07-2018 14:48:10|9999|HEAD OFFICE|200000270366    |200000508890    |IMP 818814408436 P2A Dr - 200000270366 - GUPTA NERROW FAB|07-07-2018|50000|D|FOS2018070714480804108436               |07-07-2018 14:48:10
07-07-2018 17:25:15|9999|HEAD OFFICE|100003244835    |200000508890    |IMP 818817269527 P2A Dr - 100003244835 - V RAVI BHARATHI MOHAN|07-07-2018|3000|D|FOS2018070717245641269527               |07-07-2018 17:25:15
07-07-2018 14:13:29|9999|HEAD OFFICE|100002693510    |200000508890    |IMP 818814396431 P2A Dr - 100002693510 - SUNIL  RANA|07-07-2018|4000|D|FOS2018070714132843596431               |07-07-2018 14:13:29
