[
  {
    "RECON_NAME": "CBS Suspense Acc Recon",
    "RECON_ID": "SUSP_CASH_APAC_18646",
    "BUSINESS_CONTEXT_ID": 1111131119,
    "WORKPOOL_NAME": "CBS Pool",
    "BUSINESS_PROCESS_NAME": "CBS Suspense",
    "TXN_PROCESSING_LEVEL": "Transaction Level",
    "TXN_PROCESSING_TYPE": "Double Entry"
  },
  {
    "RECON_NAME": "DD Unpaid Account Reconciliation",
    "RECON_ID": "BP_CASH_APAC_18583",
    "BUSINESS_CONTEXT_ID": 1111305315,
    "WORKPOOL_NAME": "CMS BulkPay Pool",
    "BUSINESS_PROCESS_NAME": "CMS Bulk Payments",
    "TXN_PROCESSING_LEVEL": "Transaction Level",
    "TXN_PROCESSING_TYPE": "Double Entry"
  },
  {
    "RECON_NAME": "IFT Pool Account Recon",
    "RECON_ID": "BP_CASH_APAC_18704",
    "BUSINESS_CONTEXT_ID": 1111305315,
    "WORKPOOL_NAME": "CMS BulkPay Pool",
    "BUSINESS_PROCESS_NAME": "CMS Bulk Payments",
    "TXN_PROCESSING_LEVEL": "Transaction Level",
    "TXN_PROCESSING_TYPE": "Double Entry"
  },
  {
    "RECON_NAME": "Corr Bank DD Issue Recon",
    "RECON_ID": "BP_CASH_APAC_18724",
    "BUSINESS_CONTEXT_ID": 1111305315,
    "WORKPOOL_NAME": "CMS BulkPay Pool",
    "BUSINESS_PROCESS_NAME": "CMS Bulk Payments",
    "TXN_PROCESSING_LEVEL": "Transaction Level",
    "TXN_PROCESSING_TYPE": "Double Entry"
  },
  {
    "RECON_NAME": "Corr DD Funding Acc Recon",
    "RECON_ID": "BP_CASH_APAC_18744",
    "BUSINESS_CONTEXT_ID": 1111305315,
    "WORKPOOL_NAME": "CMS BulkPay Pool",
    "BUSINESS_PROCESS_NAME": "CMS Bulk Payments",
    "TXN_PROCESSING_LEVEL": "Transaction Level",
    "TXN_PROCESSING_TYPE": "Double Entry"
  },
  {
    "RECON_NAME": "NEFT Outward Return Recon CBS Vs SFMS",
    "RECON_ID": "EPYMTS_CASH_APAC_20221",
    "BUSINESS_CONTEXT_ID": 111123116,
    "WORKPOOL_NAME": "CMS Electronic Pay Pool",
    "BUSINESS_PROCESS_NAME": "CMS Electronic Payments",
    "TXN_PROCESSING_LEVEL": "Transaction Level",
    "TXN_PROCESSING_TYPE": "Double Entry"
  },
  {
    "RECON_NAME": "NEFT Inward Return Recon CBS Vs SFMS",
    "RECON_ID": "EPYMTS_CASH_APAC_20223",
    "BUSINESS_CONTEXT_ID": 111123116,
    "WORKPOOL_NAME": "CMS Electronic Pay Pool",
    "BUSINESS_PROCESS_NAME": "CMS Electronic Payments",
    "TXN_PROCESSING_LEVEL": "Transaction Level",
    "TXN_PROCESSING_TYPE": "Double Entry"
  },
  {
    "RECON_NAME": "RTGS Inward Return Recon CBS Vs SFMS",
    "RECON_ID": "EPYMTS_CASH_APAC_20229",
    "BUSINESS_CONTEXT_ID": 111123116,
    "WORKPOOL_NAME": "CMS Electronic Pay Pool",
    "BUSINESS_PROCESS_NAME": "CMS Electronic Payments",
    "TXN_PROCESSING_LEVEL": "Transaction Level",
    "TXN_PROCESSING_TYPE": "Double Entry"
  },
  {
    "RECON_NAME": "RTGS Outward Return Recon CBS Vs SFMS",
    "RECON_ID": "EPYMTS_CASH_APAC_20227",
    "BUSINESS_CONTEXT_ID": 111123116,
    "WORKPOOL_NAME": "CMS Electronic Pay Pool",
    "BUSINESS_PROCESS_NAME": "CMS Electronic Payments",
    "TXN_PROCESSING_LEVEL": "Transaction Level",
    "TXN_PROCESSING_TYPE": "Double Entry"
  },
  {
    "RECON_NAME": "RETL Initial Fund Susp Recon",
    "RECON_ID": "SUSP_CASH_APAC_20380",
    "BUSINESS_CONTEXT_ID": 1111131119,
    "WORKPOOL_NAME": "CBS Pool",
    "BUSINESS_PROCESS_NAME": "CBS Suspense",
    "TXN_PROCESSING_LEVEL": "Transaction Level",
    "TXN_PROCESSING_TYPE": "Double Entry"
  },
  {
    "RECON_NAME": "RASS Suspense Recon",
    "RECON_ID": "SUSP_CASH_APAC_20381",
    "BUSINESS_CONTEXT_ID": 1111131119,
    "WORKPOOL_NAME": "CBS Pool",
    "BUSINESS_PROCESS_NAME": "CBS Suspense",
    "TXN_PROCESSING_LEVEL": "Transaction Level",
    "TXN_PROCESSING_TYPE": "Double Entry"
  },
  {
    "RECON_NAME": "OGL vs RSystem Recon",
    "RECON_ID": "FIC_CASH_APAC_19082",
    "BUSINESS_CONTEXT_ID": 1111148147112,
    "WORKPOOL_NAME": "Fincon Pool",
    "BUSINESS_PROCESS_NAME": "Fincon",
    "TXN_PROCESSING_LEVEL": "Transaction Level",
    "TXN_PROCESSING_TYPE": "Double Entry"
  },
  {
    "RECON_NAME": "OGL vs Misys Recon",
    "RECON_ID": "FIC_CASH_APAC_19084",
    "BUSINESS_CONTEXT_ID": 1111148147112,
    "WORKPOOL_NAME": "Fincon Pool",
    "BUSINESS_PROCESS_NAME": "Fincon",
    "TXN_PROCESSING_LEVEL": "Transaction Level",
    "TXN_PROCESSING_TYPE": "Double Entry"
  },
  {
    "RECON_NAME": "OGL vs Novopay Recon",
    "RECON_ID": "FIC_CASH_APAC_19086",
    "BUSINESS_CONTEXT_ID": 1111148147112,
    "WORKPOOL_NAME": "Fincon Pool",
    "BUSINESS_PROCESS_NAME": "Fincon",
    "TXN_PROCESSING_LEVEL": "Transaction Level",
    "TXN_PROCESSING_TYPE": "Double Entry"
  },
  {
    "RECON_NAME": "BBNK Suspense Recon",
    "RECON_ID": "SUSP_CASH_APAC_20382",
    "BUSINESS_CONTEXT_ID": 1111131119,
    "WORKPOOL_NAME": "CBS Pool",
    "BUSINESS_PROCESS_NAME": "CBS Suspense",
    "TXN_PROCESSING_LEVEL": "Transaction Level",
    "TXN_PROCESSING_TYPE": "Double Entry"
  },
  {
    "RECON_NAME": "NEFT Outward CMS Vs CBS Pool A/C Recon",
    "RECON_ID": "EPYMTS_CASH_APAC_19104",
    "BUSINESS_CONTEXT_ID": 111123116,
    "WORKPOOL_NAME": "CMS Electronic Pay Pool",
    "BUSINESS_PROCESS_NAME": "CMS Electronic Payments",
    "TXN_PROCESSING_LEVEL": "Transaction Level",
    "TXN_PROCESSING_TYPE": "Double Entry"
  },
  {
    "RECON_NAME": "OGL Vs Bsmart Reconciliation",
    "RECON_ID": "FIC_CASH_APAC_18663",
    "BUSINESS_CONTEXT_ID": 1111148147112,
    "WORKPOOL_NAME": "Fincon Pool",
    "BUSINESS_PROCESS_NAME": "Fincon",
    "TXN_PROCESSING_LEVEL": "Transaction Level",
    "TXN_PROCESSING_TYPE": "Double Entry"
  },
  {
    "RECON_NAME": "RTGS Outward CMS Vs CBS Pool A/C Recon",
    "RECON_ID": "EPYMTS_CASH_APAC_19108",
    "BUSINESS_CONTEXT_ID": 111123116,
    "WORKPOOL_NAME": "CMS Electronic Pay Pool",
    "BUSINESS_PROCESS_NAME": "CMS Electronic Payments",
    "TXN_PROCESSING_LEVEL": "Transaction Level",
    "TXN_PROCESSING_TYPE": "Double Entry"
  },
  {
    "RECON_NAME": "RTGS Outward Recon CBS Vs SFMS",
    "RECON_ID": "EPYMTS_CASH_APAC_20225",
    "BUSINESS_CONTEXT_ID": 111123116,
    "WORKPOOL_NAME": "CMS Electronic Pay Pool",
    "BUSINESS_PROCESS_NAME": "CMS Electronic Payments",
    "TXN_PROCESSING_LEVEL": "Transaction Level",
    "TXN_PROCESSING_TYPE": "Double Entry"
  },
  {
    "RECON_NAME": "NEFT Outward Recon CBS Vs SFMS",
    "RECON_ID": "EPYMTS_CASH_APAC_20201",
    "BUSINESS_CONTEXT_ID": 111123116,
    "WORKPOOL_NAME": "CMS Electronic Pay Pool",
    "BUSINESS_PROCESS_NAME": "CMS Electronic Payments",
    "TXN_PROCESSING_LEVEL": "Transaction Level",
    "TXN_PROCESSING_TYPE": "Double Entry"
  },
  {
    "RECON_NAME": "Accounts Payable Recon",
    "RECON_ID": "TF_CASH_APAC_20262",
    "BUSINESS_CONTEXT_ID": 1111303316,
    "WORKPOOL_NAME": "TradeFinance Pool",
    "BUSINESS_PROCESS_NAME": "Trade Finance",
    "TXN_PROCESSING_LEVEL": "Transaction Level",
    "TXN_PROCESSING_TYPE": "Double Entry"
  },
  {
    "RECON_NAME": "Bsmart Outstanding Balance Recon",
    "RECON_ID": "BS_CASH_APAC_19128",
    "BUSINESS_CONTEXT_ID": 11111913121,
    "WORKPOOL_NAME": "Bsmart Pool",
    "BUSINESS_PROCESS_NAME": "BSMART",
    "TXN_PROCESSING_LEVEL": "Transaction Level",
    "TXN_PROCESSING_TYPE": "Mirror"
  },
  {
    "RECON_NAME": "NOSTRO Reconciliation",
    "RECON_ID": "TRSC_CASH_APAC_20181",
    "BUSINESS_CONTEXT_ID": 11113043120,
    "WORKPOOL_NAME": "Treasury Cash Pool",
    "BUSINESS_PROCESS_NAME": "Treasury",
    "TXN_PROCESSING_LEVEL": "Transaction Level",
    "TXN_PROCESSING_TYPE": "Double Entry"
  },
  {
    "RECON_NAME": "TF CBS Interface Recon",
    "RECON_ID": "TF_CASH_APAC_20063",
    "BUSINESS_CONTEXT_ID": 1111303316,
    "WORKPOOL_NAME": "TradeFinance Pool",
    "BUSINESS_PROCESS_NAME": "Trade Finance",
    "TXN_PROCESSING_LEVEL": "Transaction Level",
    "TXN_PROCESSING_TYPE": "Double Entry"
  },
  {
    "RECON_NAME": "BB OGL Recon",
    "RECON_ID": "AST_CASH_APAC_18485",
    "BUSINESS_CONTEXT_ID": 1111296146110,
    "WORKPOOL_NAME": "Bharat Banking Pool",
    "BUSINESS_PROCESS_NAME": "Bharath Banking",
    "TXN_PROCESSING_LEVEL": "Transaction Level",
    "TXN_PROCESSING_TYPE": "Double Entry"
  },
  {
    "RECON_NAME": "Sundry Reconciliation",
    "RECON_ID": "TF_CASH_APAC_20261",
    "BUSINESS_CONTEXT_ID": 1111303316,
    "WORKPOOL_NAME": "TradeFinance Pool",
    "BUSINESS_PROCESS_NAME": "Trade Finance",
    "TXN_PROCESSING_LEVEL": "Transaction Level",
    "TXN_PROCESSING_TYPE": "Double Entry"
  },
  {
    "RECON_NAME": "Standard Adv Acc Recon",
    "RECON_ID": "TF_CASH_APAC_20264",
    "BUSINESS_CONTEXT_ID": 1111303316,
    "WORKPOOL_NAME": "TradeFinance Pool",
    "BUSINESS_PROCESS_NAME": "Trade Finance",
    "TXN_PROCESSING_LEVEL": "Transaction Level",
    "TXN_PROCESSING_TYPE": "Double Entry"
  },
  {
    "RECON_NAME": "Bsmart Receipt Control Acc Recon",
    "RECON_ID": "BS_CASH_APAC_19124",
    "BUSINESS_CONTEXT_ID": 11111913121,
    "WORKPOOL_NAME": "Bsmart Pool",
    "BUSINESS_PROCESS_NAME": "BSMART",
    "TXN_PROCESSING_LEVEL": "Transaction Level",
    "TXN_PROCESSING_TYPE": "Double Entry"
  },
  {
    "RECON_NAME": "Bsmart Disb Pymt Cntrl Acc Recon",
    "RECON_ID": "BS_CASH_APAC_20000",
    "BUSINESS_CONTEXT_ID": 11111913121,
    "WORKPOOL_NAME": "Bsmart Pool",
    "BUSINESS_PROCESS_NAME": "BSMART",
    "TXN_PROCESSING_LEVEL": "Transaction Level",
    "TXN_PROCESSING_TYPE": "Double Entry"
  },
  {
    "RECON_NAME": "CBS Wash Acc Recon",
    "RECON_ID": "TRSC_CASH_APAC_18925",
    "BUSINESS_CONTEXT_ID": 11113043120,
    "WORKPOOL_NAME": "Treasury Cash Pool",
    "BUSINESS_PROCESS_NAME": "Treasury",
    "TXN_PROCESSING_LEVEL": "Transaction Level",
    "TXN_PROCESSING_TYPE": "Double Entry"
  },
  {
    "RECON_NAME": "NEFT Inward Recon CBS Vs SFMS",
    "RECON_ID": "EPYMTS_CASH_APAC_19106",
    "BUSINESS_CONTEXT_ID": 111123116,
    "WORKPOOL_NAME": "CMS Electronic Pay Pool",
    "BUSINESS_PROCESS_NAME": "CMS Electronic Payments",
    "TXN_PROCESSING_LEVEL": "Transaction Level",
    "TXN_PROCESSING_TYPE": "Double Entry"
  },
  {
    "RECON_NAME": "RTGS Inward  Recon CBS Vs SFMS",
    "RECON_ID": "EPYMTS_CASH_APAC_19110",
    "BUSINESS_CONTEXT_ID": 111123116,
    "WORKPOOL_NAME": "CMS Electronic Pay Pool",
    "BUSINESS_PROCESS_NAME": "CMS Electronic Payments",
    "TXN_PROCESSING_LEVEL": "Transaction Level",
    "TXN_PROCESSING_TYPE": "Double Entry"
  },
  {
    "RECON_NAME": "Accounts Receivable Recon",
    "RECON_ID": "TF_CASH_APAC_20263",
    "BUSINESS_CONTEXT_ID": 1111303316,
    "WORKPOOL_NAME": "TradeFinance Pool",
    "BUSINESS_PROCESS_NAME": "Trade Finance",
    "TXN_PROCESSING_LEVEL": "Transaction Level",
    "TXN_PROCESSING_TYPE": "Double Entry"
  },
  {
    "RECON_NAME": "Deal Tally with FO Systems",
    "RECON_ID": "TRESEC_CASH_APAC_18944",
    "BUSINESS_CONTEXT_ID": 11113043118,
    "WORKPOOL_NAME": "Treasury Sec Pool",
    "BUSINESS_PROCESS_NAME": "Treasury",
    "TXN_PROCESSING_LEVEL": "Transaction Level",
    "TXN_PROCESSING_TYPE": "Mirror"
  },
  {
    "RECON_NAME": "KPTP Vs OGL Reconciliation",
    "RECON_ID": "TRSC_CASH_APAC_18904",
    "BUSINESS_CONTEXT_ID": 11113043120,
    "WORKPOOL_NAME": "Treasury Cash Pool",
    "BUSINESS_PROCESS_NAME": "Treasury",
    "TXN_PROCESSING_LEVEL": "Transaction Level",
    "TXN_PROCESSING_TYPE": "Mirror"
  },
  {
    "RECON_NAME": "OW Clrg Recon CBS vs VSOFT",
    "RECON_ID": "CLG_CASH_APAC_20161",
    "BUSINESS_CONTEXT_ID": 1111297312,
    "WORKPOOL_NAME": "Clearing Pool",
    "BUSINESS_PROCESS_NAME": "Clearing",
    "TXN_PROCESSING_LEVEL": "Transaction Level",
    "TXN_PROCESSING_TYPE": "Double Entry"
  },
  {
    "RECON_NAME": "OW Clrg Retn Recon Vsoft vs NPCI",
    "RECON_ID": "CLG_CASH_APAC_20140",
    "BUSINESS_CONTEXT_ID": 1111297312,
    "WORKPOOL_NAME": "Clearing Pool",
    "BUSINESS_PROCESS_NAME": "Clearing",
    "TXN_PROCESSING_LEVEL": "Transaction Level",
    "TXN_PROCESSING_TYPE": "Double Entry"
  },
  {
    "RECON_NAME": "OW Clrg Retn Recon CBS vs VSOFT",
    "RECON_ID": "CLG_CASH_APAC_20162",
    "BUSINESS_CONTEXT_ID": 1111297312,
    "WORKPOOL_NAME": "Clearing Pool",
    "BUSINESS_PROCESS_NAME": "Clearing",
    "TXN_PROCESSING_LEVEL": "Transaction Level",
    "TXN_PROCESSING_TYPE": "Double Entry"
  },
  {
    "RECON_NAME": "Inward Clearing Return Recon",
    "RECON_ID": "CLG_CASH_APAC_20121",
    "BUSINESS_CONTEXT_ID": 1111297312,
    "WORKPOOL_NAME": "Clearing Pool",
    "BUSINESS_PROCESS_NAME": "Clearing",
    "TXN_PROCESSING_LEVEL": "Transaction Level",
    "TXN_PROCESSING_TYPE": "Double Entry"
  },
  {
    "RECON_NAME": "Inward Clearing Recon",
    "RECON_ID": "CLG_CASH_APAC_20101",
    "BUSINESS_CONTEXT_ID": 1111297312,
    "WORKPOOL_NAME": "Clearing Pool",
    "BUSINESS_PROCESS_NAME": "Clearing",
    "TXN_PROCESSING_LEVEL": "Transaction Level",
    "TXN_PROCESSING_TYPE": "Double Entry"
  },
  {
    "RECON_NAME": "OW Clrg Recon Vsoft Vs NPCI",
    "RECON_ID": "CLG_CASH_APAC_20123",
    "BUSINESS_CONTEXT_ID": 1111297312,
    "WORKPOOL_NAME": "Clearing Pool",
    "BUSINESS_PROCESS_NAME": "Clearing",
    "TXN_PROCESSING_LEVEL": "Transaction Level",
    "TXN_PROCESSING_TYPE": "Double Entry"
  },
  {
    "RECON_NAME": "Corr Bank Stale DD Acc Recon",
    "RECON_ID": "BP_CASH_APAC_18746",
    "BUSINESS_CONTEXT_ID": 1111305315,
    "WORKPOOL_NAME": "CMS BulkPay Pool",
    "BUSINESS_PROCESS_NAME": "CMS Bulk Payments",
    "TXN_PROCESSING_LEVEL": "Transaction Level",
    "TXN_PROCESSING_TYPE": "Double Entry"
  },
  {
    "RECON_NAME": "OGL vs CBS Recon",
    "RECON_ID": "FIC_CASH_APAC_19074",
    "BUSINESS_CONTEXT_ID": 1111148147112,
    "WORKPOOL_NAME": "Fincon Pool",
    "BUSINESS_PROCESS_NAME": "Fincon",
    "TXN_PROCESSING_LEVEL": "Transaction Level",
    "TXN_PROCESSING_TYPE": "Double Entry"
  },
  {
    "RECON_NAME": "OGL vs KPTP Recon",
    "RECON_ID": "FIC_CASH_APAC_19076",
    "BUSINESS_CONTEXT_ID": 1111148147112,
    "WORKPOOL_NAME": "Fincon Pool",
    "BUSINESS_PROCESS_NAME": "Fincon",
    "TXN_PROCESSING_LEVEL": "Transaction Level",
    "TXN_PROCESSING_TYPE": "Double Entry"
  }
]