Transaction Date,Description,Amount,C.D.Falg,Reference No,Value Date,Branch Name
2018-04-24,00030330004897   EOD SWEEP ,80685051.63,D, ,23/04/2018,K G MARG
2018-04-24,NEFT Cr-YESB0000001-PHONEPE PRIVATE LIMITED-PVR LIMITED-N114180106667367,239823.37,C,N114180106667367,24/04/2018,FORT
2018-04-24,NEFT Cr-AIRP0000001-PVR LIMITED-PVR LTD-A114180001007891,53743.44,C,A114180001007891,24/04/2018,CMS TF WBO MUMBAI
2018-04-24,RTGS Cr-KKBK0000958-PVR POOL ACCOUNT-PVR LIMITED-KKBKR52018042400779227,257827.12,C,KKBKR52018042400779227,24/04/2018,FORT
2018-04-24,NEFT Cr-ICIC0SF0002-ARTHASHASTRA FINTECH PRIVATE LIMITED-PVR LIMITED-20510742041DC,29169.5,C,20510742041DC,24/04/2018,FORT
2018-04-24,NEFT Cr-CITI0000002-ONE97 COMMUNICATIONS LIMITED-PVR LIMITED-CITIN18850800204,5616617.52,C,CITIN18850800204,24/04/2018,FORT
2018-04-24,NEFT Cr-KKBK0000958-BIG TREE ENTERTAINMENT PRIVATE LIMITED-PVR LIMITED-KKBK181147255433,139340.0,C,KKBK181147255433,24/04/2018,FORT
2018-04-24,NEFT Cr-KKBK0000958-BIG TREE ENTERTAINMENT PRIVATE LIMITED-PVR LIMITED-KKBK181147255389,22433.0,C,KKBK181147255389,24/04/2018,FORT
2018-04-24,NEFT Cr-KKBK0000958-BIG TREE ENTERTAINMENT PRIVATE LIMITED-PVR LIMITED-KKBK181147255388,10989.0,C,KKBK181147255388,24/04/2018,FORT
2018-04-24,NEFT Cr-KKBK0000958-BIG TREE ENTERTAINMENT PRIVATE LIMITED-PVR LIMITED-KKBK181147255372,235.0,C,KKBK181147255372,24/04/2018,FORT
2018-04-24,NEFT Cr-KKBK0000958-BIG TREE ENTERTAINMENT PRIVATE LIMITED-PVR LIMITED-KKBK181147255543,2170327.0,C,KKBK181147255543,24/04/2018,FORT
2018-04-24,NEFT Cr-CITI0000002-ONE97 COMMUNICATIONS LIMITED-PVR LIMITED-CITIN18850816185,3736014.91,C,CITIN18850816185,24/04/2018,FORT
2018-04-24,NEFT Cr-ICIC0000031-ONE 97 COMMUNICATIONS LTD-Pvr Limited-CMS810090893,6082.3,C,CMS810090893,24/04/2018,FORT
2018-04-24,NEFT Cr-KKBK0000958-BIG TREE ENTERTAINMENT PRIVATE LIMITED-PVR LIMITED-KKBK181147255532,22189737.0,C,KKBK181147255532,24/04/2018,FORT
2018-04-24,NEFT Cr-KKBK0000958-BIG TREE ENTERTAINMENT PRIVATE LIMITED-PVR LIMITED-KKBK181147255553,3194942.0,C,KKBK181147255553,24/04/2018,FORT
2018-04-24,00030330004897   EOD SWEEP ,37667281.16,D, ,24/04/2018,K G MARG
2018-04-25,NEFT Cr-YESB0000001-PHONEPE PRIVATE LIMITED-PVR LIMITED-N115180106957285,289868.11,C,N115180106957285,25/04/2018,FORT
2018-04-25,NEFT Cr-AIRP0000001-PVR LIMITED-PVR LTD-A115180001008598,45112.8,C,A115180001008598,25/04/2018,FORT
2018-04-25,NEFT Cr-CITI0000002-ONE97 COMMUNICATIONS LIMITED-PVR LIMITED-CITIN18851273611,2689401.64,C,CITIN18851273611,25/04/2018,FORT
2018-04-25,NEFT Cr-CITI0000002-ONE97 COMMUNICATIONS LIMITED-PVR LIMITED-CITIN18851273997,3963565.48,C,CITIN18851273997,25/04/2018,FORT
2018-04-25,NEFT Cr-KKBK0000958-BIG TREE ENTERTAINMENT PRIVATE LIMITED-PVR LIMITED-KKBK181157410976,1630506.0,C,KKBK181157410976,25/04/2018,FORT
2018-04-25,NEFT Cr-KKBK0000958-BIG TREE ENTERTAINMENT PRIVATE LIMITED-PVR LIMITED-KKBK181157411258,22931.0,C,KKBK181157411258,25/04/2018,FORT
2018-04-25,NEFT Cr-KKBK0000958-BIG TREE ENTERTAINMENT PRIVATE LIMITED-PVR LIMITED-KKBK181157411318,282.0,C,KKBK181157411318,25/04/2018,FORT
2018-04-25,NEFT Cr-KKBK0000958-BIG TREE ENTERTAINMENT PRIVATE LIMITED-PVR LIMITED-KKBK181157411251,148604.0,C,KKBK181157411251,25/04/2018,FORT
2018-04-25,NEFT Cr-KKBK0000958-BIG TREE ENTERTAINMENT PRIVATE LIMITED-PVR LIMITED-KKBK181157411242,11515.0,C,KKBK181157411242,25/04/2018,FORT
2018-04-25,NEFT Cr-KKBK0000958-BIG TREE ENTERTAINMENT PRIVATE LIMITED-PVR LIMITED-KKBK181157410985,17029767.0,C,KKBK181157410985,25/04/2018,FORT
2018-04-25,NEFT Cr-KKBK0000958-BIG TREE ENTERTAINMENT PRIVATE LIMITED-PVR LIMITED-KKBK181157410860,2591903.0,C,KKBK181157410860,25/04/2018,FORT
2018-04-25,IMPS-811518127488-ARTHASHASTRA FINTECH-HDFC-xxxxxxxx0433-PVR FOR SETT,39418.8,C,811518127488,25/04/2018,FORT
2018-04-25,NEFT Cr-ICIC0000031-ONE 97 COMMUNICATIONS LTD-Pvr Limited-CMS810787737,3377.6,C,CMS810787737,25/04/2018,FORT
