Transaction Date,Description,Amount,C.D.Falg,Reference No,Value Date,Branch Name
2018-04-25,NEFT Cr-YESB0000001-PHONEPE PRIVATE LIMITED-PVR LIMITED-N115180106957285,289868.11,C,N115180106957285,25/04/2018,FORT
2018-04-25,NEFT Cr-AIRP0000001-PVR LIMITED-PVR LTD-A115180001008598,45112.8,C,A115180001008598,25/04/2018,FORT
2018-04-25,NEFT Cr-CITI0000002-ONE97 COMMUNICATIONS LIMITED-PVR LIMITED-CITIN18851273611,2689401.64,C,CITIN18851273611,25/04/2018,FORT
2018-04-25,NEFT Cr-CITI0000002-ONE97 COMMUNICATIONS LIMITED-PVR LIMITED-CITIN18851273997,3963565.48,C,CITIN18851273997,25/04/2018,FORT
2018-04-25,NEFT Cr-KKBK0000958-BIG TREE ENTERTAINMENT PRIVATE LIMITED-PVR LIMITED-KKBK181157410976,1630506.0,C,KKBK181157410976,25/04/2018,FORT
2018-04-25,NEFT Cr-KKBK0000958-BIG TREE ENTERTAINMENT PRIVATE LIMITED-PVR LIMITED-KKBK181157411258,22931.0,C,KKBK181157411258,25/04/2018,FORT
2018-04-25,NEFT Cr-KKBK0000958-BIG TREE ENTERTAINMENT PRIVATE LIMITED-PVR LIMITED-KKBK181157411318,282.0,C,KKBK181157411318,25/04/2018,FORT
2018-04-25,NEFT Cr-KKBK0000958-BIG TREE ENTERTAINMENT PRIVATE LIMITED-PVR LIMITED-KKBK181157411251,148604.0,C,KKBK181157411251,25/04/2018,FORT
2018-04-25,NEFT Cr-KKBK0000958-BIG TREE ENTERTAINMENT PRIVATE LIMITED-PVR LIMITED-KKBK181157411242,11515.0,C,KKBK181157411242,25/04/2018,FORT
2018-04-25,NEFT Cr-KKBK0000958-BIG TREE ENTERTAINMENT PRIVATE LIMITED-PVR LIMITED-KKBK181157410985,17029767.0,C,KKBK181157410985,25/04/2018,FORT
2018-04-25,NEFT Cr-KKBK0000958-BIG TREE ENTERTAINMENT PRIVATE LIMITED-PVR LIMITED-KKBK181157410860,2591903.0,C,KKBK181157410860,25/04/2018,FORT
2018-04-25,IMPS-811518127488-ARTHASHASTRA FINTECH-HDFC-xxxxxxxx0433-PVR FOR SETT,39418.8,C,811518127488,25/04/2018,FORT
2018-04-25,NEFT Cr-ICIC0000031-ONE 97 COMMUNICATIONS LTD-Pvr Limited-CMS810787737,3377.6,C,CMS810787737,25/04/2018,FORT
2018-04-26,00030330004897   EOD SWEEP ,28466252.43,D, ,25/04/2018,K G MARG
2018-04-26,NEFT Cr-YESB0000001-PHONEPE PRIVATE LIMITED-PVR LIMITED-N116180107220569,259296.95,C,N116180107220569,26/04/2018,FORT
2018-04-26,NEFT Cr-ICIC0SF0002-ARTHASHASTRA FINTECH PRIVATE LIMITED-PVR LIMITED-20513092461DC,14702.84,C,20513092461DC,26/04/2018,FORT
2018-04-26,NEFT Cr-AIRP0000001-PVR LIMITED-PVR LTD-A116180001011059,51868.29,C,A116180001011059,26/04/2018,FORT
2018-04-26,NEFT Cr-KKBK0000958-BIG TREE ENTERTAINMENT PRIVATE LIMITED-PVR LIMITED-KKBK181167562760,1500296.0,C,KKBK181167562760,26/04/2018,FORT
2018-04-26,NEFT Cr-KKBK0000958-BIG TREE ENTERTAINMENT PRIVATE LIMITED-PVR LIMITED-KKBK181167562690,115596.0,C,KKBK181167562690,26/04/2018,FORT
2018-04-26,NEFT Cr-KKBK0000958-BIG TREE ENTERTAINMENT PRIVATE LIMITED-PVR LIMITED-KKBK181167562782,2277360.0,C,KKBK181167562782,26/04/2018,FORT
2018-04-26,NEFT Cr-KKBK0000958-BIG TREE ENTERTAINMENT PRIVATE LIMITED-PVR LIMITED-KKBK181167562650,12399.0,C,KKBK181167562650,26/04/2018,FORT
2018-04-26,NEFT Cr-KKBK0000958-BIG TREE ENTERTAINMENT PRIVATE LIMITED-PVR LIMITED-KKBK181167562648,432.0,C,KKBK181167562648,26/04/2018,FORT
2018-04-26,NEFT Cr-KKBK0000958-BIG TREE ENTERTAINMENT PRIVATE LIMITED-PVR LIMITED-KKBK181167562666,15247.0,C,KKBK181167562666,26/04/2018,FORT
2018-04-26,NEFT Cr-KKBK0000958-BIG TREE ENTERTAINMENT PRIVATE LIMITED-PVR LIMITED-KKBK181167562678,818.0,C,KKBK181167562678,26/04/2018,FORT
2018-04-26,NEFT Cr-CITI0000002-ONE97 COMMUNICATIONS LIMITED-PVR LIMITED-CITIN18851793316,2675870.39,C,CITIN18851793316,26/04/2018,FORT
2018-04-26,NEFT Cr-CITI0000002-ONE97 COMMUNICATIONS LIMITED-PVR LIMITED-CITIN18851793542,3715518.22,C,CITIN18851793542,26/04/2018,FORT
2018-04-26,NEFT Cr-KKBK0000958-BIG TREE ENTERTAINMENT PRIVATE LIMITED-PVR LIMITED-KKBK181167562751,14510609.0,C,KKBK181167562751,26/04/2018,FORT
