Transaction Date,Description,Amount,C.D.Falg,Reference No,Value Date,Branch Name
2018-04-16,NEFT Cr-YESB0000001-PHONEPE PRIVATE LIMITED-PVR LIMITED-N106180104445137,415124.28,C,N106180104445137,16/04/2018,FORT
2018-04-16,NEFT Cr-ICIC0SF0002-ARTHASHASTRA FINTECH PRIVATE LIMITED-PVR LIMITED-20500293041DC,61239.12,C,20500293041DC,16/04/2018,FORT
2018-04-16,NEFT Cr-AIRP0000001-PVR LIMITED-PVR LTD-A106180001001198,48373.2,C,A106180001001198,16/04/2018,FORT
2018-04-16,NEFT Cr-CITI0000002-ONE97 COMMUNICATIONS LIMITED-PVR LIMITED-CITIN18847847946,3490904.28,C,CITIN18847847946,16/04/2018,FORT
2018-04-16,NEFT Cr-CITI0000002-ONE97 COMMUNICATIONS LIMITED-PVR LIMITED-CITIN18847849446,2268727.34,C,CITIN18847849446,16/04/2018,FORT
2018-04-16,NEFT Cr-CITI0000002-ONE97 COMMUNICATIONS LIMITED-PVR LIMITED-CITIN18848100717,5833081.9,C,CITIN18848100717,16/04/2018,FORT
2018-04-16,NEFT Cr-CITI0000002-ONE97 COMMUNICATIONS LIMITED-PVR LIMITED-CITIN18848101104,7827636.47,C,CITIN18848101104,16/04/2018,FORT
