{
	"fileType": "csv",
	"action": [{
			"filters": [{
				"resultkey": "payload['custom_reports']['Posted members reconciled_fileE']",
				"source": "For the day manual data",
				"expressions": [ 
		
     "df = df.merge(payload['Previous day advance'][['member_loan','Amount']],on = 'member_loan',how = 'left') if len(payload['Previous day advance'])>0 else df",
     
	"df['Amount_x'] = df['Amount_x'].fillna('0').astype(np.float64)",
      	
	"df['Amount_y'] = df['Amount_y'].fillna('0').astype(np.float64)",
       
	"df['Amount_Diff'] = df['Amount_x'] -df['Amount_y']",
                
		"df['Amount'] = df['Amount_x'] + df['Amount_y']",
			
			
			"df = df.drop(df.filter(regex = 'Amount_x').columns,axis = 1)",
			
	      "df = df.drop(df.filter(regex = 'Amount_y').columns,axis = 1)",
                         	
       		"df = df[df['Amount_Diff'] > 0]",
				
 			"df.loc[:,'Remarks'] = 'Manual Data'",
			"print len(payload['custom_reports']['Posted members reconciled_fileE'])",
			
			"payload['custom_reports']['Posted members reconciled_fileE'] = payload['custom_reports']['Posted members reconciled_fileE'].append(df)",
 
                      "print payload['Posted members reconciled_fileE'].columns" 


				]
			}
                    ],
                   "header":["Customer ID","Loan ID","Remarks",
       "FEED_FILE_NAME", "UNIQUE_SYS_COL",    "member_loan",
               "SOURCE", "STATEMENT_DATE", "System_Idx",
        "CARRY_FORWARD","Ageing", "Amount_Diff",
               "Amount"]


		}
	]
       
}
