[
  {
    "ACCOUNT_ID": 4209,
    "ACCOUNT_NUMBER": 99505102051,
    "ACCOUNT_NAME": "Local Outward Guarantee NonFinancial Control A\/c",
    "ACCOUNT_TYPE": "Inter-System",
    "ACCOUNT_OID": 4209,
    "BANK_BRANCH_CODE": 10205.0
  },
  {
    "ACCOUNT_ID": 4210,
    "ACCOUNT_NUMBER": 99510102054,
    "ACCOUNT_NAME": "Shipping Guarantee null Orders Control A\/c",
    "ACCOUNT_TYPE": "Inter-System",
    "ACCOUNT_OID": 4210,
    "BANK_BRANCH_CODE": 10205.0
  },
  {
    "ACCOUNT_ID": 4211,
    "ACCOUNT_NUMBER": 99515102050,
    "ACCOUNT_NAME": "Stand-by Letter of Credit (SBLC)-Financial Control A\/c",
    "ACCOUNT_TYPE": "Inter-System",
    "ACCOUNT_OID": 4211,
    "BANK_BRANCH_CODE": 10205.0
  },
  {
    "ACCOUNT_ID": 4212,
    "ACCOUNT_NUMBER": 99520102052,
    "ACCOUNT_NAME": "Stand-by Letter of Credit (SBLC)-NonFinancial Control A\/c",
    "ACCOUNT_TYPE": "Inter-System",
    "ACCOUNT_OID": 4212,
    "BANK_BRANCH_CODE": 10205.0
  },
  {
    "ACCOUNT_ID": 4213,
    "ACCOUNT_NUMBER": 99525102058,
    "ACCOUNT_NAME": "Foreign Import LC Devolved Control A\/c",
    "ACCOUNT_TYPE": "Inter-System",
    "ACCOUNT_OID": 4213,
    "BANK_BRANCH_CODE": 10205.0
  },
  {
    "ACCOUNT_ID": 4214,
    "ACCOUNT_NUMBER": 99530102050,
    "ACCOUNT_NAME": "Local Outward LC Devolved Control A\/c",
    "ACCOUNT_TYPE": "Inter-System",
    "ACCOUNT_OID": 4214,
    "BANK_BRANCH_CODE": 10205.0
  },
  {
    "ACCOUNT_ID": 4215,
    "ACCOUNT_NUMBER": 99535102056,
    "ACCOUNT_NAME": "Foreign Outward BG Invoked Control A\/c",
    "ACCOUNT_TYPE": "Inter-System",
    "ACCOUNT_OID": 4215,
    "BANK_BRANCH_CODE": 10205.0
  },
  {
    "ACCOUNT_ID": 4216,
    "ACCOUNT_NUMBER": 99540102058,
    "ACCOUNT_NAME": "Local Outward BG Invoked Control A\/c",
    "ACCOUNT_TYPE": "Inter-System",
    "ACCOUNT_OID": 4216,
    "BANK_BRANCH_CODE": 10205.0
  },
  {
    "ACCOUNT_ID": 4217,
    "ACCOUNT_NUMBER": 99545102054,
    "ACCOUNT_NAME": "Export LC Confirmed Devolved Control A\/c",
    "ACCOUNT_TYPE": "Inter-System",
    "ACCOUNT_OID": 4217,
    "BANK_BRANCH_CODE": 10205.0
  },
  {
    "ACCOUNT_ID": 4218,
    "ACCOUNT_NUMBER": 99550102056,
    "ACCOUNT_NAME": "Import Buyers Credit Devolved Control A\/c",
    "ACCOUNT_TYPE": "Inter-System",
    "ACCOUNT_OID": 4218,
    "BANK_BRANCH_CODE": 10205.0
  },
  {
    "ACCOUNT_ID": 4219,
    "ACCOUNT_NUMBER": 99555102052,
    "ACCOUNT_NAME": "Buyers Credit Capex Control A\/c",
    "ACCOUNT_TYPE": "Inter-System",
    "ACCOUNT_OID": 4219,
    "BANK_BRANCH_CODE": 10205.0
  },
  {
    "ACCOUNT_ID": 4220,
    "ACCOUNT_NUMBER": 99560102055,
    "ACCOUNT_NAME": "LC-Capex Control A\/c",
    "ACCOUNT_TYPE": "Inter-System",
    "ACCOUNT_OID": 4220,
    "BANK_BRANCH_CODE": 10205.0
  },
  {
    "ACCOUNT_ID": 4221,
    "ACCOUNT_NUMBER": 99701102058,
    "ACCOUNT_NAME": "Export LC Not Advised Frgn Control A\/C",
    "ACCOUNT_TYPE": "Inter-System",
    "ACCOUNT_OID": 4221,
    "BANK_BRANCH_CODE": 10205.0
  },
  {
    "ACCOUNT_ID": 4222,
    "ACCOUNT_NUMBER": 99702102057,
    "ACCOUNT_NAME": "Local Inward LC Not Advised Control A\/C",
    "ACCOUNT_TYPE": "Inter-System",
    "ACCOUNT_OID": 4222,
    "BANK_BRANCH_CODE": 10205.0
  },
  {
    "ACCOUNT_ID": 4223,
    "ACCOUNT_NUMBER": 99703102056,
    "ACCOUNT_NAME": "Bill undr Exp LC FRN (EXLC\/ENLC) ContA\/C",
    "ACCOUNT_TYPE": "Inter-System",
    "ACCOUNT_OID": 4223,
    "BANK_BRANCH_CODE": 10205.0
  },
  {
    "ACCOUNT_ID": 4224,
    "ACCOUNT_NUMBER": 99704102055,
    "ACCOUNT_NAME": "Bill und Loc I\/W LC (LILC\/LNLC) ContA\/C",
    "ACCOUNT_TYPE": "Inter-System",
    "ACCOUNT_OID": 4224,
    "BANK_BRANCH_CODE": 10205.0
  },
  {
    "ACCOUNT_ID": 4225,
    "ACCOUNT_NUMBER": 99705102054,
    "ACCOUNT_NAME": "Export transfer LC Control A\/C",
    "ACCOUNT_TYPE": "Inter-System",
    "ACCOUNT_OID": 4225,
    "BANK_BRANCH_CODE": 10205.0
  },
  {
    "ACCOUNT_ID": 4226,
    "ACCOUNT_NUMBER": 99706102053,
    "ACCOUNT_NAME": "Export Coll Bill Foreign Control A\/C",
    "ACCOUNT_TYPE": "Inter-System",
    "ACCOUNT_OID": 4226,
    "BANK_BRANCH_CODE": 10205.0
  },
  {
    "ACCOUNT_ID": 4227,
    "ACCOUNT_NUMBER": 99707102052,
    "ACCOUNT_NAME": "Local Outward Coll Bill Control A\/C",
    "ACCOUNT_TYPE": "Inter-System",
    "ACCOUNT_OID": 4227,
    "BANK_BRANCH_CODE": 10205.0
  },
  {
    "ACCOUNT_ID": 4228,
    "ACCOUNT_NUMBER": 99708102051,
    "ACCOUNT_NAME": "Bill under Import LC Foreign (IMLC) Control A\/C",
    "ACCOUNT_TYPE": "Inter-System",
    "ACCOUNT_OID": 4228,
    "BANK_BRANCH_CODE": 10205.0
  },
  {
    "ACCOUNT_ID": 4229,
    "ACCOUNT_NUMBER": 99709102050,
    "ACCOUNT_NAME": "Bill under Loc O\/W LC (LOLC) Control A\/C",
    "ACCOUNT_TYPE": "Inter-System",
    "ACCOUNT_OID": 4229,
    "BANK_BRANCH_CODE": 10205.0
  },
  {
    "ACCOUNT_ID": 3894,
    "ACCOUNT_NUMBER": 99780102043,
    "ACCOUNT_NAME": "SDMC Intermediate Account (RTGS)",
    "ACCOUNT_TYPE": "Suspense",
    "ACCOUNT_OID": 3894,
    "BANK_BRANCH_CODE": 10204.0
  },
  {
    "ACCOUNT_ID": 4230,
    "ACCOUNT_NUMBER": 99710102057,
    "ACCOUNT_NAME": "Import Collection Bill Control A\/C",
    "ACCOUNT_TYPE": "Inter-System",
    "ACCOUNT_OID": 4230,
    "BANK_BRANCH_CODE": 10205.0
  },
  {
    "ACCOUNT_ID": 4231,
    "ACCOUNT_NUMBER": 99711102057,
    "ACCOUNT_NAME": "Local Inward Collection Bill Control A\/C",
    "ACCOUNT_TYPE": "Inter-System",
    "ACCOUNT_OID": 4231,
    "BANK_BRANCH_CODE": 10205.0
  },
  {
    "ACCOUNT_ID": 4232,
    "ACCOUNT_NUMBER": 99712102056,
    "ACCOUNT_NAME": "Foreign Inward BG Control A\/C",
    "ACCOUNT_TYPE": "Inter-System",
    "ACCOUNT_OID": 4232,
    "BANK_BRANCH_CODE": 10205.0
  },
  {
    "ACCOUNT_ID": 4233,
    "ACCOUNT_NUMBER": 99713102055,
    "ACCOUNT_NAME": "Local Inward BG Control A\/C",
    "ACCOUNT_TYPE": "Inter-System",
    "ACCOUNT_OID": 4233,
    "BANK_BRANCH_CODE": 10205.0
  },
  {
    "ACCOUNT_ID": 4234,
    "ACCOUNT_NUMBER": 99714102054,
    "ACCOUNT_NAME": "Local Outward Standby LC Control A\/C",
    "ACCOUNT_TYPE": "Inter-System",
    "ACCOUNT_OID": 4234,
    "BANK_BRANCH_CODE": 10205.0
  },
  {
    "ACCOUNT_ID": 4235,
    "ACCOUNT_NUMBER": 99715102053,
    "ACCOUNT_NAME": "Foreign Inward Standby LC Control A\/C",
    "ACCOUNT_TYPE": "Inter-System",
    "ACCOUNT_OID": 4235,
    "BANK_BRANCH_CODE": 10205.0
  },
  {
    "ACCOUNT_ID": 4236,
    "ACCOUNT_NUMBER": 99716102052,
    "ACCOUNT_NAME": "Local Inward Standby LC Control A\/C",
    "ACCOUNT_TYPE": "Inter-System",
    "ACCOUNT_OID": 4236,
    "BANK_BRANCH_CODE": 10205.0
  },
  {
    "ACCOUNT_ID": 4237,
    "ACCOUNT_NUMBER": 99717102051,
    "ACCOUNT_NAME": "Inward Remittances Control A\/C",
    "ACCOUNT_TYPE": "Inter-System",
    "ACCOUNT_OID": 4237,
    "BANK_BRANCH_CODE": 10205.0
  },
  {
    "ACCOUNT_ID": 4238,
    "ACCOUNT_NUMBER": 99718102050,
    "ACCOUNT_NAME": "Outward Remittances Control A\/C",
    "ACCOUNT_TYPE": "Inter-System",
    "ACCOUNT_OID": 4238,
    "BANK_BRANCH_CODE": 10205.0
  },
  {
    "ACCOUNT_ID": 3933,
    "ACCOUNT_NUMBER": 99601102029,
    "ACCOUNT_NAME": "Treasury Wash Account",
    "ACCOUNT_TYPE": "Inter-System",
    "ACCOUNT_OID": 3933,
    "BANK_BRANCH_CODE": 10202.0
  },
  {
    "ACCOUNT_ID": 4260,
    "ACCOUNT_NUMBER": 98135102070,
    "ACCOUNT_NAME": "VSMART Receivable Control Account",
    "ACCOUNT_TYPE": "Inter-System",
    "ACCOUNT_OID": 4260,
    "BANK_BRANCH_CODE": 10207.0
  },
  {
    "ACCOUNT_ID": 4261,
    "ACCOUNT_NUMBER": 98136102079,
    "ACCOUNT_NAME": "VSMART Disbursement\/ Payment  Control Account",
    "ACCOUNT_TYPE": "Inter-System",
    "ACCOUNT_OID": 4261,
    "BANK_BRANCH_CODE": 10207.0
  },
  {
    "ACCOUNT_ID": 4965,
    "ACCOUNT_NUMBER": 98189102011,
    "ACCOUNT_NAME": "OPEX PAYABLE CONTROL ACCOUNT",
    "ACCOUNT_TYPE": "Inter-System",
    "ACCOUNT_OID": 4965,
    "BANK_BRANCH_CODE": 10201.0
  },
  {
    "ACCOUNT_ID": 4188,
    "ACCOUNT_NUMBER": 99400102059,
    "ACCOUNT_NAME": "EPC (Export Packing Credit - Rupee) Control A\/c",
    "ACCOUNT_TYPE": "Inter-System",
    "ACCOUNT_OID": 4188,
    "BANK_BRANCH_CODE": 10205.0
  },
  {
    "ACCOUNT_ID": 4189,
    "ACCOUNT_NUMBER": 99405102055,
    "ACCOUNT_NAME": "PCFC (Pre-shipment Credit - Foreign Currency) Control A\/c",
    "ACCOUNT_TYPE": "Inter-System",
    "ACCOUNT_OID": 4189,
    "BANK_BRANCH_CODE": 10205.0
  },
  {
    "ACCOUNT_ID": 4187,
    "ACCOUNT_NUMBER": 98175102051,
    "ACCOUNT_NAME": "TRADE SUNDRY",
    "ACCOUNT_TYPE": "Suspense",
    "ACCOUNT_OID": 4187,
    "BANK_BRANCH_CODE": 10205.0
  },
  {
    "ACCOUNT_ID": 3888,
    "ACCOUNT_NUMBER": 99761102047,
    "ACCOUNT_NAME": "MDMC NEFT Outward Settlement Account-12",
    "ACCOUNT_TYPE": "Suspense",
    "ACCOUNT_OID": 3888,
    "BANK_BRANCH_CODE": 10204.0
  },
  {
    "ACCOUNT_ID": 3889,
    "ACCOUNT_NUMBER": 99762102046,
    "ACCOUNT_NAME": "MDMC NEFT Outward Settlement Account-13",
    "ACCOUNT_TYPE": "Suspense",
    "ACCOUNT_OID": 3889,
    "BANK_BRANCH_CODE": 10204.0
  },
  {
    "ACCOUNT_ID": 3890,
    "ACCOUNT_NUMBER": 99763102045,
    "ACCOUNT_NAME": "MDMC NEFT Outward Settlement Account-14",
    "ACCOUNT_TYPE": "Suspense",
    "ACCOUNT_OID": 3890,
    "BANK_BRANCH_CODE": 10204.0
  },
  {
    "ACCOUNT_ID": 3891,
    "ACCOUNT_NUMBER": 99764102044,
    "ACCOUNT_NAME": "MDMC NEFT Outward Settlement Account-15",
    "ACCOUNT_TYPE": "Suspense",
    "ACCOUNT_OID": 3891,
    "BANK_BRANCH_CODE": 10204.0
  },
  {
    "ACCOUNT_ID": 3892,
    "ACCOUNT_NUMBER": 98008102042,
    "ACCOUNT_NAME": "CMS - NEFT Outward",
    "ACCOUNT_TYPE": "Suspense",
    "ACCOUNT_OID": 3892,
    "BANK_BRANCH_CODE": 10204.0
  },
  {
    "ACCOUNT_ID": 3895,
    "ACCOUNT_NUMBER": 99765102043,
    "ACCOUNT_NAME": "MDMC RTGS Outward Settlement Account-1",
    "ACCOUNT_TYPE": "Suspense",
    "ACCOUNT_OID": 3895,
    "BANK_BRANCH_CODE": 10204.0
  },
  {
    "ACCOUNT_ID": 3896,
    "ACCOUNT_NUMBER": 99766102042,
    "ACCOUNT_NAME": "MDMC RTGS Outward Settlement Account-2",
    "ACCOUNT_TYPE": "Suspense",
    "ACCOUNT_OID": 3896,
    "BANK_BRANCH_CODE": 10204.0
  },
  {
    "ACCOUNT_ID": 3897,
    "ACCOUNT_NUMBER": 99767102041,
    "ACCOUNT_NAME": "MDMC RTGS Outward Settlement Account-3",
    "ACCOUNT_TYPE": "Suspense",
    "ACCOUNT_OID": 3897,
    "BANK_BRANCH_CODE": 10204.0
  },
  {
    "ACCOUNT_ID": 3898,
    "ACCOUNT_NUMBER": 99768102040,
    "ACCOUNT_NAME": "MDMC RTGS Outward Settlement Account-4",
    "ACCOUNT_TYPE": "Suspense",
    "ACCOUNT_OID": 3898,
    "BANK_BRANCH_CODE": 10204.0
  },
  {
    "ACCOUNT_ID": 3899,
    "ACCOUNT_NUMBER": 99769102049,
    "ACCOUNT_NAME": "MDMC RTGS Outward Settlement Account-5",
    "ACCOUNT_TYPE": "Suspense",
    "ACCOUNT_OID": 3899,
    "BANK_BRANCH_CODE": 10204.0
  },
  {
    "ACCOUNT_ID": 3900,
    "ACCOUNT_NUMBER": 99770102045,
    "ACCOUNT_NAME": "MDMC RTGS Outward Settlement Account-6",
    "ACCOUNT_TYPE": "Suspense",
    "ACCOUNT_OID": 3900,
    "BANK_BRANCH_CODE": 10204.0
  },
  {
    "ACCOUNT_ID": 3901,
    "ACCOUNT_NUMBER": 99771102045,
    "ACCOUNT_NAME": "MDMC RTGS Outward Settlement Account-7",
    "ACCOUNT_TYPE": "Suspense",
    "ACCOUNT_OID": 3901,
    "BANK_BRANCH_CODE": 10204.0
  },
  {
    "ACCOUNT_ID": 3902,
    "ACCOUNT_NUMBER": 99772102044,
    "ACCOUNT_NAME": "MDMC RTGS Outward Settlement Account-8",
    "ACCOUNT_TYPE": "Suspense",
    "ACCOUNT_OID": 3902,
    "BANK_BRANCH_CODE": 10204.0
  },
  {
    "ACCOUNT_ID": 3903,
    "ACCOUNT_NUMBER": 99773102043,
    "ACCOUNT_NAME": "MDMC RTGS Outward Settlement Account-9",
    "ACCOUNT_TYPE": "Suspense",
    "ACCOUNT_OID": 3903,
    "BANK_BRANCH_CODE": 10204.0
  },
  {
    "ACCOUNT_ID": 3904,
    "ACCOUNT_NUMBER": 99774102042,
    "ACCOUNT_NAME": "MDMC RTGS Outward Settlement Account-10",
    "ACCOUNT_TYPE": "Suspense",
    "ACCOUNT_OID": 3904,
    "BANK_BRANCH_CODE": 10204.0
  },
  {
    "ACCOUNT_ID": 3905,
    "ACCOUNT_NUMBER": 99775102041,
    "ACCOUNT_NAME": "MDMC RTGS Outward Settlement Account-11",
    "ACCOUNT_TYPE": "Suspense",
    "ACCOUNT_OID": 3905,
    "BANK_BRANCH_CODE": 10204.0
  },
  {
    "ACCOUNT_ID": 3906,
    "ACCOUNT_NUMBER": 99776102040,
    "ACCOUNT_NAME": "MDMC RTGS Outward Settlement Account-12",
    "ACCOUNT_TYPE": "Suspense",
    "ACCOUNT_OID": 3906,
    "BANK_BRANCH_CODE": 10204.0
  },
  {
    "ACCOUNT_ID": 3907,
    "ACCOUNT_NUMBER": 99777102049,
    "ACCOUNT_NAME": "MDMC RTGS Outward Settlement Account-13",
    "ACCOUNT_TYPE": "Suspense",
    "ACCOUNT_OID": 3907,
    "BANK_BRANCH_CODE": 10204.0
  },
  {
    "ACCOUNT_ID": 3908,
    "ACCOUNT_NUMBER": 99778102048,
    "ACCOUNT_NAME": "MDMC RTGS Outward Settlement Account-14",
    "ACCOUNT_TYPE": "Suspense",
    "ACCOUNT_OID": 3908,
    "BANK_BRANCH_CODE": 10204.0
  },
  {
    "ACCOUNT_ID": 3909,
    "ACCOUNT_NUMBER": 99779102047,
    "ACCOUNT_NAME": "MDMC RTGS Outward Settlement Account-15",
    "ACCOUNT_TYPE": "Suspense",
    "ACCOUNT_OID": 3909,
    "BANK_BRANCH_CODE": 10204.0
  },
  {
    "ACCOUNT_ID": 3910,
    "ACCOUNT_NUMBER": 98007102043,
    "ACCOUNT_NAME": "CMS - RTGS Outward",
    "ACCOUNT_TYPE": "Suspense",
    "ACCOUNT_OID": 3910,
    "BANK_BRANCH_CODE": 10204.0
  },
  {
    "ACCOUNT_ID": 3914,
    "ACCOUNT_NUMBER": 99387,
    "ACCOUNT_NAME": "CTS Inward Clearing Account",
    "ACCOUNT_TYPE": "Suspense",
    "ACCOUNT_OID": 3914,
    "BANK_BRANCH_CODE": 10212.0
  },
  {
    "ACCOUNT_ID": 3916,
    "ACCOUNT_NUMBER": 99389,
    "ACCOUNT_NAME": "CTS Inward Clearing Returns Account",
    "ACCOUNT_TYPE": "Suspense",
    "ACCOUNT_OID": 3916,
    "BANK_BRANCH_CODE": 10211.0
  },
  {
    "ACCOUNT_ID": 3927,
    "ACCOUNT_NUMBER": 99832102092,
    "ACCOUNT_NAME": "CLEARING PAYABLE ACCOUNT",
    "ACCOUNT_TYPE": "Suspense",
    "ACCOUNT_OID": 3927,
    "BANK_BRANCH_CODE": 10209.0
  },
  {
    "ACCOUNT_ID": 3928,
    "ACCOUNT_NUMBER": 99833102115,
    "ACCOUNT_NAME": "CLEARING PAYABLE ACCOUNT",
    "ACCOUNT_TYPE": "Suspense",
    "ACCOUNT_OID": 3928,
    "BANK_BRANCH_CODE": 10211.0
  },
  {
    "ACCOUNT_ID": 3929,
    "ACCOUNT_NUMBER": 99834102125,
    "ACCOUNT_NAME": "CLEARING PAYABLE ACCOUNT",
    "ACCOUNT_TYPE": "Suspense",
    "ACCOUNT_OID": 3929,
    "BANK_BRANCH_CODE": 10212.0
  },
  {
    "ACCOUNT_ID": 3930,
    "ACCOUNT_NUMBER": 99835102099,
    "ACCOUNT_NAME": "CLEARING RECEIVABLE ACCOUNT",
    "ACCOUNT_TYPE": "Suspense",
    "ACCOUNT_OID": 3930,
    "BANK_BRANCH_CODE": 10209.0
  },
  {
    "ACCOUNT_ID": 3931,
    "ACCOUNT_NUMBER": 99836102112,
    "ACCOUNT_NAME": "CLEARING RECEIVABLE ACCOUNT",
    "ACCOUNT_TYPE": "Suspense",
    "ACCOUNT_OID": 3931,
    "BANK_BRANCH_CODE": 10211.0
  },
  {
    "ACCOUNT_ID": 3885,
    "ACCOUNT_NUMBER": 99758102041,
    "ACCOUNT_NAME": "MDMC NEFT Outward Settlement Account-9",
    "ACCOUNT_TYPE": "Suspense",
    "ACCOUNT_OID": 3885,
    "BANK_BRANCH_CODE": 10204.0
  },
  {
    "ACCOUNT_ID": 3886,
    "ACCOUNT_NUMBER": 99759102040,
    "ACCOUNT_NAME": "MDMC NEFT Outward Settlement Account-10",
    "ACCOUNT_TYPE": "Suspense",
    "ACCOUNT_OID": 3886,
    "BANK_BRANCH_CODE": 10204.0
  },
  {
    "ACCOUNT_ID": 3887,
    "ACCOUNT_NUMBER": 99760102047,
    "ACCOUNT_NAME": "MDMC NEFT Outward Settlement Account-11",
    "ACCOUNT_TYPE": "Suspense",
    "ACCOUNT_OID": 3887,
    "BANK_BRANCH_CODE": 10204.0
  },
  {
    "ACCOUNT_ID": 4970,
    "ACCOUNT_NUMBER": 98006102044,
    "ACCOUNT_NAME": "NEFT INWARD RETURN A\/C",
    "ACCOUNT_TYPE": "Suspense",
    "ACCOUNT_OID": 4970,
    "BANK_BRANCH_CODE": 10204.0
  },
  {
    "ACCOUNT_ID": 3932,
    "ACCOUNT_NUMBER": 99837102122,
    "ACCOUNT_NAME": "CLEARING RECEIVABLE ACCOUNT",
    "ACCOUNT_TYPE": "Suspense",
    "ACCOUNT_OID": 3932,
    "BANK_BRANCH_CODE": 10212.0
  },
  {
    "ACCOUNT_ID": 4971,
    "ACCOUNT_NUMBER": 98005102045,
    "ACCOUNT_NAME": "RTGS INWARD RETURN A\/C",
    "ACCOUNT_TYPE": "Suspense",
    "ACCOUNT_OID": 4971,
    "BANK_BRANCH_CODE": 10204.0
  },
  {
    "ACCOUNT_ID": 4060,
    "ACCOUNT_NUMBER": 98061,
    "ACCOUNT_NAME": "ECS DEBIT RETURN - OUTWARD",
    "ACCOUNT_TYPE": "Suspense",
    "ACCOUNT_OID": 4060,
    "BANK_BRANCH_CODE": 20101.0
  },
  {
    "ACCOUNT_ID": 4100,
    "ACCOUNT_NUMBER": 98052,
    "ACCOUNT_NAME": "ECS CREDIT RETURN - OUTWARD",
    "ACCOUNT_TYPE": "Suspense",
    "ACCOUNT_OID": 4100,
    "BANK_BRANCH_CODE": 10212.0
  },
  {
    "ACCOUNT_ID": 3934,
    "ACCOUNT_NUMBER": 98159102083,
    "ACCOUNT_NAME": "R-SYSTEM - COLLECTION CONTROL",
    "ACCOUNT_TYPE": "Inter-System",
    "ACCOUNT_OID": 3934,
    "BANK_BRANCH_CODE": 10208.0
  },
  {
    "ACCOUNT_ID": 4039,
    "ACCOUNT_NUMBER": 98063,
    "ACCOUNT_NAME": "ECS DEBIT SETTLEMENT - OUTWARD",
    "ACCOUNT_TYPE": "Suspense",
    "ACCOUNT_OID": 4039,
    "BANK_BRANCH_CODE": 20101.0
  },
  {
    "ACCOUNT_ID": 3872,
    "ACCOUNT_NUMBER": 98151102047,
    "ACCOUNT_NAME": "CMS INTERNAL FUND TRANSFER POOL A\/C",
    "ACCOUNT_TYPE": "Suspense",
    "ACCOUNT_OID": 3872,
    "BANK_BRANCH_CODE": 10204.0
  },
  {
    "ACCOUNT_ID": 3874,
    "ACCOUNT_NUMBER": 98149102041,
    "ACCOUNT_NAME": "CMS CORRESPONDENT BANK DD PAYABLE ACCOUNT (HDFC)",
    "ACCOUNT_TYPE": "Non Suspense",
    "ACCOUNT_OID": 3874,
    "BANK_BRANCH_CODE": 10204.0
  },
  {
    "ACCOUNT_ID": 3875,
    "ACCOUNT_NUMBER": 98020102046,
    "ACCOUNT_NAME": "CORRESPONDENT BANK STALE PAYABLE ACCOUNT (HDFC)",
    "ACCOUNT_TYPE": "Non Suspense",
    "ACCOUNT_OID": 3875,
    "BANK_BRANCH_CODE": 10204.0
  },
  {
    "ACCOUNT_ID": 3876,
    "ACCOUNT_NUMBER": 99781102043,
    "ACCOUNT_NAME": "SDMC Intermediate Account (NEFT)",
    "ACCOUNT_TYPE": "Suspense",
    "ACCOUNT_OID": 3876,
    "BANK_BRANCH_CODE": 10204.0
  },
  {
    "ACCOUNT_ID": 3878,
    "ACCOUNT_NUMBER": 99751102048,
    "ACCOUNT_NAME": "MDMC NEFT Outward Settlement Account-2",
    "ACCOUNT_TYPE": "Suspense",
    "ACCOUNT_OID": 3878,
    "BANK_BRANCH_CODE": 10204.0
  },
  {
    "ACCOUNT_ID": 3879,
    "ACCOUNT_NUMBER": 99752102047,
    "ACCOUNT_NAME": "MDMC NEFT Outward Settlement Account-3",
    "ACCOUNT_TYPE": "Suspense",
    "ACCOUNT_OID": 3879,
    "BANK_BRANCH_CODE": 10204.0
  },
  {
    "ACCOUNT_ID": 3880,
    "ACCOUNT_NUMBER": 99753102046,
    "ACCOUNT_NAME": "MDMC NEFT Outward Settlement Account-4",
    "ACCOUNT_TYPE": "Suspense",
    "ACCOUNT_OID": 3880,
    "BANK_BRANCH_CODE": 10204.0
  },
  {
    "ACCOUNT_ID": 3881,
    "ACCOUNT_NUMBER": 99850102044,
    "ACCOUNT_NAME": "MDMC NEFT Outward Settlement Account-5",
    "ACCOUNT_TYPE": "Suspense",
    "ACCOUNT_OID": 3881,
    "BANK_BRANCH_CODE": 10204.0
  },
  {
    "ACCOUNT_ID": 3882,
    "ACCOUNT_NUMBER": 99755102044,
    "ACCOUNT_NAME": "MDMC NEFT Outward Settlement Account-6",
    "ACCOUNT_TYPE": "Suspense",
    "ACCOUNT_OID": 3882,
    "BANK_BRANCH_CODE": 10204.0
  },
  {
    "ACCOUNT_ID": 3883,
    "ACCOUNT_NUMBER": 99851102044,
    "ACCOUNT_NAME": "MDMC NEFT Outward Settlement Account-7",
    "ACCOUNT_TYPE": "Suspense",
    "ACCOUNT_OID": 3883,
    "BANK_BRANCH_CODE": 10204.0
  },
  {
    "ACCOUNT_ID": 3884,
    "ACCOUNT_NUMBER": 99852102043,
    "ACCOUNT_NAME": "MDMC NEFT Outward Settlement Account-8",
    "ACCOUNT_TYPE": "Suspense",
    "ACCOUNT_OID": 3884,
    "BANK_BRANCH_CODE": 10204.0
  },
  {
    "ACCOUNT_ID": 4109,
    "ACCOUNT_NUMBER": 98062,
    "ACCOUNT_NAME": "ECS CREDIT SETTLEMENT - OUTWARD",
    "ACCOUNT_TYPE": "Suspense",
    "ACCOUNT_OID": 4109,
    "BANK_BRANCH_CODE": 41119.0
  },
  {
    "ACCOUNT_ID": 6100,
    "ACCOUNT_NUMBER": 98206102047,
    "ACCOUNT_NAME": "RTGS Outward Suspense Account",
    "ACCOUNT_TYPE": "Suspense",
    "ACCOUNT_OID": 6000,
    "BANK_BRANCH_CODE": null
  },
  {
    "ACCOUNT_ID": 6101,
    "ACCOUNT_NUMBER": 98207102046,
    "ACCOUNT_NAME": "NEFT Outward Suspense Account ",
    "ACCOUNT_TYPE": "Suspense",
    "ACCOUNT_OID": 6001,
    "BANK_BRANCH_CODE": null
  },
  {
    "ACCOUNT_ID": 6102,
    "ACCOUNT_NUMBER": 99382102047,
    "ACCOUNT_NAME": "ACH Destination Credit Return Account",
    "ACCOUNT_TYPE": "Suspense",
    "ACCOUNT_OID": 6002,
    "BANK_BRANCH_CODE": null
  },
  {
    "ACCOUNT_ID": 4142,
    "ACCOUNT_NUMBER": 98054,
    "ACCOUNT_NAME": "ECS DEBIT SETTLEMENT - INWARD",
    "ACCOUNT_TYPE": "Suspense",
    "ACCOUNT_OID": 4142,
    "BANK_BRANCH_CODE": 10212.0
  },
  {
    "ACCOUNT_ID": 4153,
    "ACCOUNT_NUMBER": 99372,
    "ACCOUNT_NAME": "NECS CREDIT SETTLEMENT - INWARD",
    "ACCOUNT_TYPE": "Suspense",
    "ACCOUNT_OID": 4153,
    "BANK_BRANCH_CODE": 10201.0
  },
  {
    "ACCOUNT_ID": 4164,
    "ACCOUNT_NUMBER": 98186102014,
    "ACCOUNT_NAME": "NECS CREDIT RETURN - OUTWARD",
    "ACCOUNT_TYPE": "Suspense",
    "ACCOUNT_OID": 4164,
    "BANK_BRANCH_CODE": 10201.0
  },
  {
    "ACCOUNT_ID": 4186,
    "ACCOUNT_NUMBER": 98174102052,
    "ACCOUNT_NAME": "TRADE SUSPENSE",
    "ACCOUNT_TYPE": "Suspense",
    "ACCOUNT_OID": 4186,
    "BANK_BRANCH_CODE": 10205.0
  },
  {
    "ACCOUNT_ID": 4014,
    "ACCOUNT_NUMBER": 98057,
    "ACCOUNT_NAME": "ECS CREDIT SETTLEMENT - INWARD",
    "ACCOUNT_TYPE": "Suspense",
    "ACCOUNT_OID": 4014,
    "BANK_BRANCH_CODE": 10209.0
  },
  {
    "ACCOUNT_ID": 4018,
    "ACCOUNT_NUMBER": 99370,
    "ACCOUNT_NAME": "ECS CREDIT RETURN - INWARD",
    "ACCOUNT_TYPE": "Suspense",
    "ACCOUNT_OID": 4018,
    "BANK_BRANCH_CODE": 20101.0
  },
  {
    "ACCOUNT_ID": 4778,
    "ACCOUNT_NUMBER": 99374,
    "ACCOUNT_NAME": "NECS CREDIT RETURN? - INWARD",
    "ACCOUNT_TYPE": "Suspense",
    "ACCOUNT_OID": 4778,
    "BANK_BRANCH_CODE": 80101.0
  },
  {
    "ACCOUNT_ID": 4875,
    "ACCOUNT_NUMBER": 98212,
    "ACCOUNT_NAME": "CMS BRANCH POOL ACCOUNT- IDTRF",
    "ACCOUNT_TYPE": "Suspense",
    "ACCOUNT_OID": 4875,
    "BANK_BRANCH_CODE": 41105.0
  },
  {
    "ACCOUNT_ID": 4807,
    "ACCOUNT_NUMBER": 98218102044,
    "ACCOUNT_NAME": "CMS CORR BANK FUNDING A\/C - HDFC DD",
    "ACCOUNT_TYPE": "Non Suspense",
    "ACCOUNT_OID": 4807,
    "BANK_BRANCH_CODE": 10204.0
  },
  {
    "ACCOUNT_ID": 4808,
    "ACCOUNT_NUMBER": 98222102048,
    "ACCOUNT_NAME": "CMS CORR BANK FUNDING A\/C - SBI DD",
    "ACCOUNT_TYPE": "Non Suspense",
    "ACCOUNT_OID": 4808,
    "BANK_BRANCH_CODE": 10204.0
  },
  {
    "ACCOUNT_ID": 4809,
    "ACCOUNT_NUMBER": 98226102044,
    "ACCOUNT_NAME": "CMS CORR BANK FUNDING A\/C - CORP DD",
    "ACCOUNT_TYPE": "Non Suspense",
    "ACCOUNT_OID": 4809,
    "BANK_BRANCH_CODE": 10204.0
  },
  {
    "ACCOUNT_ID": 4810,
    "ACCOUNT_NUMBER": 98228102042,
    "ACCOUNT_NAME": "CMS CORR BANK FUNDING A\/C - AXIS DD",
    "ACCOUNT_TYPE": "Non Suspense",
    "ACCOUNT_OID": 4810,
    "BANK_BRANCH_CODE": 10204.0
  },
  {
    "ACCOUNT_ID": 4811,
    "ACCOUNT_NUMBER": 98139102043,
    "ACCOUNT_NAME": "CMS CORR BANK FUNDING A\/C - IDBI LCC",
    "ACCOUNT_TYPE": "Suspense",
    "ACCOUNT_OID": 4811,
    "BANK_BRANCH_CODE": 10204.0
  },
  {
    "ACCOUNT_ID": 4812,
    "ACCOUNT_NUMBER": 98213102049,
    "ACCOUNT_NAME": "CMS CORR BANK FUNDING A\/C - IDBI UCC",
    "ACCOUNT_TYPE": "Suspense",
    "ACCOUNT_OID": 4812,
    "BANK_BRANCH_CODE": 10204.0
  },
  {
    "ACCOUNT_ID": 4813,
    "ACCOUNT_NUMBER": 98214102048,
    "ACCOUNT_NAME": "CMS CORR BANK FUNDING A\/C - IDBI CASH",
    "ACCOUNT_TYPE": "Suspense",
    "ACCOUNT_OID": 4813,
    "BANK_BRANCH_CODE": 10204.0
  },
  {
    "ACCOUNT_ID": 4814,
    "ACCOUNT_NUMBER": 98215102047,
    "ACCOUNT_NAME": "CMS CORR BANK FUNDING A\/C - HDFC LCC",
    "ACCOUNT_TYPE": "Suspense",
    "ACCOUNT_OID": 4814,
    "BANK_BRANCH_CODE": 10204.0
  },
  {
    "ACCOUNT_ID": 4815,
    "ACCOUNT_NUMBER": 98216102046,
    "ACCOUNT_NAME": "CMS CORR BANK FUNDING A\/C - HDFC UCC",
    "ACCOUNT_TYPE": "Suspense",
    "ACCOUNT_OID": 4815,
    "BANK_BRANCH_CODE": 10204.0
  },
  {
    "ACCOUNT_ID": 282,
    "ACCOUNT_NUMBER": 44171,
    "ACCOUNT_NAME": "Loans & Advances",
    "ACCOUNT_TYPE": "TF Natural Account",
    "ACCOUNT_OID": 282,
    "BANK_BRANCH_CODE": null
  },
  {
    "ACCOUNT_ID": 4816,
    "ACCOUNT_NUMBER": 98217102045,
    "ACCOUNT_NAME": "CMS CORR BANK FUNDING A\/C - HDFC CASH",
    "ACCOUNT_TYPE": "Suspense",
    "ACCOUNT_OID": 4816,
    "BANK_BRANCH_CODE": 10204.0
  },
  {
    "ACCOUNT_ID": 4817,
    "ACCOUNT_NUMBER": 98219102043,
    "ACCOUNT_NAME": "CMS CORR BANK FUNDING A\/C - SBI LCC",
    "ACCOUNT_TYPE": "Suspense",
    "ACCOUNT_OID": 4817,
    "BANK_BRANCH_CODE": 10204.0
  },
  {
    "ACCOUNT_ID": 4818,
    "ACCOUNT_NUMBER": 98220102049,
    "ACCOUNT_NAME": "CMS CORR BANK FUNDING A\/C - SBI UCC",
    "ACCOUNT_TYPE": "Suspense",
    "ACCOUNT_OID": 4818,
    "BANK_BRANCH_CODE": 10204.0
  },
  {
    "ACCOUNT_ID": 4819,
    "ACCOUNT_NUMBER": 98221102049,
    "ACCOUNT_NAME": "CMS CORR BANK FUNDING A\/C - SBI CASH",
    "ACCOUNT_TYPE": "Suspense",
    "ACCOUNT_OID": 4819,
    "BANK_BRANCH_CODE": 10204.0
  },
  {
    "ACCOUNT_ID": 4820,
    "ACCOUNT_NUMBER": 98223102047,
    "ACCOUNT_NAME": "CMS CORR BANK FUNDING A\/C - CORP LCC",
    "ACCOUNT_TYPE": "Suspense",
    "ACCOUNT_OID": 4820,
    "BANK_BRANCH_CODE": 10204.0
  },
  {
    "ACCOUNT_ID": 4821,
    "ACCOUNT_NUMBER": 98224102046,
    "ACCOUNT_NAME": "CMS CORR BANK FUNDING A\/C - CORP UCC",
    "ACCOUNT_TYPE": "Suspense",
    "ACCOUNT_OID": 4821,
    "BANK_BRANCH_CODE": 10204.0
  },
  {
    "ACCOUNT_ID": 4822,
    "ACCOUNT_NUMBER": 98225102045,
    "ACCOUNT_NAME": "CMS CORR BANK FUNDING A\/C - CORP CASH",
    "ACCOUNT_TYPE": "Suspense",
    "ACCOUNT_OID": 4822,
    "BANK_BRANCH_CODE": 10204.0
  },
  {
    "ACCOUNT_ID": 4823,
    "ACCOUNT_NUMBER": 98227102043,
    "ACCOUNT_NAME": "CMS CORR BANK FUNDING A\/C - AXIS ECS",
    "ACCOUNT_TYPE": "Suspense",
    "ACCOUNT_OID": 4823,
    "BANK_BRANCH_CODE": 10204.0
  },
  {
    "ACCOUNT_ID": 4614,
    "ACCOUNT_NUMBER": 98022,
    "ACCOUNT_NAME": "CMS UNPAID DD ACCOUNT",
    "ACCOUNT_TYPE": "Demand Draft",
    "ACCOUNT_OID": 4614,
    "BANK_BRANCH_CODE": 10204.0
  },
  {
    "ACCOUNT_ID": 6103,
    "ACCOUNT_NUMBER": 99377102011,
    "ACCOUNT_NAME": "ACH Destination Credit Account",
    "ACCOUNT_TYPE": "Suspense",
    "ACCOUNT_OID": 6003,
    "BANK_BRANCH_CODE": 10201.0
  },
  {
    "ACCOUNT_ID": 6104,
    "ACCOUNT_NUMBER": 99377102044,
    "ACCOUNT_NAME": "ACH Destination Credit Account",
    "ACCOUNT_TYPE": "Suspense",
    "ACCOUNT_OID": 6004,
    "BANK_BRANCH_CODE": 10204.0
  },
  {
    "ACCOUNT_ID": 6105,
    "ACCOUNT_NUMBER": 99382102014,
    "ACCOUNT_NAME": "ACH Destination Credit Return Account",
    "ACCOUNT_TYPE": "Suspense",
    "ACCOUNT_OID": 6005,
    "BANK_BRANCH_CODE": 10201.0
  },
  {
    "ACCOUNT_ID": 6106,
    "ACCOUNT_NUMBER": 99378102010,
    "ACCOUNT_NAME": "ACH Destination Debit Account",
    "ACCOUNT_TYPE": "Suspense",
    "ACCOUNT_OID": 6006,
    "BANK_BRANCH_CODE": 10201.0
  },
  {
    "ACCOUNT_ID": 6107,
    "ACCOUNT_NUMBER": 99378102043,
    "ACCOUNT_NAME": "ACH Destination Debit Account",
    "ACCOUNT_TYPE": "Suspense",
    "ACCOUNT_OID": 6007,
    "BANK_BRANCH_CODE": 10204.0
  },
  {
    "ACCOUNT_ID": 6108,
    "ACCOUNT_NUMBER": 99383102013,
    "ACCOUNT_NAME": "ACH Destination Debit Return Account",
    "ACCOUNT_TYPE": "Suspense",
    "ACCOUNT_OID": 6008,
    "BANK_BRANCH_CODE": 10201.0
  },
  {
    "ACCOUNT_ID": 6109,
    "ACCOUNT_NUMBER": 99383102046,
    "ACCOUNT_NAME": "ACH Destination Debit Return Account",
    "ACCOUNT_TYPE": "Suspense",
    "ACCOUNT_OID": 6009,
    "BANK_BRANCH_CODE": 10204.0
  },
  {
    "ACCOUNT_ID": 6110,
    "ACCOUNT_NUMBER": 98367102087,
    "ACCOUNT_NAME": "Home Saver DD\/PO Pool Account ",
    "ACCOUNT_TYPE": "Suspense",
    "ACCOUNT_OID": 6010,
    "BANK_BRANCH_CODE": null
  },
  {
    "ACCOUNT_ID": 6111,
    "ACCOUNT_NUMBER": 98627102016,
    "ACCOUNT_NAME": "Collection Control Account_ Business Bank ",
    "ACCOUNT_TYPE": "Suspense",
    "ACCOUNT_OID": 6011,
    "BANK_BRANCH_CODE": null
  },
  {
    "ACCOUNT_ID": 6112,
    "ACCOUNT_NUMBER": 98628102015,
    "ACCOUNT_NAME": "Disbursement Control Account_ Business Ba ",
    "ACCOUNT_TYPE": "Suspense",
    "ACCOUNT_OID": 6012,
    "BANK_BRANCH_CODE": null
  },
  {
    "ACCOUNT_ID": 6113,
    "ACCOUNT_NUMBER": 98639102089,
    "ACCOUNT_NAME": "R-SYSTEM - Life Insu Premium Pool A\/c ",
    "ACCOUNT_TYPE": "Suspense",
    "ACCOUNT_OID": 6013,
    "BANK_BRANCH_CODE": null
  },
  {
    "ACCOUNT_ID": 3935,
    "ACCOUNT_NUMBER": 98160102080,
    "ACCOUNT_NAME": "R-SYSTEM LOAN DISBURSEMENT Control A\/c",
    "ACCOUNT_TYPE": "Inter-System",
    "ACCOUNT_OID": 3935,
    "BANK_BRANCH_CODE": 10208.0
  },
  {
    "ACCOUNT_ID": 3936,
    "ACCOUNT_NUMBER": 98155102087,
    "ACCOUNT_NAME": "R-SYSTEM OUTWARD CLEARING",
    "ACCOUNT_TYPE": "Suspense",
    "ACCOUNT_OID": 3936,
    "BANK_BRANCH_CODE": 10208.0
  },
  {
    "ACCOUNT_ID": 3937,
    "ACCOUNT_NUMBER": 98156102086,
    "ACCOUNT_NAME": "R-SYSTEM RTGS INWARD",
    "ACCOUNT_TYPE": "Suspense",
    "ACCOUNT_OID": 3937,
    "BANK_BRANCH_CODE": 10208.0
  },
  {
    "ACCOUNT_ID": 3938,
    "ACCOUNT_NUMBER": 98157102085,
    "ACCOUNT_NAME": "R-SYSTEM NEFT INWARD",
    "ACCOUNT_TYPE": "Suspense",
    "ACCOUNT_OID": 3938,
    "BANK_BRANCH_CODE": 10208.0
  },
  {
    "ACCOUNT_ID": 3939,
    "ACCOUNT_NUMBER": 98158102084,
    "ACCOUNT_NAME": "R-SYSTEM UNPAID DD ACCOUNT",
    "ACCOUNT_TYPE": "Suspense",
    "ACCOUNT_OID": 3939,
    "BANK_BRANCH_CODE": 10208.0
  },
  {
    "ACCOUNT_ID": 3940,
    "ACCOUNT_NUMBER": 98161102080,
    "ACCOUNT_NAME": "R-SYSTEM RTGS OUTWARD",
    "ACCOUNT_TYPE": "Suspense",
    "ACCOUNT_OID": 3940,
    "BANK_BRANCH_CODE": 10208.0
  },
  {
    "ACCOUNT_ID": 3941,
    "ACCOUNT_NUMBER": 98162102089,
    "ACCOUNT_NAME": "R-SYSTEM NEFT OUTWARD",
    "ACCOUNT_TYPE": "Suspense",
    "ACCOUNT_OID": 3941,
    "BANK_BRANCH_CODE": 10208.0
  },
  {
    "ACCOUNT_ID": 3942,
    "ACCOUNT_NUMBER": 98163102088,
    "ACCOUNT_NAME": "R-SYSTEM ECS INWARD",
    "ACCOUNT_TYPE": "Suspense",
    "ACCOUNT_OID": 3942,
    "BANK_BRANCH_CODE": 10208.0
  },
  {
    "ACCOUNT_ID": 3943,
    "ACCOUNT_NUMBER": 98164102087,
    "ACCOUNT_NAME": "R-SYSTEM ACH INWARD",
    "ACCOUNT_TYPE": "Suspense",
    "ACCOUNT_OID": 3943,
    "BANK_BRANCH_CODE": 10208.0
  },
  {
    "ACCOUNT_ID": 3944,
    "ACCOUNT_NUMBER": 98165102086,
    "ACCOUNT_NAME": "R-SYSTEM INWARD CLEARING",
    "ACCOUNT_TYPE": "Suspense",
    "ACCOUNT_OID": 3944,
    "BANK_BRANCH_CODE": 10208.0
  },
  {
    "ACCOUNT_ID": 3945,
    "ACCOUNT_NUMBER": 99591102082,
    "ACCOUNT_NAME": "R-system outward return clearing",
    "ACCOUNT_TYPE": "Suspense",
    "ACCOUNT_OID": 3945,
    "BANK_BRANCH_CODE": 10208.0
  },
  {
    "ACCOUNT_ID": 3946,
    "ACCOUNT_NUMBER": 98019102040,
    "ACCOUNT_NAME": "CORRESPONDENT BANK FUNDING ACCOUNT - PAYMENTS",
    "ACCOUNT_TYPE": "Non Suspense",
    "ACCOUNT_OID": 3946,
    "BANK_BRANCH_CODE": 10204.0
  },
  {
    "ACCOUNT_ID": 3965,
    "ACCOUNT_NUMBER": 98138,
    "ACCOUNT_NAME": "CMS BRANCH POOL ACCOUNT- IDLCC\/PDC",
    "ACCOUNT_TYPE": "Suspense",
    "ACCOUNT_OID": 3965,
    "BANK_BRANCH_CODE": 10209.0
  },
  {
    "ACCOUNT_ID": 3969,
    "ACCOUNT_NUMBER": 98137102045,
    "ACCOUNT_NAME": "CMS CASH COLLECTION  POOL ACCOUNT",
    "ACCOUNT_TYPE": "Suspense",
    "ACCOUNT_OID": 3969,
    "BANK_BRANCH_CODE": 10204.0
  },
  {
    "ACCOUNT_ID": 4943,
    "ACCOUNT_NUMBER": 99821,
    "ACCOUNT_NAME": "Trickle feed CR",
    "ACCOUNT_TYPE": "Suspense",
    "ACCOUNT_OID": 4943,
    "BANK_BRANCH_CODE": 41103.0
  },
  {
    "ACCOUNT_ID": 6038,
    "ACCOUNT_NUMBER": 98205102048,
    "ACCOUNT_NAME": "NACH Credit Suspense Account ",
    "ACCOUNT_TYPE": "Suspense",
    "ACCOUNT_OID": 5948,
    "BANK_BRANCH_CODE": 10204.0
  },
  {
    "ACCOUNT_ID": 6039,
    "ACCOUNT_NUMBER": 99897102041,
    "ACCOUNT_NAME": "NACH credit settlement Account ",
    "ACCOUNT_TYPE": "Suspense",
    "ACCOUNT_OID": 5949,
    "BANK_BRANCH_CODE": 10204.0
  },
  {
    "ACCOUNT_ID": 6042,
    "ACCOUNT_NUMBER": 99379102042,
    "ACCOUNT_NAME": "ECS Destination Credit Account",
    "ACCOUNT_TYPE": "Suspense",
    "ACCOUNT_OID": 5952,
    "BANK_BRANCH_CODE": 10204.0
  },
  {
    "ACCOUNT_ID": 6045,
    "ACCOUNT_NUMBER": 99380102048,
    "ACCOUNT_NAME": "OLRR Destination Credit Account",
    "ACCOUNT_TYPE": "Suspense",
    "ACCOUNT_OID": 5955,
    "BANK_BRANCH_CODE": 10204.0
  },
  {
    "ACCOUNT_ID": 6046,
    "ACCOUNT_NUMBER": 99381102048,
    "ACCOUNT_NAME": "OLRR Destination Debit Account",
    "ACCOUNT_TYPE": "Suspense",
    "ACCOUNT_OID": 5956,
    "BANK_BRANCH_CODE": 10204.0
  },
  {
    "ACCOUNT_ID": 6047,
    "ACCOUNT_NUMBER": 98055102046,
    "ACCOUNT_NAME": "ECS OLRR (ONLINE RETURN & REJECT) DEBIT",
    "ACCOUNT_TYPE": "Suspense",
    "ACCOUNT_OID": 5957,
    "BANK_BRANCH_CODE": 10204.0
  },
  {
    "ACCOUNT_ID": 6048,
    "ACCOUNT_NUMBER": 98058102043,
    "ACCOUNT_NAME": "ECS OLRR (ONLINE RETURN & REJECT) CREDIT",
    "ACCOUNT_TYPE": "Suspense",
    "ACCOUNT_OID": 5958,
    "BANK_BRANCH_CODE": 10204.0
  },
  {
    "ACCOUNT_ID": 5146,
    "ACCOUNT_NUMBER": 98203102040,
    "ACCOUNT_NAME": "Cheque Purchase Account ",
    "ACCOUNT_TYPE": "Suspense",
    "ACCOUNT_OID": 5056,
    "BANK_BRANCH_CODE": 40101.0
  },
  {
    "ACCOUNT_ID": 5147,
    "ACCOUNT_NUMBER": 98437102044,
    "ACCOUNT_NAME": "Other Bank Charges Account ",
    "ACCOUNT_TYPE": "Suspense",
    "ACCOUNT_OID": 5057,
    "BANK_BRANCH_CODE": 40101.0
  },
  {
    "ACCOUNT_ID": 6049,
    "ACCOUNT_NUMBER": 98144102046,
    "ACCOUNT_NAME": "CMS - VENDOR SUSPENSE ACCOUNT",
    "ACCOUNT_TYPE": "Suspense",
    "ACCOUNT_OID": 5959,
    "BANK_BRANCH_CODE": 10204.0
  },
  {
    "ACCOUNT_ID": 5148,
    "ACCOUNT_NUMBER": 99898102040,
    "ACCOUNT_NAME": "NACH Debit Suspense Account ",
    "ACCOUNT_TYPE": "Suspense",
    "ACCOUNT_OID": 5058,
    "BANK_BRANCH_CODE": 40101.0
  },
  {
    "ACCOUNT_ID": 6051,
    "ACCOUNT_NUMBER": 98146102044,
    "ACCOUNT_NAME": "CMS CASH DELIVERY PAYABLE ACCOUNT",
    "ACCOUNT_TYPE": "Suspense",
    "ACCOUNT_OID": 5961,
    "BANK_BRANCH_CODE": 10204.0
  },
  {
    "ACCOUNT_ID": 5149,
    "ACCOUNT_NUMBER": 98141102049,
    "ACCOUNT_NAME": "RTGS Inward Suspense Account ",
    "ACCOUNT_TYPE": "Suspense",
    "ACCOUNT_OID": 5059,
    "BANK_BRANCH_CODE": 40101.0
  },
  {
    "ACCOUNT_ID": 5150,
    "ACCOUNT_NUMBER": 98142102048,
    "ACCOUNT_NAME": "NEFT Inward Suspense Account ",
    "ACCOUNT_TYPE": "Suspense",
    "ACCOUNT_OID": 5060,
    "BANK_BRANCH_CODE": 40101.0
  },
  {
    "ACCOUNT_ID": 5152,
    "ACCOUNT_NUMBER": 98201,
    "ACCOUNT_NAME": "Control Account ",
    "ACCOUNT_TYPE": "Suspense",
    "ACCOUNT_OID": 5062,
    "BANK_BRANCH_CODE": 40101.0
  },
  {
    "ACCOUNT_ID": 235,
    "ACCOUNT_NUMBER": 99392,
    "ACCOUNT_NAME": "Non CTS Inward Clearing Returns Account",
    "ACCOUNT_TYPE": "Suspense",
    "ACCOUNT_OID": 5005,
    "BANK_BRANCH_CODE": 10212.0
  },
  {
    "ACCOUNT_ID": 6052,
    "ACCOUNT_NUMBER": 98147102043,
    "ACCOUNT_NAME": "CMS CASH DELIVERY RECEIVABLE ACCOUNT",
    "ACCOUNT_TYPE": "Suspense",
    "ACCOUNT_OID": 5962,
    "BANK_BRANCH_CODE": 10204.0
  },
  {
    "ACCOUNT_ID": 236,
    "ACCOUNT_NUMBER": 99394,
    "ACCOUNT_NAME": "Outward Clearing-Non-CTS    ",
    "ACCOUNT_TYPE": "Suspense",
    "ACCOUNT_OID": 5006,
    "BANK_BRANCH_CODE": 10209.0
  },
  {
    "ACCOUNT_ID": 6054,
    "ACCOUNT_NUMBER": 99899102049,
    "ACCOUNT_NAME": "NACH CREDIT SETTLEMENT - INWARD",
    "ACCOUNT_TYPE": "Suspense",
    "ACCOUNT_OID": 5964,
    "BANK_BRANCH_CODE": 10204.0
  },
  {
    "ACCOUNT_ID": 6055,
    "ACCOUNT_NUMBER": 98150102047,
    "ACCOUNT_NAME": "CMS E-COLLECTION POOL AC",
    "ACCOUNT_TYPE": "Suspense",
    "ACCOUNT_OID": 5965,
    "BANK_BRANCH_CODE": 10204.0
  },
  {
    "ACCOUNT_ID": 6056,
    "ACCOUNT_NUMBER": 98204,
    "ACCOUNT_NAME": "CMS - Outward Clearing Account",
    "ACCOUNT_TYPE": "Suspense",
    "ACCOUNT_OID": 5966,
    "BANK_BRANCH_CODE": 40101.0
  },
  {
    "ACCOUNT_ID": 4857,
    "ACCOUNT_NUMBER": 98211,
    "ACCOUNT_NAME": "CMS BRANCH POOL ACCOUNT- IDUCC",
    "ACCOUNT_TYPE": "Suspense",
    "ACCOUNT_OID": 4857,
    "BANK_BRANCH_CODE": 41201.0
  },
  {
    "ACCOUNT_ID": 5030,
    "ACCOUNT_NUMBER": 99750,
    "ACCOUNT_NAME": "Novo Pay Control Account",
    "ACCOUNT_TYPE": "Inter-System",
    "ACCOUNT_OID": 5030,
    "BANK_BRANCH_CODE": 41113.0
  },
  {
    "ACCOUNT_ID": 5034,
    "ACCOUNT_NUMBER": 99438102046,
    "ACCOUNT_NAME": "MDMC NEFT Outward Settlement Account-1",
    "ACCOUNT_TYPE": "Suspense",
    "ACCOUNT_OID": 5034,
    "BANK_BRANCH_CODE": 10204.0
  },
  {
    "ACCOUNT_ID": 228,
    "ACCOUNT_NUMBER": 98021,
    "ACCOUNT_NAME": "DEPOSIT UNDER PROCESS ACCOUNT",
    "ACCOUNT_TYPE": "Suspense",
    "ACCOUNT_OID": 4996,
    "BANK_BRANCH_CODE": 10204.0
  },
  {
    "ACCOUNT_ID": 229,
    "ACCOUNT_NUMBER": 99896413514,
    "ACCOUNT_NAME": "CBS-Other Source System Technical Contra",
    "ACCOUNT_TYPE": "Suspense",
    "ACCOUNT_OID": 4997,
    "BANK_BRANCH_CODE": 10204.0
  },
  {
    "ACCOUNT_ID": 203,
    "ACCOUNT_NUMBER": 98002102048,
    "ACCOUNT_NAME": "CMS - NEFT INWARD",
    "ACCOUNT_TYPE": "Suspense",
    "ACCOUNT_OID": 4998,
    "BANK_BRANCH_CODE": 10204.0
  },
  {
    "ACCOUNT_ID": 204,
    "ACCOUNT_NUMBER": 98001102049,
    "ACCOUNT_NAME": "CMS - RTGS INWARD",
    "ACCOUNT_TYPE": "Suspense",
    "ACCOUNT_OID": 4999,
    "BANK_BRANCH_CODE": 10204.0
  },
  {
    "ACCOUNT_ID": 5145,
    "ACCOUNT_NUMBER": 99358102046,
    "ACCOUNT_NAME": "DD Account ",
    "ACCOUNT_TYPE": "Suspense",
    "ACCOUNT_OID": 5055,
    "BANK_BRANCH_CODE": 40101.0
  },
  {
    "ACCOUNT_ID": 244,
    "ACCOUNT_NUMBER": 99397,
    "ACCOUNT_NAME": "Outward Clearing-Non-CTS Return",
    "ACCOUNT_TYPE": "Suspense",
    "ACCOUNT_OID": 5014,
    "BANK_BRANCH_CODE": 10212.0
  },
  {
    "ACCOUNT_ID": 231,
    "ACCOUNT_NUMBER": 99390,
    "ACCOUNT_NAME": "Non CTS Inward Clearing Account",
    "ACCOUNT_TYPE": "Suspense",
    "ACCOUNT_OID": 5001,
    "BANK_BRANCH_CODE": 10211.0
  },
  {
    "ACCOUNT_ID": 5174,
    "ACCOUNT_NUMBER": 98202,
    "ACCOUNT_NAME": "Contra Account ",
    "ACCOUNT_TYPE": "Suspense",
    "ACCOUNT_OID": 5084,
    "BANK_BRANCH_CODE": 40101.0
  },
  {
    "ACCOUNT_ID": 5175,
    "ACCOUNT_NUMBER": 98143,
    "ACCOUNT_NAME": "CMS CASH COLLECTIONPOOL ACCOUNT",
    "ACCOUNT_TYPE": "Suspense",
    "ACCOUNT_OID": 5085,
    "BANK_BRANCH_CODE": 40101.0
  },
  {
    "ACCOUNT_ID": 6075,
    "ACCOUNT_NUMBER": 98170102055,
    "ACCOUNT_NAME": "TRADE RTGS OUTWARD",
    "ACCOUNT_TYPE": "Suspense",
    "ACCOUNT_OID": 5985,
    "BANK_BRANCH_CODE": 10205.0
  },
  {
    "ACCOUNT_ID": 4966,
    "ACCOUNT_NUMBER": 98145102045,
    "ACCOUNT_NAME": "CMS - Vendor Funding Account-REDIANT ",
    "ACCOUNT_TYPE": "Suspense",
    "ACCOUNT_OID": 4966,
    "BANK_BRANCH_CODE": 10204.0
  },
  {
    "ACCOUNT_ID": 4967,
    "ACCOUNT_NUMBER": 98229102041,
    "ACCOUNT_NAME": "CMS - Vendor Funding Account-CMS INFO",
    "ACCOUNT_TYPE": "Suspense",
    "ACCOUNT_OID": 4967,
    "BANK_BRANCH_CODE": 10204.0
  },
  {
    "ACCOUNT_ID": 4968,
    "ACCOUNT_NUMBER": 98230102047,
    "ACCOUNT_NAME": "CMS - Vendor Funding Account-CHECKMATE",
    "ACCOUNT_TYPE": "Suspense",
    "ACCOUNT_OID": 4968,
    "BANK_BRANCH_CODE": 10204.0
  },
  {
    "ACCOUNT_ID": 4969,
    "ACCOUNT_NUMBER": 98231102047,
    "ACCOUNT_NAME": "CMS - Vendor Funding Account-LOGICASH",
    "ACCOUNT_TYPE": "Suspense",
    "ACCOUNT_OID": 4969,
    "BANK_BRANCH_CODE": 10204.0
  },
  {
    "ACCOUNT_ID": 206,
    "ACCOUNT_NUMBER": 99822,
    "ACCOUNT_NAME": "Trickle feed DR",
    "ACCOUNT_TYPE": "Suspense",
    "ACCOUNT_OID": 4974,
    "BANK_BRANCH_CODE": 10204.0
  },
  {
    "ACCOUNT_ID": 211,
    "ACCOUNT_NUMBER": 99393,
    "ACCOUNT_NAME": "Outward Clearing-CTS",
    "ACCOUNT_TYPE": "Suspense",
    "ACCOUNT_OID": 4979,
    "BANK_BRANCH_CODE": 10204.0
  },
  {
    "ACCOUNT_ID": 213,
    "ACCOUNT_NUMBER": 99396,
    "ACCOUNT_NAME": "Outward Clearing-CTS Return",
    "ACCOUNT_TYPE": "Suspense",
    "ACCOUNT_OID": 4981,
    "BANK_BRANCH_CODE": 10204.0
  },
  {
    "ACCOUNT_ID": 217,
    "ACCOUNT_NUMBER": 98056,
    "ACCOUNT_NAME": "ECS DEBIT RETURN - INWARD",
    "ACCOUNT_TYPE": "Suspense",
    "ACCOUNT_OID": 4985,
    "BANK_BRANCH_CODE": 10204.0
  },
  {
    "ACCOUNT_ID": 4894,
    "ACCOUNT_NUMBER": 98166102052,
    "ACCOUNT_NAME": "TRADE RTGS NEFT INWARD (Both RTGS null Inward)",
    "ACCOUNT_TYPE": "Suspense",
    "ACCOUNT_OID": 4894,
    "BANK_BRANCH_CODE": 10205.0
  },
  {
    "ACCOUNT_ID": 5125,
    "ACCOUNT_NUMBER": 80305,
    "ACCOUNT_NAME": "Trade Sundry",
    "ACCOUNT_TYPE": "TF Natural Account",
    "ACCOUNT_OID": 5035,
    "BANK_BRANCH_CODE": 40101.0
  },
  {
    "ACCOUNT_ID": 5144,
    "ACCOUNT_NUMBER": 90109,
    "ACCOUNT_NAME": "Clean bills under confirmed LC",
    "ACCOUNT_TYPE": "TF Natural Account",
    "ACCOUNT_OID": 5054,
    "BANK_BRANCH_CODE": 40101.0
  },
  {
    "ACCOUNT_ID": 5127,
    "ACCOUNT_NUMBER": 24203,
    "ACCOUNT_NAME": "Discount received in advance",
    "ACCOUNT_TYPE": "TF Natural Account",
    "ACCOUNT_OID": 5037,
    "BANK_BRANCH_CODE": 40101.0
  },
  {
    "ACCOUNT_ID": 5128,
    "ACCOUNT_NUMBER": 24204,
    "ACCOUNT_NAME": "Guarantee commission received in advance",
    "ACCOUNT_TYPE": "TF Natural Account",
    "ACCOUNT_OID": 5038,
    "BANK_BRANCH_CODE": 40101.0
  },
  {
    "ACCOUNT_ID": 5129,
    "ACCOUNT_NUMBER": 24205,
    "ACCOUNT_NAME": "LC Commission received in advance",
    "ACCOUNT_TYPE": "TF Natural Account",
    "ACCOUNT_OID": 5039,
    "BANK_BRANCH_CODE": 40101.0
  },
  {
    "ACCOUNT_ID": 5130,
    "ACCOUNT_NUMBER": 24901,
    "ACCOUNT_NAME": "Margin Money",
    "ACCOUNT_TYPE": "TF Natural Account",
    "ACCOUNT_OID": 5040,
    "BANK_BRANCH_CODE": 40101.0
  },
  {
    "ACCOUNT_ID": 5131,
    "ACCOUNT_NUMBER": 25909,
    "ACCOUNT_NAME": "Interest suspense",
    "ACCOUNT_TYPE": "TF Natural Account",
    "ACCOUNT_OID": 5041,
    "BANK_BRANCH_CODE": 40101.0
  },
  {
    "ACCOUNT_ID": 5132,
    "ACCOUNT_NUMBER": 80304,
    "ACCOUNT_NAME": "Trade Suspense",
    "ACCOUNT_TYPE": "TF Natural Account",
    "ACCOUNT_OID": 5042,
    "BANK_BRANCH_CODE": 40101.0
  },
  {
    "ACCOUNT_ID": 5133,
    "ACCOUNT_NUMBER": 48103,
    "ACCOUNT_NAME": "Interest Accrued on Advances",
    "ACCOUNT_TYPE": "TF Natural Account",
    "ACCOUNT_OID": 5043,
    "BANK_BRANCH_CODE": 40101.0
  },
  {
    "ACCOUNT_ID": 5134,
    "ACCOUNT_NUMBER": 48104,
    "ACCOUNT_NAME": "Penal Interest accrued on Advances",
    "ACCOUNT_TYPE": "TF Natural Account",
    "ACCOUNT_OID": 5044,
    "BANK_BRANCH_CODE": 40101.0
  },
  {
    "ACCOUNT_ID": 284,
    "ACCOUNT_NUMBER": 98996102057,
    "ACCOUNT_NAME": "Trade Control Account-USD",
    "ACCOUNT_TYPE": "Inter-System",
    "ACCOUNT_OID": 284,
    "BANK_BRANCH_CODE": 10205.0
  },
  {
    "ACCOUNT_ID": 285,
    "ACCOUNT_NUMBER": 98997102056,
    "ACCOUNT_NAME": "Trade Control Account-EUR",
    "ACCOUNT_TYPE": "Inter-System",
    "ACCOUNT_OID": 285,
    "BANK_BRANCH_CODE": 10205.0
  },
  {
    "ACCOUNT_ID": 286,
    "ACCOUNT_NUMBER": 98998102055,
    "ACCOUNT_NAME": "Trade Control Account-GBP ",
    "ACCOUNT_TYPE": "Inter-System",
    "ACCOUNT_OID": 286,
    "BANK_BRANCH_CODE": 10205.0
  },
  {
    "ACCOUNT_ID": 5135,
    "ACCOUNT_NUMBER": 48201,
    "ACCOUNT_NAME": "Interest Unrealized",
    "ACCOUNT_TYPE": "TF Natural Account",
    "ACCOUNT_OID": 5045,
    "BANK_BRANCH_CODE": 40101.0
  },
  {
    "ACCOUNT_ID": 287,
    "ACCOUNT_NUMBER": 98999102054,
    "ACCOUNT_NAME": "Trade Control Account-JPY",
    "ACCOUNT_TYPE": "Inter-System",
    "ACCOUNT_OID": 287,
    "BANK_BRANCH_CODE": 10205.0
  },
  {
    "ACCOUNT_ID": 288,
    "ACCOUNT_NUMBER": 99000102053,
    "ACCOUNT_NAME": "Trade Control Account-SGD",
    "ACCOUNT_TYPE": "Inter-System",
    "ACCOUNT_OID": 288,
    "BANK_BRANCH_CODE": 10205.0
  },
  {
    "ACCOUNT_ID": 5136,
    "ACCOUNT_NUMBER": 48204,
    "ACCOUNT_NAME": "Penal Interest unrealized",
    "ACCOUNT_TYPE": "TF Natural Account",
    "ACCOUNT_OID": 5046,
    "BANK_BRANCH_CODE": 40101.0
  },
  {
    "ACCOUNT_ID": 5137,
    "ACCOUNT_NUMBER": 49101,
    "ACCOUNT_NAME": "Commission Receivable ",
    "ACCOUNT_TYPE": "TF Natural Account",
    "ACCOUNT_OID": 5047,
    "BANK_BRANCH_CODE": 40101.0
  },
  {
    "ACCOUNT_ID": 5138,
    "ACCOUNT_NUMBER": 49102,
    "ACCOUNT_NAME": "Fees null receivable",
    "ACCOUNT_TYPE": "TF Natural Account",
    "ACCOUNT_OID": 5048,
    "BANK_BRANCH_CODE": 40101.0
  },
  {
    "ACCOUNT_ID": 289,
    "ACCOUNT_NUMBER": 99001102053,
    "ACCOUNT_NAME": "Trade Control Account-HKD",
    "ACCOUNT_TYPE": "Inter-System",
    "ACCOUNT_OID": 289,
    "BANK_BRANCH_CODE": 10205.0
  },
  {
    "ACCOUNT_ID": 290,
    "ACCOUNT_NUMBER": 99002102052,
    "ACCOUNT_NAME": "Trade Control Account-AED",
    "ACCOUNT_TYPE": "Inter-System",
    "ACCOUNT_OID": 290,
    "BANK_BRANCH_CODE": 10205.0
  },
  {
    "ACCOUNT_ID": 5139,
    "ACCOUNT_NUMBER": 49807,
    "ACCOUNT_NAME": "Reimbursement receivable",
    "ACCOUNT_TYPE": "TF Natural Account",
    "ACCOUNT_OID": 5049,
    "BANK_BRANCH_CODE": 40101.0
  },
  {
    "ACCOUNT_ID": 291,
    "ACCOUNT_NUMBER": 99003102051,
    "ACCOUNT_NAME": "Trade Control Account-AUE",
    "ACCOUNT_TYPE": "Inter-System",
    "ACCOUNT_OID": 291,
    "BANK_BRANCH_CODE": 10205.0
  },
  {
    "ACCOUNT_ID": 292,
    "ACCOUNT_NUMBER": 99004102050,
    "ACCOUNT_NAME": "Trade Control Account-CHF",
    "ACCOUNT_TYPE": "Inter-System",
    "ACCOUNT_OID": 292,
    "BANK_BRANCH_CODE": 10205.0
  },
  {
    "ACCOUNT_ID": 293,
    "ACCOUNT_NUMBER": 99005102059,
    "ACCOUNT_NAME": "Trade Control Account-NZD",
    "ACCOUNT_TYPE": "Inter-System",
    "ACCOUNT_OID": 293,
    "BANK_BRANCH_CODE": 10205.0
  },
  {
    "ACCOUNT_ID": 294,
    "ACCOUNT_NUMBER": 99006102058,
    "ACCOUNT_NAME": "Trade Control Account-INR",
    "ACCOUNT_TYPE": "Inter-System",
    "ACCOUNT_OID": 294,
    "BANK_BRANCH_CODE": 10205.0
  },
  {
    "ACCOUNT_ID": 295,
    "ACCOUNT_NUMBER": 99028102019,
    "ACCOUNT_NAME": "Deposit under process Account - BBNK - Cash",
    "ACCOUNT_TYPE": "Suspense",
    "ACCOUNT_OID": 295,
    "BANK_BRANCH_CODE": null
  },
  {
    "ACCOUNT_ID": 5140,
    "ACCOUNT_NUMBER": 61102,
    "ACCOUNT_NAME": "Interest income accrued on advances",
    "ACCOUNT_TYPE": "TF Natural Account",
    "ACCOUNT_OID": 5050,
    "BANK_BRANCH_CODE": 40101.0
  },
  {
    "ACCOUNT_ID": 5141,
    "ACCOUNT_NUMBER": 61113,
    "ACCOUNT_NAME": "Penal Interest income accrued on advances",
    "ACCOUNT_TYPE": "TF Natural Account",
    "ACCOUNT_OID": 5051,
    "BANK_BRANCH_CODE": 40101.0
  },
  {
    "ACCOUNT_ID": 5142,
    "ACCOUNT_NUMBER": 90101,
    "ACCOUNT_NAME": "Contingent Asset Accounts",
    "ACCOUNT_TYPE": "TF Natural Account",
    "ACCOUNT_OID": 5052,
    "BANK_BRANCH_CODE": 40101.0
  },
  {
    "ACCOUNT_ID": 5143,
    "ACCOUNT_NUMBER": 90108,
    "ACCOUNT_NAME": "Acceptances Endorsements Oth Obligations",
    "ACCOUNT_TYPE": "TF Natural Account",
    "ACCOUNT_OID": 5053,
    "BANK_BRANCH_CODE": 40101.0
  },
  {
    "ACCOUNT_ID": 5126,
    "ACCOUNT_NUMBER": 24202,
    "ACCOUNT_NAME": "Interest received in advance",
    "ACCOUNT_TYPE": "TF Natural Account",
    "ACCOUNT_OID": 5036,
    "BANK_BRANCH_CODE": 40101.0
  },
  {
    "ACCOUNT_ID": 283,
    "ACCOUNT_NUMBER": 44252,
    "ACCOUNT_NAME": "Loans & Advances - Outside Inida",
    "ACCOUNT_TYPE": "TF Natural Account",
    "ACCOUNT_OID": 283,
    "BANK_BRANCH_CODE": null
  },
  {
    "ACCOUNT_ID": 296,
    "ACCOUNT_NUMBER": 99029102018,
    "ACCOUNT_NAME": "Deposit under process Account - BBNK - Cheque",
    "ACCOUNT_TYPE": "Suspense",
    "ACCOUNT_OID": 296,
    "BANK_BRANCH_CODE": null
  },
  {
    "ACCOUNT_ID": 297,
    "ACCOUNT_NUMBER": 99030102014,
    "ACCOUNT_NAME": "Deposit under process Account - BBNK - Non IDFC Cheque",
    "ACCOUNT_TYPE": "Suspense",
    "ACCOUNT_OID": 297,
    "BANK_BRANCH_CODE": null
  },
  {
    "ACCOUNT_ID": 298,
    "ACCOUNT_NUMBER": 98410102088,
    "ACCOUNT_NAME": "Home Saver Collection Control Account",
    "ACCOUNT_TYPE": "Suspense",
    "ACCOUNT_OID": 298,
    "BANK_BRANCH_CODE": 10208.0
  },
  {
    "ACCOUNT_ID": 4190,
    "ACCOUNT_NUMBER": 99410102058,
    "ACCOUNT_NAME": "Export Bill Negotiation Control A\/c",
    "ACCOUNT_TYPE": "Inter-System",
    "ACCOUNT_OID": 4190,
    "BANK_BRANCH_CODE": 10205.0
  },
  {
    "ACCOUNT_ID": 4191,
    "ACCOUNT_NUMBER": 99415102054,
    "ACCOUNT_NAME": "Purchase of Export Bills Control A\/c",
    "ACCOUNT_TYPE": "Inter-System",
    "ACCOUNT_OID": 4191,
    "BANK_BRANCH_CODE": 10205.0
  },
  {
    "ACCOUNT_ID": 4192,
    "ACCOUNT_NUMBER": 99420102056,
    "ACCOUNT_NAME": "Discounting of Export Bills Control A\/c",
    "ACCOUNT_TYPE": "Inter-System",
    "ACCOUNT_OID": 4192,
    "BANK_BRANCH_CODE": 10205.0
  },
  {
    "ACCOUNT_ID": 4193,
    "ACCOUNT_NUMBER": 99425102052,
    "ACCOUNT_NAME": "Rupee Advance against Export Bill - Sent on collection Control A\/c",
    "ACCOUNT_TYPE": "Inter-System",
    "ACCOUNT_OID": 4193,
    "BANK_BRANCH_CODE": 10205.0
  },
  {
    "ACCOUNT_ID": 4194,
    "ACCOUNT_NUMBER": 99430102054,
    "ACCOUNT_NAME": "Local LC Bills Discounting Control A\/c",
    "ACCOUNT_TYPE": "Inter-System",
    "ACCOUNT_OID": 4194,
    "BANK_BRANCH_CODE": 10205.0
  },
  {
    "ACCOUNT_ID": 4195,
    "ACCOUNT_NUMBER": 99435102050,
    "ACCOUNT_NAME": "Local (Domestic) Collection Bill Discounting  Control A\/c",
    "ACCOUNT_TYPE": "Inter-System",
    "ACCOUNT_OID": 4195,
    "BANK_BRANCH_CODE": 10205.0
  },
  {
    "ACCOUNT_ID": 4196,
    "ACCOUNT_NUMBER": 99440102052,
    "ACCOUNT_NAME": "Invoice Financing Control A\/c",
    "ACCOUNT_TYPE": "Inter-System",
    "ACCOUNT_OID": 4196,
    "BANK_BRANCH_CODE": 10205.0
  },
  {
    "ACCOUNT_ID": 4197,
    "ACCOUNT_NUMBER": 99445102058,
    "ACCOUNT_NAME": "Dealer Finance  Control A\/c",
    "ACCOUNT_TYPE": "Inter-System",
    "ACCOUNT_OID": 4197,
    "BANK_BRANCH_CODE": 10205.0
  },
  {
    "ACCOUNT_ID": 4198,
    "ACCOUNT_NUMBER": 99450102050,
    "ACCOUNT_NAME": "Purchase Order Financing Control A\/c",
    "ACCOUNT_TYPE": "Inter-System",
    "ACCOUNT_OID": 4198,
    "BANK_BRANCH_CODE": 10205.0
  },
  {
    "ACCOUNT_ID": 4199,
    "ACCOUNT_NUMBER": 99455102056,
    "ACCOUNT_NAME": "Vendor Finance Control A\/c",
    "ACCOUNT_TYPE": "Inter-System",
    "ACCOUNT_OID": 4199,
    "BANK_BRANCH_CODE": 10205.0
  },
  {
    "ACCOUNT_ID": 4200,
    "ACCOUNT_NUMBER": 99460102059,
    "ACCOUNT_NAME": "Foreign Import LC Sight  Control A\/c",
    "ACCOUNT_TYPE": "Inter-System",
    "ACCOUNT_OID": 4200,
    "BANK_BRANCH_CODE": 10205.0
  },
  {
    "ACCOUNT_ID": 4201,
    "ACCOUNT_NUMBER": 99465102055,
    "ACCOUNT_NAME": "Foreign Import LC Usance  Control A\/c",
    "ACCOUNT_TYPE": "Inter-System",
    "ACCOUNT_OID": 4201,
    "BANK_BRANCH_CODE": 10205.0
  },
  {
    "ACCOUNT_ID": 4202,
    "ACCOUNT_NUMBER": 99470102057,
    "ACCOUNT_NAME": "Buyers Credit Control A\/c",
    "ACCOUNT_TYPE": "Inter-System",
    "ACCOUNT_OID": 4202,
    "BANK_BRANCH_CODE": 10205.0
  },
  {
    "ACCOUNT_ID": 4203,
    "ACCOUNT_NUMBER": 99475102053,
    "ACCOUNT_NAME": "Local Outward LC Sight  Control A\/c",
    "ACCOUNT_TYPE": "Inter-System",
    "ACCOUNT_OID": 4203,
    "BANK_BRANCH_CODE": 10205.0
  },
  {
    "ACCOUNT_ID": 4204,
    "ACCOUNT_NUMBER": 99480102055,
    "ACCOUNT_NAME": "Local Outward LC Usance  Control A\/c",
    "ACCOUNT_TYPE": "Inter-System",
    "ACCOUNT_OID": 4204,
    "BANK_BRANCH_CODE": 10205.0
  },
  {
    "ACCOUNT_ID": 4205,
    "ACCOUNT_NUMBER": 99485102051,
    "ACCOUNT_NAME": "Export LC Confirmation Control A\/c",
    "ACCOUNT_TYPE": "Inter-System",
    "ACCOUNT_OID": 4205,
    "BANK_BRANCH_CODE": 10205.0
  },
  {
    "ACCOUNT_ID": 4206,
    "ACCOUNT_NUMBER": 99490102053,
    "ACCOUNT_NAME": "Foreign Outward Guarantee Financial Control A\/c",
    "ACCOUNT_TYPE": "Inter-System",
    "ACCOUNT_OID": 4206,
    "BANK_BRANCH_CODE": 10205.0
  },
  {
    "ACCOUNT_ID": 4207,
    "ACCOUNT_NUMBER": 99495102059,
    "ACCOUNT_NAME": "Foreign Outward Guarantee NonFinancial Control A\/c",
    "ACCOUNT_TYPE": "Inter-System",
    "ACCOUNT_OID": 4207,
    "BANK_BRANCH_CODE": 10205.0
  },
  {
    "ACCOUNT_ID": 4208,
    "ACCOUNT_NUMBER": 99500102055,
    "ACCOUNT_NAME": "Local Outward Guarantee Financial Control A\/c",
    "ACCOUNT_TYPE": "Inter-System",
    "ACCOUNT_OID": 4208,
    "BANK_BRANCH_CODE": 10205.0
  }
]