SOURCE_NAME,REFNUM,AMOUNT,RESPCODE,ACCTNUM,LOCAL_DATE,LOCAL_TIME,Acceptorname,PAN,PCODE,MSGTYPE,AUTHNUM,NEW_AMOUNT,TERMID,TERMLOC,TXNSRC,TXNDEST,Merchant_Type,ACQ_CURRENCY_CODE,CH_AMOUNT,AMOUNT_EQUIV,Transaction Sequence,Transaction Code,Transaction Comment,Current Balance,User ID,Calendar Date,Cost Centre,Cost Centre Description,ATM Transaction Date,Time HHMMSS,Participant ID,From Account Type,To Account Type,RESPCODE,Member Number,Approval Number,System Trace Audit Number,Merchant Category Code,Card Acceptor Settl Date,Card Acceptor ID,Card Acceptor Term. Location,Aquirer ID,Transaction Currency Code,Transaction Amount,Trans Activity Fee,REMARKS,ORIGINAL CHANNEL,IFSC CODE,LINK_ID,STATEMENT_DATE
NPCI,'''916923002259,140.0,''0,''192090001295,18-06-2019 00:00:00,'''230119,','9759001002090001295,',',',0.0,'''YBL22222,',',','','',',',',',',',',,',',,','SSF,'0,'0.0,''0,'1,'41845,'259235,'4814,'190619,'YBL912222222222,'YesBankLimited           912222222222 IN,'100005,'356,14000.0,0,'PE91000093430916838011827140,'MOB,'SURY0BK0000,,19-06-2019 00:00:00
NPCI,'''916923003132,400.0,''0,''171040002321,18-06-2019 00:00:00,'''230343,','9759001001040002321,',',',0.0,'''YBL22222,',',','','',',',',',',',',,',',,','SSF,'0,'0.0,''0,'1,'41848,'132149,'4814,'190619,'YBL912222222222,'YesBankLimited           912222222222 IN,'100005,'356,40000.0,0,'PE90400034864916821221936400,'MOB,'SURY0000016,,19-06-2019 00:00:00
NPCI,'''916923010775,260.0,''0,''172050000058,18-06-2019 00:00:00,'''234233,','9759001002050000058,',',',0.0,'''YBL51023,',',','','',',',',',',',',,',',,','SSF,'0,'0.0,''0,'1,'41876,'775379,'4814,'190619,'YBL919325451023,'YesBankLimited           919325451023 IN,'100005,'356,26000.0,0,'FUND TRANSFER,'MOB,'SURY0000027,,19-06-2019 00:00:00
NPCI,'''916923550248,15000.0,''0,''181060010762,18-06-2019 00:00:00,'''231439,','9759001001060010762,',',',0.0,'''ICI60139,',',','','',',',',',',',',,',',,','SSF,'0,'0.0,''0,'1,'41853,'248059,'4814,'190619,'ICI919820960139,"'ICICI Bank Limited,MumbaiMOB982****139IN",'100002,'356,1500000.0,0,'Monthly,'MOB,'SURY0000011,,19-06-2019 00:00:00
NPCI,'''916923556365,1.0,''0,''191050006106,18-06-2019 00:00:00,'''231846,','9759001001050006106,',',',0.0,'''ICI43210,',',','','',',',',',',',',,',',,','SSF,'0,'0.0,''0,'1,'41859,'365356,'4829,'190619,'ICI919876543210,"'ICICI Bank Limited,MumbaiMOB987****210IN",'100002,'356,100.0,0,'Bank details validation CF,'INE,'SURY0000027,,19-06-2019 00:00:00
NPCI,'''916923698720,2000.0,''0,''191050013315,18-06-2019 00:00:00,'''230902,','9759001001050013315,',',',0.0,'''MCB77230,',',','','',',',',',',',',,',',,','SSF,'0,'0.0,''0,'1,'41851,'720439,'4814,'190619,'MCB918286977230,'MCB                      MOB8286977230IN,'100120,'356,200000.0,0,'From SHAKEEL,'MOB,'SURY0000012,,19-06-2019 00:00:00
NPCI,'''916923774767,30000.0,''0,''192090000289,18-06-2019 00:00:00,'''231831,','9759001002090000289,',',',0.0,'''SBI85608,',',','','',',',',',',',',,',',,','SSF,'0,'0.0,''0,'1,'41858,'767356,'4814,'190619,'SBI919112185608,'The State Bank of India  MOB9112185608IN,'100126,'356,3000000.0,0,'MOBUA0176111979,'MOB,'SURY0BK0000,,19-06-2019 00:00:00
NPCI,'''916923897081,1375.0,''0,''192050001312,18-06-2019 00:00:00,'''231447,','9759001002050001312,',',',0.0,'''PTM58669,',',','','',',',',',',',',,',',,','SSF,'10,'0.0,''0,'1,'41854,'81845,'4814,'190619,'PTM919604658669,'PAYTMPAYMENTSBANKLIMITED MOB9604658669IN,'100285,'356,137500.0,0,','MOB,'SURY0BK0000,,19-06-2019 00:00:00
NPCI,'''917000938922,50000.0,''0,''192070000002,19-06-2019 00:00:00,'''720,','9759001002070000002,',',',0.0,'''AXB99999,',',','','',',',',',',',',,',',,','SSF,'0,'0.0,''0,'1,'41880,'922726,'4829,'190619,'AXB919999999999,'AXB                      MOB9999999999IN,'100006,'356,5000000.0,0,','INE,'SURY0000013,13395638032184457058,19-06-2019 00:00:00
SWITCH,'''917000938922,50000.0,''0,''192070000002,19-06-2019 00:00:00,'''720,'AXB                      MOB9999999999IN,'9759001002070000002,'560000,'210,'41880,0.0,'''AXB99999,'AXB919999999999,'900002,'608022,''4829,''356,'0,'0,',',',',',,',',,',',','0.0,''0,',',',',',',',',',0.0,,',',',13395638032184457058,19-06-2019 00:00:00
CBS,'''917009860759,4000.0,'',''191070003692,19-06-2019 00:00:00,'''95831,','9759001001070003692,',',',0.0,'''HDB00000,',',',''48002,'',',','111,'SBIMP,'IMPS-RRN:917009860759/PAYZAPP WALLET TO AC/HDFC/50200022449983/PayZapp - Priyanka Sushant Gargote -,'24002.0,'S9154,19-06-2019 00:00:00,'10094,'CHAKAN- PUNE,19-06-2019 00:00:00,'95830,',','0.0,'',',',',',',',',',',0.0,,',',',,19-06-2019 00:00:00
SWITCH,'''917009860759,4000.0,''0,''191070003692,19-06-2019 00:00:00,'''95830,'HDFCBANKLTD              MOB0000000000IN,'9759001001070003692,'560000,'210,'42101,0.0,'''HDB00000,'HDB0000000000,'900002,'608022,''4814,''356,'0,'0,',',',',',,',',,',',','0.0,''0,',',',',',',',',',0.0,,',',',,19-06-2019 00:00:00
CBS,'''917010741647,1.0,'',''171040000942,19-06-2019 00:00:00,'''100314,','9759001001040000942,',',',0.0,'''ICI99999,',',',''51002,'',',','447,'SBIMP,'IMPS-RRN:917010741647/INGENICO EPAYMENTS I/ICIC/032305000039/Payout-OCT-for-RequestID-TxnRef-19035817,'792.45,'S9154,19-06-2019 00:00:00,'10028,'ALINDI-PUNE,19-06-2019 00:00:00,'100312,',','0.0,'',',',',',',',',',',0.0,,',',',,19-06-2019 00:00:00
SWITCH,'''917010741647,1.0,''0,''171040000942,19-06-2019 00:00:00,'''100312,"'ICICI Bank Limited,MumbaiMOB999****999IN",'9759001001040000942,'560000,'210,'42114,0.0,'''ICI99999,'ICI919999999999,'900002,'608022,''4829,''356,'0,'0,',',',',',,',',,',',','0.0,''0,',',',',',',',',',0.0,,',',',,19-06-2019 00:00:00
CBS,'''917010858982,580.0,'',''191070003692,19-06-2019 00:00:00,'''100039,','9759001001070003692,',',',0.0,'''HDB00000,',',',''49002,'',',','112,'SBIMP,'IMPS-RRN:917010858982/PAYZAPP WALLET TO AC/HDFC/50200022449983/PayZapp - Priyanka Sushant Gargote -,'24582.0,'S9154,19-06-2019 00:00:00,'10094,'CHAKAN- PUNE,19-06-2019 00:00:00,'100038,',','0.0,'',',',',',',',',',',0.0,,',',',,19-06-2019 00:00:00
SWITCH,'''917010858982,580.0,''0,''191070003692,19-06-2019 00:00:00,'''100038,'HDFCBANKLTD              MOB0000000000IN,'9759001001070003692,'560000,'210,'42108,0.0,'''HDB00000,'HDB0000000000,'900002,'608022,''4814,''356,'0,'0,',',',',',,',',,',',','0.0,''0,',',',',',',',',',0.0,,',',',,19-06-2019 00:00:00
CBS,'''917010862388,45.0,'',''191070003692,19-06-2019 00:00:00,'''100252,','9759001001070003692,',',',0.0,'''HDB00000,',',',''50002,'',',','113,'SBIMP,'IMPS-RRN:917010862388/PAYZAPP WALLET TO AC/HDFC/50200022449983/PayZapp - Priyanka Sushant Gargote -,'24627.0,'S9154,19-06-2019 00:00:00,'10094,'CHAKAN- PUNE,19-06-2019 00:00:00,'100249,',','0.0,'',',',',',',',',',',0.0,,',',',,19-06-2019 00:00:00
SWITCH,'''917010862388,45.0,''0,''191070003692,19-06-2019 00:00:00,'''100249,'HDFCBANKLTD              MOB0000000000IN,'9759001001070003692,'560000,'210,'42113,0.0,'''HDB00000,'HDB0000000000,'900002,'608022,''4814,''356,'0,'0,',',',',',,',',,',',','0.0,''0,',',',',',',',',',0.0,,',',',,19-06-2019 00:00:00
CBS,'''917013594346,5000.0,'',''181090002969,19-06-2019 00:00:00,'''133555,','9759001001090002969,',',',0.0,'''SYB80230,',',',''119002,'',',','65,'SBIMP,'IMPS-RRN:917013594346/S S ENTERPRISES/SYNB/54901010000550/To Savita Rakesh Suvarna Cash against Payment,'20824.0,'S9154,19-06-2019 00:00:00,'10011,'CBD Belapur,19-06-2019 00:00:00,'133532,',','0.0,'',',',',',',',',',',0.0,,',',',,19-06-2019 00:00:00
SWITCH,'''917013594346,5000.0,''0,''181090002969,19-06-2019 00:00:00,'''133532,'SyndicateBank            MOB8422980230IN,'9759001001090002969,'560000,'210,'42561,0.0,'''SYB80230,'SYB918422980230,'900002,'608022,''4829,''356,'0,'0,',',',',',,',',,',',','0.0,''0,',',',',',',',',',0.0,,',',',,19-06-2019 00:00:00
CBS,'''917014224946,5000.0,'',''172000000078,19-06-2019 00:00:00,'''145810,','9759001002000000078,',',',0.0,'''YBL04733,',',',''148002,'',',','898,'CADIMP,'IMPS-RRN:917014224946/PASFAR TECHNOLOGIES /YESB/002261100000063/PC Financial 190619010023447063A190619020023,'5461.13,'S9154,19-06-2019 00:00:00,'10016,'CHINCHWAD-PUNE,19-06-2019 00:00:00,'145808,',','0.0,'',',',',',',',',',',0.0,,',',',,19-06-2019 00:00:00
SWITCH,'''917014224946,5000.0,''0,''172000000078,19-06-2019 00:00:00,'''145808,'YesBankLimited           919560604733 IN,'9759001002000000078,'560000,'210,'42735,0.0,'''YBL04733,'YBL919560604733,'900002,'608022,''4814,''356,'0,'0,',',',',',,',',,',',','0.0,''0,',',',',',',',',',0.0,,',',',,19-06-2019 00:00:00
CBS,'''917016861055,1.0,'',''181080009936,19-06-2019 00:00:00,'''164004,','9759001001080009936,',',',0.0,'''ICI99999,',',',''173002,'',',','121,'SBIMP,'IMPS-RRN:917016861055/INGENICO EPAYMENTS I/ICIC/032305000039/Payout-OCT-for-RequestID-TxnRef-19065337,'99.6,'S9154,19-06-2019 00:00:00,'10018,'NAVRANGPURA-AHMEDABAD,19-06-2019 00:00:00,'164002,',','0.0,'',',',',',',',',',',0.0,,',',',,19-06-2019 00:00:00
SWITCH,'''917016861055,1.0,''0,''181080009936,19-06-2019 00:00:00,'''164002,"'ICICI Bank Limited,MumbaiMOB999****999IN",'9759001001080009936,'560000,'210,'42908,0.0,'''ICI99999,'ICI919999999999,'900002,'608022,''4829,''356,'0,'0,',',',',',,',',,',',','0.0,''0,',',',',',',',',',0.0,,',',',,19-06-2019 00:00:00
CBS,'''917017310640,4500.0,'',''191050016215,19-06-2019 00:00:00,'''175231,','9759001001050016215,',',',0.0,'''YBL04733,',',',''191002,'',',','67,'SBIMP,'IMPS-RRN:917017310640/PASFAR TECHNOLOGIES /YESB/002261100000063/PC Financial 190525010003993522A190619020128,'4503.8,'S9154,19-06-2019 00:00:00,'10092,'NAGPUR,19-06-2019 00:00:00,'175230,',','0.0,'',',',',',',',',',',0.0,,',',',,19-06-2019 00:00:00
SWITCH,'''917017310640,4500.0,''0,''191050016215,19-06-2019 00:00:00,'''175230,'YesBankLimited           919560604733 IN,'9759001001050016215,'560000,'210,'43019,0.0,'''YBL04733,'YBL919560604733,'900002,'608022,''4814,''356,'0,'0,',',',',',,',',,',',','0.0,''0,',',',',',',',',',0.0,,',',',,19-06-2019 00:00:00
CBS,'''917102206999,599.0,'',''182060000278,20-06-2019 00:00:00,'''24947,','9759001002060000278,',',',0.0,'''HSB11111,',',',''1002,'',',','564,'CADIMP,'IMPS-RRN:917102206999/Amazon Seller Servic/HSBC/072728116004/60YLT0IMF7LVCX46KAMLESH KIRANA STORES,'32534.35,'S9154,20-06-2019 00:00:00,'10011,'CBD Belapur,20-06-2019 00:00:00,'24946,',','0.0,'',',',',',',',',',',0.0,,',',',,20-06-2019 00:00:00
SWITCH,'''917102206999,599.0,''0,''182060000278,20-06-2019 00:00:00,'''24946,'HSB                      MOB1111111111IN,'9759001002060000278,'560000,'210,'43603,0.0,'''HSB11111,'HSB911111111111,'900002,'608022,''4814,''356,'0,'0,',',',',',,',',,',',','0.0,''0,',',',',',',',',',0.0,,',',',,20-06-2019 00:00:00
CBS,'''917108796647,1.0,'',''181080009936,20-06-2019 00:00:00,'''80128,','9759001001080009936,',',',0.0,'''ICI99999,',',',''29002,'',',','122,'SBIMP,'IMPS-RRN:917108796647/INGENICO EPAYMENTS I/ICIC/032305000039/Payout-OCT-for-RequestID-TxnRef-19088806,'100.6,'S9154,20-06-2019 00:00:00,'10018,'NAVRANGPURA-AHMEDABAD,20-06-2019 00:00:00,'80126,',','0.0,'',',',',',',',',',',0.0,,',',',,20-06-2019 00:00:00
SWITCH,'''917108796647,1.0,''0,''181080009936,20-06-2019 00:00:00,'''80126,"'ICICI Bank Limited,MumbaiMOB999****999IN",'9759001001080009936,'560000,'210,'43658,0.0,'''ICI99999,'ICI919999999999,'900002,'608022,''4829,''356,'0,'0,',',',',',,',',,',',','0.0,''0,',',',',',',',',',0.0,,',',',,20-06-2019 00:00:00
CBS,'''917110306251,1.0,'',''171040000942,20-06-2019 00:00:00,'''104915,','9759001001040000942,',',',0.0,'''ICI99999,',',',''62002,'',',','452,'SBIMP,'IMPS-RRN:917110306251/INGENICO EPAYMENTS I/ICIC/032305000039/Payout-OCT-for-RequestID-TxnRef-19093349,'4682.45,'S9154,20-06-2019 00:00:00,'10028,'ALINDI-PUNE,20-06-2019 00:00:00,'104913,',','0.0,'',',',',',',',',',',0.0,,',',',,20-06-2019 00:00:00
SWITCH,'''917110306251,1.0,''0,''171040000942,20-06-2019 00:00:00,'''104913,"'ICICI Bank Limited,MumbaiMOB999****999IN",'9759001001040000942,'560000,'210,'43931,0.0,'''ICI99999,'ICI919999999999,'900002,'608022,''4829,''356,'0,'0,',',',',',,',',,',',','0.0,''0,',',',',',',',',',0.0,,',',',,20-06-2019 00:00:00
CBS,'''917110307247,1.0,'',''171040000942,20-06-2019 00:00:00,'''104921,','9759001001040000942,',',',0.0,'''ICI99999,',',',''63002,'',',','453,'SBIMP,'IMPS-RRN:917110307247/INGENICO EPAYMENTS I/ICIC/032305000039/Payout-OCT-for-RequestID-TxnRef-19093352,'4683.45,'S9154,20-06-2019 00:00:00,'10028,'ALINDI-PUNE,20-06-2019 00:00:00,'104918,',','0.0,'',',',',',',',',',',0.0,,',',',,20-06-2019 00:00:00
SWITCH,'''917110307247,1.0,''0,''171040000942,20-06-2019 00:00:00,'''104918,"'ICICI Bank Limited,MumbaiMOB999****999IN",'9759001001040000942,'560000,'210,'43935,0.0,'''ICI99999,'ICI919999999999,'900002,'608022,''4829,''356,'0,'0,',',',',',,',',,',',','0.0,''0,',',',',',',',',',0.0,,',',',,20-06-2019 00:00:00
CBS,'''917113838229,1.0,'',''171040000942,20-06-2019 00:00:00,'''131508,','9759001001040000942,',',',0.0,'''ICI99999,',',',''105002,'',',','454,'SBIMP,'IMPS-RRN:917113838229/INGENICO EPAYMENTS I/ICIC/032305000039/Payout-OCT-for-RequestID-TxnRef-19105492,'4684.45,'S9154,20-06-2019 00:00:00,'10028,'ALINDI-PUNE,20-06-2019 00:00:00,'131505,',','0.0,'',',',',',',',',',',0.0,,',',',,20-06-2019 00:00:00
SWITCH,'''917113838229,1.0,''0,''171040000942,20-06-2019 00:00:00,'''131505,"'ICICI Bank Limited,MumbaiMOB999****999IN",'9759001001040000942,'560000,'210,'44274,0.0,'''ICI99999,'ICI919999999999,'900002,'608022,''4829,''356,'0,'0,',',',',',,',',,',',','0.0,''0,',',',',',',',',',0.0,,',',',,20-06-2019 00:00:00
CBS,'''917113839574,1.0,'',''171040000942,20-06-2019 00:00:00,'''131536,','9759001001040000942,',',',0.0,'''ICI99999,',',',''106002,'',',','455,'SBIMP,'IMPS-RRN:917113839574/INGENICO EPAYMENTS I/ICIC/032305000039/Payout-OCT-for-RequestID-TxnRef-19105536,'4685.45,'S9154,20-06-2019 00:00:00,'10028,'ALINDI-PUNE,20-06-2019 00:00:00,'131535,',','0.0,'',',',',',',',',',',0.0,,',',',,20-06-2019 00:00:00
SWITCH,'''917113839574,1.0,''0,''171040000942,20-06-2019 00:00:00,'''131535,"'ICICI Bank Limited,MumbaiMOB999****999IN",'9759001001040000942,'560000,'210,'44278,0.0,'''ICI99999,'ICI919999999999,'900002,'608022,''4829,''356,'0,'0,',',',',',,',',,',',','0.0,''0,',',',',',',',',',0.0,,',',',,20-06-2019 00:00:00
CBS,'''917114982354,1.0,'',''181080009936,20-06-2019 00:00:00,'''140102,','9759001001080009936,',',',0.0,'''ICI99999,',',',''126002,'',',','123,'SBIMP,'IMPS-RRN:917114982354/INGENICO EPAYMENTS I/ICIC/032305000039/Payout-OCT-for-RequestID-TxnRef-19109369,'101.6,'S9154,20-06-2019 00:00:00,'10018,'NAVRANGPURA-AHMEDABAD,20-06-2019 00:00:00,'140057,',','0.0,'',',',',',',',',',',0.0,,',',',,20-06-2019 00:00:00
SWITCH,'''917114982354,1.0,''0,''181080009936,20-06-2019 00:00:00,'''140057,"'ICICI Bank Limited,MumbaiMOB999****999IN",'9759001001080009936,'560000,'210,'44363,0.0,'''ICI99999,'ICI919999999999,'900002,'608022,''4829,''356,'0,'0,',',',',',,',',,',',','0.0,''0,',',',',',',',',',0.0,,',',',,20-06-2019 00:00:00
CBS,'''917207942658,1500.0,'',''181000009087,21-06-2019 00:00:00,'''70104,','9759001001000009087,',',',0.0,'''YBL04733,',',',''19002,'',',','391,'SBIMP,'IMPS-RRN:917207942658/PASFAR TECHNOLOGIES /YESB/002261100000063/PC Financial 190417010000427402A190619020004,'1508.99,'S9154,21-06-2019 00:00:00,'10031,'DATTWADI -PUNE,21-06-2019 00:00:00,'70102,',','0.0,'',',',',',',',',',',0.0,,',',',,21-06-2019 00:00:00
SWITCH,'''917207942658,1500.0,''0,''181000009087,21-06-2019 00:00:00,'''70102,'YesBankLimited           919560604733 IN,'9759001001000009087,'560000,'210,'45431,0.0,'''YBL04733,'YBL919560604733,'900002,'608022,''4814,''356,'0,'0,',',',',',,',',,',',','0.0,''0,',',',',',',',',',0.0,,',',',,21-06-2019 00:00:00
CBS,'''917208157330,1.0,'',''181080009936,21-06-2019 00:00:00,'''80039,','9759001001080009936,',',',0.0,'''ICI99999,',',',''29002,'',',','124,'SBIMP,'IMPS-RRN:917208157330/INGENICO EPAYMENTS I/ICIC/032305000039/Payout-OCT-for-RequestID-TxnRef-19145179,'102.6,'S9154,21-06-2019 00:00:00,'10018,'NAVRANGPURA-AHMEDABAD,21-06-2019 00:00:00,'80038,',','0.0,'',',',',',',',',',',0.0,,',',',,21-06-2019 00:00:00
SWITCH,'''917208157330,1.0,''0,''181080009936,21-06-2019 00:00:00,'''80038,"'ICICI Bank Limited,MumbaiMOB999****999IN",'9759001001080009936,'560000,'210,'45465,0.0,'''ICI99999,'ICI919999999999,'900002,'608022,''4829,''356,'0,'0,',',',',',,',',,',',','0.0,''0,',',',',',',',',',0.0,,',',',,21-06-2019 00:00:00
CBS,'''917210507949,1.0,'',''171040000942,21-06-2019 00:00:00,'''105805,','9759001001040000942,',',',0.0,'''ICI99999,',',',''51002,'',',','457,'SBIMP,'IMPS-RRN:917210507949/INGENICO EPAYMENTS I/ICIC/032305000039/Payout-OCT-for-RequestID-TxnRef-19152360,'4687.45,'S9154,21-06-2019 00:00:00,'10028,'ALINDI-PUNE,21-06-2019 00:00:00,'105803,',','0.0,'',',',',',',',',',',0.0,,',',',,21-06-2019 00:00:00
SWITCH,'''917210507949,1.0,''0,''171040000942,21-06-2019 00:00:00,'''105803,"'ICICI Bank Limited,MumbaiMOB999****999IN",'9759001001040000942,'560000,'210,'45727,0.0,'''ICI99999,'ICI919999999999,'900002,'608022,''4829,''356,'0,'0,',',',',',,',',,',',','0.0,''0,',',',',',',',',',0.0,,',',',,21-06-2019 00:00:00
CBS,'''917210508317,1.0,'',''171040000942,21-06-2019 00:00:00,'''105758,','9759001001040000942,',',',0.0,'''ICI99999,',',',''50002,'',',','456,'SBIMP,'IMPS-RRN:917210508317/INGENICO EPAYMENTS I/ICIC/032305000039/Payout-OCT-for-RequestID-TxnRef-19152343,'4686.45,'S9154,21-06-2019 00:00:00,'10028,'ALINDI-PUNE,21-06-2019 00:00:00,'105755,',','0.0,'',',',',',',',',',',0.0,,',',',,21-06-2019 00:00:00
SWITCH,'''917210508317,1.0,''0,''171040000942,21-06-2019 00:00:00,'''105755,"'ICICI Bank Limited,MumbaiMOB999****999IN",'9759001001040000942,'560000,'210,'45723,0.0,'''ICI99999,'ICI919999999999,'900002,'608022,''4829,''356,'0,'0,',',',',',,',',,',',','0.0,''0,',',',',',',',',',0.0,,',',',,21-06-2019 00:00:00
CBS,'''917210511056,1.0,'',''171040000942,21-06-2019 00:00:00,'''105848,','9759001001040000942,',',',0.0,'''ICI99999,',',',''52002,'',',','458,'SBIMP,'IMPS-RRN:917210511056/INGENICO EPAYMENTS I/ICIC/032305000039/Payout-OCT-for-RequestID-TxnRef-19152417,'4688.45,'S9154,21-06-2019 00:00:00,'10028,'ALINDI-PUNE,21-06-2019 00:00:00,'105845,',','0.0,'',',',',',',',',',',0.0,,',',',,21-06-2019 00:00:00
SWITCH,'''917210511056,1.0,''0,''171040000942,21-06-2019 00:00:00,'''105845,"'ICICI Bank Limited,MumbaiMOB999****999IN",'9759001001040000942,'560000,'210,'45731,0.0,'''ICI99999,'ICI919999999999,'900002,'608022,''4829,''356,'0,'0,',',',',',,',',,',',','0.0,''0,',',',',',',',',',0.0,,',',',,21-06-2019 00:00:00
CBS,'''917214023934,1.0,'',''181080009936,21-06-2019 00:00:00,'''140103,','9759001001080009936,',',',0.0,'''ICI99999,',',',''106002,'',',','125,'SBIMP,'IMPS-RRN:917214023934/INGENICO EPAYMENTS I/ICIC/032305000039/Payout-OCT-for-RequestID-TxnRef-19166762,'103.6,'S9154,21-06-2019 00:00:00,'10018,'NAVRANGPURA-AHMEDABAD,21-06-2019 00:00:00,'140100,',','0.0,'',',',',',',',',',',0.0,,',',',,21-06-2019 00:00:00
SWITCH,'''917214023934,1.0,''0,''181080009936,21-06-2019 00:00:00,'''140100,"'ICICI Bank Limited,MumbaiMOB999****999IN",'9759001001080009936,'560000,'210,'46136,0.0,'''ICI99999,'ICI919999999999,'900002,'608022,''4829,''356,'0,'0,',',',',',,',',,',',','0.0,''0,',',',',',',',',',0.0,,',',',,21-06-2019 00:00:00
CBS,'''917218639162,1.0,'',''181080009936,21-06-2019 00:00:00,'''180055,','9759001001080009936,',',',0.0,'''ICI99999,',',',''154002,'',',','126,'SBIMP,'IMPS-RRN:917218639162/INGENICO EPAYMENTS I/ICIC/032305000039/Payout-OCT-for-RequestID-TxnRef-19184038,'104.6,'S9154,21-06-2019 00:00:00,'10018,'NAVRANGPURA-AHMEDABAD,21-06-2019 00:00:00,'180052,',','0.0,'',',',',',',',',',',0.0,,',',',,21-06-2019 00:00:00
SWITCH,'''917218639162,1.0,''0,''181080009936,21-06-2019 00:00:00,'''180052,"'ICICI Bank Limited,MumbaiMOB999****999IN",'9759001001080009936,'560000,'210,'46583,0.0,'''ICI99999,'ICI919999999999,'900002,'608022,''4829,''356,'0,'0,',',',',',,',',,',',','0.0,''0,',',',',',',',',',0.0,,',',',,21-06-2019 00:00:00
CBS,'''917223004794,33000.0,'',''171040001427,21-06-2019 00:00:00,'''234337,','9759001001040001427,',',',0.0,'''KMB66862,',',',''216002,'',',','74,'SBIMP,'IMPS-RRN:917223004794/SHRUTIKA  VIJAY RAMG/KKBK/1111462657/IB:SENT TO suryo 171040001427 IMPS 7376,'60112.0,'S9154,21-06-2019 00:00:00,'10028,'ALINDI-PUNE,21-06-2019 00:00:00,'234336,',','0.0,'',',',',',',',',',',0.0,,',',',,21-06-2019 00:00:00
SWITCH,'''917223004794,33000.0,''0,''171040001427,21-06-2019 00:00:00,'''234336,'KMB                      MOB9168666862IN,'9759001001040001427,'560000,'210,'47252,0.0,'''KMB66862,'KMB919168666862,'900002,'608022,''4829,''356,'0,'0,',',',',',,',',,',',','0.0,''0,',',',',',',',',',0.0,,',',',,21-06-2019 00:00:00
CBS,'''917223012795,1000.0,'',''192020000456,21-06-2019 00:00:00,'''235350,','9759001002020000456,',',',0.0,'''AXB40481,',',',''218002,'',',','133,'CADIMP,'IMPS-RRN:917223012795/JILL JUCK CAKES/UTIB/915020057639377/,'1027.6,'S9154,21-06-2019 00:00:00,'10081,'Thiruvanmiyur,21-06-2019 00:00:00,'235349,',','0.0,'',',',',',',',',',',0.0,,',',',,21-06-2019 00:00:00
SWITCH,'''917223012795,1000.0,''0,''192020000456,21-06-2019 00:00:00,'''235349,'AXB                      MOB9841140481IN,'9759001002020000456,'560000,'210,'47257,0.0,'''AXB40481,'AXB919841140481,'900002,'608022,''4814,''356,'0,'0,',',',',',,',',,',',','0.0,''0,',',',',',',',',',0.0,,',',',,21-06-2019 00:00:00
CBS,'''917223013104,100.0,'',''181020009625,21-06-2019 00:00:00,'''235808,','9759001001020009625,',',',0.0,'''AXB21785,',',',''219002,'',',','143,'SBIMP,'IMPS-RRN:917223013104/VIJAYBHAI MAKWANA/UTIB/915010012736458/,'177.0,'S9154,21-06-2019 00:00:00,'10018,'NAVRANGPURA-AHMEDABAD,21-06-2019 00:00:00,'235808,',','0.0,'',',',',',',',',',',0.0,,',',',,21-06-2019 00:00:00
SWITCH,'''917223013104,100.0,''0,''181020009625,21-06-2019 00:00:00,'''235808,'AXB                      MOB9904921785IN,'9759001001020009625,'560000,'210,'47261,0.0,'''AXB21785,'AXB919904921785,'900002,'608022,''4814,''356,'0,'0,',',',',',,',',,',',','0.0,''0,',',',',',',',',',0.0,,',',',,21-06-2019 00:00:00
CBS,'''917223305465,180.0,'',''182090000820,21-06-2019 00:00:00,'''230701,','9759001002090000820,',',',0.0,'''YBL22222,',',',''214002,'',',','570,'CADIMP,'IMPS-RRN:917223305465/RESILIENT INNOVATION/YESB/048064700000061/PE90200556096917142986598180,'27198.35,'S9154,21-06-2019 00:00:00,'10026,'YEWALEWADI-PUNE,21-06-2019 00:00:00,'230659,',','0.0,'',',',',',',',',',',0.0,,',',',,21-06-2019 00:00:00
SWITCH,'''917223305465,180.0,''0,''182090000820,21-06-2019 00:00:00,'''230659,'YesBankLimited           912222222222 IN,'9759001002090000820,'560000,'210,'47233,0.0,'''YBL22222,'YBL912222222222,'900002,'608022,''4814,''356,'0,'0,',',',',',,',',,',',','0.0,''0,',',',',',',',',',0.0,,',',',,21-06-2019 00:00:00
CBS,'''917223393731,2500.0,'',''192090000289,21-06-2019 00:00:00,'''231234,','9759001002090000289,',',',0.0,'''BOM85608,',',',''215002,'',',','989,'CADIMP,'IMPS-RRN:917223393731/JASLEEN/MAHB/60164665610/pay,'4417.52,'S9154,21-06-2019 00:00:00,'10095,'VIMAN NAGAR- PUNE,21-06-2019 00:00:00,'231227,',','0.0,'',',',',',',',',',',0.0,,',',',,21-06-2019 00:00:00
SWITCH,'''917223393731,2500.0,''0,''192090000289,21-06-2019 00:00:00,'''231227,'BankofMaharashtra        MOB9112185608IN,'9759001002090000289,'560000,'210,'47240,0.0,'''BOM85608,'BOM919112185608,'900002,'608022,''4814,''356,'0,'0,',',',',',,',',,',',','0.0,''0,',',',',',',',',',0.0,,',',',,21-06-2019 00:00:00
NPCI,'''917423173666,1050.0,''0,''172010000185,23-06-2019 00:00:00,'''230036,','9759001002010000185,',',',0.0,'''YBL22222,',',','','',',',',',',',',,',',,','SSF,'0,'0.0,''0,'1,'50759,'666083,'4814,'190624,'YBL912222222222,'YesBankLimited           912222222222 IN,'100005,'356,105000.0,0,'PE902005801649173197547191050,'MOB,'SURY0000016,,24-06-2019 00:00:00
NPCI,'''917423231021,140.0,''0,''181070006722,23-06-2019 00:00:00,'''233203,','9759001001070006722,',',',0.0,'''ICI00000,',',','','',',',',',',',',,',',,','SSF,'0,'0.0,''0,'1,'50780,'21049,'4829,'190624,'ICI910000000000,"'ICICI Bank Limited,MumbaiMOB000****000IN",'100002,'356,14000.0,0,'20190623050725219461,'INE,'SURY0000031,,24-06-2019 00:00:00
NPCI,'''917423288669,100.0,''0,''182010000737,23-06-2019 00:00:00,'''230008,','9759001002010000737,',',',0.0,'''KMB08881,',',','','',',',',',',',',,',',,','SSF,'0,'0.0,''0,'1,'50758,'669086,'4814,'190624,'KMB919764708881,'KMB                      MOB9764708881IN,'100009,'356,10000.0,0,'MB: FURNITURE WORK PAYMENT,'MOB,'SURY0000016,,24-06-2019 00:00:00
NPCI,'''917423412634,6595.34,''0,''181070007143,23-06-2019 00:00:00,'''230042,','9759001001070007143,',',',0.0,'''DBS74116,',',','','',',',',',',',',,',',,','SSF,'0,'0.0,''0,'1,'50760,'634515,'4829,'190624,'DBS919952074116,'DBSS                     MOB9952074116IN,'100062,'356,659534.0,0,','INE,'SURY0000025,,24-06-2019 00:00:00
CBS,'''917508188402,1.0,'',''181080009936,24-06-2019 00:00:00,'''80029,','9759001001080009936,',',',0.0,'''ICI99999,',',',''29002,'',',','133,'SBIMP,'IMPS-RRN:917508188402/INGENICO EPAYMENTS I/ICIC/032305000039/Payout-OCT-for-RequestID-TxnRef-19285096,'111.6,'S9154,24-06-2019 00:00:00,'10018,'NAVRANGPURA-AHMEDABAD,24-06-2019 00:00:00,'80028,',','0.0,'',',',',',',',',',',0.0,,',',',,24-06-2019 00:00:00
SWITCH,'''917508188402,1.0,''0,''181080009936,24-06-2019 00:00:00,'''80028,"'ICICI Bank Limited,MumbaiMOB999****999IN",'9759001001080009936,'560000,'210,'50854,0.0,'''ICI99999,'ICI919999999999,'900002,'608022,''4829,''356,'0,'0,',',',',',,',',,',',','0.0,''0,',',',',',',',',',0.0,,',',',,24-06-2019 00:00:00
CBS,'''917511743014,1.0,'',''171040000942,24-06-2019 00:00:00,'''113509,','9759001001040000942,',',',0.0,'''ICI99999,',',',''67002,'',',','462,'SBIMP,'IMPS-RRN:917511743014/INGENICO EPAYMENTS I/ICIC/032305000039/Payout-OCT-for-RequestID-TxnRef-19294721,'4692.45,'S9154,24-06-2019 00:00:00,'10028,'ALINDI-PUNE,24-06-2019 00:00:00,'113507,',','0.0,'',',',',',',',',',',0.0,,',',',,24-06-2019 00:00:00
SWITCH,'''917511743014,1.0,''0,''171040000942,24-06-2019 00:00:00,'''113507,"'ICICI Bank Limited,MumbaiMOB999****999IN",'9759001001040000942,'560000,'210,'51221,0.0,'''ICI99999,'ICI919999999999,'900002,'608022,''4829,''356,'0,'0,',',',',',,',',,',',','0.0,''0,',',',',',',',',',0.0,,',',',,24-06-2019 00:00:00
CBS,'''917514216300,1.0,'',''181080009936,24-06-2019 00:00:00,'''140037,','9759001001080009936,',',',0.0,'''ICI99999,',',',''114002,'',',','134,'SBIMP,'IMPS-RRN:917514216300/INGENICO EPAYMENTS I/ICIC/032305000039/Payout-OCT-for-RequestID-TxnRef-19306620,'112.6,'S9154,24-06-2019 00:00:00,'10018,'NAVRANGPURA-AHMEDABAD,24-06-2019 00:00:00,'140033,',','0.0,'',',',',',',',',',',0.0,,',',',,24-06-2019 00:00:00
SWITCH,'''917514216300,1.0,''0,''181080009936,24-06-2019 00:00:00,'''140033,"'ICICI Bank Limited,MumbaiMOB999****999IN",'9759001001080009936,'560000,'210,'51520,0.0,'''ICI99999,'ICI919999999999,'900002,'608022,''4829,''356,'0,'0,',',',',',,',',,',',','0.0,''0,',',',',',',',',',0.0,,',',',,24-06-2019 00:00:00
CBS,'''917515456297,100000.0,'',''172070000529,24-06-2019 00:00:00,'''151940,','9759001002070000529,',',',0.0,'''ICI21676,',',',''142002,'',',','1632,'CADIMP,'IMPS-RRN:917515456297/SHRINIWAS LOGISTICS /ICIC/645505004154/shree balaji filling Station against bill,'1345940.92,'S9154,24-06-2019 00:00:00,'10033,'VARALE-PUNE,24-06-2019 00:00:00,'151938,',','0.0,'',',',',',',',',',',0.0,,',',',,24-06-2019 00:00:00
SWITCH,'''917515456297,100000.0,''0,''172070000529,24-06-2019 00:00:00,'''151938,"'ICICI Bank Limited,MumbaiMOB916****676IN",'9759001002070000529,'560000,'210,'51699,0.0,'''ICI21676,'ICI919168621676,'900002,'608022,''4829,''356,'0,'0,',',',',',,',',,',',','0.0,''0,',',',',',',',',',0.0,,',',',,24-06-2019 00:00:00
CBS,'''917518936114,1.0,'',''181080009936,24-06-2019 00:00:00,'''180032,','9759001001080009936,',',',0.0,'''ICI99999,',',',''169002,'',',','135,'SBIMP,'IMPS-RRN:917518936114/INGENICO EPAYMENTS I/ICIC/032305000039/Payout-OCT-for-RequestID-TxnRef-19326498,'113.6,'S9154,24-06-2019 00:00:00,'10018,'NAVRANGPURA-AHMEDABAD,24-06-2019 00:00:00,'180024,',','0.0,'',',',',',',',',',',0.0,,',',',,24-06-2019 00:00:00
SWITCH,'''917518936114,1.0,''0,''181080009936,24-06-2019 00:00:00,'''180024,"'ICICI Bank Limited,MumbaiMOB999****999IN",'9759001001080009936,'560000,'210,'51955,0.0,'''ICI99999,'ICI919999999999,'900002,'608022,''4829,''356,'0,'0,',',',',',,',',,',',','0.0,''0,',',',',',',',',',0.0,,',',',,24-06-2019 00:00:00
CBS,'''917607684114,1500.0,'',''171020001605,25-06-2019 00:00:00,'''70252,','9759001001020001605,',',',0.0,'''YBL11111,',',',''25002,'',',','313,'SBIMP,'IMPS-RRN:917607684114/RAZORPAY SOFTWARE PV/YESB/002261100000070/PC FINANCIAL SERVICES PRIVATE FUND TRANSFER,'1508.82,'S9154,25-06-2019 00:00:00,'10017,'SADASHIVPETH-PUNE,25-06-2019 00:00:00,'70250,',','0.0,'',',',',',',',',',',0.0,,',',',,25-06-2019 00:00:00
SWITCH,'''917607684114,1500.0,''0,''171020001605,25-06-2019 00:00:00,'''70250,'YesBankLimited           911111111111 IN,'9759001001020001605,'560000,'210,'52548,0.0,'''YBL11111,'YBL911111111111,'900002,'608022,''4814,''356,'0,'0,',',',',',,',',,',',','0.0,''0,',',',',',',',',',0.0,,',',',,25-06-2019 00:00:00
CBS,'''917608735585,1.0,'',''181080009936,25-06-2019 00:00:00,'''80037,','9759001001080009936,',',',0.0,'''ICI99999,',',',''32002,'',',','136,'SBIMP,'IMPS-RRN:917608735585/INGENICO EPAYMENTS I/ICIC/032305000039/Payout-OCT-for-RequestID-TxnRef-19346380,'114.6,'S9154,25-06-2019 00:00:00,'10018,'NAVRANGPURA-AHMEDABAD,25-06-2019 00:00:00,'80033,',','0.0,'',',',',',',',',',',0.0,,',',',,25-06-2019 00:00:00
SWITCH,'''917608735585,1.0,''0,''181080009936,25-06-2019 00:00:00,'''80033,"'ICICI Bank Limited,MumbaiMOB999****999IN",'9759001001080009936,'560000,'210,'52577,0.0,'''ICI99999,'ICI919999999999,'900002,'608022,''4829,''356,'0,'0,',',',',',,',',,',',','0.0,''0,',',',',',',',',',0.0,,',',',,25-06-2019 00:00:00
CBS,'''917612528115,1.0,'',''171040000942,25-06-2019 00:00:00,'''124202,','9759001001040000942,',',',0.0,'''ICI99999,',',',''106002,'',',','464,'SBIMP,'IMPS-RRN:917612528115/INGENICO EPAYMENTS I/ICIC/032305000039/Payout-OCT-for-RequestID-TxnRef-19361739,'3193.45,'S9154,25-06-2019 00:00:00,'10028,'ALINDI-PUNE,25-06-2019 00:00:00,'124200,',','0.0,'',',',',',',',',',',0.0,,',',',,25-06-2019 00:00:00
SWITCH,'''917612528115,1.0,''0,''171040000942,25-06-2019 00:00:00,'''124200,"'ICICI Bank Limited,MumbaiMOB999****999IN",'9759001001040000942,'560000,'210,'53051,0.0,'''ICI99999,'ICI919999999999,'900002,'608022,''4829,''356,'0,'0,',',',',',,',',,',',','0.0,''0,',',',',',',',',',0.0,,',',',,25-06-2019 00:00:00
CBS,'''917614775548,1.0,'',''181080009936,25-06-2019 00:00:00,'''140013,','9759001001080009936,',',',0.0,'''ICI99999,',',',''133002,'',',','137,'SBIMP,'IMPS-RRN:917614775548/INGENICO EPAYMENTS I/ICIC/032305000039/Payout-OCT-for-RequestID-TxnRef-19367744,'115.6,'S9154,25-06-2019 00:00:00,'10018,'NAVRANGPURA-AHMEDABAD,25-06-2019 00:00:00,'140011,',','0.0,'',',',',',',',',',',0.0,,',',',,25-06-2019 00:00:00
SWITCH,'''917614775548,1.0,''0,''181080009936,25-06-2019 00:00:00,'''140011,"'ICICI Bank Limited,MumbaiMOB999****999IN",'9759001001080009936,'560000,'210,'53211,0.0,'''ICI99999,'ICI919999999999,'900002,'608022,''4829,''356,'0,'0,',',',',',,',',,',',','0.0,''0,',',',',',',',',',0.0,,',',',,25-06-2019 00:00:00
CBS,'''917618476371,1.0,'',''181080009936,25-06-2019 00:00:00,'''180040,','9759001001080009936,',',',0.0,'''ICI99999,',',',''187002,'',',','138,'SBIMP,'IMPS-RRN:917618476371/INGENICO EPAYMENTS I/ICIC/032305000039/Payout-OCT-for-RequestID-TxnRef-19384491,'116.6,'S9154,25-06-2019 00:00:00,'10018,'NAVRANGPURA-AHMEDABAD,25-06-2019 00:00:00,'180031,',','0.0,'',',',',',',',',',',0.0,,',',',,25-06-2019 00:00:00
SWITCH,'''917618476371,1.0,''0,''181080009936,25-06-2019 00:00:00,'''180031,"'ICICI Bank Limited,MumbaiMOB999****999IN",'9759001001080009936,'560000,'210,'53641,0.0,'''ICI99999,'ICI919999999999,'900002,'608022,''4829,''356,'0,'0,',',',',',,',',,',',','0.0,''0,',',',',',',',',',0.0,,',',',,25-06-2019 00:00:00
CBS,'''917623073593,5.0,'',''191090004397,25-06-2019 00:00:00,'''230203,','9759001001090004397,',',',0.0,'''YBL22222,',',',''251002,'',',','732,'SBIMP,'IMPS-RRN:917623073593/RESILIENT INNOVATION/YESB/048064700000061/PE906000126599175191754715,'3081.25,'S9154,25-06-2019 00:00:00,'10016,'CHINCHWAD-PUNE,25-06-2019 00:00:00,'230201,',','0.0,'',',',',',',',',',',0.0,,',',',,25-06-2019 00:00:00
SWITCH,'''917623073593,5.0,''0,''191090004397,25-06-2019 00:00:00,'''230201,'YesBankLimited           912222222222 IN,'9759001001090004397,'560000,'210,'54283,0.0,'''YBL22222,'YBL912222222222,'900002,'608022,''4814,''356,'0,'0,',',',',',,',',,',',','0.0,''0,',',',',',',',',',0.0,,',',',,25-06-2019 00:00:00
CBS,'''917623081754,10.0,'',''172050000058,25-06-2019 00:00:00,'''234235,','9759001002050000058,',',',0.0,'''YBL51023,',',',''256002,'',',','461,'CADIMP,'IMPS-RRN:917623081754/MICROLUCID TECHNOLOG/YESB/041261900001481/FUND TRANSFER,'12343.19,'S9154,25-06-2019 00:00:00,'10027,'MAHALUNGE -PUNE,25-06-2019 00:00:00,'234234,',','0.0,'',',',',',',',',',',0.0,,',',',,25-06-2019 00:00:00
SWITCH,'''917623081754,10.0,''0,''172050000058,25-06-2019 00:00:00,'''234234,'YesBankLimited           919325451023 IN,'9759001002050000058,'560000,'210,'54307,0.0,'''YBL51023,'YBL919325451023,'900002,'608022,''4814,''356,'0,'0,',',',',',,',',,',',','0.0,''0,',',',',',',',',',0.0,,',',',,25-06-2019 00:00:00
CBS,'''917623376497,20000.0,'',''171090003098,25-06-2019 00:00:00,'''233014,','9759001001090003098,',',',0.0,'''ICI07869,',',',''253002,'',',','302,'SBIMP,'IMPS-RRN:917623376497/SURENDARSINGH AJITSI/ICIC/026801528660/My and wife sav,'7452802.0,'S9154,25-06-2019 00:00:00,'10014,'Thane Branch,25-06-2019 00:00:00,'233013,',','0.0,'',',',',',',',',',',0.0,,',',',,25-06-2019 00:00:00
SWITCH,'''917623376497,20000.0,''0,''171090003098,25-06-2019 00:00:00,'''233013,"'ICICI Bank Limited,MumbaiMOB959****869IN",'9759001001090003098,'560000,'210,'54299,0.0,'''ICI07869,'ICI919594007869,'900002,'608022,''4814,''356,'0,'0,',',',',',,',',,',',','0.0,''0,',',',',',',',',',0.0,,',',',,25-06-2019 00:00:00
CBS,'''917623442917,4600.0,'',''181010006893,25-06-2019 00:00:00,'''233737,','9759001001010006893,',',',0.0,'''DBS39235,',',',''254002,'',',','136,'SBIMP,'IMPS-RRN:917623442917/PAWAN RAMDEV PRAJAPA/DBSS/881014725159/,'12612.0,'S9154,25-06-2019 00:00:00,'10012,'Chembur Branch,25-06-2019 00:00:00,'233737,',','0.0,'',',',',',',',',',',0.0,,',',',,25-06-2019 00:00:00
SWITCH,'''917623442917,4600.0,''0,''181010006893,25-06-2019 00:00:00,'''233737,'DBSS                     MOB9869539235IN,'9759001001010006893,'560000,'210,'54302,0.0,'''DBS39235,'DBS919869539235,'900002,'608022,''4829,''356,'0,'0,',',',',',,',',,',',','0.0,''0,',',',',',',',',',0.0,,',',',,25-06-2019 00:00:00
CBS,'''917623515998,490.0,'',''192050001312,25-06-2019 00:00:00,'''233836,','9759001002050001312,',',',0.0,'''PTM58669,',',',''255002,'',',','102,'CADIMP,'IMPS-RRN:917623515998/OMKAR GOVERDHAN AHIR/PYTM/919604658669/,'3235.38,'S9154,25-06-2019 00:00:00,'10095,'VIMAN NAGAR- PUNE,25-06-2019 00:00:00,'233836,',','0.0,'',',',',',',',',',',0.0,,',',',,25-06-2019 00:00:00
SWITCH,'''917623515998,490.0,''0,''192050001312,25-06-2019 00:00:00,'''233836,'PAYTMPAYMENTSBANKLIMITED MOB9604658669IN,'9759001002050001312,'560000,'210,'54303,0.0,'''PTM58669,'PTM919604658669,'900002,'608022,''4814,''356,'0,'0,',',',',',,',',,',',','0.0,''0,',',',',',',',',',0.0,,',',',,25-06-2019 00:00:00
CBS,'''917623519111,600.0,'',''192030001423,25-06-2019 00:00:00,'''235926,','9759001002030001423,',',',0.0,'''PTM20628,',',',''1002,'',',','92,'CADIMP,'IMPS-RRN:917623519111/RAGHAV KUSHAL POOJAR/PYTM/8600520628/comments,'11142.0,'S9154,25-06-2019 00:00:00,'10015,"'Kothrud Branch,Pune",25-06-2019 00:00:00,'235925,',','0.0,'',',',',',',',',',',0.0,,',',',,25-06-2019 00:00:00
SWITCH,'''917623519111,600.0,''0,''192030001423,25-06-2019 00:00:00,'''235925,'PAYTMPAYMENTSBANKLIMITED MOB8600520628IN,'9759001002030001423,'560000,'210,'54311,0.0,'''PTM20628,'PTM918600520628,'900002,'608022,''4814,''356,'0,'0,',',',',',,',',,',',','0.0,''0,',',',',',',',',',0.0,,',',',,25-06-2019 00:00:00
CBS,'''917623929774,7000.0,'',''192060001402,25-06-2019 00:00:00,'''231402,','9759001002060001402,',',',0.0,'''KMB02101,',',',''252002,'',',','72,'CADIMP,'IMPS-RRN:917623929774/KUSHAL BHAVESH SHAH/KKBK/1811865765/,'11455.56,'S9154,25-06-2019 00:00:00,'10091,'Panvel,25-06-2019 00:00:00,'231402,',','0.0,'',',',',',',',',',',0.0,,',',',,25-06-2019 00:00:00
SWITCH,'''917623929774,7000.0,''0,''192060001402,25-06-2019 00:00:00,'''231402,'KMB                      MOB8433702101IN,'9759001002060001402,'560000,'210,'54290,0.0,'''KMB02101,'KMB918433702101,'900002,'608022,''4814,''356,'0,'0,',',',',',,',',,',',','0.0,''0,',',',',',',',',',0.0,,',',',,25-06-2019 00:00:00
NPCI,'''917723168923,670.0,''0,''191060015767,26-06-2019 00:00:00,'''230123,','9759001001060015767,',',',0.0,'''PTM29797,',',','','',',',',',',',',,',',,','SSF,'10,'0.0,''0,'1,'56152,'923444,'4814,'190627,'PTM919995529797,'PAYTMPAYMENTSBANKLIMITED MOB9995529797IN,'100285,'356,67000.0,0,','MOB,'SURY0000027,,27-06-2019 00:00:00
NPCI,'''917723176017,235.0,''0,''192050001312,26-06-2019 00:00:00,'''234155,','9759001002050001312,',',',0.0,'''PTM58669,',',','','',',',',',',',',,',',,','SSF,'10,'0.0,''0,'1,'56167,'17168,'4814,'190627,'PTM919604658669,'PAYTMPAYMENTSBANKLIMITED MOB9604658669IN,'100285,'356,23500.0,0,','MOB,'SURY0BK0000,,27-06-2019 00:00:00
NPCI,'''917723527144,1.0,''0,''181020009317,26-06-2019 00:00:00,'''230312,','9759001001020009317,',',',0.0,'''YBL88888,',',','','',',',',',',',',,',',,','SSF,'0,'0.0,''0,'1,'56155,'144726,'4814,'190627,'YBL918888888888,'YesBankLimited           918888888888 IN,'100005,'356,100.0,0,'FUNDS TRANSFER,'MOB,'SURY0000017,,27-06-2019 00:00:00
NPCI,'''917723528169,83.0,''0,''171060001705,26-06-2019 00:00:00,'''230506,','9759001001060001705,',',',0.0,'''YBL22222,',',','','',',',',',',',',,',',,','SSF,'0,'0.0,''0,'1,'56160,'169888,'4814,'190627,'YBL912222222222,'YesBankLimited           912222222222 IN,'100005,'356,8300.0,0,'PE9040003385491766003497583,'MOB,'SURY0000016,,27-06-2019 00:00:00
NPCI,'''917723540778,925.0,''0,''172050000058,26-06-2019 00:00:00,'''234230,','9759001002050000058,',',',0.0,'''YBL51023,',',','','',',',',',',',',,',',,','SSF,'0,'0.0,''0,'1,'56168,'778667,'4814,'190627,'YBL919325451023,'YesBankLimited           919325451023 IN,'100005,'356,92500.0,0,'FUND TRANSFER,'MOB,'SURY0000027,,27-06-2019 00:00:00
NPCI,'''917723542068,2800.0,''0,''191090006439,26-06-2019 00:00:00,'''235353,','9759001001090006439,',',',0.0,'''YBL85446,',',','','',',',',',',',',,',',,','SSF,'0,'0.0,''0,'1,'56173,'68313,'4829,'190627,'YBL919594485446,'YesBankLimited           919594485446 IN,'100005,'356,280000.0,0,'Tpt,'INE,'SURY0000014,,27-06-2019 00:00:00
NPCI,'''917723767449,1.0,''0,''192010001470,26-06-2019 00:00:00,'''230158,','9759001002010001470,',',',0.0,'''ICI99999,',',','','',',',',',',',',,',',,','SSF,'0,'0.0,''0,'1,'56153,'449646,'4829,'190627,'ICI919999999999,"'ICICI Bank Limited,MumbaiMOB999****999IN",'100002,'356,100.0,0,'FTTransferP2A,'INE,'SURY0BK0000,,27-06-2019 00:00:00
NPCI,'''919922950006,100.0,''8,''193090002852,18-07-2019 00:00:00,'''223915,','9759001003090002852,',',',0.0,'''EQT22033,',',','','',',',',',',',',,',',,','SSF,'0,'0.0,''8,'1,'0,'6197,'4829,'190718,'EQT919976022033,'Equitas Small Finance BanMOB997****033IN,'100241,'356,0.0,0,'transfer,'INE,'SURY0000022,,18-07-2019 00:00:00
NPCI,'''920013905528,100.0,''8,''193020034669,19-07-2019 00:00:00,'''133600,','9759001003020034669,',',',0.0,'''ICI15714,',',','','',',',',',',',',,',',,','SSF,'0,'0.0,''8,'1,'0,'528802,'4829,'190719,'ICI918466915714,"'ICICI Bank Limited,MumbaiMOB846****714IN",'100002,'356,0.0,0,','INE,'SURY0BK0000,,19-07-2019 00:00:00
NPCI,'''920608791667,3500.0,''8,''19106002314O2,25-07-2019 00:00:00,'''81949,','97590010006002314O2,',',',0.0,'''IDB06033,',',','','',',',',',',',',,',',,','SSF,'0,'0.0,''8,'1,'0,'667425,'4814,'190725,'IDB917887806033,'IDBI BANK                MOB7887806033IN,'100015,'356,0.0,0,'Cr,'MOB,'SURY0000031,,25-07-2019 00:00:00
NPCI,'''920610268585,1.49,''8,''192090001497,25-07-2019 00:00:00,'''102714,','9759001002090001497,',',',0.0,'''AXB00000,',',','','',',',',',',',',,',',,','SSF,'0,'0.0,''8,'1,'0,'585356,'4829,'190725,'AXB910000000000,'AXB                      MOB0000000000IN,'100006,'356,0.0,0,'remarks25072019T10:26:14,'INE,'SURY0BK0000,,25-07-2019 00:00:00
SWITCH,'''920610268585,1.49,''8,''20054954278,25-07-2019 00:00:00,'''102714,'AXB                      MOB0000000000IN,'9759001002090001497,'560000,'210,'585356,0.0,'''AXB00000,'AXB910000000000,'900002,'608022,''4829,''356,'0,'0,',',',',',,',',,',',','0.0,''8,',',',',',',',',',0.0,,',',',,25-07-2019 00:00:00
CBS,'''920610541368,30.0,'',''182080000508,25-07-2019 00:00:00,'''102849,','9759001002080000508,',',',0.0,'''ICI58300,',',',''71002,'',',','501,'CADIMP,'IMPS-RRN:920610541368/BharatPe/ICIC/022405500543/920636194102,'1956.39,'S9154,25-07-2019 00:00:00,'10016,'CHINCHWAD-PUNE,25-07-2019 00:00:00,'102847,',','0.0,'',',',',',',',',',',0.0,,',',',12006589094485200742,25-07-2019 00:00:00
NPCI,'''920610541368,30.0,''8,''182080000508,25-07-2019 00:00:00,'''102847,','9759001002080000508,',',',0.0,'''ICI58300,',',','','',',',',',',',',,',',,','SSF,'0,'0.0,''8,'1,'0,'368879,'4829,'190725,'ICI918980358300,"'ICICI Bank Limited,MumbaiMOB898****300IN",'100002,'356,0.0,0,'920636194102,'INE,'SURY0000016,,25-07-2019 00:00:00
SWITCH,'''920610541368,30.0,''8,''22405500543,25-07-2019 00:00:00,'''102847,"'ICICI Bank Limited,MumbaiMOB898****300IN",'9759001002080000508,'560000,'210,'368879,0.0,'''ICI58300,'ICI918980358300,'900002,'608022,''4829,''356,'0,'0,',',',',',,',',,',',','0.0,''8,',',',',',',',',',0.0,,',',',,25-07-2019 00:00:00
CBS,'''920610566594,13000.0,'',''192040000006,25-07-2019 00:00:00,'''102849,','9759001002040000006,',',',0.0,'''KMB35135,',',',''70002,'',',','300,'CADIMP,'IMPS-RRN:920610566594/MANOJ UTTAM THANGE/KKBK/6612071148/MB: MT,'19722.52,'S9154,25-07-2019 00:00:00,'10028,'ALINDI-PUNE,25-07-2019 00:00:00,'102838,',','0.0,'',',',',',',',',',',0.0,,',',',11772144876789108752,25-07-2019 00:00:00
NPCI,'''920610566594,13000.0,''8,''192040000006,25-07-2019 00:00:00,'''102838,','9759001002040000006,',',',0.0,'''KMB35135,',',','','',',',',',',',',,',',,','SSF,'0,'0.0,''8,'1,'0,'594081,'4814,'190725,'KMB918888135135,'KMB                      MOB8888135135IN,'100009,'356,0.0,0,'MB: MT,'MOB,'SURY0000028,,25-07-2019 00:00:00
SWITCH,'''920610566594,13000.0,''8,''6612071148,25-07-2019 00:00:00,'''102838,'KMB                      MOB8888135135IN,'9759001002040000006,'560000,'210,'594081,0.0,'''KMB35135,'KMB918888135135,'900002,'608022,''4814,''356,'0,'0,',',',',',,',',,',',','0.0,''8,',',',',',',',',',0.0,,',',',,25-07-2019 00:00:00
CBS,'''921912047186,5000.0,'',''171060003289,07-08-2019 00:00:00,'''122235,','9759001001060003289,',',',0.0,'''FPI83963,',',',''159002,'',',','867,'SBIMP,'IMPS-RRN:921912047186/omkar  /FINO/0000000001204000101/IMPS Txn,'6666.7,'S9154,07-08-2019 00:00:00,'10036,'KOLEGAON-THANE,07-08-2019 00:00:00,'122235,',','0.0,'',',',',',',',',',',0.0,,',',',12423130246405842616,07-08-2019 00:00:00
NPCI,'''921912047186,5000.0,''8,''171060003289,07-08-2019 00:00:00,'''122235,','9759001001060003289,',',',0.0,'''FPI83963,',',','','',',',',',',',',,',',,','SSF,'0,'0.0,''8,'1,'0,'186235,'4814,'190807,'FPI919619983963,'Fino Payments Bank       919619983963 IN,'100328,'356,0.0,0,'IMPS Txn,'BRC,'SURY0000001,,07-08-2019 00:00:00
SWITCH,'''921912047186,5000.0,''8,''1204000101,07-08-2019 00:00:00,'''122235,'Fino Payments Bank       919619983963 IN,'9759001001060003289,'560000,'210,'186235,0.0,'''FPI83963,'FPI919619983963,'900002,'608022,''4814,''356,'0,'0,',',',',',,',',,',',','0.0,''8,',',',',',',',',',0.0,,',',',,07-08-2019 00:00:00
CBS,'''921912047190,5000.0,'',''171060003289,07-08-2019 00:00:00,'''122236,','9759001001060003289,',',',0.0,'''FPI83963,',',',''160002,'',',','868,'SBIMP,'IMPS-RRN:921912047190/omkar  /FINO/0000000001204000101/IMPS Txn,'11666.7,'S9154,07-08-2019 00:00:00,'10036,'KOLEGAON-THANE,07-08-2019 00:00:00,'122235,',','0.0,'',',',',',',',',',',0.0,,',',',9818821569410319772,07-08-2019 00:00:00
NPCI,'''921912047190,5000.0,''8,''171060003289,07-08-2019 00:00:00,'''122235,','9759001001060003289,',',',0.0,'''FPI83963,',',','','',',',',',',',',,',',,','SSF,'0,'0.0,''8,'1,'0,'190244,'4814,'190807,'FPI919619983963,'Fino Payments Bank       919619983963 IN,'100328,'356,0.0,0,'IMPS Txn,'BRC,'SURY0000001,,07-08-2019 00:00:00
SWITCH,'''921912047190,5000.0,''8,''1204000101,07-08-2019 00:00:00,'''122235,'Fino Payments Bank       919619983963 IN,'9759001001060003289,'560000,'210,'190244,0.0,'''FPI83963,'FPI919619983963,'900002,'608022,''4814,''356,'0,'0,',',',',',,',',,',',','0.0,''8,',',',',',',',',',0.0,,',',',,07-08-2019 00:00:00
CBS,'''921912047193,5000.0,'',''171060003289,07-08-2019 00:00:00,'''122306,','9759001001060003289,',',',0.0,'''FPI83963,',',',''162002,'',',','870,'SBIMP,'IMPS-RRN:921912047193/omkar  /FINO/0000000001204000101/IMPS Txn,'21665.7,'S9154,07-08-2019 00:00:00,'10036,'KOLEGAON-THANE,07-08-2019 00:00:00,'122305,',','0.0,'',',',',',',',',',',0.0,,',',',13755344723219952300,07-08-2019 00:00:00
NPCI,'''921912047193,5000.0,''8,''171060003289,07-08-2019 00:00:00,'''122305,','9759001001060003289,',',',0.0,'''FPI83963,',',','','',',',',',',',',,',',,','SSF,'0,'0.0,''8,'1,'0,'193238,'4814,'190807,'FPI919619983963,'Fino Payments Bank       919619983963 IN,'100328,'356,0.0,0,'IMPS Txn,'BRC,'SURY0000001,,07-08-2019 00:00:00
SWITCH,'''921912047193,5000.0,''8,''1204000101,07-08-2019 00:00:00,'''122305,'Fino Payments Bank       919619983963 IN,'9759001001060003289,'560000,'210,'193238,0.0,'''FPI83963,'FPI919619983963,'900002,'608022,''4814,''356,'0,'0,',',',',',,',',,',',','0.0,''8,',',',',',',',',',0.0,,',',',,07-08-2019 00:00:00
CBS,'''921912047195,4999.0,'',''171060003289,07-08-2019 00:00:00,'''122306,','9759001001060003289,',',',0.0,'''FPI83963,',',',''161002,'',',','869,'SBIMP,'IMPS-RRN:921912047195/omkar  /FINO/0000000001204000101/IMPS Txn,'16665.7,'S9154,07-08-2019 00:00:00,'10036,'KOLEGAON-THANE,07-08-2019 00:00:00,'122305,',','0.0,'',',',',',',',',',',0.0,,',',',12067501949310200323,07-08-2019 00:00:00
NPCI,'''921912047195,4999.0,''8,''171060003289,07-08-2019 00:00:00,'''122305,','9759001001060003289,',',',0.0,'''FPI83963,',',','','',',',',',',',',,',',,','SSF,'0,'0.0,''8,'1,'0,'195276,'4814,'190807,'FPI919619983963,'Fino Payments Bank       919619983963 IN,'100328,'356,0.0,0,'IMPS Txn,'BRC,'SURY0000001,,07-08-2019 00:00:00
SWITCH,'''921912047195,4999.0,''8,''1204000101,07-08-2019 00:00:00,'''122305,'Fino Payments Bank       919619983963 IN,'9759001001060003289,'560000,'210,'195276,0.0,'''FPI83963,'FPI919619983963,'900002,'608022,''4814,''356,'0,'0,',',',',',,',',,',',','0.0,''8,',',',',',',',',',0.0,,',',',,07-08-2019 00:00:00
NPCI,'''921912062036,4000.0,''8,''171080006137,07-08-2019 00:00:00,'''122931,','9759001001080006137,',',',0.0,'''FPI57982,',',','','',',',',',',',',,',',,','SSF,'0,'0.0,''8,'1,'0,'36536,'4814,'190807,'FPI919673757982,'Fino Payments Bank       919673757982 IN,'100328,'356,0.0,0,'IMPS Txn,'BRC,'SURY0000017,,07-08-2019 00:00:00
SWITCH,'''921912062036,4000.0,''8,''20008256408,07-08-2019 00:00:00,'''122931,'Fino Payments Bank       919673757982 IN,'9759001001080006137,'560000,'210,'36536,0.0,'''FPI57982,'FPI919673757982,'900002,'608022,''4814,''356,'0,'0,',',',',',,',',,',',','0.0,''8,',',',',',',',',',0.0,,',',',,07-08-2019 00:00:00
NPCI,'''921912149593,43000.0,''8,''191010037773,07-08-2019 00:00:00,'''123110,','9759001001010037773,',',',0.0,'''AXB53877,',',','','',',',',',',',',,',',,','SSF,'0,'0.0,''8,'1,'0,'593524,'4814,'190807,'AXB919944453877,'AXB                      MOB9944453877IN,'100006,'356,0.0,0,','MOB,'SURY0000020,,07-08-2019 00:00:00
SWITCH,'''921912149593,43000.0,''8,''30114158647,07-08-2019 00:00:00,'''123110,'AXB                      MOB9944453877IN,'9759001001010037773,'560000,'210,'593524,0.0,'''AXB53877,'AXB919944453877,'900002,'608022,''4814,''356,'0,'0,',',',',',,',',,',',','0.0,''8,',',',',',',',',',0.0,,',',',,07-08-2019 00:00:00
CBS,'''921912369921,200.0,'',''171020000048,07-08-2019 00:00:00,'''123828,','9759001001020000048,',',',0.0,'''HDB00936,',',',''163002,'',',','416,'SBIMP,'IMPS-RRN:921912369921/DHANASHREE SALVI/HDFC/50100133026133/Trf,'8979.0,'S9154,07-08-2019 00:00:00,'10011,'CBD Belapur,07-08-2019 00:00:00,'123344,',','0.0,'',',',',',',',',',',0.0,,',',',10140130353655692995,07-08-2019 00:00:00
NPCI,'''921912369921,200.0,''8,''171020000048,07-08-2019 00:00:00,'''123344,','9759001001020000048,',',',0.0,'''HDB00936,',',','','',',',',',',',',,',',,','SSF,'10,'0.0,''8,'1,'0,'921069,'4814,'190807,'HDB7738600936,'HDFCBANKLTD              MOB7738600936IN,'100230,'356,0.0,0,'Trf,'MOB,'SURY0000011,,07-08-2019 00:00:00
SWITCH,'''921912369921,200.0,''8,''100133026133,07-08-2019 00:00:00,'''123344,'HDFCBANKLTD              MOB7738600936IN,'9759001001020000048,'560000,'210,'921069,0.0,'''HDB00936,'HDB7738600936,'900002,'608022,''4814,''356,'0,'0,',',',',',,',',,',',','0.0,''8,',',',',',',',',',0.0,,',',',,07-08-2019 00:00:00
NPCI,'''921912816166,6000.0,''8,''191040041896,07-08-2019 00:00:00,'''122656,','9759001001040041896,',',',0.0,'''ICI19176,',',','','',',',',',',',',,',',,','SSF,'0,'0.0,''8,'1,'0,'166585,'4829,'190807,'ICI917385719176,"'ICICI Bank Limited,MumbaiMOB738****176IN",'100002,'356,0.0,0,'Meet,'INE,'SURY0BK0000,,07-08-2019 00:00:00
SWITCH,'''921912816166,6000.0,''8,''42401526267,07-08-2019 00:00:00,'''122656,"'ICICI Bank Limited,MumbaiMOB738****176IN",'9759001001040041896,'560000,'210,'166585,0.0,'''ICI19176,'ICI917385719176,'900002,'608022,''4829,''356,'0,'0,',',',',',,',',,',',','0.0,''8,',',',',',',',',',0.0,,',',',,07-08-2019 00:00:00
CBS,'''921912835557,150.0,'',''191080016760,07-08-2019 00:00:00,'''123828,','9759001001080016760,',',',0.0,'''ICI97171,',',',''164002,'',',','107,'SBIMP,'IMPS-RRN:921912835557/BharatPe/ICIC/022405500543/921912774053,'2820.36,'S9154,07-08-2019 00:00:00,'10026,'YEWALEWADI-PUNE,07-08-2019 00:00:00,'123406,',','0.0,'',',',',',',',',',',0.0,,',',',9589533070018861198,07-08-2019 00:00:00
NPCI,'''921912835557,150.0,''8,''191080016760,07-08-2019 00:00:00,'''123406,','9759001001080016760,',',',0.0,'''ICI97171,',',','','',',',',',',',',,',',,','SSF,'0,'0.0,''8,'1,'0,'557271,'4829,'190807,'ICI914122297171,"'ICICI Bank Limited,MumbaiMOB412****171IN",'100002,'356,0.0,0,'921912774053,'INE,'SURY0000026,,07-08-2019 00:00:00
SWITCH,'''921912835557,150.0,''8,''22405500543,07-08-2019 00:00:00,'''123406,"'ICICI Bank Limited,MumbaiMOB412****171IN",'9759001001080016760,'560000,'210,'557271,0.0,'''ICI97171,'ICI914122297171,'900002,'608022,''4829,''356,'0,'0,',',',',',,',',,',',','0.0,''8,',',',',',',',',',0.0,,',',',,07-08-2019 00:00:00
CBS,'''921912845742,10.0,'',''181060006033,07-08-2019 00:00:00,'''123828,','9759001001060006033,',',',0.0,'''ICI97171,',',',''165002,'',',','1238,'SBIMP,'IMPS-RRN:921912845742/BharatPe/ICIC/022405500543/921912106608,'999.74,'S9154,07-08-2019 00:00:00,'10033,'VARALE-PUNE,07-08-2019 00:00:00,'123810,',','0.0,'',',',',',',',',',',0.0,,',',',10772763422977946975,07-08-2019 00:00:00
NPCI,'''921912845742,10.0,''0,''181060006033,07-08-2019 00:00:00,'''123810,','9759001001060006033,',',',0.0,'''ICI97171,',',','','',',',',',',',',,',',,','SSF,'0,'0.0,''0,'1,'0,'742291,'4829,'190807,'ICI914122297171,"'ICICI Bank Limited,MumbaiMOB412****171IN",'100002,'356,1000.0,0,'921912106608,'INE,'SURY0000033,,07-08-2019 00:00:00
SWITCH,'''921912845742,10.0,''8,''22405500543,07-08-2019 00:00:00,'''123810,"'ICICI Bank Limited,MumbaiMOB412****171IN",'9759001001060006033,'560000,'210,'742291,0.0,'''ICI97171,'ICI914122297171,'900002,'608022,''4829,''356,'0,'0,',',',',',,',',,',',','0.0,''8,',',',',',',',',',0.0,,',',',,07-08-2019 00:00:00
NPCI,'''922210098114,1.0,''8,''177080000113,10-08-2019 00:00:00,'''104033,','9759001007080000113,',',',0.0,'''FPI73615,',',','','',',',',',',',',,',',,','SSF,'0,'0.0,''8,'1,'0,'114661,'4814,'190810,'FPI919822373615,'Fino Payments Bank       919822373615 IN,'100328,'356,0.0,0,'IMPS Txn,'BRC,'SURY0000001,,10-08-2019 00:00:00
NPCI,'''922210100477,1.0,''8,''177080000113,10-08-2019 00:00:00,'''104123,','9759001007080000113,',',',0.0,'''FPI73615,',',','','',',',',',',',',,',',,','SSF,'0,'0.0,''8,'1,'0,'477990,'4814,'190810,'FPI919822373615,'Fino Payments Bank       919822373615 IN,'100328,'356,0.0,0,'IMPS Txn,'BRC,'SURY0000001,,10-08-2019 00:00:00
NPCI,'''923214002001,7400.0,''8,''171000004096,20-08-2019 00:00:00,'''141217,','9759001001000004096,',',',0.0,'''KMB47141,',',','','',',',',',',',',,',',,','SSF,'0,'0.0,''8,'1,'0,'1485,'4814,'190820,'KMB919094147141,'KMB                      MOB9094147141IN,'100009,'356,0.0,0,'MB: PAY,'MOB,'SURY0000025,,20-08-2019 00:00:00
NPCI,'''923214016200,1300.0,''8,''191030015998,20-08-2019 00:00:00,'''142610,','9759001001030015998,',',',0.0,'''KMB10066,',',','','',',',',',',',',,',',,','SSF,'0,'0.0,''8,'1,'0,'200744,'4814,'190820,'KMB917747810066,'KMB                      MOB7747810066IN,'100009,'356,0.0,0,'MB Sent to Ana 191030015998 IMPS,'MOB,'SURY0000019,,20-08-2019 00:00:00
NPCI,'''923214020501,1300.0,''8,''191030015998,20-08-2019 00:00:00,'''143009,','9759001001030015998,',',',0.0,'''KMB10066,',',','','',',',',',',',',,',',,','SSF,'0,'0.0,''8,'1,'0,'501598,'4814,'190820,'KMB917747810066,'KMB                      MOB7747810066IN,'100009,'356,0.0,0,'MB: PUR,'MOB,'SURY0000019,,20-08-2019 00:00:00
NPCI,'''923214070867,1.0,''8,''181010003332,20-08-2019 00:00:00,'''141803,','9759001001010003332,',',',0.0,'''YBL12473,',',','','',',',',',',',',,',',,','SSF,'0,'0.0,''8,'1,'0,'867706,'4814,'190820,'YBL919223612473,'YesBankLimited           919223612473 IN,'100005,'356,0.0,0,'638211009,'MOB,'SURY0000021,,20-08-2019 00:00:00
NPCI,'''923214071001,200000.0,''8,''192090000771,20-08-2019 00:00:00,'''141807,','9759001002090000771,',',',0.0,'''YBL88459,',',','','',',',',',',',',,',',,','SSF,'0,'0.0,''8,'1,'0,'1525,'4829,'190820,'YBL919998888459,'YesBankLimited           919998888459 IN,'100005,'356,0.0,0,'SURYODAY,'INE,'SURY0BK0000,,20-08-2019 00:00:00
NPCI,'''923214072804,100000.0,''8,''192090000771,20-08-2019 00:00:00,'''142123,','9759001002090000771,',',',0.0,'''YBL88459,',',','','',',',',',',',',,',',,','SSF,'0,'0.0,''8,'1,'0,'804424,'4829,'190820,'YBL919998888459,'YesBankLimited           919998888459 IN,'100005,'356,0.0,0,'SURYODAY,'INE,'SURY0BK0000,,20-08-2019 00:00:00
NPCI,'''923214073892,50000.0,''8,''192090000771,20-08-2019 00:00:00,'''142401,','9759001002090000771,',',',0.0,'''YBL88459,',',','','',',',',',',',',,',',,','SSF,'0,'0.0,''8,'1,'0,'892038,'4829,'190820,'YBL919998888459,'YesBankLimited           919998888459 IN,'100005,'356,0.0,0,'SURYODAY,'INE,'SURY0BK0000,,20-08-2019 00:00:00
CBS,'''923214152432,599.0,'',''191040006615,20-08-2019 00:00:00,'''141323,','9759001001040006615,',',',0.0,'''ICI00000,',',',''172002,'',',','170,'SBIMP,'IMPS-RRN:923214152432/FLIPKART INTERNET PV/ICIC/004705010602/FT190820141316253784,'859.21,'S9154,20-08-2019 00:00:00,'10033,'VARALE-PUNE,20-08-2019 00:00:00,'141316,',','0.0,'',',',',',',',',',',0.0,,',',',10007813942090263798,20-08-2019 00:00:00
NPCI,'''923214152432,599.0,''8,''191040006615,20-08-2019 00:00:00,'''141316,','9759001001040006615,',',',0.0,'''ICI00000,',',','','',',',',',',',',,',',,','SSF,'0,'0.0,''8,'1,'0,'432887,'4829,'190820,'ICI910000000000,"'ICICI Bank Limited,MumbaiMOB000****000IN",'100002,'356,0.0,0,'FT190820141316253784,'INE,'SURY0000033,,20-08-2019 00:00:00
SWITCH,'''923214152432,599.0,''8,''4705010602,20-08-2019 00:00:00,'''141316,"'ICICI Bank Limited,MumbaiMOB000****000IN",'9759001001040006615,'560000,'210,'432887,0.0,'''ICI00000,'ICI910000000000,'900002,'608022,''4829,''356,'0,'0,',',',',',,',',,',',','0.0,''8,',',',',',',',',',0.0,,',',',,20-08-2019 00:00:00
NPCI,'''923214722843,13895.0,''8,''271220590001,20-08-2019 00:00:00,'''142500,','9759001001220590001,',',',0.0,'''KVB31729,',',','','',',',',',',',',,',',,','SSF,'20,'0.0,''8,'1,'0,'843876,'4829,'190820,'KVB919597731729,'KVBN2                    MOB9597731729IN,'100018,'356,0.0,0,'loan,'INE,'SURY0BK0000,,20-08-2019 00:00:00
CBS,'''923423459014,350.0,'',''172050000058,22-08-2019 00:00:00,'''234217,','9759001002050000058,',',',0.0,'''YBL51023,',',',''346002,'',',','592,'CADIMP,'IMPS-RRN:923423459014/MICROLUCID TECHNOLOG/YESB/041261900001481/FUND TRANSFER,'13883.93,'S9154,22-08-2019 00:00:00,'10027,'MAHALUNGE -PUNE,22-08-2019 00:00:00,'234217,',','0.0,'',',',',',',',',',',0.0,,',',',,22-08-2019 00:00:00
SWITCH,'''923423459014,350.0,''0,''172050000058,22-08-2019 00:00:00,'''234217,'YesBankLimited           919325451023 IN,'9759001002050000058,'560000,'210,'88862,0.0,'''YBL51023,'YBL919325451023,'900002,'608022,''4814,''356,'0,'0,',',',',',,',',,',',','0.0,''0,',',',',',',',',',0.0,,',',',,22-08-2019 00:00:00
CBS,'''923423633624,504.24,'',''192070000629,22-08-2019 00:00:00,'''232102,','9759001002070000629,',',',0.0,'''ICI00000,',',',''342002,'',',','1001,'CADIMP,'IMPS-RRN:923423633624/Paytm/ICIC/003105031136/20190822057892132726,'1329.47,'S9154,22-08-2019 00:00:00,'10095,'VIMAN NAGAR- PUNE,22-08-2019 00:00:00,'232102,',','0.0,'',',',',',',',',',',0.0,,',',',,22-08-2019 00:00:00
SWITCH,'''923423633624,504.24,''0,''192070000629,22-08-2019 00:00:00,'''232102,"'ICICI Bank Limited,MumbaiMOB000****000IN",'9759001002070000629,'560000,'210,'88838,0.0,'''ICI00000,'ICI910000000000,'900002,'608022,''4829,''356,'0,'0,',',',',',,',',,',',','0.0,''0,',',',',',',',',',0.0,,',',',,22-08-2019 00:00:00
CBS,'''923423641787,1.0,'',''182030000545,22-08-2019 00:00:00,'''233220,','9759001002030000545,',',',0.0,'''ICI94692,',',',''343002,'',',','334,'CADIMP,'IMPS-RRN:923423641787/MD SAJJAD/ICIC/054401560516/NA,'922.0,'S9154,22-08-2019 00:00:00,'10012,'Chembur Branch,22-08-2019 00:00:00,'233220,',','0.0,'',',',',',',',',',',0.0,,',',',,22-08-2019 00:00:00
SWITCH,'''923423641787,1.0,''0,''182030000545,22-08-2019 00:00:00,'''233220,"'ICICI Bank Limited,MumbaiMOB865****692IN",'9759001002030000545,'560000,'210,'88848,0.0,'''ICI94692,'ICI918652294692,'900002,'608022,''4814,''356,'0,'0,',',',',',,',',,',',','0.0,''0,',',',',',',',',',0.0,,',',',,22-08-2019 00:00:00
CBS,'''923423643355,10000.0,'',''182030000545,22-08-2019 00:00:00,'''233357,','9759001002030000545,',',',0.0,'''ICI94692,',',',''344002,'',',','335,'CADIMP,'IMPS-RRN:923423643355/MD SAJJAD/ICIC/054401560516/NA,'10922.0,'S9154,22-08-2019 00:00:00,'10012,'Chembur Branch,22-08-2019 00:00:00,'233356,',','0.0,'',',',',',',',',',',0.0,,',',',,22-08-2019 00:00:00
SWITCH,'''923423643355,10000.0,''0,''182030000545,22-08-2019 00:00:00,'''233356,"'ICICI Bank Limited,MumbaiMOB865****692IN",'9759001002030000545,'560000,'210,'88849,0.0,'''ICI94692,'ICI918652294692,'900002,'608022,''4814,''356,'0,'0,',',',',',,',',,',',','0.0,''0,',',',',',',',',',0.0,,',',',,22-08-2019 00:00:00
CBS,'''923423647466,2000.0,'',''192010000531,22-08-2019 00:00:00,'''234128,','9759001002010000531,',',',0.0,'''ICI96776,',',',''345002,'',',','142,'CADIMP,'IMPS-RRN:923423647466/SHASHIKANT UTTAMRAO /ICIC/624001504074/Akash mohite,'2086.5,'S9154,22-08-2019 00:00:00,'10034,'DONAJE-PUNE,22-08-2019 00:00:00,'234127,',','0.0,'',',',',',',',',',',0.0,,',',',,22-08-2019 00:00:00
SWITCH,'''923423647466,2000.0,''0,''192010000531,22-08-2019 00:00:00,'''234127,"'ICICI Bank Limited,MumbaiMOB992****776IN",'9759001002010000531,'560000,'210,'88860,0.0,'''ICI96776,'ICI919921096776,'900002,'608022,''4829,''356,'0,'0,',',',',',,',',,',',','0.0,''0,',',',',',',',',',0.0,,',',',,22-08-2019 00:00:00
CBS,'''923423680845,30000.0,'',''171030001208,22-08-2019 00:00:00,'''234621,','9759001001030001208,',',',0.0,'''SBI94562,',',',''347002,'',',','717,'SBIMP,'IMPS-RRN:923423680845/Mr  ALLAN JESUS CARV/SBIN/00000020212621848/INETIMPS00095031549,'51823.19,'S9154,22-08-2019 00:00:00,'10012,'Chembur Branch,22-08-2019 00:00:00,'234621,',','0.0,'',',',',',',',',',',0.0,,',',',,22-08-2019 00:00:00
SWITCH,'''923423680845,30000.0,''0,''171030001208,22-08-2019 00:00:00,'''234621,'The State Bank of India  MOB9870794562IN,'9759001001030001208,'560000,'210,'88864,0.0,'''SBI94562,'SBI919870794562,'900002,'608022,''4829,''356,'0,'0,',',',',',,',',,',',','0.0,''0,',',',',',',',',',0.0,,',',',,22-08-2019 00:00:00
