Transaction Date,Description,Amount,C.D.Falg,Reference No,Value Date,Branch Name
2018-05-21,NEFT Cr-YESB0000001-PHONEPE PRIVATE LIMITED-PVR LIMITED-N141180114121551,352627.15,C,N141180114121551,21/05/2018,FORT
2018-05-21,NEFT Cr-KKBK0000958-CC PVR MERCHANT PAYBALE ACCOUNT-PVR LIMITED-KKBKH18141813830,56410.61,C,KKBKH18141813830,21/05/2018,FORT
2018-05-21,NEFT Cr-AIRP0000001-PVR LIMITED-PVR LTD-A141180001040280,119410.5,C,A141180001040280,21/05/2018,CMS TF WBO MUMBAI
2018-05-21,NEFT Cr-KKBK0000958-BIG TREE ENTERTAINMENT PRIVATE LIMITED-PVR LIMITED-KKBK181412397103,8310.0,C,KKBK181412397103,21/05/2018,FORT
2018-05-21,NEFT Cr-KKBK0000958-BIG TREE ENTERTAINMENT PRIVATE LIMITED-PVR LIMITED-KKBK181412397482,2203190.0,C,KKBK181412397482,21/05/2018,FORT
2018-05-21,NEFT Cr-KKBK0000958-BIG TREE ENTERTAINMENT PRIVATE LIMITED-PVR LIMITED-KKBK181412397133,7088.0,C,KKBK181412397133,21/05/2018,FORT
2018-05-21,NEFT Cr-KKBK0000958-BIG TREE ENTERTAINMENT PRIVATE LIMITED-PVR LIMITED-KKBK181412397130,131277.0,C,KKBK181412397130,21/05/2018,FORT
2018-05-21,NEFT Cr-KKBK0000958-BIG TREE ENTERTAINMENT PRIVATE LIMITED-PVR LIMITED-KKBK181412397083,21690.0,C,KKBK181412397083,21/05/2018,FORT
2018-05-21,NEFT Cr-KKBK0000958-BIG TREE ENTERTAINMENT PRIVATE LIMITED-PVR LIMITED-KKBK181412397224,154084.0,C,KKBK181412397224,21/05/2018,FORT
2018-05-21,NEFT Cr-KKBK0000958-BIG TREE ENTERTAINMENT PRIVATE LIMITED-PVR LIMITED-KKBK181412397188,46854.0,C,KKBK181412397188,21/05/2018,FORT
2018-05-21,NEFT Cr-KKBK0000958-BIG TREE ENTERTAINMENT PRIVATE LIMITED-PVR LIMITED-KKBK181412397178,1495.0,C,KKBK181412397178,21/05/2018,FORT
2018-05-21,NEFT Cr-KKBK0000958-BIG TREE ENTERTAINMENT PRIVATE LIMITED-PVR LIMITED-KKBK181412397107,1438.0,C,KKBK181412397107,21/05/2018,FORT
2018-05-21,NEFT Cr-KKBK0000958-BIG TREE ENTERTAINMENT PRIVATE LIMITED-PVR LIMITED-KKBK181412397106,7522.0,C,KKBK181412397106,21/05/2018,FORT
2018-05-21,NEFT Cr-KKBK0000958-BIG TREE ENTERTAINMENT PRIVATE LIMITED-PVR LIMITED-KKBK181412397704,29061390.0,C,KKBK181412397704,21/05/2018,FORT
2018-05-21,NEFT Cr-KKBK0000958-BIG TREE ENTERTAINMENT PRIVATE LIMITED-PVR LIMITED-KKBK181412397649,4367948.0,C,KKBK181412397649,21/05/2018,FORT
2018-05-21,NEFT Cr-KKBK0000958-BIG TREE ENTERTAINMENT PRIVATE LIMITED-PVR LIMITED-KKBK181412397477,3212772.0,C,KKBK181412397477,21/05/2018,FORT
2018-05-21,NEFT Cr-KKBK0000958-BIG TREE ENTERTAINMENT PRIVATE LIMITED-PVR LIMITED-KKBK181412399409,33036.0,C,KKBK181412399409,21/05/2018,FORT
2018-05-21,NEFT Cr-KKBK0000958-BIG TREE ENTERTAINMENT PRIVATE LIMITED-PVR LIMITED-KKBK181412399427,12502.0,C,KKBK181412399427,21/05/2018,FORT
2018-05-21,NEFT Cr-KKBK0000958-BIG TREE ENTERTAINMENT PRIVATE LIMITED-PVR LIMITED-KKBK181412397674,3486205.0,C,KKBK181412397674,21/05/2018,FORT
2018-05-21,NEFT Cr-KKBK0000958-BIG TREE ENTERTAINMENT PRIVATE LIMITED-PVR LIMITED-KKBK181412399388,36223.0,C,KKBK181412399388,21/05/2018,FORT
2018-05-21,NEFT Cr-KKBK0000958-BIG TREE ENTERTAINMENT PRIVATE LIMITED-PVR LIMITED-KKBK181412397424,20587116.0,C,KKBK181412397424,21/05/2018,FORT
2018-05-21,NEFT Cr-CITI0000002-ONE97 COMMUNICATIONS LIMITED-PVR LIMITED-CITIN18863070113,12299500.3,C,CITIN18863070113,21/05/2018,FORT
2018-05-21,NEFT Cr-CITI0000002-ONE97 COMMUNICATIONS LIMITED-PVR LIMITED-CITIN18863070174,8599699.72,C,CITIN18863070174,21/05/2018,FORT
2018-05-21,NEFT Cr-ICIC0000031-ONE 97 COMMUNICATIONS LTD-Pvr Limited-CMS826310274,1775.93,C,CMS826310274,21/05/2018,FORT
2018-05-21,NEFT Cr-ICIC0000031-ONE 97 COMMUNICATIONS LTD-Pvr Limited-CMS826528149,4491.46,C,CMS826528149,21/05/2018,FORT
2018-05-21,00030330004897   EOD SWEEP ,84814055.67,D, ,21/05/2018,K G MARG
2018-05-22,RTGS Cr-KKBK0000958-PVR POOL ACCOUNT-PVR LIMITED-KKBKR52018052200620583,288867.01,C,KKBKR52018052200620583,22/05/2018,FORT
2018-05-22,NEFT Cr-AIRP0000001-PVR LIMITED-PVR LTD-A142180001041427,20457.98,C,A142180001041427,22/05/2018,FORT
2018-05-22,NEFT Cr-KKBK0000958-BIG TREE ENTERTAINMENT PRIVATE LIMITED-PVR LIMITED-KKBK181422524287,4683.0,C,KKBK181422524287,22/05/2018,FORT
2018-05-22,NEFT Cr-KKBK0000958-BIG TREE ENTERTAINMENT PRIVATE LIMITED-PVR LIMITED-KKBK181422524288,1100.0,C,KKBK181422524288,22/05/2018,FORT
2018-05-22,NEFT Cr-KKBK0000958-BIG TREE ENTERTAINMENT PRIVATE LIMITED-PVR LIMITED-KKBK181422524282,573.0,C,KKBK181422524282,22/05/2018,FORT
2018-05-22,NEFT Cr-KKBK0000958-BIG TREE ENTERTAINMENT PRIVATE LIMITED-PVR LIMITED-KKBK181422524290,22214.0,C,KKBK181422524290,22/05/2018,FORT
2018-05-22,NEFT Cr-KKBK0000958-BIG TREE ENTERTAINMENT PRIVATE LIMITED-PVR LIMITED-KKBK181422525228,925955.0,C,KKBK181422525228,22/05/2018,FORT
2018-05-22,NEFT Cr-KKBK0000958-BIG TREE ENTERTAINMENT PRIVATE LIMITED-PVR LIMITED-KKBK181422525209,1390204.0,C,KKBK181422525209,22/05/2018,FORT
2018-05-22,NEFT Cr-KKBK0000958-BIG TREE ENTERTAINMENT PRIVATE LIMITED-PVR LIMITED-KKBK181422524298,118942.0,C,KKBK181422524298,22/05/2018,FORT
2018-05-22,NEFT Cr-KKBK0000958-BIG TREE ENTERTAINMENT PRIVATE LIMITED-PVR LIMITED-KKBK181422525829,15910.0,C,KKBK181422525829,22/05/2018,FORT
2018-05-22,NEFT Cr-KKBK0000958-BIG TREE ENTERTAINMENT PRIVATE LIMITED-PVR LIMITED-KKBK181422525219,9953988.0,C,KKBK181422525219,22/05/2018,FORT
2018-05-22,NEFT Cr-CITI0000002-ONE97 COMMUNICATIONS LIMITED-PVR LIMITED-CITIN18863452848,2499191.76,C,CITIN18863452848,22/05/2018,FORT
2018-05-22,NEFT Cr-CITI0000002-ONE97 COMMUNICATIONS LIMITED-PVR LIMITED-CITIN18863452684,2198596.14,C,CITIN18863452684,22/05/2018,FORT
2018-05-22,NEFT Cr-ICIC0000031-ONE 97 COMMUNICATIONS LTD-Pvr Limited-CMS827115079,1132.58,C,CMS827115079,22/05/2018,FORT
2018-05-22,00030330004897   EOD SWEEP ,17441814.47,D, ,22/05/2018,K G MARG
