Transaction Date,Description,Amount,C.D.Falg,Reference No,Value Date,Branch Name
2018-05-25,IMPS-814508398608-PHONEPE PRIVATE LIMI-HDFC-xxxxxxxxxxx0025-PvrcinemasRedemption,68075.65,C,814508398608,25/05/2018,FORT
2018-05-25,NEFT Cr-AIRP0000001-PVR LIMITED-PVR LTD-A145180001043478,35104.06,C,A145180001043478,25/05/2018,FORT
2018-05-25,NEFT Cr-KKBK0000958-CC PVR MERCHANT PAYBALE ACCOUNT-PVR LIMITED-KKBKH18145650681,26310.2,C,KKBKH18145650681,25/05/2018,FORT
2018-05-25,NEFT Cr-KKBK0000958-BIG TREE ENTERTAINMENT PRIVATE LIMITED-PVR LIMITED-KKBK181452949751,12126.0,C,KKBK181452949751,25/05/2018,FORT
2018-05-25,NEFT Cr-KKBK0000958-BIG TREE ENTERTAINMENT PRIVATE LIMITED-PVR LIMITED-KKBK181452949743,1589.0,C,KKBK181452949743,25/05/2018,FORT
2018-05-25,NEFT Cr-KKBK0000958-BIG TREE ENTERTAINMENT PRIVATE LIMITED-PVR LIMITED-KKBK181452949752,13263.0,C,KKBK181452949752,25/05/2018,FORT
2018-05-25,NEFT Cr-KKBK0000958-BIG TREE ENTERTAINMENT PRIVATE LIMITED-PVR LIMITED-KKBK181452949839,1932286.0,C,KKBK181452949839,25/05/2018,FORT
2018-05-25,NEFT Cr-KKBK0000958-BIG TREE ENTERTAINMENT PRIVATE LIMITED-PVR LIMITED-KKBK181452949878,1262912.0,C,KKBK181452949878,25/05/2018,FORT
2018-05-25,NEFT Cr-KKBK0000958-BIG TREE ENTERTAINMENT PRIVATE LIMITED-PVR LIMITED-KKBK181452949745,1344.0,C,KKBK181452949745,25/05/2018,FORT
2018-05-25,NEFT Cr-KKBK0000958-BIG TREE ENTERTAINMENT PRIVATE LIMITED-PVR LIMITED-KKBK181452949782,36616.0,C,KKBK181452949782,25/05/2018,FORT
2018-05-25,NEFT Cr-KKBK0000958-BIG TREE ENTERTAINMENT PRIVATE LIMITED-PVR LIMITED-KKBK181452950924,246054.0,C,KKBK181452950924,25/05/2018,FORT
2018-05-25,NEFT Cr-KKBK0000958-BIG TREE ENTERTAINMENT PRIVATE LIMITED-PVR LIMITED-KKBK181452949853,12610753.0,C,KKBK181452949853,25/05/2018,FORT
2018-05-25,NEFT Cr-CITI0000002-ONE97 COMMUNICATIONS LIMITED-PVR LIMITED-CITIN18864710288,2342200.86,C,CITIN18864710288,25/05/2018,FORT
2018-05-25,NEFT Cr-CITI0000002-ONE97 COMMUNICATIONS LIMITED-PVR LIMITED-CITIN18864711810,2009397.33,C,CITIN18864711810,25/05/2018,FORT
2018-05-25,NEFT Cr-ICIC0000031-ONE 97 COMMUNICATIONS LTD-Pvr Limited-CMS828926456,1094.17,C,CMS828926456,25/05/2018,FORT
2018-05-25,00030330004897   EOD SWEEP ,20599125.27,D, ,25/05/2018,K G MARG
