Transaction Date,Description,Amount,C.D.Falg,Reference No,Value Date,Branch Name
2018-05-28,NEFT Cr-YESB0000001-PHONEPE PRIVATE LIMITED-PVR LIMITED-N148180115721776,454991.25,C,N148180115721776,28/05/2018,FORT
2018-05-28,NEFT Cr-CITI0000002-ONE97 COMMUNICATIONS LIMITED-PVR LIMITED-CITIN18865326083,2702601.0,C,CITIN18865326083,28/05/2018,FORT
2018-05-28,NEFT Cr-CITI0000002-ONE97 COMMUNICATIONS LIMITED-PVR LIMITED-CITIN18865325988,4480335.39,C,CITIN18865325988,28/05/2018,FORT
2018-05-28,NEFT Cr-KKBK0000958-BIG TREE ENTERTAINMENT PRIVATE LIMITED-PVR LIMITED-KKBK181483210980,150.0,C,KKBK181483210980,28/05/2018,FORT
2018-05-28,NEFT Cr-KKBK0000958-BIG TREE ENTERTAINMENT PRIVATE LIMITED-PVR LIMITED-KKBK181483210948,20796.0,C,KKBK181483210948,28/05/2018,FORT
2018-05-28,NEFT Cr-KKBK0000958-BIG TREE ENTERTAINMENT PRIVATE LIMITED-PVR LIMITED-KKBK181483210949,1993.0,C,KKBK181483210949,28/05/2018,FORT
2018-05-28,NEFT Cr-KKBK0000958-BIG TREE ENTERTAINMENT PRIVATE LIMITED-PVR LIMITED-KKBK181483210981,22212.0,C,KKBK181483210981,28/05/2018,FORT
2018-05-28,NEFT Cr-KKBK0000958-BIG TREE ENTERTAINMENT PRIVATE LIMITED-PVR LIMITED-KKBK181483211227,75426.0,C,KKBK181483211227,28/05/2018,FORT
2018-05-28,NEFT Cr-KKBK0000958-BIG TREE ENTERTAINMENT PRIVATE LIMITED-PVR LIMITED-KKBK181483210952,311514.0,C,KKBK181483210952,28/05/2018,FORT
2018-05-28,NEFT Cr-KKBK0000958-BIG TREE ENTERTAINMENT PRIVATE LIMITED-PVR LIMITED-KKBK181483210995,50136.0,C,KKBK181483210995,28/05/2018,FORT
2018-05-28,NEFT Cr-KKBK0000958-BIG TREE ENTERTAINMENT PRIVATE LIMITED-PVR LIMITED-KKBK181483211130,22997.0,C,KKBK181483211130,28/05/2018,FORT
2018-05-28,NEFT Cr-KKBK0000958-BIG TREE ENTERTAINMENT PRIVATE LIMITED-PVR LIMITED-KKBK181483211145,4832.0,C,KKBK181483211145,28/05/2018,FORT
2018-05-28,NEFT Cr-KKBK0000958-BIG TREE ENTERTAINMENT PRIVATE LIMITED-PVR LIMITED-KKBK181483211147,419224.0,C,KKBK181483211147,28/05/2018,FORT
2018-05-28,NEFT Cr-KKBK0000958-BIG TREE ENTERTAINMENT PRIVATE LIMITED-PVR LIMITED-KKBK181483211151,25899.0,C,KKBK181483211151,28/05/2018,FORT
2018-05-28,NEFT Cr-KKBK0000958-BIG TREE ENTERTAINMENT PRIVATE LIMITED-PVR LIMITED-KKBK181483211251,298035.0,C,KKBK181483211251,28/05/2018,FORT
2018-05-28,NEFT Cr-KKBK0000958-BIG TREE ENTERTAINMENT PRIVATE LIMITED-PVR LIMITED-KKBK181483211216,790.0,C,KKBK181483211216,28/05/2018,FORT
2018-05-28,NEFT Cr-KKBK0000958-BIG TREE ENTERTAINMENT PRIVATE LIMITED-PVR LIMITED-KKBK181483211176,226.0,C,KKBK181483211176,28/05/2018,FORT
2018-05-28,NEFT Cr-KKBK0000958-BIG TREE ENTERTAINMENT PRIVATE LIMITED-PVR LIMITED-KKBK181483211307,16651.0,C,KKBK181483211307,28/05/2018,FORT
2018-05-28,NEFT Cr-KKBK0000958-BIG TREE ENTERTAINMENT PRIVATE LIMITED-PVR LIMITED-KKBK181483211262,1889.0,C,KKBK181483211262,28/05/2018,FORT
2018-05-28,NEFT Cr-KKBK0000958-BIG TREE ENTERTAINMENT PRIVATE LIMITED-PVR LIMITED-KKBK181483211297,15816.0,C,KKBK181483211297,28/05/2018,FORT
2018-05-28,NEFT Cr-KKBK0000958-BIG TREE ENTERTAINMENT PRIVATE LIMITED-PVR LIMITED-KKBK181483215956,54723.0,C,KKBK181483215956,28/05/2018,FORT
2018-05-28,NEFT Cr-KKBK0000958-BIG TREE ENTERTAINMENT PRIVATE LIMITED-PVR LIMITED-KKBK181483217788,1822705.0,C,KKBK181483217788,28/05/2018,FORT
2018-05-28,NEFT Cr-KKBK0000958-BIG TREE ENTERTAINMENT PRIVATE LIMITED-PVR LIMITED-KKBK181483218849,2053550.0,C,KKBK181483218849,28/05/2018,FORT
2018-05-28,NEFT Cr-AIRP0000001-PVR LIMITED-PVR LTD-A148180001060061,103390.46,C,A148180001060061,28/05/2018,CMS TF WBO MUMBAI
2018-05-28,NEFT Cr-KKBK0000958-BIG TREE ENTERTAINMENT PRIVATE LIMITED-PVR LIMITED-KKBK181483217641,16437905.0,C,KKBK181483217641,28/05/2018,FORT
2018-05-28,NEFT Cr-KKBK0000958-BIG TREE ENTERTAINMENT PRIVATE LIMITED-PVR LIMITED-KKBK181483218007,2680780.0,C,KKBK181483218007,28/05/2018,FORT
2018-05-28,NEFT Cr-KKBK0000958-BIG TREE ENTERTAINMENT PRIVATE LIMITED-PVR LIMITED-KKBK181483218612,18457734.0,C,KKBK181483218612,28/05/2018,FORT
2018-05-28,NEFT Cr-KKBK0000958-BIG TREE ENTERTAINMENT PRIVATE LIMITED-PVR LIMITED-KKBK181483218208,25582468.0,C,KKBK181483218208,28/05/2018,FORT
2018-05-28,NEFT Cr-KKBK0000958-BIG TREE ENTERTAINMENT PRIVATE LIMITED-PVR LIMITED-KKBK181483218323,4135242.0,C,KKBK181483218323,28/05/2018,FORT
2018-05-28,NEFT Cr-KKBK0000958-BIG TREE ENTERTAINMENT PRIVATE LIMITED-PVR LIMITED-KKBK181483218584,2991356.0,C,KKBK181483218584,28/05/2018,FORT
2018-05-28,NEFT Cr-KKBK0000958-BIG TREE ENTERTAINMENT PRIVATE LIMITED-PVR LIMITED-KKBK181483218345,2970325.0,C,KKBK181483218345,28/05/2018,FORT
2018-05-28,NEFT Cr-ICIC0000031-ONE 97 COMMUNICATIONS LTD-Pvr Limited-CMS830264910,7232.18,C,CMS830264910,28/05/2018,FORT
2018-05-28,NEFT Cr-ICIC0000031-ONE 97 COMMUNICATIONS LTD-Pvr Limited-CMS830065628,1446.32,C,CMS830065628,28/05/2018,FORT
2018-05-28,IMPS-814820538240-ARTHASHASTRA FINTECH-HDFC-xxxxxxxx0433-PVR FOR SETT,152642.8,C,814820538240,28/05/2018,FORT
2018-05-28,00030330004897   EOD SWEEP ,86378013.4,D, ,28/05/2018,K G MARG
