Account Type,Amount,Creditor Account,Creditor Agent,Creditor FINInst Name,Creditor Name,Debitor Account,Debitor Agent,Debitor FINInst Name,Debitor Name,FEED_FILE_NAME,Institution Information,Message Identifier,Message Type,Owner Adress.,Received Time,Rel Message Identifier,Rel Transaction End Id,Rel Transaction Id,Remmitance Information,S.No,Sequence number,Service level proprietary,Settlement Date,Transaction End Id,Ref Number,Transaction Ret Reson,Transaction Ret code,Transaction Status,Value Date,Xml Utr Number,SOURCE,STATEMENT_DATE,System_Idx,Ageing,LINK_ID,CBS Match
--,100020038.36,271210420001,SURY0TR0002,--,SURYODAY SMALL FINANCE BANK LIMITED,909020031719108,UTIB0000004,,AXIS MUTUAL FUND REDEMPTION POOL A/,INWARD_RTGS_18122018.xls,--,UTIB201812185000343494,pacs.008.001.03-RTGSFIToFICustomerCredit,SURY0000001,2018-12-18 08:24:34.0,--,--,--,"/CUST/ AXIS MUTUAL FUND REDEMPTION ,POOL A/C//////////////////////////////////////////////////////////////,",1,253195,"TTC=1000,PRI=35",2018-12-18,UTIBR52018121800343494,UTIBR52018121800343494,--,--,Received,18-12-2018 00:00:00,--,SFMS,01-01-2019 00:00:00,11682871218514382947,7,11750347812057940240,MATCHED
--,100019804.47,271210420001,SURY0TR0002,--,SURYODAY SMALL FINANCE BANK LIMITED,22205251966,SCBL0036001,--,DHFL PRAMERICA MUTUAL FUND - REDEMP,INWARD_RTGS_18122018.xls,DHFL PRAMERICA MUTUAL FUND - REDEMP271210420001Suryoday Small Finance Bank Ltd,SCBL201812181000001382,pacs.008.001.03-RTGSFIToFICustomerCredit,SURY0000001,2018-12-18 08:49:04.0,--,--,--,"7495 line1,7495 line2 and line3,7495 line5 and line6,7495 line4,",2,253202,--,2018-12-18,/XUTR/SCBLH18352001382,SCBLR12018121800001382,--,--,Received,18-12-2018 00:00:00,--,SFMS,01-01-2019 00:00:00,11082419316218649043,7,11753315775616032605,MATCHED
--,100019513.21,271210420001,SURY0TR0002,--,Suryoday Small Finance Bank Limited,000405007866,ICIC0000104,--,BIRLA SUNLIFE MUTUAL FUND,INWARD_RTGS_18122018.xls,--,ICIC201812182000383623,pacs.008.001.03-RTGSFIToFICustomerCredit,SURY0000001,2018-12-18 08:51:21.0,--,--,--,"/URGENT/,",3,253203,"TTC=1000,PRI=20",2018-12-18,ICICH18352383623,ICICR22018121800383623,--,--,Received,18-12-2018 00:00:00,--,SFMS,01-01-2019 00:00:00,9517780290760256904,7,12808041494549340041,MATCHED
--,500000.00,171040003811,SURY0000024,--,NIRMAL KUMAR BISWAL,04300050000438,KKBK0000958,KOTAK MAHINDRA BANK,NIRMAL KUMAR BISWAL,INWARD_RTGS_18122018.xls,Payment,KKBK201812181000709812,pacs.008.001.03-RTGSFIToFICustomerCredit,SURY0000001,2018-12-18 08:55:13.0,--,--,--,--,4,253205,"TTC=1000,PRI=19",2018-12-18,KKBKR12018121800709812,KKBKR12018121800709812,--,--,Received,18-12-2018 00:00:00,--,SFMS,01-01-2019 00:00:00,9927648568699752962,7,12200442305103755871,MATCHED
--,100020264.33,271210420001,SURY0TR0002,SURYODAY SMALL FINANCE BANK LIMITED,Suryoday Small Finance Bank Limited,00600350001142,HDFC0000240,--,KMMF REDEMPTIONS,INWARD_RTGS_18122018.xls,--,HDFC201812185056885332,pacs.008.001.03-RTGSFIToFICustomerCredit,SURY0000001,2018-12-18 09:06:10.0,--,--,--,--,5,253211,"TTC=1000,PRI=31",2018-12-18,HDFCR52018121856885332,HDFCR52018121856885332,--,--,Received,18-12-2018 00:00:00,--,SFMS,01-01-2019 00:00:00,12776732237684274339,7,13833998326216215245,MATCHED
--,100020036.46,271210420001,SURY0TR0002,--,SURYODAY SMALL FINANCE BANK LTD 11,004103000042015,IBKL0000004,--,IDBI MUTUAL FUND,INWARD_RTGS_18122018.xls,--,IBKL201812185000600144,pacs.008.001.03-RTGSFIToFICustomerCredit,SURY0000001,2018-12-18 10:18:25.0,--,--,--,"IDBI Liquid Fund,",6,253236,"TTC=1000,PRI=20",2018-12-18,IBKL201812185000600144,IBKLR62018121800600144,--,--,Received,18-12-2018 00:00:00,--,SFMS,01-01-2019 00:00:00,11596577136193557176,7,13832983772150511951,MATCHED
--,20000000.00,271210420001,SURY0TR0002,SURYODAY SMALL FINANCE BANK LIMITED,RTGSINCASHOUTWARD,08307700000038,HDFC0000240,--,SURYODAYSMALLFINANCEBANKLTD,INWARD_RTGS_18122018.xls,--,HDFC201812185056934250,pacs.008.001.03-RTGSFIToFICustomerCredit,SURY0000001,2018-12-18 11:23:02.0,--,--,--,--,7,253258,"TTC=1000,PRI=31",2018-12-18,HDFCR52018121856934250,HDFCR52018121856934250,--,--,Received,18-12-2018 00:00:00,--,SFMS,01-01-2019 00:00:00,11770166486015450442,7,10073882186960193241,MATCHED
--,20000000.00,271210420001,SURY0TR0002,SURYODAY SMALL FINANCE BANK LIMITED,RTGSINCASHOUTWARD,08307700000038,HDFC0000240,--,SURYODAYSMALLFINANCEBANKLTD,INWARD_RTGS_18122018.xls,--,HDFC201812185056931286,pacs.008.001.03-RTGSFIToFICustomerCredit,SURY0000001,2018-12-18 11:23:02.0,--,--,--,--,8,253259,"TTC=1000,PRI=31",2018-12-18,HDFCR52018121856931286,HDFCR52018121856931286,--,--,Received,18-12-2018 00:00:00,--,SFMS,01-01-2019 00:00:00,9563387018104452436,7,13046305953657470092,MATCHED
--,20000000.00,271210420001,SURY0TR0002,SURYODAY SMALL FINANCE BANK LIMITED,RTGSINCASHOUTWARD,08307700000038,HDFC0000240,--,SURYODAYSMALLFINANCEBANKLTD,INWARD_RTGS_18122018.xls,--,HDFC201812185056934256,pacs.008.001.03-RTGSFIToFICustomerCredit,SURY0000001,2018-12-18 11:23:12.0,--,--,--,--,9,253260,"TTC=1000,PRI=31",2018-12-18,HDFCR52018121856934256,HDFCR52018121856934256,--,--,Received,18-12-2018 00:00:00,--,SFMS,01-01-2019 00:00:00,9565528646581188025,7,10162673314115076982,MATCHED
--,20000000.00,271210420001,SURY0TR0002,SURYODAY SMALL FINANCE BANK LIMITED,RTGSINCASHOUTWARD,08307700000038,HDFC0000240,--,SURYODAYSMALLFINANCEBANKLTD,INWARD_RTGS_18122018.xls,--,HDFC201812185056934247,pacs.008.001.03-RTGSFIToFICustomerCredit,SURY0000001,2018-12-18 11:23:24.0,--,--,--,--,10,253262,"TTC=1000,PRI=31",2018-12-18,HDFCR52018121856934247,HDFCR52018121856934247,--,--,Received,18-12-2018 00:00:00,--,SFMS,01-01-2019 00:00:00,11362027760245398152,7,9614536303168986246,MATCHED
--,20000000.00,271210420001,SURY0TR0002,SURYODAY SMALL FINANCE BANK LIMITED,RTGSINCASHOUTWARD,08307700000038,HDFC0000240,--,SURYODAYSMALLFINANCEBANKLTD,INWARD_RTGS_18122018.xls,--,HDFC201812185056934264,pacs.008.001.03-RTGSFIToFICustomerCredit,SURY0000001,2018-12-18 11:23:24.0,--,--,--,--,11,253263,"TTC=1000,PRI=31",2018-12-18,HDFCR52018121856934264,HDFCR52018121856934264,--,--,Received,18-12-2018 00:00:00,--,SFMS,01-01-2019 00:00:00,9315521346830299954,7,13399188540803737959,MATCHED
--,150026918.00,--,SURY0000001,--,--,--,PNBG0000001,--,--,INWARD_RTGS_18122018.xls,--,PNBG201812189007510047,pacs.009.001.03-RTGSFIToFICredit,SURY0000001,2018-12-18 11:30:32.0,--,--,--,"CALL REPAYMENT,",12,253264,TTC=1400,2018-12-18,PNBGH18352510047,PNBGR92018121807510047,--,--,Received,18-12-2018 00:00:00,--,SFMS,01-01-2019 00:00:00,13185788224583491515,7,10429811290539442558,MATCHED
--,250044521.00,--,SURY0000001,--,--,--,BKID0000156,--,--,INWARD_RTGS_18122018.xls,--,BKID201812183000011613,pacs.009.001.03-RTGSFIToFICredit,SURY0000001,2018-12-18 11:36:49.0,--,--,--,"/REC/REPAYMENT OF CALL BORROWING,",13,253266,"TTC=1400,PRI=35",2018-12-18,/XUTR/BKIDO18352011613,BKIDR32018121800011613,--,--,Received,18-12-2018 00:00:00,--,SFMS,01-01-2019 00:00:00,12012644788196745872,7,9679804463533516406,MATCHED
--,200000.00,181080002574,SURY0000011,--,SONAL ARIHANTRAJ NAHAR,10268123332,SBIN0003096,--,RAYNA HITESH NANKANI,INWARD_RTGS_18122018.xls,--,SBIN201812181000021944,pacs.008.001.03-RTGSFIToFICustomerCredit,SURY0000001,2018-12-18 12:41:19.0,--,--,--,"/INB,l,",14,253285,"TTC=1000,PRI=80",2018-12-18,SBINR12018121800021944,SBINR12018121800021944,--,--,Received,18-12-2018 00:00:00,--,SFMS,01-01-2019 00:00:00,10411831928089887957,7,12705935140485714798,MATCHED
FAST,5700000.00,181090007315,SURY0000015,SURYODAY SMALL FINANCE BANK LIMITED,LOKMANYA MUTLI PURPOSE COOP,045100100000572,SRCB0000045,THE SARASWAT CO-OPERATIVE BANK LTD,LOKMANYA MULTIPURPOSE CO OP SOCLTD,INWARD_RTGS_18122018.xls,--,SRCB201812189000099745,pacs.008.001.03-RTGSFIToFICustomerCredit,SURY0000001,2018-12-18 13:10:48.0,--,--,--,--,15,253298,"TTC=1000,PRI=20",2018-12-18,/XUTR/SRCBH18352099745,SRCBR92018121800099745,--,--,Received,18-12-2018 00:00:00,--,SFMS,01-01-2019 00:00:00,9714507172918596226,7,11656623828556100500,MATCHED
--,1000000.00,181090007315,SURY0000015,--,LOKMANYA MULTIPURPOSE CO OP SOCIETY,910010021388157,UTIB0000001,,LOKMANYA MULTIPURPOSE CO OP SOCIETY,INWARD_RTGS_18122018.xls,--,UTIB201812185000354609,pacs.008.001.03-RTGSFIToFICustomerCredit,SURY0000001,2018-12-18 13:27:20.0,--,--,--,--,16,253307,"TTC=1000,PRI=35",2018-12-18,UTIBR52018121800354609,UTIBR52018121800354609,--,--,Received,18-12-2018 00:00:00,--,SFMS,01-01-2019 00:00:00,13180098551880699599,7,12826256871372237573,MATCHED
--,500000.00,181080002574,SURY0000011,--,SONAL ARIHANTRAJ NAHAR,33904246808,SBIN0003096,--,Mrs  BHANI MITESH NANKANI,INWARD_RTGS_18122018.xls,--,SBIN201812181000033770,pacs.008.001.03-RTGSFIToFICustomerCredit,SURY0000001,2018-12-18 13:45:43.0,--,--,--,"/INB,l,",17,253319,"TTC=1000,PRI=80",2018-12-18,SBINR12018121800033770,SBINR12018121800033770,--,--,Received,18-12-2018 00:00:00,--,SFMS,01-01-2019 00:00:00,10432133907591632991,7,12001784124897679915,MATCHED
--,400000.00,181090007315,SURY0000015,--,LOKMANYA MULTIPURPOSE COOP SOCIETY,0676102000003483,IBKL0000460,--,LOKMANYA MULTIPURPOSE CO OP SOCIET,INWARD_RTGS_18122018.xls,--,IBKL201812189000027511,pacs.008.001.03-RTGSFIToFICustomerCredit,SURY0000001,2018-12-18 15:34:42.0,--,--,--,"/FINRTGS/,//R,//R,//R,",18,253467,"TTC=1000,PRI=20",2018-12-18,IBKLR92018121800027511,IBKLR92018121800027511,--,--,Received,18-12-2018 00:00:00,--,SFMS,01-01-2019 00:00:00,9643765823501808340,7,9661501175437754069,MATCHED
