Sl No.,Sender_IFSC,Sender_Name,Sender_A/C Number,Beneficiary Details,Unnamed: 5,Unnamed: 6,Txn Ref,Batch Time,Amount,STB,Failed,LINK_ID,cbs Match
1.0,HDFC0000240,EAZYDINER PVT LTD,50200023010992,STCB0000065,Radha Regent Eazysave  CHEN,81030100000866,N165190851016350,800.0,14854.0,--,--,13604877839026473208,MATCHED
2.0,HSBC0110002,GRANT THORNTON INDIA LLP,051-702819-001,STCB0000065,RADHA REGENT HOTELS PVT LTD,81030100000866,HSBCN19165648050,800.0,108000.0,--,--,10864803099352202873,MATCHED
3.0,HDFC0000240,IIFL SPECIAL OPPORTUNITIES FUND,00600340083554,STCB0000065,SASIKALA ESTATES P,82030100000023,N165190851008662,800.0,381677.0,--,--,11751371962929226779,MATCHED
4.0,UTIB0000248,SAMRIDDHI PETRO PRODUCTS P LTD,100012910127,STCB0000065,SAMRIDDHI PETRO PRODUCTS P LTD,81030100004503,AXMA191657692011,900.0,41163.25,--,--,12670368437347695607,MATCHED
5.0,HDFC0000001,CHANDRA SEKHAR SANGISETTY,05121050158154,STCB0000065,Deeraj v,80310100004864,N165190851127287,1030.0,49000.0,--,--,13636873065232721986,MATCHED
6.0,HDFC0000240,HDFC BANK,50200011300992,STCB0000065,RADHA REGENT HOTELS PVT LTD,81030100000866,N165190851109819,1030.0,83762.37,--,--,9523405464963929340,MATCHED
7.0,HDFC0000240,HDFC BANK,50200011300992,STCB0000065,RADHA REGENT HOTELS PVT LTD,81030100000866,N165190851103168,1030.0,53786.47,--,--,13725728603645212784,MATCHED
8.0,SCBL0036001,AMERICAN EXPRESS BAN,52205862671,STCB0000065,AGS CINEMAS PRIVATE LIMITED,81030100001422,SIN01083R9514793,1030.0,107.19,--,--,10461591444469318358,MATCHED
9.0,HDFC0000240,HDFC BANK,50200011300992,STCB0000065,RADHA REGENT HOTELS PVT LTD,81030100000866,N165190851129204,1030.0,106588.66,--,--,11073735355335562694,MATCHED
10.0,SCBL0036001,AMERICAN EXPRESS BAN,52205862671,STCB0000065,RADHA REGENT HOTELS PVT LTD.,81030100000866,SIN01083R9514713,1030.0,76364.38,--,--,13477789040185245621,MATCHED
11.0,HDFC0000240,HDFC BANK,50200011300992,STCB0000065,SAMRIDDHI PETROPRODUCTS PRIVATE LIMITED,81030100004503,N165190851130815,1100.0,4520.31,--,--,12858871208161581645,MATCHED
12.0,HDFC0000240,HDFC BANK,50200011300992,STCB0000065,SAMRIDDHI PETROPRODUCTS PRIVATE LIMITED,81030100004503,N165190851137437,1100.0,9710.0,--,--,10508899008117459731,MATCHED
13.0,HDFC0000240,HDFC BANK,50200011300992,STCB0000065,SAMRIDDHI PETROPRODUCTS PRIVATE LIMITED,81030100004503,N165190851143063,1100.0,34282.54,--,--,10362301060628097777,MATCHED
14.0,HDFC0000240,HDFC BANK,50200011300992,STCB0000065,RADHA REGENT HOTELS PVT LTD,81030100000866,N165190851154907,1100.0,127273.52,--,--,12855853162954823779,MATCHED
15.0,HDFC0000240,HDFC BANK,50200011300992,STCB0000065,SAMRIDDHI PETROPRODUCTS PRIVATE LIMITED,81030100004503,N165190851150024,1100.0,10950.0,--,--,12190842937292100775,MATCHED
16.0,IDFB0010204,APOLLO HOSPITALS ENTERPRISE LTD,00000010001167884,STCB0000065,PRAKASH NARAYANAN,80110100001699,IDFBH19165143453,1100.0,7800.0,--,--,10976353372475034878,MATCHED
17.0,CITI0000002,ONE97 COMMUNICATIONS LIMITED,0344350221,STCB0000065,SAMRIDDHI PETROPRODUCTS PRIVATE LIMITED,81030100004503,CITIN19987125674,1130.0,8098.0,--,--,13021056063818593638,MATCHED
18.0,CITI0000002,ONE97 COMMUNICATIONS LIMITED,0344350221,STCB0000065,SAMRIDDHI PETROPRODUCTS PRIVATE LIMITED,81030100004503,CITIN19987129612,1130.0,10172.0,--,--,9549023923166353091,MATCHED
19.0,CITI0000002,ONE97 COMMUNICATIONS LIMITED,0344350221,STCB0000065,SAMRIDDHI PETROPRODUCTS PRIVATE LIMITED,81030100004503,CITIN19987129188,1130.0,210.0,--,--,9402490084825458853,MATCHED
20.0,HDFC0000240,THE TATA POWER COMPANY LTD 763,00600110000763,STCB0000065,DEEPAK XEROX   STATIONERS,82030100002120,N165190851187087,1200.0,8773.12,--,--,11838925773666559981,MATCHED
21.0,ICIC0SF0002,WELCOME FOREX PRIVATE LIMITED,602205047052,STCB0000065,WELCOME FOREX PVT LTD,81030100003741,21295148671DC,1230.0,150000.0,--,--,10220007579814600247,MATCHED
22.0,IBKL0000004,FINANCIAL BENCHMARK INDIA PRIVATE,0452102000010575,STCB0000065,FOREX  ASSOCIATION OF INDIA,80110100001579,IBKL190614400993,1300.0,129600.0,--,--,12197487073194698417,MATCHED
23.0,ANDB0002443,CHIRAQDEHELI MOHAMMED ABDUL RASHEED,244310100014675,STCB0000065,DILSHAD BEGUM,80410100004661,ANDBN19235390704,1300.0,10000.0,--,--,13697898611788254367,MATCHED
26.0,ICIC0SF0002,VARUN KUMAR T,180401510998,STCB0000065,VARUN KUMAR T,80210100002662,1731010664,1400.0,650.0,--,--,11611403037096195869,MATCHED
27.0,KKBK0000958,BIG TREE ENTERTAINMENT PRIVATE LIMITED,2607060807,STCB0000065,AGS CINEMAS PVT LTD,81030100001960,KKBK191659014615,1430.0,117683.0,--,--,13458592991365236309,MATCHED
28.0,KKBK0000958,BIG TREE ENTERTAINMENT PRIVATE LIMITED,2607060807,STCB0000065,AGS CINEMAS PVT LTD,81030100001422,KKBK191659014618,1430.0,121532.0,--,--,10548413492074729657,MATCHED
29.0,KKBK0000958,BIG TREE ENTERTAINMENT PRIVATE LIMITED,2607060807,STCB0000065,AGS CINEMAS PVT LTD,81030100001422,KKBK191659014627,1430.0,78370.0,--,--,11964611724390211920,MATCHED
30.0,KKBK0000958,BIG TREE ENTERTAINMENT PRIVATE LIMITED,2607060807,STCB0000065,AGS CINEMAS PVT LTD,81030100001614,KKBK191659014629,1430.0,72641.0,--,--,13252083925068870445,MATCHED
31.0,KKBK0000958,BIG TREE ENTERTAINMENT PRIVATE LIMITED,2607060807,STCB0000065,AGS CINEMAS PVT LTD,81030100001422,KKBK191659014874,1430.0,8470.0,--,--,13386616761579105393,MATCHED
32.0,KKBK0000958,BIG TREE ENTERTAINMENT PRIVATE LIMITED,2607060807,STCB0000065,AGS CINEMAS PVT LTD,81030100001422,KKBK191659014879,1430.0,2952.0,--,--,10031272995055401296,MATCHED
33.0,KKBK0000958,BIG TREE ENTERTAINMENT PRIVATE LIMITED,2607060807,STCB0000065,AGS CINEMAS PVT LTD,81030100001422,KKBK191659014917,1430.0,3909.0,--,--,10886266115266562382,MATCHED
34.0,KKBK0000958,BIG TREE ENTERTAINMENT PRIVATE LIMITED,2607060807,STCB0000065,AGS CINEMAS PVT LTD,81030100001422,KKBK191659014882,1430.0,3982.0,--,--,13438735242256000105,MATCHED
35.0,HDFC0000240,PAYU PAYMENTS PVT LTD,50200018553226,STCB0000065,AGS CINEMAS PVT LTD,81030100001422,N165190851402194,1500.0,15811.35,--,--,12747050334385100033,MATCHED
36.0,CITI0000002,ONE97 COMMUNICATIONS LIMITED,0344350221,STCB0000065,AGS CINEMAS PRIVATE LTD,81030100001422,CITIN19987334352,1600.0,16931.99,--,--,12496315160314303235,MATCHED
37.0,HDFC0000240,MAKEMYTRIP INDIA P LTD 1,00030330000956,STCB0000065,RADHA REGENT HOTELS PVT LTD,81030100000866,N165190851520793,1600.0,21116.0,--,--,9931343113200940049,MATCHED
38.0,HDFC0000240,IBIBO GROUP PVT LTD 5345,50200004685345,STCB0000065,RADHA REGENT HOTELS PVT LTD,81030100000866,N165190851535411,1600.0,5746.0,--,--,10238295755770657506,MATCHED
39.0,KVBL0001248,simats,1248155000058310,STCB0000065,Radha Regent Hotels Pvt Ltd,81030100000866,N165190010147354,1630.0,177904.0,--,--,10183218921464563223,MATCHED
40.0,ICIC0000031,ONE 97 COMMUNICATIONS LTD,0104SLNEFTPL,STCB0000065,SAMRIDDHI PETROPRODUCTS PRIVATE LIMITED,81030100004503,CMS1148655963,1630.0,300.0,--,--,10710355161364594269,MATCHED
41.0,ICIC0000031,ONE 97 COMMUNICATIONS LTD,0104SLNEFTPL,STCB0000065,SAMRIDDHI PETROPRODUCTS PRIVATE LIMITED,81030100004503,CMS1148655962,1630.0,11793.74,--,--,11630188923572296513,MATCHED
42.0,HSBC0400002,TELEPERFORMANCE GLOBAL SERVICES PRI,002-049799-001,STCB0000065,RADHA REGENT HOTELS,81030100000866,HSBCN19165695091,1700.0,15120.0,--,--,13443204840447955030,MATCHED
43.0,CORP0000202,PRISM FEEDS INDIA PRIVATE LIMITED,020200401150002,STCB0000065,S E AGRO PVT LTD,81030100003947,000119965283,1700.0,2154947.0,--,--,10460650592100585121,MATCHED
44.0,CITI0100000,ICICI PRUDENTIAL MF EQUITY DIV AC,0591193856,STCB0000065,U V RAMANAMURTHY,80310100002528,CITIN19987380955,1730.0,1510.45,--,--,10007855732814830770,MATCHED
45.0,BKID0000200,SAMRIDDHI PETROPRODUCTS PVT LTD,564727110000095,STCB0000065,Samriddhi Petro Products Pvt  Ltd,81030100004503,BKIDN19165752802,1730.0,950000.0,--,--,9719854432622560955,MATCHED
46.0,BKID0000200,SAMRIDDHI PETROPRODUCTS PVT LTD,869920110001018,STCB0000065,Samriddhi Petro Products Pvt  Ltd,81030100004503,BKIDN19165752483,1730.0,900000.0,--,--,9935019924177229588,MATCHED
47.0,PUNB0497800,NAANDI  FOUNDATION,4978000100004278,STCB0000065,RADHA REGENT HOTELS PVT LTD,81030100000866,PUNBH19165328770,1730.0,11219.0,--,--,9556721211946002516,MATCHED
48.0,UTIB0002958,ARUNAGIRI V,916010068042728,STCB0000065,radha regent,81030100000866,AXMB191657946004,1800.0,8990.0,--,--,10171149505166718430,MATCHED
49.0,HDFC0000240,SRF LIMITED SALARY,05720310002683,STCB0000065,RADHA REGENT HOTELS PRIVATE LIMITED,81030100000866,N165190851758597,1800.0,7033.88,--,--,11841657073041105060,MATCHED
50.0,YESB0000001,DIVINE ENTERPRISES,041984600000192,STCB0000065,SAMRIDDHI PETRO PRODUCTS PVT LTD,81030100004503,N165190248402073,1800.0,50000.0,--,--,12808145689608097757,MATCHED
51.0,KVBL0002101,DIVINE ENTERPRISES,2105115000004309,STCB0000065,Samriddhi Petro Products Pvt Ltd,81030100004503,N165190010150113,1800.0,87000.0,--,--,13073712762235574783,MATCHED
52.0,ICIC0000031,ONE 97 COMMUNICATIONS LTD,0104SLNEFTPL,STCB0000065,AGS CINEMAS PRIVATE LTD,81030100001422,CMS1148958882,1900.0,240.66,--,--,9531486722324135919,MATCHED
