{
  "fileType": "csv",
  "action": [
    {
      "filters": [
        {
          "resultkey": "allConcatData",
          "source": "A_Pending",
          "expressions": [
           "payload['allConcatData'] =pd.DataFrame()",
            "payload['A_Pending']['CLId'] = payload['A_Pending']['Customer_Id']+payload['A_Pending']['Loan_Id'] if 'A_Pending' in payload and len(payload['A_Pending']) >0 else '' ",
            "payload['B_ForDay']['CLId'] = payload['B_ForDay']['Customer_Id']+payload['B_ForDay']['Loan_Id'] if 'B_ForDay' in payload and  len(payload['B_ForDay']) > 0 else '' ",
            "payload['C_T24System']['CLId'] = payload['C_T24System']['Customer_Id']+payload['C_T24System']['Loan_Id'] if 'C_T24System' in payload and len(payload['C_T24System']) >0 else '' ",
            "payload['D_MannualExpress']['CLId'] = payload['D_MannualExpress']['Customer_Id']+payload['D_MannualExpress']['Loan_Id'] if 'D_MannualExpress' in payload and len(payload['D_MannualExpress']) > 0 else '' ",
            "payload['E_Rectification']['CLId'] = payload['E_Rectification']['Customer_Id']+payload['E_Rectification']['Loan_Id'] if 'E_Rectification' in payload and len(payload['E_Rectification'])>0 else '' ",	
            "payload['F_PdSettlement']['CLId'] = payload['F_PdSettlement']['Customer_Id']+payload['F_PdSettlement']['Loan_Id'] if  'F_PdSettlement' in payload and len(payload['F_PdSettlement'])>0 else '' ",
            "payload['allConcatData'] = pd.concat([payload['A_Pending'],payload['B_ForDay'],payload['C_T24System'],payload['D_MannualExpress'],payload['E_Rectification']],ignore_index=True)",
            
             "payload['allConcatData']['Amount'] = payload['allConcatData']['Amount'].astype(np.float64)",
            "payload['allConcatData'].dropna(inplace=True,how='all')",
            "payload['groupbyData']= payload['allConcatData'].groupby(by=['CLId']).sum().reset_index()",
            "payload['mergedRemarks'] = payload['groupbyData'].merge(payload['A_Pending'][['CLId','Remarks']],on=['CLId'],how='left') if len(payload['groupbyData'])>0 and len(payload['A_Pending']) >0 else payload['mergedRemarks'] ",
            "payload['mergedRemarks'] = payload['groupbyData'] if len(payload['A_Pending']) == 0 else payload['mergedRemarks']",
            "payload['mergedRemarks'] = payload['A_Pending'] if len(payload['groupbyData']) == 0 else payload['mergedRemarks']",
            "payload['mergedRemarks'] = payload['mergedRemarks'].merge(payload['B_ForDay'][['CLId','Remarks']],on=['CLId'],how='left',suffixes=('','_b')) if  len(payload['mergedRemarks']) >0 and len(payload['B_ForDay']) > 0 else payload['mergedRemarks']",
            "payload['mergedRemarks'] = payload['mergedRemarks'] if len(payload['B_ForDay']) == 0 else payload['mergedRemarks']",
             "payload['mergedRemarks'] = payload['B_ForDay'] if  len(payload['mergedRemarks'])>0 else payload['mergedRemarks']",
             
            "payload['mergedRemarks'] = payload['mergedRemarks'].merge(payload['C_T24System'][['CLId','Remarks']],on=['CLId'],how='left',suffixes=('','_c')) if len(payload['mergedRemarks']) > 0 and len(payload['C_T24System']) > 0  else payload['mergedRemarks']",
            "payload['mergedRemarks'] = payload['mergedRemarks'] if len(payload['C_T24System'])  == 0 else payload['mergedRemarks']",
             "payload['mergedRemarks'] = payload['C_T24System'] if len(payload['mergedRemarks'])  == 0 else payload['mergedRemarks']",
            "payload['mergedRemarks'] = payload['mergedRemarks'].merge(payload['D_MannualExpress'][['CLId','Remarks']],on=['CLId'],how='left',suffixes=('','_d')) if len(payload['mergedRemarks']) > 0 and len(payload['D_MannualExpress']) > 0  else payload['mergedRemarks']",
            
            "payload['mergedRemarks'] = payload['mergedRemarks'] if len(payload['D_MannualExpress']) == 0 else  payload['mergedRemarks']",
            "payload['mergedRemarks'] = payload['D_MannualExpress'] if len(payload['mergedRemarks']) == 0 else  payload['mergedRemarks']",
            
            "payload['mergedRemarks'] = payload['mergedRemarks'].merge(payload['E_Rectification'][['CLId','Remarks']],on=['CLId'],how='left',suffixes=('','_e')) if len(payload['mergedRemarks']) > 0 and len(payload['E_Rectification']) > 0 else payload['mergedRemarks']",
            "payload['mergedRemarks'] = payload['mergedRemarks'] if len(payload['E_Rectification']) == 0 else payload['mergedRemarks']",
            "payload['mergedRemarks'] = payload['E_Rectification'] if len(payload['mergedRemarks']) == 0 else payload['mergedRemarks']",

            "pos = payload['mergedRemarks'].columns.get_loc('Remarks')",
            "endpos = payload['mergedRemarks'].columns.get_loc('Remarks_e') if 'Remarks_e' in payload['mergedRemarks'].columns.tolist() else''",
            "payload['mergedRemarks'].fillna('',inplace=True)",
            "payload['mergedRemarks']['AllRemarks'] = payload['mergedRemarks'].iloc[:,pos:endpos].apply(lambda x:'&'.join(x.astype(str)),axis=1)",
            "payload['mergedRemarks']['AllRemarks'] = payload['mergedRemarks']['AllRemarks'].str.strip('&')",
            "payload['mergedRemarks'].drop(['Remarks','Remarks_b','Remarks_c','Remarks_d','Remarks_e'],axis=1,inplace=True)",
            "print '============================================mergeRemarks======================================================' ",
            "print(len(payload['mergedRemarks']))",
            "payload['F_PdSettlement'] = payload['F_PdSettlement'].groupby(by=['CLId']).sum().reset_index()"
          ]
        }
      ]
    }
  ]
}
