{
  "fileType": "csv",
  "action": [
    {
      "filters": [
        {
          "resultkey": "allConcatData",
          "source": "A_Pending",
          "expressions": [
            "payload['custom_reports']= {}",
            "payload['amountMatched'] = pd.DataFrame()",
            "payload['FinalData'] = payload['mergedRemarks'].merge(payload['F_PdSettlement'], on=['CLId'],indicator=True,how='outer',suffixes=('','_x')) if len(payload['mergedRemarks']) > 0 and len(payload['F_PdSettlement']) > 0 and 'mergedRemarks' in payload.keys() else '' ",
            "payload['FinalData'] = payload['mergedRemarks'] if len(payload['F_PdSettlement']) == 0 else payload['mergedRemarks']",
            "payload['FinalData'] = payload['F_PdSettlement'] if len(payload['mergedRemarks']) == 0 else payload['mergedRemarks']",
            "payload['FinalData'] = payload['FinalData'][~payload['FinalData'].duplicated(subset=['CLId'],keep='first')]",
            "print payload['FinalData'].columns",
            "payload['amountMatched'] = payload['FinalData'][(payload['FinalData']['Amount']==payload['FinalData']['Amount_x'])&(payload['FinalData']['_merge']=='both')] if 'Amount_x' in payload['FinalData'].columns.tolist() else '' ",
            "payload['amountMatched'].drop(labels=['Amount_x','_merge'],axis=1,inplace=True) if len(payload['amountMatched']) > 0 and 'Amount_x' in payload['amountMatched'].columns.tolist() else '' ",
            "payload['custom_reports']['G-RECORD-FILE']=payload['amountMatched']",
            "amountGreater = payload['FinalData'][((payload['FinalData']['Amount']>payload['FinalData']['Amount_x'])&(payload['FinalData']['_merge']=='both'))|(payload['FinalData']['_merge']=='left_only')]",
            "amountGreater['SUB']=amountGreater['Amount']-amountGreater['Amount_x']",
            "amountGreater.sort_values(by=['_merge'],ascending=False,inplace=True)",
            "amountGreater.drop(labels=['Amount_x','_merge'],axis=1,inplace=True)",
            "payload['custom_reports']['H-RECORD-FILE']=amountGreater",
            "FinalData = payload['F_PdSettlement'].merge(payload['mergedRemarks'], on=['CLId'],indicator=True,how='outer',suffixes=('','_x'))",
            "FvsK = FinalData[((FinalData['Amount']>FinalData['Amount_x'])&(FinalData['_merge']=='both'))|(FinalData['_merge']=='left_only')]",
            "FvsK['SUB']=FvsK['Amount']-FvsK['Amount_x']",
            "FvsK.sort_values(by=['_merge'],ascending=False,inplace=True)",
            "FvsK.drop(labels=['Amount_x','_merge'],axis=1,inplace=True)",
            "payload['custom_reports']['I-RECORD-FILE']=FvsK"
          ]
        }
      ]
    }
  ]
}
