SRV_REF_NUM,CBS_REF_NUMBER,TRAN_DATE,TRAN_TIME,SOL_ID,DB_AC_NUM,CR_AC_NUM,TRAN_AMT,TRAN_CURR,CHANNEL,SERVICE_CODE,LINK_ID,SADF Match
MOB_2018072100505600,8.2051E+11,24/07/2018,9:05:00,723,5.65181E+14,35072217193,13875,INR,MOB,NEFT Transfer,,UNMATCHED
MOB_2018072300514031,8.20511E+11,24/07/2018,10:05:08,1875,5.20101E+14,6.1101E+12,100,INR,MOB,NEFT Transfer,,UNMATCHED
MOB_2018072300516537,8.2051E+11,24/07/2018,9:05:14,431,5.20101E+14,1.44201E+14,2000,INR,MOB,NEFT Transfer,,UNMATCHED
MOB_2018072300519590,,24/07/2018,9:05:16,453,5.20461E+14,1311948746,10000,INR,MOB,NEFT Transfer,,UNMATCHED
MOB_2018072300520391,8.20511E+11,24/07/2018,10:05:09,1668,5.20101E+14,9.1601E+14,800,INR,MOB,NEFT Transfer,,UNMATCHED
MOB_2018072300522666,8.2051E+11,24/07/2018,9:05:09,3246,5.20441E+14,4.626E+15,130,INR,MOB,NEFT Transfer,,UNMATCHED
MOB_2018072300523046,8.20511E+11,24/07/2018,10:05:07,851,5.20101E+14,71505500247,49000,INR,MOB,NEFT Transfer,,UNMATCHED
MOB_2018072300523356,8.20511E+11,24/07/2018,10:05:07,1503,5.20291E+14,62235542311,74,INR,MOB,NEFT Transfer,,UNMATCHED
MOB_2018072300523510,8.2051E+11,24/07/2018,9:05:11,1224,5.10101E+14,IDEAHYD130557,30000,INR,MOB,NEFT Transfer,,UNMATCHED
MOB_2018072300523590,8.2051E+11,24/07/2018,9:05:25,1490,5.20101E+14,3138684812,2000,INR,MOB,NEFT Transfer,,UNMATCHED
MOB_2018072400524392,8.20509E+11,24/07/2018,8:26:06,115,5.65181E+14,3677386822,3000,INR,MOB,RD Account Transfer,,UNMATCHED
MOB_2018072400524632,,24/07/2018,9:03:59,430,5.20441E+14,1.08013E+15,8000,INR,MOB,NEFT Transfer,,UNMATCHED
MOB_2018072400524722,8.2051E+11,24/07/2018,9:13:56,1534,5.60371E+14,5.53583E+15,2,INR,MOB,Credit Card Payment,,UNMATCHED
MOB_2018072400525070,,24/07/2018,9:54:19,2022,5.10101E+14,6.19601E+11,1691,INR,MOB,Loan Account Transfer,,UNMATCHED
MOB_2018072400525198,8.20511E+11,24/07/2018,10:08:32,120,5.10101E+14,5.60631E+14,50000,INR,MOB,Third Party Fund Transfers,,UNMATCHED
MOB_2018072400525346,8.20511E+11,24/07/2018,10:20:54,2911,5.10101E+14,5.60536E+14,11000,INR,MOB,Third Party Fund Transfers,,UNMATCHED
MOB_2018072400525759,8.20511E+11,24/07/2018,10:51:42,1106,5.20101E+14,5.02101E+13,1500,INR,MOB,Third Party Fund Transfers,,UNMATCHED
MOB_2018072400525917,8.20511E+11,24/07/2018,11:05:23,3212,5.10101E+14,24040185,35705,INR,MOB,NEFT Transfer,,UNMATCHED
MOB_2018072400525953,8.20511E+11,24/07/2018,11:08:11,1259,5.65182E+14,5.65621E+14,1675,INR,MOB,Third Party Fund Transfers,,UNMATCHED
MOB_2018072400525983,8.20511E+11,24/07/2018,11:11:01,15,5.65181E+14,5.60951E+14,5000,INR,MOB,Third Party Fund Transfers,,UNMATCHED
MOB_2018072400525989,8.20511E+11,24/07/2018,11:11:35,1399,5.65181E+14,5.65621E+14,10000,INR,MOB,Third Party Fund Transfers,,UNMATCHED
MOB_2018072400526048,8.20511E+11,24/07/2018,11:15:58,1760,5.10101E+14,5.02E+13,29400,INR,MOB,NEFT Transfer,,UNMATCHED
MOB_2018072400526051,8.20511E+11,24/07/2018,11:16:08,1094,5.10101E+14,1.80727E+13,23148,INR,MOB,NEFT Transfer,,UNMATCHED
MOB_2018072400526405,8.20511E+11,24/07/2018,11:41:21,1956,5.20111E+14,5.60516E+14,39000,INR,MOB,Third Party Fund Transfers,,UNMATCHED
MOB_2018072400526611,8.20511E+11,24/07/2018,11:55:26,373,5.20101E+14,6.0234E+11,5000,INR,MOB,NEFT Transfer,,UNMATCHED
MOB_2018072400526778,8.20512E+11,24/07/2018,12:07:00,1956,5.20111E+14,5.60516E+14,40000,INR,MOB,Third Party Fund Transfers,,UNMATCHED
MOB_2018072400526791,8.20512E+11,24/07/2018,12:08:20,2018,5.10101E+14,6277665149,16000,INR,MOB,NEFT Transfer,,UNMATCHED
MOB_2018072400526859,8.20512E+11,24/07/2018,12:12:29,582,5.20101E+14,5.08944E+15,20000,INR,MOB,Credit Card Payment,,UNMATCHED
MOB_2018072400526882,,24/07/2018,12:13:54,1659,5.20101E+14,9.1802E+14,3000,INR,MOB,Loan Account Transfer,,UNMATCHED
MOB_2018072400526926,8.20512E+11,24/07/2018,12:16:46,615,5.20101E+14,37819588421,2000,INR,MOB,NEFT Transfer,,UNMATCHED
MOB_2018072400527066,8.20512E+11,24/07/2018,12:25:56,133,5.20111E+14,39601517427,3000,INR,MOB,NEFT Transfer,,UNMATCHED
MOB_2018072400527231,8.20512E+11,24/07/2018,12:38:36,177,5.20101E+14,5.08944E+15,110,INR,MOB,Credit Card Payment,,UNMATCHED
MOB_2018072400527325,8.20512E+11,24/07/2018,12:46:00,591,5.10101E+14,36321230592,4000,INR,MOB,NEFT Transfer,,UNMATCHED
MOB_2018072400527331,8.20512E+11,24/07/2018,12:46:23,639,5.20101E+14,6.0541E+14,5000,INR,MOB,NEFT Transfer,,UNMATCHED
MOB_2018072400527597,,24/07/2018,13:05:06,401,5.10101E+14,5.24193E+15,9287,INR,MOB,NEFT Transfer,,UNMATCHED
MOB_2018072400527606,8.20513E+11,24/07/2018,13:05:36,3317,5.10101E+14,5.01002E+13,9000,INR,MOB,NEFT Transfer,,UNMATCHED
MOB_2018072400527654,8.20513E+11,24/07/2018,13:10:12,2071,5.60331E+14,5.02E+13,75000,INR,MOB,NEFT Transfer,,UNMATCHED
MOB_2018072400527697,8.20513E+11,24/07/2018,13:13:13,1092,5.65101E+14,4611732688,17800,INR,MOB,NEFT Transfer,,UNMATCHED
MOB_2018072400527735,8.20513E+11,24/07/2018,13:15:57,1595,5.60361E+14,7.1102E+13,74454,INR,MOB,NEFT Transfer,,UNMATCHED
MOB_2018072400527748,8.20513E+11,24/07/2018,13:17:01,1228,5.20101E+14,35901515998,850,INR,MOB,NEFT Transfer,,UNMATCHED
MOB_2018072400527797,8.20513E+11,24/07/2018,13:20:14,641,5.20101E+14,55101546291,200,INR,MOB,NEFT Transfer,,UNMATCHED
MOB_2018072400527880,8.20513E+11,24/07/2018,13:26:11,1485,5.20101E+14,1.97302E+11,100000,INR,MOB,NEFT Transfer,,UNMATCHED
MOB_2018072400527913,8.20513E+11,24/07/2018,13:29:05,83,5.20101E+14,5.08944E+15,5000,INR,MOB,Credit Card Payment,,UNMATCHED
MOB_2018072400527971,,24/07/2018,13:32:21,1469,5.20291E+14,3559609720,15000,INR,MOB,NEFT Transfer,,UNMATCHED
MOB_2018072400528030,8.20513E+11,24/07/2018,13:37:29,591,5.10101E+14,36321230592,4000,INR,MOB,NEFT Transfer,,UNMATCHED
MOB_2018072400528148,8.20513E+11,24/07/2018,13:45:29,3370,5.60371E+14,3.03804E+14,14999,INR,MOB,NEFT Transfer,,UNMATCHED
MOB_2018072400528308,,24/07/2018,13:57:45,3429,5.10101E+14,7.0008E+12,39500,INR,MOB,NEFT Transfer,,UNMATCHED
MOB_2018072400528352,8.20514E+11,24/07/2018,14:01:06,539,5.20101E+14,5.60631E+14,100,INR,MOB,Third Party Fund Transfers,,UNMATCHED
MOB_2018072400528358,8.20514E+11,24/07/2018,14:01:44,444,5.20471E+14,5.2448E+15,600,INR,MOB,Credit Card Payment,,UNMATCHED
MOB_2018072400528374,8.20514E+11,24/07/2018,14:03:03,452,5.65181E+14,1.26811E+13,3000,INR,MOB,RD Account Transfer,,UNMATCHED
MOB_2018072400528412,8.20514E+11,24/07/2018,14:06:41,1399,5.65181E+14,5.65621E+14,10000,INR,MOB,Third Party Fund Transfers,,UNMATCHED
MOB_2018072400528529,,24/07/2018,14:17:09,1541,5.20441E+14,2.9225E+15,1500,INR,MOB,NEFT Transfer,,UNMATCHED
MOB_2018072400528588,8.20514E+11,24/07/2018,14:21:22,1099,5.20481E+14,25020267580,10000,INR,MOB,Third Party Fund Transfers,,UNMATCHED
MOB_2018072400528606,8.20514E+11,24/07/2018,14:22:35,452,5.65181E+14,34679130300,3000,INR,MOB,RD Account Transfer,,UNMATCHED
MOB_2018072400528640,8.20514E+11,24/07/2018,14:25:49,1182,5.20101E+14,20101038996,990,INR,MOB,NEFT Transfer,,UNMATCHED
MOB_2018072400528964,8.20514E+11,24/07/2018,14:50:30,140,5.20441E+14,5.08944E+15,5000,INR,MOB,Credit Card Payment,,UNMATCHED
MOB_2018072400528972,8.20514E+11,24/07/2018,14:50:50,215,5.20101E+14,6.84261E+11,9560,INR,MOB,NEFT Transfer,,UNMATCHED
MOB_2018072400529025,,24/07/2018,14:54:37,817,5.20101E+14,481892150,2000,INR,MOB,NEFT Transfer,,UNMATCHED
MOB_2018072400529039,8.20514E+11,24/07/2018,14:56:14,2997,5.20291E+14,1.45755E+13,35000,INR,MOB,NEFT Transfer,,UNMATCHED
MOB_2018072400529281,8.20515E+11,24/07/2018,15:14:06,1929,5.10101E+14,38009093,27600,INR,MOB,NEFT Transfer,,UNMATCHED
MOB_2018072400529322,8.20515E+11,24/07/2018,15:18:23,1099,5.20481E+14,25020267580,10000,INR,MOB,Third Party Fund Transfers,,UNMATCHED
MOB_2018072400529380,8.20515E+11,24/07/2018,15:22:28,3205,5.20291E+14,4.42108E+11,1000,INR,MOB,Third Party Fund Transfers,,UNMATCHED
MOB_2018072400529423,8.20515E+11,24/07/2018,15:26:25,2144,5.20101E+14,1.06501E+14,2000,INR,MOB,NEFT Transfer,,UNMATCHED
MOB_2018072400529450,8.20515E+11,24/07/2018,15:29:23,387,5.20101E+14,5.60631E+14,100,INR,MOB,Third Party Fund Transfers,,UNMATCHED
MOB_2018072400529537,,24/07/2018,15:36:30,452,5.20101E+14,5.20111E+14,1,INR,MOB,Own Account Transfer,,UNMATCHED
MOB_2018072400529735,,24/07/2018,15:51:49,2122,5.20101E+14,,200,INR,MOB,Recurring Deposit Opening,,UNMATCHED
MOB_2018072400529768,8.20515E+11,24/07/2018,15:54:56,3045,5.20291E+14,5.53583E+15,500,INR,MOB,Credit Card Payment,,UNMATCHED
MOB_2018072400529787,8.20515E+11,24/07/2018,15:56:21,508,5.20101E+14,8312596754,5500,INR,MOB,NEFT Transfer,,UNMATCHED
MOB_2018072400529788,8.20515E+11,24/07/2018,15:56:24,1101,5.20101E+14,3172548925,1000,INR,MOB,NEFT Transfer,,UNMATCHED
MOB_2018072400529817,8.20515E+11,24/07/2018,15:59:18,1224,5.10101E+14,IDEAHYD130557,65000,INR,MOB,NEFT Transfer,,UNMATCHED
MOB_2018072400529827,8.20516E+11,24/07/2018,16:00:04,2144,5.20101E+14,1.06501E+14,2000,INR,MOB,NEFT Transfer,,UNMATCHED
MOB_2018072400529906,8.20516E+11,24/07/2018,16:06:27,1017,5.20481E+14,35817524767,5500,INR,MOB,NEFT Transfer,,UNMATCHED
MOB_2018072400529953,8.20516E+11,24/07/2018,16:10:06,1,5.20101E+14,9.1202E+14,11000,INR,MOB,NEFT Transfer,,UNMATCHED
MOB_2018072400530064,8.20516E+11,24/07/2018,16:19:28,81,5.20101E+14,64042824105,30000,INR,MOB,NEFT Transfer,,UNMATCHED
MOB_2018072400530107,8.20516E+11,24/07/2018,16:22:30,1193,5.20441E+14,7.68204E+12,3000,INR,MOB,NEFT Transfer,,UNMATCHED
MOB_2018072400530109,8.20516E+11,24/07/2018,16:22:39,1522,5.10101E+14,51009441,50000,INR,MOB,NEFT Transfer,,UNMATCHED
MOB_2018072400530113,8.20516E+11,24/07/2018,16:22:54,1112,5.10101E+14,4.83728E+15,20000,INR,MOB,NEFT Transfer,,UNMATCHED
MOB_2018072400530136,8.20516E+11,24/07/2018,16:24:50,528,5.20291E+14,2.141E+13,5000,INR,MOB,NEFT Transfer,,UNMATCHED
MOB_2018072400530154,8.20516E+11,24/07/2018,16:26:22,528,5.20291E+14,2.141E+13,2500,INR,MOB,NEFT Transfer,,UNMATCHED
MOB_2018072400530211,8.20516E+11,24/07/2018,16:30:19,3262,5.10101E+14,4.72101E+11,7550,INR,MOB,NEFT Transfer,,UNMATCHED
MOB_2018072400530268,8.20516E+11,24/07/2018,16:34:52,332,5.20101E+14,1.24701E+13,500,INR,MOB,NEFT Transfer,,UNMATCHED
MOB_2018072400530270,8.20516E+11,24/07/2018,16:34:59,1235,5.20101E+14,1.81322E+13,99000,INR,MOB,NEFT Transfer,,UNMATCHED
MOB_2018072400530272,8.20516E+11,24/07/2018,16:35:11,763,5.20441E+14,31322473096,10,INR,MOB,NEFT Transfer,,UNMATCHED
MOB_2018072400530281,8.20516E+11,24/07/2018,16:35:51,79,5.20101E+14,5.3256E+11,40000,INR,MOB,NEFT Transfer,,UNMATCHED
MOB_2018072400530297,8.20516E+11,24/07/2018,16:37:17,136,5.20291E+14,4.19981E+15,100,INR,MOB,Credit Card Payment,,UNMATCHED
MOB_2018072400530309,8.20516E+11,24/07/2018,16:38:10,497,5.20101E+14,8.412E+11,10000,INR,MOB,NEFT Transfer,,UNMATCHED
MOB_2018072400530347,8.20516E+11,24/07/2018,16:41:41,2129,5.20101E+14,64165555380,7000,INR,MOB,NEFT Transfer,,UNMATCHED
MOB_2018072400530371,8.20516E+11,24/07/2018,16:43:55,450,5.20101E+14,5.36908E+15,9000,INR,MOB,NEFT Transfer,,UNMATCHED
MOB_2018072400530377,,24/07/2018,16:44:23,371,5.20101E+14,,2000,INR,MOB,Recurring Deposit Opening,,UNMATCHED
MOB_2018072400530395,8.20516E+11,24/07/2018,16:45:34,2919,5.10101E+14,4.19831E+11,1400,INR,MOB,NEFT Transfer,,UNMATCHED
MOB_2018072400530396,8.20516E+11,24/07/2018,16:45:40,1420,5.10101E+14,42305501286,14400,INR,MOB,NEFT Transfer,,UNMATCHED
MOB_2018072400530404,8.20516E+11,24/07/2018,16:46:19,2919,5.10101E+14,4.19831E+11,1500,INR,MOB,NEFT Transfer,,UNMATCHED
MOB_2018072400530408,8.20516E+11,24/07/2018,16:46:32,440,5.20101E+14,4.13902E+14,1000,INR,MOB,NEFT Transfer,,UNMATCHED
MOB_2018072400530422,8.20516E+11,24/07/2018,16:47:31,1536,5.10101E+14,2.10214E+15,10695,INR,MOB,NEFT Transfer,,UNMATCHED
MOB_2018072400530435,8.20516E+11,24/07/2018,16:48:12,3232,5.20101E+14,7.0401E+12,8000,INR,MOB,NEFT Transfer,,UNMATCHED
MOB_2018072400530436,8.20516E+11,24/07/2018,16:48:13,21,5.20441E+14,3.0481E+12,5000,INR,MOB,NEFT Transfer,,UNMATCHED
MOB_2018072400530441,8.20516E+11,24/07/2018,16:48:30,14,5.10101E+14,6580810533,67575,INR,MOB,NEFT Transfer,,UNMATCHED
MOB_2018072400530447,8.20516E+11,24/07/2018,16:49:00,1101,5.20101E+14,3172548925,1000,INR,MOB,NEFT Transfer,,UNMATCHED
MOB_2018072400530469,,24/07/2018,16:50:11,1390,5.20291E+14,1.72022E+14,1200,INR,MOB,NEFT Transfer,,UNMATCHED
MOB_2018072400530471,,24/07/2018,16:50:13,449,5.20441E+14,9.1701E+14,42000,INR,MOB,NEFT Transfer,,UNMATCHED
MOB_2018072400530481,8.20516E+11,24/07/2018,16:51:02,3300,5.10101E+14,1.2531E+15,37002,INR,MOB,NEFT Transfer,,UNMATCHED
MOB_2018072400530507,8.20516E+11,24/07/2018,16:53:22,3458,5.10101E+14,4.17601E+11,10000,INR,MOB,NEFT Transfer,,UNMATCHED
MOB_2018072400530518,8.20516E+11,24/07/2018,16:54:23,497,5.20101E+14,8.412E+11,10000,INR,MOB,NEFT Transfer,,UNMATCHED
MOB_2018072400530532,8.20516E+11,24/07/2018,16:55:24,1574,5.20101E+14,6.12402E+11,2500,INR,MOB,RD Account Transfer,,UNMATCHED
MOB_2018072400530540,8.20516E+11,24/07/2018,16:56:06,707,5.20451E+14,9.1601E+14,50000,INR,MOB,NEFT Transfer,,UNMATCHED
MOB_2018072400530554,8.20516E+11,24/07/2018,16:57:02,131,5.10101E+14,1.8073E+13,10000,INR,MOB,NEFT Transfer,,UNMATCHED
MOB_2018072400530561,8.20516E+11,24/07/2018,16:57:47,707,5.20451E+14,9.1601E+14,25000,INR,MOB,NEFT Transfer,,UNMATCHED
MOB_2018072400530568,8.20516E+11,24/07/2018,16:58:19,1998,5.10101E+14,2.51405E+11,63600,INR,MOB,NEFT Transfer,,UNMATCHED
MOB_2018072400530576,8.20516E+11,24/07/2018,16:58:38,1281,5.10101E+14,3666263053,10000,INR,MOB,NEFT Transfer,,UNMATCHED
MOB_2018072400530585,8.20516E+11,24/07/2018,16:59:26,332,5.20101E+14,8.8121E+12,2800,INR,MOB,NEFT Transfer,,UNMATCHED
MOB_2018072400530588,8.20516E+11,24/07/2018,16:59:39,3374,5.20291E+14,9.025E+14,400,INR,MOB,NEFT Transfer,,UNMATCHED
MOB_2018072400530601,8.20517E+11,24/07/2018,17:00:40,2142,5.10101E+14,64141939555,11515,INR,MOB,NEFT Transfer,,UNMATCHED
MOB_2018072400530603,8.20517E+11,24/07/2018,17:00:53,762,5.10101E+14,5.02E+13,16500,INR,MOB,NEFT Transfer,,UNMATCHED
MOB_2018072400530607,8.20517E+11,24/07/2018,17:01:21,568,5.10101E+14,33005006618,7500,INR,MOB,NEFT Transfer,,UNMATCHED
MOB_2018072400530615,8.20517E+11,24/07/2018,17:02:12,3165,5.20441E+14,4.72643E+15,2625,INR,MOB,NEFT Transfer,,UNMATCHED
MOB_2018072400530619,8.20517E+11,24/07/2018,17:02:50,543,5.20101E+14,2.62201E+13,100,INR,MOB,NEFT Transfer,,UNMATCHED
MOB_2018072400530622,8.20517E+11,24/07/2018,17:03:04,3179,5.20441E+14,9.70011E+12,2000,INR,MOB,NEFT Transfer,,UNMATCHED
MOB_2018072400530628,8.20517E+11,24/07/2018,17:03:22,2989,5.20101E+14,20140764115,3500,INR,MOB,NEFT Transfer,,UNMATCHED
MOB_2018072400530636,8.20517E+11,24/07/2018,17:03:56,3185,5.20101E+14,8.55E+14,10000,INR,MOB,NEFT Transfer,,UNMATCHED
MOB_2018072400530639,8.20517E+11,24/07/2018,17:04:05,503,5.20101E+14,68028966807,400,INR,MOB,NEFT Transfer,,UNMATCHED
MOB_2018072400530640,8.20517E+11,24/07/2018,17:04:09,2949,5.10101E+14,2.02E+11,3000,INR,MOB,NEFT Transfer,,UNMATCHED
MOB_2018072400530641,8.20517E+11,24/07/2018,17:04:20,3179,5.20441E+14,9.70011E+12,1000,INR,MOB,NEFT Transfer,,UNMATCHED
MOB_2018072400530644,8.20517E+11,24/07/2018,17:04:25,837,5.20101E+14,1.1501E+11,24100,INR,MOB,NEFT Transfer,,UNMATCHED
MOB_2018072400530667,8.20517E+11,24/07/2018,17:06:39,723,5.20101E+14,1.46901E+14,100,INR,MOB,NEFT Transfer,,UNMATCHED
MOB_2018072400530671,8.20517E+11,24/07/2018,17:06:50,3132,5.20291E+14,4.10102E+15,15000,INR,MOB,NEFT Transfer,,UNMATCHED
MOB_2018072400530680,8.20517E+11,24/07/2018,17:07:30,3501,5.10101E+14,2512700997,44846,INR,MOB,NEFT Transfer,,UNMATCHED
MOB_2018072400530683,8.20517E+11,24/07/2018,17:07:51,450,5.20101E+14,5.36908E+15,9000,INR,MOB,NEFT Transfer,,UNMATCHED
MOB_2018072400530692,8.20517E+11,24/07/2018,17:08:21,1714,5.20101E+14,9.17903E+11,1000,INR,MOB,NEFT Transfer,,UNMATCHED
MOB_2018072400530703,8.20517E+11,24/07/2018,17:09:02,1215,5.20111E+14,5.60371E+14,1200,INR,MOB,Third Party Fund Transfers,,UNMATCHED
MOB_2018072400530705,8.20517E+11,24/07/2018,17:09:14,750,5.20451E+14,35405673944,3545,INR,MOB,NEFT Transfer,,UNMATCHED
MOB_2018072400530713,8.20517E+11,24/07/2018,17:10:08,1515,5.20101E+14,30426456592,4000,INR,MOB,NEFT Transfer,,UNMATCHED
MOB_2018072400530717,8.20517E+11,24/07/2018,17:10:26,3479,5.20101E+14,5.20101E+14,500,INR,MOB,Third Party Fund Transfers,,UNMATCHED
MOB_2018072400530743,8.20517E+11,24/07/2018,17:12:36,3091,5.20111E+14,9.1401E+14,600,INR,MOB,NEFT Transfer,,UNMATCHED
MOB_2018072400530766,8.20517E+11,24/07/2018,17:14:24,763,5.20441E+14,31322473096,10,INR,MOB,NEFT Transfer,,UNMATCHED
MOB_2018072400530775,8.20517E+11,24/07/2018,17:15:08,1390,5.20291E+14,1.72022E+14,1200,INR,MOB,NEFT Transfer,,UNMATCHED
MOB_2018072400530785,8.20517E+11,24/07/2018,17:15:36,1281,5.10101E+14,3666263053,10000,INR,MOB,NEFT Transfer,,UNMATCHED
MOB_2018072400530818,8.20517E+11,24/07/2018,17:19:01,221,5.20452E+14,8.7301E+12,69000,INR,MOB,NEFT Transfer,,UNMATCHED
MOB_2018072400530821,8.20517E+11,24/07/2018,17:19:06,604,5.20101E+14,8212444056,50000,INR,MOB,Third Party Fund Transfers,,UNMATCHED
MOB_2018072400530828,8.20517E+11,24/07/2018,17:19:40,604,5.20101E+14,8212444056,10000,INR,MOB,Third Party Fund Transfers,,UNMATCHED
MOB_2018072400530878,8.20517E+11,24/07/2018,17:23:14,432,5.20101E+14,4.69132E+15,589,INR,MOB,Credit Card Payment,,UNMATCHED
MOB_2018072400530884,8.20517E+11,24/07/2018,17:23:43,12,5.20101E+14,1.429E+14,6000,INR,MOB,NEFT Transfer,,UNMATCHED
MOB_2018072400530899,8.20517E+11,24/07/2018,17:25:13,1151,5.20141E+14,2.44819E+12,8000,INR,MOB,NEFT Transfer,,UNMATCHED
MOB_2018072400530903,8.20517E+11,24/07/2018,17:25:20,1246,5.10101E+14,2412132478,10000,INR,MOB,NEFT Transfer,,UNMATCHED
MOB_2018072400530921,8.20517E+11,24/07/2018,17:27:06,1998,5.10101E+14,2.51405E+11,63600,INR,MOB,NEFT Transfer,,UNMATCHED
MOB_2018072400530923,8.20517E+11,24/07/2018,17:27:09,1653,5.20101E+14,5.63002E+14,600,INR,MOB,NEFT Transfer,,UNMATCHED
MOB_2018072400530928,8.20517E+11,24/07/2018,17:27:43,639,5.20101E+14,5.30562E+15,2000,INR,MOB,NEFT Transfer,,UNMATCHED
MOB_2018072400530935,8.20517E+11,24/07/2018,17:28:10,1914,5.10101E+14,1.84702E+13,79364,INR,MOB,NEFT Transfer,,UNMATCHED
MOB_2018072400530943,8.20517E+11,24/07/2018,17:28:35,3252,5.20101E+14,5.20101E+14,2000,INR,MOB,Third Party Fund Transfers,,UNMATCHED
MOB_2018072400530944,8.20517E+11,24/07/2018,17:28:43,3091,5.20111E+14,9.1401E+14,600,INR,MOB,NEFT Transfer,,UNMATCHED
MOB_2018072400530946,8.20517E+11,24/07/2018,17:28:59,183,5.20101E+14,5.4035E+11,89,INR,MOB,NEFT Transfer,,UNMATCHED
MOB_2018072400530947,8.20517E+11,24/07/2018,17:29:07,257,5.20441E+14,31011317358,1000,INR,MOB,NEFT Transfer,,UNMATCHED
MOB_2018072400530949,8.20517E+11,24/07/2018,17:29:17,463,5.20101E+14,21401517709,20000,INR,MOB,NEFT Transfer,,UNMATCHED
MOB_2018072400530964,8.20517E+11,24/07/2018,17:30:47,1772,5.10101E+14,9.19465E+11,1000,INR,MOB,NEFT Transfer,,UNMATCHED
MOB_2018072400530996,8.20517E+11,24/07/2018,17:32:49,3083,5.10101E+14,3.104E+15,27468,INR,MOB,NEFT Transfer,,UNMATCHED
MOB_2018072400531011,8.20517E+11,24/07/2018,17:33:52,571,5.20101E+14,2.0101E+12,4800,INR,MOB,NEFT Transfer,,UNMATCHED
MOB_2018072400531037,8.20517E+11,24/07/2018,17:35:49,56,5.20441E+14,5.01E+13,500,INR,MOB,NEFT Transfer,,UNMATCHED
MOB_2018072400531040,8.20517E+11,24/07/2018,17:35:53,1772,5.10101E+14,6.08032E+15,1000,INR,MOB,Credit Card Payment,,UNMATCHED
MOB_2018072400531041,8.20517E+11,24/07/2018,17:35:57,1612,5.60331E+14,3.94711E+12,5000,INR,MOB,NEFT Transfer,,UNMATCHED
MOB_2018072400531046,8.20517E+11,24/07/2018,17:36:23,65,5.20101E+14,9.5825E+15,3000,INR,MOB,NEFT Transfer,,UNMATCHED
MOB_2018072400531047,8.20517E+11,24/07/2018,17:36:29,1772,5.10101E+14,6.08032E+15,2000,INR,MOB,Credit Card Payment,,UNMATCHED
MOB_2018072400531050,8.20517E+11,24/07/2018,17:36:35,1973,5.10101E+14,1.1214E+12,10000,INR,MOB,NEFT Transfer,,UNMATCHED
MOB_2018072400531055,8.20517E+11,24/07/2018,17:37:01,3356,5.60101E+14,9.1602E+14,50000,INR,MOB,NEFT Transfer,,UNMATCHED
MOB_2018072400531057,8.20517E+11,24/07/2018,17:37:07,1617,5.20291E+14,1.0191E+13,1200,INR,MOB,NEFT Transfer,,UNMATCHED
MOB_2018072400531058,8.20517E+11,24/07/2018,17:37:24,1019,5.20111E+14,5.20101E+14,200,INR,MOB,Third Party Fund Transfers,,UNMATCHED
MOB_2018072400531060,8.20517E+11,24/07/2018,17:37:31,1772,5.20291E+14,6.08032E+15,200,INR,MOB,Credit Card Payment,,UNMATCHED
MOB_2018072400531064,8.20517E+11,24/07/2018,17:38:19,1151,5.60151E+14,5.20111E+14,17000,INR,MOB,Own Account Transfer,,UNMATCHED
MOB_2018072400531065,8.20517E+11,24/07/2018,17:38:34,1244,5.60131E+14,5.20101E+14,10000,INR,MOB,Own Account Transfer,,UNMATCHED
MOB_2018072400531093,8.20517E+11,24/07/2018,17:40:12,1574,5.20101E+14,5.20111E+14,2500,INR,MOB,RD Account Transfer,,UNMATCHED
MOB_2018072400531109,8.20517E+11,24/07/2018,17:41:53,1102,5.20451E+14,9.1201E+14,40000,INR,MOB,NEFT Transfer,,UNMATCHED
MOB_2018072400531170,8.20517E+11,24/07/2018,17:48:29,251,5.20471E+14,8.2022E+12,16000,INR,MOB,NEFT Transfer,,UNMATCHED
MOB_2018072400531216,,24/07/2018,17:52:07,746,5.20101E+14,5.20101E+14,500,INR,MOB,Third Party Fund Transfers,,UNMATCHED
MOB_2018072400531222,8.20517E+11,24/07/2018,17:52:22,1671,5.10101E+14,35329341994,13500,INR,MOB,NEFT Transfer,,UNMATCHED
MOB_2018072400531254,8.20517E+11,24/07/2018,17:55:32,154,5.20101E+14,31405003032,1165,INR,MOB,NEFT Transfer,,UNMATCHED
MOB_2018072400531405,,24/07/2018,18:08:59,2097,5.20101E+14,5.10101E+14,10000,INR,MOB,Third Party Fund Transfers,,UNMATCHED
MOB_2018072400531447,,24/07/2018,18:13:14,3189,5.20441E+14,5.20451E+14,4000,INR,MOB,Third Party Fund Transfers,,UNMATCHED
MOB_2018072400531501,8.20518E+11,24/07/2018,18:17:46,1513,5.20101E+14,35089307893,100,INR,MOB,Credit Card Payment,,UNMATCHED
MOB_2018072400531692,8.20518E+11,24/07/2018,18:34:45,604,5.20101E+14,8212444056,50000,INR,MOB,Third Party Fund Transfers,,UNMATCHED
MOB_2018072400531831,8.20518E+11,24/07/2018,18:48:17,1313,5.20101E+14,5.17253E+15,100,INR,MOB,Credit Card Payment,,UNMATCHED
MOB_2018072400531862,8.20518E+11,24/07/2018,18:51:06,3081,5.20291E+14,5.60761E+14,500,INR,MOB,Third Party Fund Transfers,,UNMATCHED
MOB_2018072400531971,8.20519E+11,24/07/2018,19:00:07,3318,5.10101E+14,5.20101E+14,25000,INR,MOB,Third Party Fund Transfers,,UNMATCHED
MOB_2018072400532001,8.20519E+11,24/07/2018,19:05:37,174,5.20101E+14,4.69131E+15,200,INR,MOB,Credit Card Payment,,UNMATCHED
MOB_2018072400532007,8.20519E+11,24/07/2018,19:06:40,3351,5.20101E+14,32101640306,1500,INR,MOB,Third Party Fund Transfers,,UNMATCHED
MOB_2018072400532021,8.20519E+11,24/07/2018,19:07:44,604,5.20101E+14,8212444056,25000,INR,MOB,Third Party Fund Transfers,,UNMATCHED
MOB_2018072400532151,8.20519E+11,24/07/2018,19:20:58,772,5.10101E+14,4.262E+12,1,INR,MOB,Third Party Fund Transfers,,UNMATCHED
MOB_2018072400532403,8.20519E+11,24/07/2018,19:49:11,3351,5.20101E+14,68002821191,1500,INR,MOB,Third Party Fund Transfers,,UNMATCHED
MOB_2018072400532458,,24/07/2018,19:54:27,500,5.65182E+14,,1000,INR,MOB,Recurring Deposit Opening,,UNMATCHED
MOB_2018072400532608,8.2052E+11,24/07/2018,20:09:27,1860,5.20101E+14,5.08944E+15,1,INR,MOB,Credit Card Payment,,UNMATCHED
MOB_2018072400532618,8.2052E+11,24/07/2018,20:11:05,1860,5.20101E+14,6.5216E+15,500,INR,MOB,Credit Card Payment,,UNMATCHED
MOB_2018072400532687,8.2052E+11,24/07/2018,20:19:28,776,5.65121E+14,4.36389E+15,10000,INR,MOB,Credit Card Payment,,UNMATCHED
MOB_2018072400532942,8.2052E+11,24/07/2018,20:47:57,1175,5.20101E+14,5.60616E+14,13800,INR,MOB,Third Party Fund Transfers,,UNMATCHED
MOB_2018072400532973,8.2052E+11,24/07/2018,20:51:42,590,5.20101E+14,6120411524,1000,INR,MOB,Third Party Fund Transfers,,UNMATCHED
MOB_2018072400533405,8.20521E+11,24/07/2018,21:45:56,841,5.65181E+14,6.52852E+15,300,INR,MOB,Credit Card Payment,,UNMATCHED
MOB_2018072400533649,,24/07/2018,22:24:43,651,5.65181E+14,5.20111E+14,750,INR,MOB,Own Account Transfer,,UNMATCHED
MOB_2018072400533917,8.20523E+11,24/07/2018,23:40:43,1973,5.20132E+14,7.93119E+11,5000,INR,MOB,Third Party Fund Transfers,,UNMATCHED
MOB_2018072400533928,8.20523E+11,24/07/2018,23:44:08,2133,5.20101E+14,5.60761E+14,300,INR,MOB,Third Party Fund Transfers,,UNMATCHED
MOB_2018072400523969,820506947470,24-07-2018,06:07:45,3053,520291027603471,124913100000229,11,INR,MOB,Bharath Bill Payment,,UNMATCHED
MOB_2018072400524168,820507954144,24-07-2018,07:36:47,0075,520101016486281,302515844910,500,INR,MOB,Bharath Bill Payment,,UNMATCHED
MOB_2018072400524209,820507955930,24-07-2018,07:50:37,0620,520441024691402,849320110000448,291,INR,MOB,Bharath Bill Payment,,UNMATCHED
MOB_2018072400524260,820507957295,24-07-2018,07:59:56,0202,520101069873581,520101235418990,1010,INR,MOB,Bharath Bill Payment,,UNMATCHED
MOB_2018072400524272,820508957911,24-07-2018,08:03:34,0045,520471005446701,160001200354,474,INR,MOB,Bharath Bill Payment,,UNMATCHED
MOB_2018072400524278,820508958128,24-07-2018,08:05:18,1780,565181735211201,011669488006,60,INR,MOB,Bharath Bill Payment,,UNMATCHED
MOB_2018072400524286,820508958382,24-07-2018,08:07:04,0673,520101199893698,520111028832104,2305,INR,MOB,Bharath Bill Payment,,UNMATCHED
MOB_2018072400524364,820508960534,24-07-2018,08:20:29,0700,520101005803711,520111029111559,570,INR,MOB,Bharath Bill Payment,,UNMATCHED
MOB_2018072400524378,820508961030,24-07-2018,08:23:15,0865,520101080431913,347501502190,190,INR,MOB,Bharath Bill Payment,,UNMATCHED
MOB_2018072400524422,820508962386,24-07-2018,08:32:04,0700,520101005803711,32100957571,570,INR,MOB,Bharath Bill Payment,,UNMATCHED
MOB_2018072400524432,820508962745,24-07-2018,08:33:59,0188,520101204605160,520131017230078,880,INR,MOB,Bharath Bill Payment,,UNMATCHED
MOB_2018072400524448,820508963209,24-07-2018,08:36:12,0396,520111028887944,520111028855813,135,INR,MOB,Bharath Bill Payment,,UNMATCHED
MOB_2018072400524455,820508963319,24-07-2018,08:36:48,0188,520101204605160,520101257478333,880,INR,MOB,Bharath Bill Payment,,UNMATCHED
MOB_2018072400524530,820508965634,24-07-2018,08:51:10,0698,520101210882812,50309460795,7470,INR,MOB,Bharath Bill Payment,,UNMATCHED
MOB_2018072400524551,820508966136,24-07-2018,08:54:08,3251,510101001266704,520101039912971,3720,INR,MOB,Bharath Bill Payment,,UNMATCHED
MOB_2018072400524585,820508966869,24-07-2018,08:57:51,0188,520101204605160,50200014550120,880,INR,MOB,Bharath Bill Payment,,UNMATCHED
MOB_2018072400524594,820508967004,24-07-2018,08:58:34,0154,510331000092279,20331522502,530,INR,MOB,Bharath Bill Payment,,UNMATCHED
MOB_2018072400524602,820508967139,24-07-2018,08:59:30,3251,510101001266704,489110110002516,14580,INR,MOB,Bharath Bill Payment,,UNMATCHED
MOB_2018072400524611,820509967396,24-07-2018,09:00:49,0430,520101046934223,10212200004156,400,INR,MOB,Bharath Bill Payment,,UNMATCHED
MOB_2018072400524644,820509968326,24-07-2018,09:05:17,0772,510101000659427,60125533893,9,INR,MOB,Bharath Bill Payment,,UNMATCHED
MOB_2018072400524646,820509968407,24-07-2018,09:05:39,0195,565111000005483,000735001000024,106,INR,MOB,Bharath Bill Payment,,UNMATCHED
MOB_2018072400524691,820509969409,24-07-2018,09:10:06,1548,520101051325639,11234809366,30,INR,MOB,Bharath Bill Payment,,UNMATCHED
MOB_2018072400524743,820509970715,24-07-2018,09:15:59,0523,520101244256221,520101208449740,199,INR,MOB,Bharath Bill Payment,,UNMATCHED
MOB_2018072400524751,820509970923,24-07-2018,09:16:54,0439,520111028889246,15310100021728,2950,INR,MOB,Bharath Bill Payment,,UNMATCHED
MOB_2018072400524826,820509972776,24-07-2018,09:25:45,1515,510101003636002,10152210635,1613,INR,MOB,Bharath Bill Payment,,UNMATCHED
MOB_2018072400524904,820509975125,24-07-2018,09:35:41,0099,520101201079115,321111000698,169,INR,MOB,Bharath Bill Payment,,UNMATCHED
MOB_2018072400524991,820509977380,24-07-2018,09:46:07,0036,520101214802961,34511125020,20,INR,MOB,Bharath Bill Payment,,UNMATCHED
MOB_2018072400525011,820509977742,24-07-2018,09:47:36,1515,520441028505866,15960100003880,100,INR,MOB,Bharath Bill Payment,,UNMATCHED
MOB_2018072400525071,820509979329,24-07-2018,09:54:22,0541,520111028935892,619601016666,202,INR,MOB,Bharath Bill Payment,,UNMATCHED
MOB_2018072400525118,820510980712,24-07-2018,10:00:13,0568,520101206100244,32373776616,735,INR,MOB,Bharath Bill Payment,,UNMATCHED
MOB_2018072400525141,820510981461,24-07-2018,10:02:58,3458,510101002373105,520101221714614,53990,INR,MOB,Bharath Bill Payment,,UNMATCHED
MOB_2018072400525158,820510982067,24-07-2018,10:05:00,3458,510101002373105,520301001668001,390,INR,MOB,Bharath Bill Payment,,UNMATCHED
MOB_2018072400525172,820510982492,24-07-2018,10:06:17,3458,510101002373105,37593045442,750,INR,MOB,Bharath Bill Payment,,UNMATCHED
MOB_2018072400525173,820510982523,24-07-2018,10:06:24,1760,510101002586913,37593045442,56120,INR,MOB,Bharath Bill Payment,,UNMATCHED
MOB_2018072400525237,820510984231,24-07-2018,10:12:29,0715,520111028856925,33639985385,518,INR,MOB,Bharath Bill Payment,,UNMATCHED
MOB_2018072400525374,820510987436,24-07-2018,10:23:09,0063,520101227331938,2962500100239601,297,INR,MOB,Bharath Bill Payment,,UNMATCHED
MOB_2018072400525391,820510987869,24-07-2018,10:24:34,0063,520101227331938,257401000004325,1412,INR,MOB,Bharath Bill Payment,,UNMATCHED
MOB_2018072400525421,820510988636,24-07-2018,10:26:41,3519,520291021569671,105901503484,20,INR,MOB,Bharath Bill Payment,,UNMATCHED
MOB_2018072400525453,820510989202,24-07-2018,10:28:28,0337,520101019882951,520111123549201,260,INR,MOB,Bharath Bill Payment,,UNMATCHED
MOB_2018072400525456,820510989219,24-07-2018,10:28:30,1537,520101036958731,312110110007294,967,INR,MOB,Bharath Bill Payment,,UNMATCHED
MOB_2018072400525473,820510989842,24-07-2018,10:30:36,1711,520141000195770,914010028596070,5000,INR,MOB,Bharath Bill Payment,,UNMATCHED
MOB_2018072400525476,820510989894,24-07-2018,10:30:49,2111,520471003429559,31853065207,665,INR,MOB,Bharath Bill Payment,,UNMATCHED
MOB_2018072400525503,820510990615,24-07-2018,10:32:57,0181,520101235515139,5462339803,158,INR,MOB,Bharath Bill Payment,,UNMATCHED
MOB_2018072400525507,820510990656,24-07-2018,10:33:04,0677,520101205847206,50450686479,880,INR,MOB,Bharath Bill Payment,,UNMATCHED
MOB_2018072400525543,820510991446,24-07-2018,10:35:30,0677,520101205847206,520111029200373,880,INR,MOB,Bharath Bill Payment,,UNMATCHED
MOB_2018072400525620,820510993469,24-07-2018,10:41:41,3534,520101248764044,520451007033021,100,INR,MOB,Bharath Bill Payment,,UNMATCHED
MOB_2018072400525655,820510994469,24-07-2018,10:44:40,2942,510101006533885,192810100042012,300,INR,MOB,Bharath Bill Payment,,UNMATCHED
MOB_2018072400525732,820510996186,24-07-2018,10:50:03,3534,520101248764044,520291004061891,100,INR,MOB,Bharath Bill Payment,,UNMATCHED
MOB_2018072400525734,820510996203,24-07-2018,10:50:05,0645,520101214453134,565181000015128,300,INR,MOB,Bharath Bill Payment,,UNMATCHED
MOB_2018072400525754,820510996656,24-07-2018,10:51:32,1054,520101216805291,28740100004001,525,INR,MOB,Bharath Bill Payment,,UNMATCHED
MOB_2018072400525764,820510996796,24-07-2018,10:52:07,3534,520101248764044,34038644361,4293,INR,MOB,Bharath Bill Payment,,UNMATCHED
MOB_2018072400525827,820510998483,24-07-2018,10:57:29,2113,520101060099417,101504180000184,430,INR,MOB,Bharath Bill Payment,,UNMATCHED
MOB_2018072400525897,820511000704,24-07-2018,11:04:15,0746,520101001539023,50100236235528,658,INR,MOB,Bharath Bill Payment,,UNMATCHED
MOB_2018072400525913,820511001008,24-07-2018,11:05:09,3424,565181000088990,520291005884451,1091,INR,MOB,Bharath Bill Payment,,UNMATCHED
MOB_2018072400525946,820511001881,24-07-2018,11:07:40,2951,520101032569021,44447024384382,973,INR,MOB,Bharath Bill Payment,,UNMATCHED
MOB_2018072400525970,820511002615,24-07-2018,11:09:42,2951,520101032569021,73900001000020525,1978,INR,MOB,Bharath Bill Payment,,UNMATCHED
MOB_2018072400525971,820511002644,24-07-2018,11:09:47,1042,520101000795484,73900001000020525,1251,INR,MOB,Bharath Bill Payment,,UNMATCHED
MOB_2018072400525998,820511003533,24-07-2018,11:12:25,1885,520101052679493,949948350038,1326,INR,MOB,Bharath Bill Payment,,UNMATCHED
MOB_2018072400526031,820511004268,24-07-2018,11:14:39,0536,520101057805512,332100050300878,1710,INR,MOB,Bharath Bill Payment,,UNMATCHED
MOB_2018072400526061,820511004957,24-07-2018,11:16:41,0401,520101046735328,50200032147448,500,INR,MOB,Bharath Bill Payment,,UNMATCHED
MOB_2018072400526091,820511005734,24-07-2018,11:18:50,1064,510101004140868,366001000005456,283,INR,MOB,Bharath Bill Payment,,UNMATCHED
MOB_2018072400526148,820511007321,24-07-2018,11:23:11,3251,510101001266704,61167239342,14580,INR,MOB,Bharath Bill Payment,,UNMATCHED
MOB_2018072400526196,820511008664,24-07-2018,11:26:34,3251,510101001266704,917020040737161,3720,INR,MOB,Bharath Bill Payment,,UNMATCHED
MOB_2018072400526247,820511009969,24-07-2018,11:30:31,3029,520101253973521,1003671030089549,1219,INR,MOB,Bharath Bill Payment,,UNMATCHED
MOB_2018072400526252,820511010175,24-07-2018,11:31:08,0373,520401000169238,4196075800635201,5030,INR,MOB,Bharath Bill Payment,,UNMATCHED
MOB_2018072400526287,820511010921,24-07-2018,11:33:14,0373,520401000169238,8930000100002317,390,INR,MOB,Bharath Bill Payment,,UNMATCHED
MOB_2018072400526444,820511015205,24-07-2018,11:44:02,0380,520101263821494,6212576067,54,INR,MOB,Bharath Bill Payment,,UNMATCHED
MOB_2018072400526452,820511015390,24-07-2018,11:44:33,0622,520361001799570,1257283000000080,600,INR,MOB,Bharath Bill Payment,,UNMATCHED
MOB_2018072400526587,820511018897,24-07-2018,11:54:16,1042,520101000795484,3141837752,1251,INR,MOB,Bharath Bill Payment,,UNMATCHED
MOB_2018072400526589,820511018958,24-07-2018,11:54:27,1488,520291039174978,61198235363,100,INR,MOB,Bharath Bill Payment,,UNMATCHED
MOB_2018072400526701,820512021911,24-07-2018,12:01:20,1798,520331003327617,5369076453880472,199,INR,MOB,Bharath Bill Payment,,UNMATCHED
MOB_2018072400526774,820512023928,24-07-2018,12:06:46,2124,520111028811506,520101252669126,441,INR,MOB,Bharath Bill Payment,,UNMATCHED
MOB_2018072400526877,820512026752,24-07-2018,12:13:44,1426,520111028646130,50200014550120,756,INR,MOB,Bharath Bill Payment,,UNMATCHED
MOB_2018072400527010,820512029997,24-07-2018,12:21:56,0133,520111123540336,165001506869,370,INR,MOB,Bharath Bill Payment,,UNMATCHED
MOB_2018072400527076,820512031884,24-07-2018,12:26:53,0860,520101248370630,500902010007265,1298.6,INR,MOB,Bharath Bill Payment,,UNMATCHED
MOB_2018072400527115,820512032871,24-07-2018,12:29:27,0860,520101248370630,530401032516392,1407.14,INR,MOB,Bharath Bill Payment,,UNMATCHED
MOB_2018072400527170,820512034554,24-07-2018,12:33:32,0257,520471002618961,520111028969967,320,INR,MOB,Bharath Bill Payment,,UNMATCHED
MOB_2018072400527431,820512042374,24-07-2018,12:52:52,0474,520101077656594,500902010007265,4140,INR,MOB,Bharath Bill Payment,,UNMATCHED
MOB_2018072400533145,820521204952,24-07-2018,21:13:31,1349,520291039463783,20189578420,299,INR,MOB,Bharath Bill Payment,,UNMATCHED
MOB_2018072400533176,820521206017,24-07-2018,21:17:26,3289,510101002448385,35020100002501,200,INR,MOB,Bharath Bill Payment,,UNMATCHED
MOB_2018072400533183,820521206167,24-07-2018,21:18:04,1101,520291019051058,565181000050314,17,INR,MOB,Bharath Bill Payment,,UNMATCHED
MOB_2018072400533214,820521207215,24-07-2018,21:22:12,1101,520291019051058,520101057322860,49,INR,MOB,Bharath Bill Payment,,UNMATCHED
MOB_2018072400533216,820521207257,24-07-2018,21:22:19,3394,520291006585588,520101057322860,10,INR,MOB,Bharath Bill Payment,,UNMATCHED
MOB_2018072400533229,820521207637,24-07-2018,21:23:37,1279,520101232209347,50100212472930,50,INR,MOB,Bharath Bill Payment,,UNMATCHED
MOB_2018072400533294,820521209522,24-07-2018,21:30:53,0133,565181735207891,003200104386154,20,INR,MOB,Bharath Bill Payment,,UNMATCHED
MOB_2018072400533297,820521209605,24-07-2018,21:31:19,0264,520141001565628,50141869206,3931.41,INR,MOB,Bharath Bill Payment,,UNMATCHED
MOB_2018072400533315,820521210050,24-07-2018,21:33:14,0264,520141001565628,911010024572062,3931.41,INR,MOB,Bharath Bill Payment,,UNMATCHED
MOB_2018072400533324,820521210280,24-07-2018,21:34:08,1665,520101259633972,510510110003104,300,INR,MOB,Bharath Bill Payment,,UNMATCHED
MOB_2018072400533362,820521211383,24-07-2018,21:39:16,3283,560371000045865,20411512243,200,INR,MOB,Bharath Bill Payment,,UNMATCHED
MOB_2018072400533375,820521211914,24-07-2018,21:41:21,0323,520111029135741,20404512321,320,INR,MOB,Bharath Bill Payment,,UNMATCHED
MOB_2018072400533381,820521212132,24-07-2018,21:42:21,0264,520141001565628,643651050001,3931.41,INR,MOB,Bharath Bill Payment,,UNMATCHED
MOB_2018072400533383,820521212169,24-07-2018,21:42:27,0072,520331004468567,090602000031302,450,INR,MOB,Bharath Bill Payment,,UNMATCHED
MOB_2018072400533392,820521212371,24-07-2018,21:43:14,0064,520101227461246,912010040601327,535,INR,MOB,Bharath Bill Payment,,UNMATCHED
MOB_2018072400533401,820521212625,24-07-2018,21:44:21,1424,520331002534147,916010003389723,2450,INR,MOB,Bharath Bill Payment,,UNMATCHED
MOB_2018072400533409,820521213083,24-07-2018,21:46:18,1424,520331002534147,00091050308283,1294,INR,MOB,Bharath Bill Payment,,UNMATCHED
MOB_2018072400533468,820521214908,24-07-2018,21:54:20,2091,520101009238626,36916470164,260,INR,MOB,Bharath Bill Payment,,UNMATCHED
MOB_2018072400533498,820521215835,24-07-2018,21:58:26,0403,520441026984494,919890759317,500,INR,MOB,Bharath Bill Payment,,UNMATCHED
MOB_2018072400533515,820521216133,24-07-2018,21:59:50,0495,520101047219481,8412077627,730,INR,MOB,Bharath Bill Payment,,UNMATCHED
MOB_2018072400533522,820522216505,24-07-2018,22:01:36,0222,520101001622697,520111001701408,23,INR,MOB,Bharath Bill Payment,,UNMATCHED
MOB_2018072400533571,820522218271,24-07-2018,22:10:52,0222,520101001617631,520101050098957,30,INR,MOB,Bharath Bill Payment,,UNMATCHED
MOB_2018072400533594,820522218932,24-07-2018,22:14:35,1138,520111028676781,704302010008958,1343,INR,MOB,Bharath Bill Payment,,UNMATCHED
MOB_2018072400533597,820522219120,24-07-2018,22:15:31,1138,520111028676781,023301502972,240,INR,MOB,Bharath Bill Payment,,UNMATCHED
MOB_2018072400533615,820522219693,24-07-2018,22:18:12,1242,520101212326135,367601500856,4757,INR,MOB,Bharath Bill Payment,,UNMATCHED
MOB_2018072400533616,820522219706,24-07-2018,22:18:17,0222,520101001617631,367601500856,30,INR,MOB,Bharath Bill Payment,,UNMATCHED
MOB_2018072400533619,820522219818,24-07-2018,22:18:54,0495,520101047219481,9092500101905201,730,INR,MOB,Bharath Bill Payment,,UNMATCHED
MOB_2018072400533623,820522219870,24-07-2018,22:19:12,1378,565181735231681,1343104000031648,642,INR,MOB,Bharath Bill Payment,,UNMATCHED
MOB_2018072400533647,820522220849,24-07-2018,22:24:21,1926,520291014555153,715510100010758,240,INR,MOB,Bharath Bill Payment,,UNMATCHED
MOB_2018072400533769,820522225785,24-07-2018,22:51:47,0619,520101246423702,12860100232837,13941,INR,MOB,Bharath Bill Payment,,UNMATCHED
MOB_2018072400533806,820523227165,24-07-2018,23:01:25,1372,520101066564677,914010020672181,729,INR,MOB,Bharath Bill Payment,,UNMATCHED
MOB_2018072400533811,820523227274,24-07-2018,23:02:26,0401,520101046735328,910010009968135,500,INR,MOB,Bharath Bill Payment,,UNMATCHED
MOB_2018072400533859,820523229063,24-07-2018,23:17:02,1406,510101002190493,674102010002732,4030,INR,MOB,Bharath Bill Payment,,UNMATCHED
MOB_2018072400533896,820523230721,24-07-2018,23:30:57,0554,520111001749567,13060029864,445,INR,MOB,Bharath Bill Payment,,UNMATCHED
MOB_2018072400533939,820523232667,24-07-2018,23:50:26,0674,510101002088354,305702010044660,1140,INR,MOB,Bharath Bill Payment,,UNMATCHED
