fileColumn,dataType,datePattern
SrNo,str,
Trade Number,str,
Unamed 0,,
Unamed 1,,
Buy / Sell Trade,str,
Unamed 2,,
C. M. Number,str,
Unamed 3,,
C. M. Code,str,
Unamed 4,,
Own Order Number,str,
Unamed 5,,
Unamed 6,,
Currency Pair,str,
Own Dealer Number,str,
Traded Quantity,str,
Trade Price,str,
Trade Value,str,
Value Date,np.datetime64,%d-%b-%Y
Time Stamp,str,
