fileColumn,dataType,datePattern,position
TRAN_BRN_CODE,str,,1
TRAN_ACING_BRN_CODE,str,,2
TRAN_GLACC_CODE,np.int64,,3
TXN_DATE,str,,4
TXN_TIME,str,,5
TRAN_VALUE_DATE,str,,6
TRANBAT_CHANNEL_UNIQ_NUM,str,,7
TRANBAT_SOURCE_TABLE,str,,8
TRANBAT_SOURCE_KEY,str,,9
TRANBAT_NARR_DTL1,str,,10
TRANBAT_NARR_DTL2,str,,11
TRANBAT_NARR_DTL3,str,,12
TRAN_NARR_DTL1,str,,13
TRAN_NARR_DTL2,str,,14
TRAN_NARR_DTL3,str,,15
TXN_REF_NUM,str,,16
TRAN_AMOUNT,np.float64,,17
TRAN_DB_CR_FLG,str,,18
