fileColumn,dataType,datePattern,position
S.NO,str,,
FODealID,str,,
FMDealId,str,,
OriginalEventDate,np.datetime64,%d/%m/%Y,
BOCaptureDate,str,,
BODealFirstFather,str,,
CounterType,str,,
ClientCategory,str,,
CounterPartyShortName,str,,
CounterPartyName,str,,
TypeOfDeal,str,,
TypeOfInstr,str,,
DealType,str,,
CurrencyPair,str,,
Amount,np.float64,,
Rate,str,,
Swap_1st_leg_rate,str,,
Swap_2nd_leg_rate,str,,
Currency_1,str,,
Currency_1_Amount,np.float64,,
Currency_2,str,,
Currency_2_Amount,np.float64,,
Swap_1st_Leg_Value_Date,np.datetime64,%d/%m/%Y,
Swap_2nd_Leg_Value_Date,np.datetime64,%d/%m/%Y,
Folder,str,,
DealerName,str,,
ClearingMode_1st_Leg,str,,
ClearingMode_2nd_Leg,str,,
BrokerName,str,,
Brokerage,np.float64,,
InternalStatus,str,,
AmountUSDEquivalent,np.float64,,
AmountINREquivalent,np.float64,,
PendingUnderlying,str,,
PendingConfirmation,str,,
DMS ID,str,,
SourceDealId,str,,
SourcePlatform,str,,
Zone,str,,
Client Owner,str,,
