fileColumn,dataType,datePattern,Position,from,to
Account Number,str,,1,1,16
Currency Code,str,,2,17,19
Slip Amount,np.float64,,3,20,36
Print Adv Flag,str,,4,37,37
Particulars,str,,5,38,67
Cheque Number,np.int64,,6,68,83
Cheque Amount,np.float64,,7,84,100
Tran Code,str,,8,101,103
Bank Code,str,,9,104,112
Branch Code,str,,10,113,118
Sort Code,str,,11,119,124
Last Instr Flag,str,,12,125,125
Last Acc Flag,str,,13,126,126
Paying Acc Id,str,,14,127,142
Instr Date,np.datetime64,%Y%m%d,15,143,150
Drawee Name,str,,16,151,170
Text,str,,17,171,268
Business Date,np.datetime64,%Y%m%d,18,269,276
Presenting Bank Code,str,,19,277,285
Job ID,str,,20,286,287
Item Seq No,str,,21,288,297
Filler,str,,22,298,308
Location,str,,23,309,313
Free Text,str,,24,314,558
